16776, 10.2731
17656, 9.78172
18640, 9.28981
19736, 9.78968
20968, 10.4267
22368, 10.9486
23960, 11.6764
25808, 12.577
27960, 13.3238
30504, 11.4247
33552, 10.7556
37280, 9.27825
41936, 10.1972
47928, 11.5712
55920, 9.48761
67104, 10.6169
83880, 10.2311
111848, 10.2056
167768, 10.1779
176600, 10.1705
186408, 10.2206
197376, 10.1112
209712, 9.8774
223696, 9.93917
239672, 9.86751
258104, 9.90023
279616, 9.95376
305040, 9.97808
335544, 9.76
372824, 9.74436
419424, 9.89896
479344, 9.07582
493440, 9.75101
508400, 8.85845
524288, 9.74097
541200, 9.84412
559240, 9.89403
578520, 9.81815
599184, 9.8448
621376, 9.60581
645272, 9.77248
671088, 9.7802
699048, 9.67708
729440, 9.63638
762600, 9.6121
798912, 9.80392
838856, 9.8606
883008, 9.77525
932064, 9.63384
986888, 9.57126
1.04858e+06, 9.74758
1.11848e+06, 9.8827
1.19837e+06, 9.83034
1.29055e+06, 9.74226
1.3981e+06, 9.50342
1.5252e+06, 9.72599
1.67772e+06, 9.7185
1.86413e+06, 9.60636
2.09715e+06, 9.61304
2.39674e+06, 9.63337
2.7962e+06, 10.0737
3.35544e+06, 9.87854
4.1943e+06, 9.71284
5.5924e+06, 9.90011
8.38861e+06, 7.10007
1.67772e+07, 6.48181
