25952, 5.62675
27312, 5.72519
28832, 5.74028
30528, 5.94885
32440, 6.16466
34600, 6.4459
37072, 6.34279
39920, 6.29082
43248, 6.435
47184, 6.53179
51904, 6.79172
57664, 7.07187
64880, 7.14439
74144, 7.15468
86504, 7.17935
103808, 7.19664
129760, 7.31362
173008, 7.35602
259520, 7.45554
273176, 6.72011
288352, 6.83027
305320, 6.71864
324400, 6.93188
346024, 6.68729
370744, 6.30944
399264, 6.10132
432536, 6.19974
471856, 6.29467
519040, 6.66686
576712, 6.4922
648800, 6.52013
741488, 6.3881
763296, 6.32489
786432, 6.27231
811008, 6.32433
837168, 6.33508
865072, 6.38461
894904, 6.35646
926864, 6.21325
961192, 6.13047
998160, 6.06634
1.03809e+06, 6.21177
1.08134e+06, 6.15151
1.12835e+06, 6.41283
1.17965e+06, 6.18626
1.23582e+06, 6.17126
1.29761e+06, 6.40114
1.3659e+06, 6.6148
1.44179e+06, 6.612
1.5266e+06, 6.319
1.62202e+06, 6.1209
1.73014e+06, 6.10591
1.85373e+06, 6.03248
1.99632e+06, 6.11387
2.16269e+06, 6.09276
2.3593e+06, 6.19267
2.59522e+06, 6.44083
2.88358e+06, 6.80784
3.24403e+06, 6.12467
3.70746e+06, 5.99247
4.32538e+06, 6.11247
5.19045e+06, 6.09455
6.48806e+06, 6.22198
8.65075e+06, 5.80929
1.29761e+07, 6.01519
2.59523e+07, 5.9397
