25952, 5.39627
27312, 5.58185
28832, 6.12632
30528, 5.80242
32440, 6.21218
34600, 6.51846
37072, 6.20738
39920, 6.36277
43248, 6.49955
47184, 6.54629
51904, 6.8306
57664, 7.06494
64880, 7.11813
74144, 7.0716
86504, 7.12818
103808, 7.21315
129760, 7.34549
173008, 7.32511
259520, 7.07616
273176, 7.22487
288352, 7.26314
305320, 6.87968
324400, 7.01295
346024, 6.94709
370744, 6.60939
399264, 6.80235
432536, 6.21844
471856, 6.39566
519040, 6.55695
576712, 6.55412
648800, 6.54486
741488, 6.3725
763296, 6.2853
786432, 6.37622
811008, 6.29087
837168, 6.22592
865072, 6.3493
894904, 6.29494
926864, 6.14721
961192, 6.16983
998160, 6.01861
1.03809e+06, 6.05669
1.08134e+06, 6.13952
1.12835e+06, 6.24532
1.17965e+06, 6.1015
1.23582e+06, 6.24683
1.29761e+06, 6.38921
1.3659e+06, 6.73311
1.44179e+06, 6.52758
1.5266e+06, 6.33066
1.62202e+06, 6.12594
1.73014e+06, 6.09835
1.85373e+06, 6.11619
1.99632e+06, 6.11794
2.16269e+06, 6.08061
2.3593e+06, 6.18052
2.59522e+06, 6.43196
2.88358e+06, 6.28243
3.24403e+06, 6.15396
3.70746e+06, 6.10005
4.32538e+06, 6.12521
5.19045e+06, 6.10571
6.48806e+06, 6.24482
8.65075e+06, 6.07507
1.29761e+07, 6.06836
2.59523e+07, 5.94992
