25952, 5.5453
27312, 5.89988
28832, 5.63208
30528, 5.9017
32440, 6.33037
34600, 6.5459
37072, 6.22118
39920, 6.3015
43248, 6.43308
47184, 6.48533
51904, 6.83757
57664, 7.04637
64880, 6.99307
74144, 7.06823
86504, 7.19114
103808, 7.1672
129760, 7.34373
173008, 7.34431
259520, 7.34388
273176, 6.84883
288352, 6.76283
305320, 6.78874
324400, 6.9344
346024, 6.84715
370744, 6.37543
399264, 6.43844
432536, 6.21357
471856, 6.37652
519040, 6.65865
576712, 6.54531
648800, 6.48357
741488, 6.43163
763296, 6.30151
786432, 6.32508
811008, 6.32536
837168, 6.28442
865072, 6.30596
894904, 6.33843
926864, 6.15209
961192, 6.18931
998160, 6.01328
1.03809e+06, 6.1137
1.08134e+06, 6.28813
1.12835e+06, 6.33147
1.17965e+06, 6.10161
1.23582e+06, 6.16105
1.29761e+06, 6.23048
1.3659e+06, 6.59982
1.44179e+06, 6.59901
1.5266e+06, 6.27944
1.62202e+06, 6.06578
1.73014e+06, 6.11728
1.85373e+06, 6.05212
1.99632e+06, 6.1228
2.16269e+06, 6.07622
2.3593e+06, 6.18427
2.59522e+06, 6.76553
2.88358e+06, 6.61087
3.24403e+06, 6.16854
3.70746e+06, 6.0716
4.32538e+06, 6.16033
5.19045e+06, 6.03041
6.48806e+06, 6.16247
8.65075e+06, 6.11009
1.29761e+07, 6.09969
2.59523e+07, 5.86387
