25952, 6.49409
27312, 6.77969
28832, 6.95753
30528, 7.22813
32440, 7.77798
34600, 7.09089
37072, 8.3233
39920, 8.49271
43248, 8.61257
47184, 8.81779
51904, 8.98693
57664, 9.65734
64880, 10.5595
74144, 10.2814
86504, 10.8865
103808, 10.9016
129760, 11.0101
173008, 11.9092
259520, 11.6098
273176, 11.5251
288352, 11.885
305320, 11.9105
324400, 11.6571
346024, 11.7505
370744, 11.5895
399264, 11.8856
432536, 11.7568
471856, 12.281
519040, 12.0626
576712, 12.412
648800, 12.1442
741488, 12.1133
763296, 12.1899
786432, 12.1051
811008, 12.1861
837168, 12.0865
865072, 11.9758
894904, 12.3416
926864, 12.0044
961192, 12.1908
998160, 12.4876
1.03809e+06, 12.1773
1.08134e+06, 12.3429
1.12835e+06, 12.2281
1.17965e+06, 12.2822
1.23582e+06, 12.2287
1.29761e+06, 12.1995
1.3659e+06, 12.1701
1.44179e+06, 12.1689
1.5266e+06, 12.0694
1.62202e+06, 12.0993
1.73014e+06, 12.061
1.85373e+06, 12.056
1.99632e+06, 12.1047
2.16269e+06, 12.0865
2.3593e+06, 12.1067
2.59522e+06, 12.1131
2.88358e+06, 12.1227
3.24403e+06, 12.1404
3.70746e+06, 12.1364
4.32538e+06, 12.1546
5.19045e+06, 11.9857
6.48806e+06, 11.1164
8.65075e+06, 10.107
1.29761e+07, 8.08575
2.59523e+07, 6.74822
