25952, 5.76455
27312, 6.10426
28832, 6.05174
30528, 5.83709
32440, 6.31558
34600, 6.3641
37072, 6.40111
39920, 6.60818
43248, 6.62982
47184, 6.80792
51904, 7.1133
57664, 7.10498
64880, 7.56508
74144, 7.13523
86504, 7.12774
103808, 7.28464
129760, 7.38679
173008, 7.37137
259520, 7.51442
273176, 7.58085
288352, 7.64398
305320, 7.60103
324400, 7.65857
346024, 7.59591
370744, 7.53679
399264, 7.55366
432536, 7.28083
471856, 7.26226
519040, 7.02618
576712, 6.87178
648800, 6.64477
741488, 6.5026
763296, 6.42543
786432, 6.42967
811008, 6.4496
837168, 6.47837
865072, 6.47204
894904, 6.49821
926864, 6.46302
961192, 6.51868
998160, 6.49248
1.03809e+06, 6.56646
1.08134e+06, 6.60804
1.12835e+06, 6.68367
1.17965e+06, 6.70537
1.23582e+06, 6.79671
1.29761e+06, 6.88343
1.3659e+06, 6.94276
1.44179e+06, 6.94276
1.5266e+06, 7.01682
1.62202e+06, 6.9899
1.73014e+06, 6.96351
1.85373e+06, 6.60647
1.99632e+06, 6.88972
2.16269e+06, 6.05809
2.3593e+06, 6.66417
2.59522e+06, 5.98708
2.88358e+06, 6.34438
3.24403e+06, 6.13016
3.70746e+06, 6.34471
4.32538e+06, 6.33414
5.19045e+06, 6.32986
6.48806e+06, 6.5211
8.65075e+06, 5.99364
1.29761e+07, 6.24419
2.59523e+07, 5.88417
