%!PS-Adobe-3.0 EPSF-3.0
%%Title: amd-diablo04-cholesky-govpowersave-amdpowersave-overlapcps1-measured-512.eps
%%Creator: matplotlib version 3.3.3, http://matplotlib.org/
%%CreationDate: Sun Jan 17 19:26:38 2021
%%Orientation: portrait
%%BoundingBox: -234.0 36.0 846.0 756.0
%%EndComments
%%BeginProlog
/mpldict 8 dict def
mpldict begin
/m { moveto } bind def
/l { lineto } bind def
/r { rlineto } bind def
/c { curveto } bind def
/cl { closepath } bind def
/box {
      m
      1 index 0 r
      0 exch r
      neg 0 r
      cl
    } bind def
/clipbox {
      box
      clip
      newpath
    } bind def
%!PS-Adobe-3.0 Resource-Font
%%Title: DejaVu Sans
%%Copyright: Copyright (c) 2003 by Bitstream, Inc. All Rights Reserved. Copyright (c) 2006 by Tavmjong Bah. All Rights Reserved. DejaVu changes are in public domain 
%%Creator: Converted from TrueType to type 3 by PPR
25 dict begin
/_d{bind def}bind def
/_m{moveto}_d
/_l{lineto}_d
/_cl{closepath eofill}_d
/_c{curveto}_d
/_sc{7 -1 roll{setcachedevice}{pop pop pop pop pop pop}ifelse}_d
/_e{exec}_d
/FontName /DejaVuSans def
/PaintType 0 def
/FontMatrix[.001 0 0 .001 0 0]def
/FontBBox[-1021 -463 1793 1232]def
/FontType 3 def
/Encoding [ /space /percent /parenleft /parenright /plus /hyphen /zero /one /two /three /four /five /six /A /C /E /H /K /M /N /O /P /S /T /b /c /d /e /f /i /l /m /n /o /r /s /u /minus ] def
/FontInfo 10 dict dup begin
/FamilyName (DejaVu Sans) def
/FullName (DejaVu Sans) def
/Notice (Copyright (c) 2003 by Bitstream, Inc. All Rights Reserved. Copyright (c) 2006 by Tavmjong Bah. All Rights Reserved. DejaVu changes are in public domain ) def
/Weight (Book) def
/Version (Version 2.35) def
/ItalicAngle 0.0 def
/isFixedPitch false def
/UnderlinePosition -130 def
/UnderlineThickness 90 def
end readonly def
/CharStrings 39 dict dup begin
/.notdef 0 def
/space{318 0 0 0 0 0 _sc
}_d
/percent{{950 0 55 -13 895 742 _sc
727 321 _m
699 321 676 309 660 285 _c
644 261 636 227 636 184 _c
636 142 644 108 660 84 _c
676 60 699 48 727 48 _c
755 48 777 60 793 84 _c
809 108 817 142 817 184 _c
817 226 809 260 793 284 _c
777 308 755 321 727 321 _c
727 383 _m
778 383 819 365 849 329 _c
879 293 895 244 895 184 _c
895 123 879 75 849 40 _c
819 4 778 -13 727 -13 _c
}_e{675 -13 633 4 603 40 _c
573 75 558 123 558 184 _c
558 245 573 293 603 329 _c
633 365 675 383 727 383 _c
223 680 _m
195 680 173 667 157 643 _c
141 619 133 586 133 544 _c
133 500 141 467 157 443 _c
173 419 195 407 223 407 _c
251 407 274 419 290 443 _c
306 467 314 500 314 544 _c
314 586 305 619 289 643 _c
273 667 251 680 223 680 _c
664 742 _m
742 742 _l
286 -13 _l
}_e{208 -13 _l
664 742 _l
223 742 _m
274 742 315 724 346 688 _c
376 652 392 604 392 544 _c
392 482 376 434 346 398 _c
316 362 275 345 223 345 _c
171 345 130 362 100 398 _c
70 434 55 482 55 544 _c
55 604 70 652 100 688 _c
130 724 171 742 223 742 _c
_cl}_e}_d
/parenleft{390 0 86 -131 310 759 _sc
310 759 _m
266 683 234 609 213 536 _c
191 463 181 389 181 314 _c
181 238 191 164 213 91 _c
234 17 266 -56 310 -131 _c
232 -131 _l
183 -54 146 20 122 94 _c
98 168 86 241 86 314 _c
86 386 98 459 122 533 _c
146 607 182 682 232 759 _c
310 759 _l
_cl}_d
/parenright{390 0 80 -131 304 759 _sc
80 759 _m
158 759 _l
206 682 243 607 267 533 _c
291 459 304 386 304 314 _c
304 241 291 168 267 94 _c
243 20 206 -54 158 -131 _c
80 -131 _l
123 -56 155 17 177 91 _c
198 164 209 238 209 314 _c
209 389 198 463 177 536 _c
155 609 123 683 80 759 _c
_cl}_d
/plus{838 0 106 0 732 627 _sc
460 627 _m
460 355 _l
732 355 _l
732 272 _l
460 272 _l
460 0 _l
378 0 _l
378 272 _l
106 272 _l
106 355 _l
378 355 _l
378 627 _l
460 627 _l
_cl}_d
/hyphen{361 0 49 234 312 314 _sc
49 314 _m
312 314 _l
312 234 _l
49 234 _l
49 314 _l
_cl}_d
/zero{636 0 66 -13 570 742 _sc
318 664 _m
267 664 229 639 203 589 _c
177 539 165 464 165 364 _c
165 264 177 189 203 139 _c
229 89 267 64 318 64 _c
369 64 407 89 433 139 _c
458 189 471 264 471 364 _c
471 464 458 539 433 589 _c
407 639 369 664 318 664 _c
318 742 _m
399 742 461 709 505 645 _c
548 580 570 486 570 364 _c
570 241 548 147 505 83 _c
461 19 399 -13 318 -13 _c
236 -13 173 19 130 83 _c
87 147 66 241 66 364 _c
66 486 87 580 130 645 _c
173 709 236 742 318 742 _c
_cl}_d
/one{636 0 110 0 544 729 _sc
124 83 _m
285 83 _l
285 639 _l
110 604 _l
110 694 _l
284 729 _l
383 729 _l
383 83 _l
544 83 _l
544 0 _l
124 0 _l
124 83 _l
_cl}_d
/two{{636 0 73 0 536 742 _sc
192 83 _m
536 83 _l
536 0 _l
73 0 _l
73 83 _l
110 121 161 173 226 239 _c
290 304 331 346 348 365 _c
380 400 402 430 414 455 _c
426 479 433 504 433 528 _c
433 566 419 598 392 622 _c
365 646 330 659 286 659 _c
255 659 222 653 188 643 _c
154 632 117 616 78 594 _c
78 694 _l
118 710 155 722 189 730 _c
223 738 255 742 284 742 _c
}_e{359 742 419 723 464 685 _c
509 647 532 597 532 534 _c
532 504 526 475 515 449 _c
504 422 484 390 454 354 _c
446 344 420 317 376 272 _c
332 227 271 164 192 83 _c
_cl}_e}_d
/three{{636 0 76 -13 556 742 _sc
406 393 _m
453 383 490 362 516 330 _c
542 298 556 258 556 212 _c
556 140 531 84 482 45 _c
432 6 362 -13 271 -13 _c
240 -13 208 -10 176 -4 _c
144 1 110 10 76 22 _c
76 117 _l
103 101 133 89 166 81 _c
198 73 232 69 268 69 _c
330 69 377 81 409 105 _c
441 129 458 165 458 212 _c
458 254 443 288 413 312 _c
383 336 341 349 287 349 _c
}_e{202 349 _l
202 430 _l
291 430 _l
339 430 376 439 402 459 _c
428 478 441 506 441 543 _c
441 580 427 609 401 629 _c
374 649 336 659 287 659 _c
260 659 231 656 200 650 _c
169 644 135 635 98 623 _c
98 711 _l
135 721 170 729 203 734 _c
235 739 266 742 296 742 _c
370 742 429 725 473 691 _c
517 657 539 611 539 553 _c
539 513 527 479 504 451 _c
481 423 448 403 406 393 _c
_cl}_e}_d
/four{636 0 49 0 580 729 _sc
378 643 _m
129 254 _l
378 254 _l
378 643 _l
352 729 _m
476 729 _l
476 254 _l
580 254 _l
580 172 _l
476 172 _l
476 0 _l
378 0 _l
378 172 _l
49 172 _l
49 267 _l
352 729 _l
_cl}_d
/five{{636 0 77 -13 549 729 _sc
108 729 _m
495 729 _l
495 646 _l
198 646 _l
198 467 _l
212 472 227 476 241 478 _c
255 480 270 482 284 482 _c
365 482 429 459 477 415 _c
525 370 549 310 549 234 _c
549 155 524 94 475 51 _c
426 8 357 -13 269 -13 _c
238 -13 207 -10 175 -6 _c
143 -1 111 6 77 17 _c
77 116 _l
106 100 136 88 168 80 _c
199 72 232 69 267 69 _c
}_e{323 69 368 83 401 113 _c
433 143 450 183 450 234 _c
450 284 433 324 401 354 _c
368 384 323 399 267 399 _c
241 399 214 396 188 390 _c
162 384 135 375 108 363 _c
108 729 _l
_cl}_e}_d
/six{{636 0 70 -13 573 742 _sc
330 404 _m
286 404 251 388 225 358 _c
199 328 186 286 186 234 _c
186 181 199 139 225 109 _c
251 79 286 64 330 64 _c
374 64 409 79 435 109 _c
461 139 474 181 474 234 _c
474 286 461 328 435 358 _c
409 388 374 404 330 404 _c
526 713 _m
526 623 _l
501 635 476 644 451 650 _c
425 656 400 659 376 659 _c
310 659 260 637 226 593 _c
}_e{192 549 172 482 168 394 _c
187 422 211 444 240 459 _c
269 474 301 482 336 482 _c
409 482 467 459 509 415 _c
551 371 573 310 573 234 _c
573 159 550 99 506 54 _c
462 9 403 -13 330 -13 _c
246 -13 181 19 137 83 _c
92 147 70 241 70 364 _c
70 479 97 571 152 639 _c
206 707 280 742 372 742 _c
396 742 421 739 447 735 _c
472 730 498 723 526 713 _c
_cl}_e}_d
/A{684 0 8 0 676 729 _sc
342 632 _m
208 269 _l
476 269 _l
342 632 _l
286 729 _m
398 729 _l
676 0 _l
573 0 _l
507 187 _l
178 187 _l
112 0 _l
8 0 _l
286 729 _l
_cl}_d
/C{{698 0 56 -13 644 742 _sc
644 673 _m
644 569 _l
610 599 575 622 537 638 _c
499 653 460 661 418 661 _c
334 661 270 635 226 584 _c
182 533 160 460 160 364 _c
160 268 182 194 226 143 _c
270 92 334 67 418 67 _c
460 67 499 74 537 90 _c
575 105 610 128 644 159 _c
644 56 _l
609 32 572 15 534 4 _c
496 -7 455 -13 412 -13 _c
302 -13 215 20 151 87 _c
}_e{87 154 56 246 56 364 _c
56 481 87 573 151 641 _c
215 708 302 742 412 742 _c
456 742 497 736 535 725 _c
573 713 610 696 644 673 _c
_cl}_e}_d
/E{632 0 98 0 568 729 _sc
98 729 _m
559 729 _l
559 646 _l
197 646 _l
197 430 _l
544 430 _l
544 347 _l
197 347 _l
197 83 _l
568 83 _l
568 0 _l
98 0 _l
98 729 _l
_cl}_d
/H{752 0 98 0 654 729 _sc
98 729 _m
197 729 _l
197 430 _l
555 430 _l
555 729 _l
654 729 _l
654 0 _l
555 0 _l
555 347 _l
197 347 _l
197 0 _l
98 0 _l
98 729 _l
_cl}_d
/K{656 0 98 0 677 729 _sc
98 729 _m
197 729 _l
197 421 _l
524 729 _l
651 729 _l
289 389 _l
677 0 _l
547 0 _l
197 351 _l
197 0 _l
98 0 _l
98 729 _l
_cl}_d
/M{863 0 98 0 765 729 _sc
98 729 _m
245 729 _l
431 233 _l
618 729 _l
765 729 _l
765 0 _l
669 0 _l
669 640 _l
481 140 _l
382 140 _l
194 640 _l
194 0 _l
98 0 _l
98 729 _l
_cl}_d
/N{748 0 98 0 650 729 _sc
98 729 _m
231 729 _l
554 119 _l
554 729 _l
650 729 _l
650 0 _l
517 0 _l
194 610 _l
194 0 _l
98 0 _l
98 729 _l
_cl}_d
/O{787 0 56 -13 731 742 _sc
394 662 _m
322 662 265 635 223 582 _c
181 528 160 456 160 364 _c
160 272 181 199 223 146 _c
265 92 322 66 394 66 _c
465 66 522 92 564 146 _c
606 199 627 272 627 364 _c
627 456 606 528 564 582 _c
522 635 465 662 394 662 _c
394 742 _m
496 742 577 707 639 639 _c
700 571 731 479 731 364 _c
731 248 700 157 639 89 _c
577 21 496 -13 394 -13 _c
291 -13 209 21 148 89 _c
86 157 56 248 56 364 _c
56 479 86 571 148 639 _c
209 707 291 742 394 742 _c
_cl}_d
/P{603 0 98 0 569 729 _sc
197 648 _m
197 374 _l
321 374 _l
367 374 402 385 427 409 _c
452 433 465 467 465 511 _c
465 555 452 588 427 612 _c
402 636 367 648 321 648 _c
197 648 _l
98 729 _m
321 729 _l
402 729 464 710 506 673 _c
548 636 569 582 569 511 _c
569 439 548 384 506 348 _c
464 311 402 293 321 293 _c
197 293 _l
197 0 _l
98 0 _l
98 729 _l
_cl}_d
/S{{635 0 66 -13 579 742 _sc
535 705 _m
535 609 _l
497 627 462 640 429 649 _c
395 657 363 662 333 662 _c
279 662 237 651 208 631 _c
179 610 165 580 165 542 _c
165 510 174 485 194 469 _c
213 452 250 439 304 429 _c
364 417 _l
437 403 491 378 526 343 _c
561 307 579 260 579 201 _c
579 130 555 77 508 41 _c
460 5 391 -13 300 -13 _c
265 -13 228 -9 189 -2 _c
}_e{150 5 110 16 69 32 _c
69 134 _l
109 111 148 94 186 83 _c
224 71 262 66 300 66 _c
356 66 399 77 430 99 _c
460 121 476 152 476 194 _c
476 230 465 258 443 278 _c
421 298 385 313 335 323 _c
275 335 _l
201 349 148 372 115 404 _c
82 435 66 478 66 534 _c
66 598 88 649 134 686 _c
179 723 242 742 322 742 _c
356 742 390 739 426 733 _c
461 727 497 717 535 705 _c
}_e{_cl}_e}_d
/T{611 0 -2 0 614 729 _sc
-2 729 _m
614 729 _l
614 646 _l
355 646 _l
355 0 _l
256 0 _l
256 646 _l
-2 646 _l
-2 729 _l
_cl}_d
/b{{635 0 91 -13 580 760 _sc
487 273 _m
487 339 473 390 446 428 _c
418 466 381 485 334 485 _c
286 485 249 466 222 428 _c
194 390 181 339 181 273 _c
181 207 194 155 222 117 _c
249 79 286 61 334 61 _c
381 61 418 79 446 117 _c
473 155 487 207 487 273 _c
181 464 _m
199 496 223 520 252 536 _c
281 552 316 560 356 560 _c
422 560 476 533 518 481 _c
559 428 580 359 580 273 _c
}_e{580 187 559 117 518 65 _c
476 13 422 -13 356 -13 _c
316 -13 281 -5 252 10 _c
223 25 199 49 181 82 _c
181 0 _l
91 0 _l
91 760 _l
181 760 _l
181 464 _l
_cl}_e}_d
/c{{550 0 55 -13 488 560 _sc
488 526 _m
488 442 _l
462 456 437 466 411 473 _c
385 480 360 484 334 484 _c
276 484 230 465 198 428 _c
166 391 150 339 150 273 _c
150 206 166 154 198 117 _c
230 80 276 62 334 62 _c
360 62 385 65 411 72 _c
437 79 462 90 488 104 _c
488 21 _l
462 9 436 0 410 -5 _c
383 -10 354 -13 324 -13 _c
242 -13 176 12 128 64 _c
}_e{79 115 55 185 55 273 _c
55 362 79 432 128 483 _c
177 534 244 560 330 560 _c
358 560 385 557 411 551 _c
437 545 463 537 488 526 _c
_cl}_e}_d
/d{{635 0 55 -13 544 760 _sc
454 464 _m
454 760 _l
544 760 _l
544 0 _l
454 0 _l
454 82 _l
435 49 411 25 382 10 _c
353 -5 319 -13 279 -13 _c
213 -13 159 13 117 65 _c
75 117 55 187 55 273 _c
55 359 75 428 117 481 _c
159 533 213 560 279 560 _c
319 560 353 552 382 536 _c
411 520 435 496 454 464 _c
148 273 _m
148 207 161 155 188 117 _c
215 79 253 61 301 61 _c
}_e{348 61 385 79 413 117 _c
440 155 454 207 454 273 _c
454 339 440 390 413 428 _c
385 466 348 485 301 485 _c
253 485 215 466 188 428 _c
161 390 148 339 148 273 _c
_cl}_e}_d
/e{{615 0 55 -13 562 560 _sc
562 296 _m
562 252 _l
149 252 _l
153 190 171 142 205 110 _c
238 78 284 62 344 62 _c
378 62 412 66 444 74 _c
476 82 509 95 541 113 _c
541 28 _l
509 14 476 3 442 -3 _c
408 -9 373 -13 339 -13 _c
251 -13 182 12 131 62 _c
80 112 55 181 55 268 _c
55 357 79 428 127 481 _c
175 533 241 560 323 560 _c
397 560 455 536 498 489 _c
}_e{540 441 562 377 562 296 _c
472 322 _m
471 371 457 410 431 440 _c
404 469 368 484 324 484 _c
274 484 234 469 204 441 _c
174 413 156 373 152 322 _c
472 322 _l
_cl}_e}_d
/f{352 0 23 0 371 760 _sc
371 760 _m
371 685 _l
285 685 _l
253 685 230 678 218 665 _c
205 652 199 629 199 595 _c
199 547 _l
347 547 _l
347 477 _l
199 477 _l
199 0 _l
109 0 _l
109 477 _l
23 477 _l
23 547 _l
109 547 _l
109 585 _l
109 645 123 690 151 718 _c
179 746 224 760 286 760 _c
371 760 _l
_cl}_d
/i{278 0 94 0 184 760 _sc
94 547 _m
184 547 _l
184 0 _l
94 0 _l
94 547 _l
94 760 _m
184 760 _l
184 646 _l
94 646 _l
94 760 _l
_cl}_d
/l{278 0 94 0 184 760 _sc
94 760 _m
184 760 _l
184 0 _l
94 0 _l
94 760 _l
_cl}_d
/m{{974 0 91 0 889 560 _sc
520 442 _m
542 482 569 511 600 531 _c
631 550 668 560 711 560 _c
767 560 811 540 842 500 _c
873 460 889 403 889 330 _c
889 0 _l
799 0 _l
799 327 _l
799 379 789 418 771 444 _c
752 469 724 482 686 482 _c
639 482 602 466 575 435 _c
548 404 535 362 535 309 _c
535 0 _l
445 0 _l
445 327 _l
445 379 435 418 417 444 _c
398 469 369 482 331 482 _c
}_e{285 482 248 466 221 435 _c
194 404 181 362 181 309 _c
181 0 _l
91 0 _l
91 547 _l
181 547 _l
181 462 _l
201 495 226 520 255 536 _c
283 552 317 560 357 560 _c
397 560 430 550 458 530 _c
486 510 506 480 520 442 _c
_cl}_e}_d
/n{634 0 91 0 549 560 _sc
549 330 _m
549 0 _l
459 0 _l
459 327 _l
459 379 448 417 428 443 _c
408 469 378 482 338 482 _c
289 482 251 466 223 435 _c
195 404 181 362 181 309 _c
181 0 _l
91 0 _l
91 547 _l
181 547 _l
181 462 _l
202 494 227 519 257 535 _c
286 551 320 560 358 560 _c
420 560 468 540 500 501 _c
532 462 549 405 549 330 _c
_cl}_d
/o{612 0 55 -13 557 560 _sc
306 484 _m
258 484 220 465 192 427 _c
164 389 150 338 150 273 _c
150 207 163 156 191 118 _c
219 80 257 62 306 62 _c
354 62 392 80 420 118 _c
448 156 462 207 462 273 _c
462 337 448 389 420 427 _c
392 465 354 484 306 484 _c
306 560 _m
384 560 445 534 490 484 _c
534 433 557 363 557 273 _c
557 183 534 113 490 63 _c
445 12 384 -13 306 -13 _c
227 -13 165 12 121 63 _c
77 113 55 183 55 273 _c
55 363 77 433 121 484 _c
165 534 227 560 306 560 _c
_cl}_d
/r{411 0 91 0 411 560 _sc
411 463 _m
401 469 390 473 378 476 _c
366 478 353 480 339 480 _c
288 480 249 463 222 430 _c
194 397 181 350 181 288 _c
181 0 _l
91 0 _l
91 547 _l
181 547 _l
181 462 _l
199 495 224 520 254 536 _c
284 552 321 560 365 560 _c
371 560 378 559 386 559 _c
393 558 401 557 411 555 _c
411 463 _l
_cl}_d
/s{{521 0 54 -13 472 560 _sc
443 531 _m
443 446 _l
417 458 391 468 364 475 _c
336 481 308 485 279 485 _c
234 485 200 478 178 464 _c
156 450 145 430 145 403 _c
145 382 153 366 169 354 _c
185 342 217 330 265 320 _c
296 313 _l
360 299 405 279 432 255 _c
458 230 472 195 472 151 _c
472 100 452 60 412 31 _c
372 1 316 -13 246 -13 _c
216 -13 186 -10 154 -5 _c
}_e{122 0 89 8 54 20 _c
54 113 _l
87 95 120 82 152 74 _c
184 65 216 61 248 61 _c
290 61 323 68 346 82 _c
368 96 380 117 380 144 _c
380 168 371 187 355 200 _c
339 213 303 226 247 238 _c
216 245 _l
160 257 119 275 95 299 _c
70 323 58 356 58 399 _c
58 450 76 490 112 518 _c
148 546 200 560 268 560 _c
301 560 332 557 362 552 _c
391 547 418 540 443 531 _c
}_e{_cl}_e}_d
/u{634 0 85 -13 543 560 _sc
85 216 _m
85 547 _l
175 547 _l
175 219 _l
175 167 185 129 205 103 _c
225 77 255 64 296 64 _c
344 64 383 79 411 110 _c
439 141 453 183 453 237 _c
453 547 _l
543 547 _l
543 0 _l
453 0 _l
453 84 _l
431 50 405 26 377 10 _c
348 -5 315 -13 277 -13 _c
214 -13 166 6 134 45 _c
101 83 85 140 85 216 _c
311 560 _m
311 560 _l
_cl}_d
/minus{838 0 106 272 732 355 _sc
106 355 _m
732 355 _l
732 272 _l
106 272 _l
106 355 _l
_cl}_d
end readonly def

/BuildGlyph
 {exch begin
 CharStrings exch
 2 copy known not{pop /.notdef}if
 true 3 1 roll get exec
 end}_d

/BuildChar {
 1 index /Encoding get exch get
 1 index /BuildGlyph get exec
}_d

FontName currentdict end definefont pop
end
%%EndProlog
mpldict begin
-234 36 translate
1080 720 0 0 clipbox
gsave
0 0 m
1080 0 l
1080 720 l
0 720 l
cl
1.000 setgray
fill
grestore
gsave
135 79.2 m
972 79.2 l
972 633.6 l
135 633.6 l
cl
1.000 setgray
fill
grestore
0.800 setlinewidth
1 setlinejoin
0 setlinecap
[] 0 setdash
0.000 setgray
gsave
/o {
gsave
newpath
translate
0.8 setlinewidth
1 setlinejoin
0 setlinecap
0 0 m
0 -3.5 l

gsave
0.000 setgray
fill
grestore
stroke
grestore
} bind def
160.968 79.2 o
grestore
/DejaVuSans findfont
12.000 scalefont
setfont
gsave
157.147220 63.075000 translate
0.000000 rotate
0.000000 0 m /zero glyphshow
grestore
gsave
/o {
gsave
newpath
translate
0.8 setlinewidth
1 setlinejoin
0 setlinecap
0 0 m
0 -3.5 l

gsave
0.000 setgray
fill
grestore
stroke
grestore
} bind def
281.747 79.2 o
grestore
gsave
274.106128 63.075000 translate
0.000000 rotate
0.000000 0 m /one glyphshow
7.634766 0 m /zero glyphshow
grestore
gsave
/o {
gsave
newpath
translate
0.8 setlinewidth
1 setlinejoin
0 setlinecap
0 0 m
0 -3.5 l

gsave
0.000 setgray
fill
grestore
stroke
grestore
} bind def
402.526 79.2 o
grestore
gsave
394.885349 63.075000 translate
0.000000 rotate
0.000000 0 m /two glyphshow
7.634766 0 m /zero glyphshow
grestore
gsave
/o {
gsave
newpath
translate
0.8 setlinewidth
1 setlinejoin
0 setlinecap
0 0 m
0 -3.5 l

gsave
0.000 setgray
fill
grestore
stroke
grestore
} bind def
523.305 79.2 o
grestore
gsave
515.664570 63.075000 translate
0.000000 rotate
0.000000 0 m /three glyphshow
7.634766 0 m /zero glyphshow
grestore
gsave
/o {
gsave
newpath
translate
0.8 setlinewidth
1 setlinejoin
0 setlinecap
0 0 m
0 -3.5 l

gsave
0.000 setgray
fill
grestore
stroke
grestore
} bind def
644.084 79.2 o
grestore
gsave
636.443791 63.075000 translate
0.000000 rotate
0.000000 0 m /four glyphshow
7.634766 0 m /zero glyphshow
grestore
gsave
/o {
gsave
newpath
translate
0.8 setlinewidth
1 setlinejoin
0 setlinecap
0 0 m
0 -3.5 l

gsave
0.000 setgray
fill
grestore
stroke
grestore
} bind def
764.864 79.2 o
grestore
gsave
757.223011 63.075000 translate
0.000000 rotate
0.000000 0 m /five glyphshow
7.634766 0 m /zero glyphshow
grestore
gsave
/o {
gsave
newpath
translate
0.8 setlinewidth
1 setlinejoin
0 setlinecap
0 0 m
0 -3.5 l

gsave
0.000 setgray
fill
grestore
stroke
grestore
} bind def
885.643 79.2 o
grestore
gsave
878.002232 63.075000 translate
0.000000 rotate
0.000000 0 m /six glyphshow
7.634766 0 m /zero glyphshow
grestore
gsave
503.656250 47.450000 translate
0.000000 rotate
0.000000 0 m /N glyphshow
8.976562 0 m /u glyphshow
16.582031 0 m /m glyphshow
28.271484 0 m /b glyphshow
35.888672 0 m /e glyphshow
43.271484 0 m /r glyphshow
48.205078 0 m /space glyphshow
52.019531 0 m /o glyphshow
59.361328 0 m /f glyphshow
63.585938 0 m /space glyphshow
67.400391 0 m /c glyphshow
73.998047 0 m /o glyphshow
81.339844 0 m /r glyphshow
86.023438 0 m /e glyphshow
93.406250 0 m /s glyphshow
grestore
gsave
/o {
gsave
newpath
translate
0.8 setlinewidth
1 setlinejoin
0 setlinecap
-0 0 m
-3.5 0 l

gsave
0.000 setgray
fill
grestore
stroke
grestore
} bind def
135 134.64 o
grestore
gsave
102.656250 130.077500 translate
0.000000 rotate
0.000000 0 m /minus glyphshow
10.054688 0 m /four glyphshow
17.689453 0 m /zero glyphshow
grestore
gsave
/o {
gsave
newpath
translate
0.8 setlinewidth
1 setlinejoin
0 setlinecap
-0 0 m
-3.5 0 l

gsave
0.000 setgray
fill
grestore
stroke
grestore
} bind def
135 245.52 o
grestore
gsave
102.656250 240.957500 translate
0.000000 rotate
0.000000 0 m /minus glyphshow
10.054688 0 m /two glyphshow
17.689453 0 m /zero glyphshow
grestore
gsave
/o {
gsave
newpath
translate
0.8 setlinewidth
1 setlinejoin
0 setlinecap
-0 0 m
-3.5 0 l

gsave
0.000 setgray
fill
grestore
stroke
grestore
} bind def
135 356.4 o
grestore
gsave
120.359375 351.837500 translate
0.000000 rotate
0.000000 0 m /zero glyphshow
grestore
gsave
/o {
gsave
newpath
translate
0.8 setlinewidth
1 setlinejoin
0 setlinecap
-0 0 m
-3.5 0 l

gsave
0.000 setgray
fill
grestore
stroke
grestore
} bind def
135 467.28 o
grestore
gsave
112.718750 462.717500 translate
0.000000 rotate
0.000000 0 m /two glyphshow
7.634766 0 m /zero glyphshow
grestore
gsave
/o {
gsave
newpath
translate
0.8 setlinewidth
1 setlinejoin
0 setlinecap
-0 0 m
-3.5 0 l

gsave
0.000 setgray
fill
grestore
stroke
grestore
} bind def
135 578.16 o
grestore
gsave
112.718750 573.597500 translate
0.000000 rotate
0.000000 0 m /four glyphshow
7.634766 0 m /zero glyphshow
grestore
gsave
96.156250 300.915625 translate
90.000000 rotate
0.000000 0 m /P glyphshow
6.986328 0 m /r glyphshow
11.669922 0 m /e glyphshow
19.052734 0 m /c glyphshow
25.650391 0 m /i glyphshow
28.984375 0 m /s glyphshow
35.236328 0 m /i glyphshow
38.570312 0 m /o glyphshow
45.912109 0 m /n glyphshow
53.517578 0 m /space glyphshow
57.332031 0 m /e glyphshow
64.714844 0 m /r glyphshow
69.398438 0 m /r glyphshow
74.082031 0 m /o glyphshow
81.423828 0 m /r glyphshow
86.357422 0 m /space glyphshow
90.171875 0 m /parenleft glyphshow
94.853516 0 m /percent glyphshow
106.255859 0 m /parenright glyphshow
grestore
1.500 setlinewidth
2 setlinecap
0.500 0.000 1.000 setrgbcolor
gsave
837 554.4 135 79.2 clipbox
173.045455 359.037737 m
185.123377 360.253342 l
197.201299 361.026197 l
209.279221 360.816172 l
221.357143 361.234942 l
233.435065 362.33285 l
245.512987 361.90314 l
257.590909 363.394665 l
269.668831 362.745107 l
281.746753 362.531641 l
293.824675 364.861528 l
305.902597 363.157507 l
317.980519 366.863593 l
330.058442 363.057369 l
342.136364 364.99293 l
354.214286 365.299023 l
366.292208 364.772244 l
378.37013 365.95153 l
390.448052 376.159979 l
402.525974 367.984274 l
414.603896 367.769441 l
426.681818 368.890405 l
438.75974 371.73631 l
450.837662 369.798329 l
462.915584 370.470407 l
474.993506 369.70225 l
487.071429 362.629284 l
499.149351 377.358964 l
511.227273 366.947682 l
523.305195 370.718252 l
535.383117 363.281441 l
547.461039 369.344184 l
559.538961 372.826612 l
571.616883 380.147183 l
583.694805 378.743269 l
595.772727 376.730368 l
607.850649 372.512259 l
619.928571 371.344707 l
632.006494 380.853586 l
644.084416 376.291527 l
656.162338 380.376751 l
668.24026 374.82767 l
680.318182 374.021934 l
692.396104 385.893791 l
704.474026 383.611976 l
716.551948 371.694703 l
728.62987 380.75649 l
740.707792 393.670004 l
752.785714 400.219669 l
764.863636 374.65923 l
776.941558 379.116746 l
789.019481 379.85687 l
801.097403 391.379719 l
813.175325 378.206478 l
825.253247 385.378361 l
837.331169 380.368183 l
849.409091 373.053466 l
861.487013 379.613096 l
873.564935 411.486201 l
885.642857 396.869516 l
897.720779 403.997705 l
909.798701 380.147975 l
921.876623 388.239904 l
933.954545 402.884216 l
stroke
grestore
1.000 setlinewidth
0 setlinecap
gsave
837 554.4 135 79.2 clipbox
/o {
gsave
newpath
translate
1.0 setlinewidth
1 setlinejoin
0 setlinecap
0 -1.5 m
0.397805 -1.5 0.77937 -1.341951 1.06066 -1.06066 c
1.341951 -0.77937 1.5 -0.397805 1.5 0 c
1.5 0.397805 1.341951 0.77937 1.06066 1.06066 c
0.77937 1.341951 0.397805 1.5 0 1.5 c
-0.397805 1.5 -0.77937 1.341951 -1.06066 1.06066 c
-1.341951 0.77937 -1.5 0.397805 -1.5 0 c
-1.5 -0.397805 -1.341951 -0.77937 -1.06066 -1.06066 c
-0.77937 -1.341951 -0.397805 -1.5 0 -1.5 c
cl

gsave
0.500 0.000 1.000 setrgbcolor
fill
grestore
stroke
grestore
} bind def
173.045 359.038 o
185.123 360.253 o
197.201 361.026 o
209.279 360.816 o
221.357 361.235 o
233.435 362.333 o
245.513 361.903 o
257.591 363.395 o
269.669 362.745 o
281.747 362.532 o
293.825 364.862 o
305.903 363.158 o
317.981 366.864 o
330.058 363.057 o
342.136 364.993 o
354.214 365.299 o
366.292 364.772 o
378.37 365.952 o
390.448 376.16 o
402.526 367.984 o
414.604 367.769 o
426.682 368.89 o
438.76 371.736 o
450.838 369.798 o
462.916 370.47 o
474.994 369.702 o
487.071 362.629 o
499.149 377.359 o
511.227 366.948 o
523.305 370.718 o
535.383 363.281 o
547.461 369.344 o
559.539 372.827 o
571.617 380.147 o
583.695 378.743 o
595.773 376.73 o
607.851 372.512 o
619.929 371.345 o
632.006 380.854 o
644.084 376.292 o
656.162 380.377 o
668.24 374.828 o
680.318 374.022 o
692.396 385.894 o
704.474 383.612 o
716.552 371.695 o
728.63 380.756 o
740.708 393.67 o
752.786 400.22 o
764.864 374.659 o
776.942 379.117 o
789.019 379.857 o
801.097 391.38 o
813.175 378.206 o
825.253 385.378 o
837.331 380.368 o
849.409 373.053 o
861.487 379.613 o
873.565 411.486 o
885.643 396.87 o
897.721 403.998 o
909.799 380.148 o
921.877 388.24 o
933.955 402.884 o
grestore
1.500 setlinewidth
2 setlinecap
0.504 1.000 0.705 setrgbcolor
gsave
837 554.4 135 79.2 clipbox
173.045455 358.817409 m
185.123377 359.836014 l
197.201299 360.402108 l
209.279221 359.984529 l
221.357143 360.71607 l
233.435065 361.408189 l
245.512987 361.376785 l
257.590909 362.252002 l
269.668831 361.628202 l
281.746753 362.177078 l
293.824675 364.296777 l
305.902597 362.227905 l
317.980519 366.03255 l
330.058442 363.712655 l
342.136364 363.539328 l
354.214286 365.553774 l
366.292208 364.164216 l
378.37013 367.160823 l
390.448052 374.984318 l
402.525974 367.822821 l
414.603896 367.065118 l
426.681818 368.734676 l
438.75974 371.89812 l
450.837662 368.766524 l
462.915584 370.487444 l
474.993506 369.06099 l
487.071429 360.784419 l
499.149351 374.819648 l
511.227273 364.359402 l
523.305195 369.998127 l
535.383117 360.586675 l
547.461039 367.920834 l
559.538961 372.517638 l
571.616883 377.490615 l
583.694805 376.400196 l
595.772727 376.816562 l
607.850649 371.270235 l
619.928571 369.864572 l
632.006494 376.557626 l
644.084416 377.588508 l
656.162338 380.266731 l
668.24026 376.102139 l
680.318182 375.754639 l
692.396104 385.643328 l
704.474026 384.378856 l
716.551948 370.087997 l
728.62987 380.887786 l
740.707792 394.821544 l
752.785714 396.601199 l
764.863636 373.372369 l
776.941558 380.877307 l
789.019481 378.478038 l
801.097403 392.122186 l
813.175325 382.147274 l
825.253247 384.104797 l
837.331169 380.277048 l
849.409091 377.245139 l
861.487013 378.968841 l
873.564935 410.171757 l
885.642857 395.434558 l
897.720779 403.863434 l
909.798701 384.091056 l
921.876623 384.368439 l
933.954545 407.059455 l
stroke
grestore
1.000 setlinewidth
2 setlinejoin
0 setlinecap
gsave
837 554.4 135 79.2 clipbox
/o {
gsave
newpath
translate
1.0 setlinewidth
2 setlinejoin
0 setlinecap
0 3 m
-0.673542 0.927051 l
-2.85317 0.927051 l
-1.089814 -0.354102 l
-1.763356 -2.427051 l
-0 -1.145898 l
1.763356 -2.427051 l
1.089814 -0.354102 l
2.85317 0.927051 l
0.673542 0.927051 l
cl

gsave
0.504 1.000 0.705 setrgbcolor
fill
grestore
stroke
grestore
} bind def
173.045 358.817 o
185.123 359.836 o
197.201 360.402 o
209.279 359.985 o
221.357 360.716 o
233.435 361.408 o
245.513 361.377 o
257.591 362.252 o
269.669 361.628 o
281.747 362.177 o
293.825 364.297 o
305.903 362.228 o
317.981 366.033 o
330.058 363.713 o
342.136 363.539 o
354.214 365.554 o
366.292 364.164 o
378.37 367.161 o
390.448 374.984 o
402.526 367.823 o
414.604 367.065 o
426.682 368.735 o
438.76 371.898 o
450.838 368.767 o
462.916 370.487 o
474.994 369.061 o
487.071 360.784 o
499.149 374.82 o
511.227 364.359 o
523.305 369.998 o
535.383 360.587 o
547.461 367.921 o
559.539 372.518 o
571.617 377.491 o
583.695 376.4 o
595.773 376.817 o
607.851 371.27 o
619.929 369.865 o
632.006 376.558 o
644.084 377.589 o
656.162 380.267 o
668.24 376.102 o
680.318 375.755 o
692.396 385.643 o
704.474 384.379 o
716.552 370.088 o
728.63 380.888 o
740.708 394.822 o
752.786 396.601 o
764.864 373.372 o
776.942 380.877 o
789.019 378.478 o
801.097 392.122 o
813.175 382.147 o
825.253 384.105 o
837.331 380.277 o
849.409 377.245 o
861.487 378.969 o
873.565 410.172 o
885.643 395.435 o
897.721 403.863 o
909.799 384.091 o
921.877 384.368 o
933.955 407.059 o
grestore
1.500 setlinewidth
1 setlinejoin
2 setlinecap
1.000 0.000 0.000 setrgbcolor
gsave
837 554.4 135 79.2 clipbox
173.045455 359.037737 m
185.123377 360.253342 l
197.201299 361.026197 l
209.279221 360.816172 l
221.357143 361.234942 l
233.435065 362.328509 l
245.512987 361.90314 l
257.590909 363.392937 l
269.668831 362.744459 l
281.746753 362.52877 l
293.824675 364.886663 l
305.902597 363.207291 l
317.980519 366.861751 l
330.058442 363.238343 l
342.136364 364.740037 l
354.214286 365.295641 l
366.292208 364.677689 l
378.37013 367.160823 l
390.448052 375.673273 l
402.525974 367.278612 l
414.603896 366.184713 l
426.681818 369.325843 l
438.75974 371.753591 l
450.837662 369.796683 l
462.915584 370.470407 l
474.993506 368.607502 l
487.071429 362.115384 l
499.149351 377.357099 l
511.227273 366.947682 l
523.305195 370.716246 l
535.383117 363.281441 l
547.461039 369.337801 l
559.538961 372.826612 l
571.616883 382.173528 l
583.694805 378.738737 l
595.772727 376.728038 l
607.850649 372.507463 l
619.928571 371.342257 l
632.006494 380.84864 l
644.084416 376.288988 l
656.162338 380.376751 l
668.24026 374.822403 l
680.318182 374.019244 l
692.396104 385.893791 l
704.474026 383.611976 l
716.551948 371.694703 l
728.62987 380.753636 l
740.707792 393.667153 l
752.785714 399.456086 l
764.863636 374.65923 l
776.941558 378.874861 l
789.019481 379.85687 l
801.097403 391.379719 l
813.175325 378.206478 l
825.253247 385.378361 l
837.331169 380.368183 l
849.409091 373.053466 l
861.487013 379.609723 l
873.564935 411.479726 l
885.642857 396.869516 l
897.720779 403.997705 l
909.798701 380.147975 l
921.876623 388.239904 l
933.954545 402.884216 l
stroke
grestore
1.000 setlinewidth
0 setlinecap
gsave
837 554.4 135 79.2 clipbox
/o {
gsave
newpath
translate
1.0 setlinewidth
1 setlinejoin
0 setlinecap
0 -3 m
0.795609 -3 1.55874 -2.683901 2.12132 -2.12132 c
2.683901 -1.55874 3 -0.795609 3 0 c
3 0.795609 2.683901 1.55874 2.12132 2.12132 c
1.55874 2.683901 0.795609 3 0 3 c
-0.795609 3 -1.55874 2.683901 -2.12132 2.12132 c
-2.683901 1.55874 -3 0.795609 -3 0 c
-3 -0.795609 -2.683901 -1.55874 -2.12132 -2.12132 c
-1.55874 -2.683901 -0.795609 -3 0 -3 c
cl

gsave
1.000 0.000 0.000 setrgbcolor
fill
grestore
stroke
grestore
} bind def
173.045 359.038 o
185.123 360.253 o
197.201 361.026 o
209.279 360.816 o
221.357 361.235 o
233.435 362.329 o
245.513 361.903 o
257.591 363.393 o
269.669 362.744 o
281.747 362.529 o
293.825 364.887 o
305.903 363.207 o
317.981 366.862 o
330.058 363.238 o
342.136 364.74 o
354.214 365.296 o
366.292 364.678 o
378.37 367.161 o
390.448 375.673 o
402.526 367.279 o
414.604 366.185 o
426.682 369.326 o
438.76 371.754 o
450.838 369.797 o
462.916 370.47 o
474.994 368.608 o
487.071 362.115 o
499.149 377.357 o
511.227 366.948 o
523.305 370.716 o
535.383 363.281 o
547.461 369.338 o
559.539 372.827 o
571.617 382.174 o
583.695 378.739 o
595.773 376.728 o
607.851 372.507 o
619.929 371.342 o
632.006 380.849 o
644.084 376.289 o
656.162 380.377 o
668.24 374.822 o
680.318 374.019 o
692.396 385.894 o
704.474 383.612 o
716.552 371.695 o
728.63 380.754 o
740.708 393.667 o
752.786 399.456 o
764.864 374.659 o
776.942 378.875 o
789.019 379.857 o
801.097 391.38 o
813.175 378.206 o
825.253 385.378 o
837.331 380.368 o
849.409 373.053 o
861.487 379.61 o
873.565 411.48 o
885.643 396.87 o
897.721 403.998 o
909.799 380.148 o
921.877 388.24 o
933.955 402.884 o
grestore
0.200 setlinewidth
2 setlinecap
0.000 setgray
gsave
837 554.4 135 79.2 clipbox
-1 79.2 m
1081 79.2 l
stroke
grestore
gsave
837 554.4 135 79.2 clipbox
-1 106.92 m
1081 106.92 l
stroke
grestore
gsave
837 554.4 135 79.2 clipbox
-1 134.64 m
1081 134.64 l
stroke
grestore
gsave
837 554.4 135 79.2 clipbox
-1 162.36 m
1081 162.36 l
stroke
grestore
gsave
837 554.4 135 79.2 clipbox
-1 190.08 m
1081 190.08 l
stroke
grestore
gsave
837 554.4 135 79.2 clipbox
-1 217.8 m
1081 217.8 l
stroke
grestore
gsave
837 554.4 135 79.2 clipbox
-1 245.52 m
1081 245.52 l
stroke
grestore
gsave
837 554.4 135 79.2 clipbox
-1 273.24 m
1081 273.24 l
stroke
grestore
gsave
837 554.4 135 79.2 clipbox
-1 300.96 m
1081 300.96 l
stroke
grestore
gsave
837 554.4 135 79.2 clipbox
-1 328.68 m
1081 328.68 l
stroke
grestore
gsave
837 554.4 135 79.2 clipbox
-1 356.4 m
1081 356.4 l
stroke
grestore
gsave
837 554.4 135 79.2 clipbox
-1 384.12 m
1081 384.12 l
stroke
grestore
gsave
837 554.4 135 79.2 clipbox
-1 411.84 m
1081 411.84 l
stroke
grestore
gsave
837 554.4 135 79.2 clipbox
-1 439.56 m
1081 439.56 l
stroke
grestore
gsave
837 554.4 135 79.2 clipbox
-1 467.28 m
1081 467.28 l
stroke
grestore
gsave
837 554.4 135 79.2 clipbox
-1 495 m
1081 495 l
stroke
grestore
gsave
837 554.4 135 79.2 clipbox
-1 522.72 m
1081 522.72 l
stroke
grestore
gsave
837 554.4 135 79.2 clipbox
-1 550.44 m
1081 550.44 l
stroke
grestore
gsave
837 554.4 135 79.2 clipbox
-1 578.16 m
1081 578.16 l
stroke
grestore
gsave
837 554.4 135 79.2 clipbox
-1 605.88 m
1081 605.88 l
stroke
grestore
0.800 setlinewidth
0 setlinejoin
gsave
135 79.2 m
135 633.6 l
stroke
grestore
gsave
972 79.2 m
972 633.6 l
stroke
grestore
gsave
135 79.2 m
972 79.2 l
stroke
grestore
gsave
135 633.6 m
972 633.6 l
stroke
grestore
1.000 setlinewidth
0 setlinecap
0.800 setgray
gsave
794.090625 571.125 m
963.6 571.125 l
965.2 571.125 966 571.925 966 573.525 c
966 625.2 l
966 626.8 965.2 627.6 963.6 627.6 c
794.090625 627.6 l
792.490625 627.6 791.690625 626.8 791.690625 625.2 c
791.690625 573.525 l
791.690625 571.925 792.490625 571.125 794.090625 571.125 c
cl
gsave
1.000 setgray
fill
grestore
stroke
grestore
1.500 setlinewidth
1 setlinejoin
2 setlinecap
0.500 0.000 1.000 setrgbcolor
gsave
796.490625 617.875 m
820.490625 617.875 l
stroke
grestore
1.000 setlinewidth
0 setlinecap
gsave
/o {
gsave
newpath
translate
1.0 setlinewidth
1 setlinejoin
0 setlinecap
0 -1.5 m
0.397805 -1.5 0.77937 -1.341951 1.06066 -1.06066 c
1.341951 -0.77937 1.5 -0.397805 1.5 0 c
1.5 0.397805 1.341951 0.77937 1.06066 1.06066 c
0.77937 1.341951 0.397805 1.5 0 1.5 c
-0.397805 1.5 -0.77937 1.341951 -1.06066 1.06066 c
-1.341951 0.77937 -1.5 0.397805 -1.5 0 c
-1.5 -0.397805 -1.341951 -0.77937 -1.06066 -1.06066 c
-0.77937 -1.341951 -0.397805 -1.5 0 -1.5 c
cl

gsave
0.500 0.000 1.000 setrgbcolor
fill
grestore
stroke
grestore
} bind def
808.491 617.875 o
grestore
0.000 setgray
gsave
830.090625 613.675000 translate
0.000000 rotate
0.000000 0 m /C glyphshow
8.378906 0 m /O glyphshow
17.824219 0 m /M glyphshow
28.177734 0 m /M glyphshow
38.531250 0 m /space glyphshow
42.345703 0 m /m glyphshow
54.035156 0 m /o glyphshow
61.376953 0 m /d glyphshow
68.994141 0 m /e glyphshow
76.376953 0 m /l glyphshow
grestore
1.500 setlinewidth
2 setlinecap
0.504 1.000 0.705 setrgbcolor
gsave
796.490625 600.25 m
820.490625 600.25 l
stroke
grestore
1.000 setlinewidth
2 setlinejoin
0 setlinecap
gsave
/o {
gsave
newpath
translate
1.0 setlinewidth
2 setlinejoin
0 setlinecap
0 3 m
-0.673542 0.927051 l
-2.85317 0.927051 l
-1.089814 -0.354102 l
-1.763356 -2.427051 l
-0 -1.145898 l
1.763356 -2.427051 l
1.089814 -0.354102 l
2.85317 0.927051 l
0.673542 0.927051 l
cl

gsave
0.504 1.000 0.705 setrgbcolor
fill
grestore
stroke
grestore
} bind def
808.491 600.25 o
grestore
0.000 setgray
gsave
830.090625 596.050000 translate
0.000000 rotate
0.000000 0 m /C glyphshow
8.378906 0 m /O glyphshow
17.824219 0 m /M glyphshow
28.177734 0 m /M glyphshow
38.531250 0 m /plus glyphshow
48.585938 0 m /C glyphshow
56.964844 0 m /A glyphshow
64.923828 0 m /C glyphshow
73.302734 0 m /H glyphshow
82.326172 0 m /E glyphshow
89.908203 0 m /space glyphshow
93.722656 0 m /m glyphshow
105.412109 0 m /o glyphshow
112.753906 0 m /d glyphshow
120.371094 0 m /e glyphshow
127.753906 0 m /l glyphshow
grestore
1.500 setlinewidth
1 setlinejoin
2 setlinecap
1.000 0.000 0.000 setrgbcolor
gsave
796.490625 582.625 m
820.490625 582.625 l
stroke
grestore
1.000 setlinewidth
0 setlinecap
gsave
/o {
gsave
newpath
translate
1.0 setlinewidth
1 setlinejoin
0 setlinecap
0 -3 m
0.795609 -3 1.55874 -2.683901 2.12132 -2.12132 c
2.683901 -1.55874 3 -0.795609 3 0 c
3 0.795609 2.683901 1.55874 2.12132 2.12132 c
1.55874 2.683901 0.795609 3 0 3 c
-0.795609 3 -1.55874 2.683901 -2.12132 2.12132 c
-2.683901 1.55874 -3 0.795609 -3 0 c
-3 -0.795609 -2.683901 -1.55874 -2.12132 -2.12132 c
-1.55874 -2.683901 -0.795609 -3 0 -3 c
cl

gsave
1.000 0.000 0.000 setrgbcolor
fill
grestore
stroke
grestore
} bind def
808.491 582.625 o
grestore
0.000 setgray
gsave
830.090625 578.425000 translate
0.000000 rotate
0.000000 0 m /T glyphshow
6.455078 0 m /A glyphshow
14.664062 0 m /S glyphshow
22.281250 0 m /K glyphshow
28.900391 0 m /hyphen glyphshow
33.230469 0 m /d glyphshow
40.847656 0 m /i glyphshow
44.181641 0 m /e glyphshow
51.564453 0 m /space glyphshow
55.378906 0 m /m glyphshow
67.068359 0 m /o glyphshow
74.410156 0 m /d glyphshow
82.027344 0 m /e glyphshow
89.410156 0 m /l glyphshow
grestore

end
showpage
