16776, 57.256, 31.7127
17656, 49.8757, 47.3351
18640, 41.6071, 41.5145
19736, 30.4099, 30.3631
20968, 30.4325, 27.0206
22368, 24.7982, 21.6744
23960, 29.3268, 29.3988
25808, 29.5624, 20.084
27960, 22.7317, 22.5121
30504, 20.8646, 17.3515
33552, 22.6856, 22.7163
37280, 23.0408, 20.1622
41936, 22.841
47928, 22.9981, 23.2435
55920, 23.0979, 23.0788
67104, 23.0915, 18.7023
83880, 16.8332, 14.3483
111848, 23.3454, 20.583
167768, 20.5095, 20.2008
176600, 20.3152, 20.0864
186408, 20.2046, 19.9431
197376, 20.6158, 20.3376
209712, 20.564, 20.5057
223696, 20.0949, 19.7664
239672, 19.5539, 19.4792
258104, 19.5578, 19.3874
279616, 25.177, 16.8038
305040, 24.5861, 16.8754
335544, 24.8846, 24.3007
372824, 23.712, 18.7001
419424, 23.5671, 23.4381
479344, 23.0631, 22.9659
493440, 27.0393, 26.579
508400, 26.5441, 25.485
524288, 26.9737, 21.8472
541200, 26.9482, 26.3486
559240, 25.2365, 24.985
578520, 22.7093, 22.6879
599184, 26.7744, 23.999
621376, 25.7822, 25.6312
645272, 26.8104, 22.4567
671088, 26.8403, 23.8304
699048, 26.7865, 25.55
729440, 26.8908, 22.8901
762600, 26.8559, 26.7795
798912, 26.801, 26.784
838856, 26.858, 26.7825
883008, 26.7133, 26.5152
932064, 26.3921, 26.3057
986888, 26.3339, 26.2059
1.04858e+06, 25.799, 25.6013
1.11848e+06, 26.7874, 26.7464
1.19837e+06, 26.8819, 26.8085
1.29055e+06, 26.9471, 26.7938
1.3981e+06, 26.8947, 26.8153
1.5252e+06, 26.7438, 26.6462
1.67772e+06, 26.8328, 26.7882
1.86413e+06, 26.8382, 26.8251
2.09715e+06, 26.4195, 26.374
2.39674e+06, 26.3677, 24.5608
2.7962e+06, 23.1263, 22.6795
3.35544e+06, 21.6894, 18.0688
4.1943e+06, 12.2727, 12.0851
5.5924e+06, 10.3133, 9.60471
8.38861e+06, 7.16752, 7.14088
1.67772e+07, 7.11031, 7.09446
