16776, 8.24677, 7.71931
17656, 8.72332, 8.12704
18640, 9.02554, 8.52212
19736, 9.68044, 8.21734
20968, 9.61725, 7.94167
22368, 9.48399, 7.95236
23960, 9.10594, 7.88482
25808, 8.72334, 8.04677
27960, 8.77383, 8.22534
30504, 7.92569, 7.91643
33552, 8.14666, 7.4185
37280, 7.85669, 7.39279
41936, 7.98743, 7.54686
47928, 7.96874, 7.52107
55920, 7.86415, 7.62502
67104, 7.87352, 7.59568
83880, 7.99752, 7.919
111848, 7.71645, 7.64237
167768, 7.46565, 7.56896
176600, 7.57111, 7.54201
186408, 7.51653, 7.36441
197376, 7.51243, 7.48863
209712, 7.54523, 7.48684
223696, 7.58208, 7.53166
239672, 7.43901, 7.42783
258104, 7.48632, 7.42729
279616, 7.50718, 7.60617
305040, 7.44731, 7.4649
335544, 7.4948, 7.54969
372824, 7.46058, 7.45219
419424, 7.55181, 7.57045
479344, 7.5074, 7.49883
493440, 7.49467, 7.53597
508400, 7.45482, 7.52739
524288, 7.48301, 7.46849
541200, 7.48219, 7.38981
559240, 7.46963, 7.4284
578520, 7.48653, 7.3997
599184, 7.42757, 7.49153
621376, 7.52606, 7.41705
645272, 7.4943, 7.37464
671088, 7.50446, 7.58622
699048, 7.32461, 7.38573
729440, 7.41438, 7.59966
762600, 7.56244, 7.49144
798912, 7.46802, 7.44443
838856, 7.47987, 7.32291
883008, 7.43232, 7.59788
932064, 7.5611, 7.65274
986888, 7.56094, 7.38642
1.04858e+06, 7.43788, 7.68492
1.11848e+06, 7.37385, 7.53273
1.19837e+06, 7.8196, 7.67893
1.29055e+06, 7.83034, 7.63428
1.3981e+06, 7.69276, 7.79477
1.5252e+06, 7.77419, 7.3622
1.67772e+06, 7.55576, 7.1954
1.86413e+06, 7.4332, 7.19603
2.09715e+06, 7.55209, 7.30616
2.39674e+06, 7.34518, 7.31388
2.7962e+06, 7.31429, 7.31687
3.35544e+06, 7.01785, 6.80922
4.1943e+06, 5.9225, 5.97074
5.5924e+06, 4.7624, 4.72197
8.38861e+06, 4.51927, 4.47805
1.67772e+07, 6.3538, 6.37757
