16776, 9.19989, 8.52656
17656, 8.91605, 8.53978
18640, 9.23916, 9.24603
19736, 9.7994, 9.54121
20968, 10.2546, 9.54284
22368, 10.6375, 8.44394
23960, 11.6297, 8.62569
25808, 10.9938, 8.54216
27960, 9.23001, 9.14174
30504, 9.72317, 9.6524
33552, 9.84941, 9.20683
37280, 9.26269, 9.20551
41936, 10.0074, 8.99818
47928, 9.76578, 9.18689
55920, 10.1318, 9.13614
67104, 9.81017, 9.36781
83880, 9.37207, 9.30449
111848, 9.85011, 9.6402
167768, 9.54, 9.55562
176600, 9.58988, 9.54375
186408, 9.5117, 9.42895
197376, 9.43931, 9.49608
209712, 9.48483, 9.45884
223696, 9.54609, 9.49041
239672, 9.58199, 9.4717
258104, 9.54942, 9.52607
279616, 9.53304, 9.47457
305040, 9.45919, 9.50362
335544, 9.56259, 9.51405
372824, 9.5402, 9.46122
419424, 9.45938, 9.45458
479344, 9.41228, 9.46245
493440, 9.51645, 9.44794
508400, 9.58874, 9.56673
524288, 9.51616, 9.44467
541200, 9.60383, 9.58809
559240, 9.43375, 9.45449
578520, 9.57783, 9.53568
599184, 9.51716, 9.50211
621376, 9.51444, 9.47176
645272, 9.50093, 9.49872
671088, 9.4577, 9.49951
699048, 9.66464, 9.58135
729440, 9.58044, 9.5844
762600, 9.72186, 9.64636
798912, 9.42825, 9.42083
838856, 9.50394, 9.55305
883008, 9.49711, 9.53292
932064, 9.58142, 9.59829
986888, 9.53292, 9.58295
1.04858e+06, 9.55699, 9.5625
1.11848e+06, 9.66162, 9.68259
1.19837e+06, 9.54721, 9.48791
1.29055e+06, 9.48344, 9.477
1.3981e+06, 9.57423, 9.54112
1.5252e+06, 9.61549, 9.59337
1.67772e+06, 9.58408, 9.57504
1.86413e+06, 9.63927, 9.64429
2.09715e+06, 9.50092, 9.48355
2.39674e+06, 9.40888, 9.6147
2.7962e+06, 9.46204, 9.50025
3.35544e+06, 9.02778, 9.09513
4.1943e+06, 7.27107, 7.27391
5.5924e+06, 5.74292, 5.76637
8.38861e+06, 5.75093, 5.74165
1.67772e+07, 6.72053, 6.67773
