16776, 7.35467, 6.76588, 6.87119
17656, 7.04971, 6.67397, 6.00749
18640, 7.54045, 6.6252, 6.54839
19736, 6.6845, 6.7705, 6.33783
20968, 6.69049, 6.03569, 6.36745
22368, 6.51084, 6.2402, 6.19012
23960, 6.38933, 6.12005, 5.99675
25808, 5.59705, 5.37891, 5.38452
27960, 5.83047, 5.60096, 5.39508
30504, 5.70541, 5.61871, 5.55983
33552, 5.55497, 5.61258, 5.36789
37280, 5.42689, 5.34825, 5.23302
41936, 5.41494, 5.25514, 5.0574
47928, 5.28045, 5.19742, 4.87073
55920, 4.68479, 5.04853, 4.58379
67104, 4.86278, 4.83615, 4.7715
83880, 4.83737, 4.73363, 4.79191
111848, 5.31092, 5.26666, 5.26084
167768, 5.12958, 5.13193, 5.08588
176600, 5.09514, 5.12739, 5.14539
186408, 5.09423, 5.09409, 5.13698
197376, 5.03132, 5.11158, 5.12219
209712, 5.0763, 5.08226, 5.0731
223696, 5.0614, 5.10535, 5.08019
239672, 5.03365, 5.05957, 5.07189
258104, 4.49553, 4.49902, 4.53391
279616, 4.50587, 4.50387, 4.47948
305040, 4.46458, 4.50533, 4.49282
335544, 4.45885, 4.47317, 4.45983
372824, 4.46731, 4.48856, 4.46608
419424, 4.46196, 4.48757, 4.44889
479344, 4.43449, 4.44921, 4.42593
493440, 4.47504, 4.47477, 4.43889
508400, 4.4737, 4.46029, 4.43829
524288, 4.46237, 4.4686, 4.44378
541200, 4.24934, 4.24605, 4.24148
559240, 4.33403, 4.3344, 4.31781
578520, 4.46193, 4.45847, 4.43439
599184, 4.25967, 4.25912, 4.24932
621376, 4.3346, 4.34828, 4.32727
645272, 4.11776, 4.11762, 4.11085
671088, 4.238, 4.24277, 4.2389
699048, 4.14761, 4.15568, 4.14276
729440, 4.05663, 4.065, 4.06462
762600, 4.29305, 4.2988, 4.28659
798912, 4.00741, 4.00457, 4.00876
838856, 4.03104, 4.03291, 4.04211
883008, 4.24981, 4.25818, 4.26262
932064, 4.08942, 4.09816, 4.09392
986888, 3.99723, 3.99366, 4.00592
1.04858e+06, 3.90352, 3.90909, 3.92124
1.11848e+06, 4.07927, 4.09837, 4.09082
1.19837e+06, 3.98972, 3.98039, 3.99778
1.29055e+06, 3.94853, 3.95726, 3.97245
1.3981e+06, 3.99022, 3.99259, 3.99965
1.5252e+06, 4.07373, 4.06968, 4.06993
1.67772e+06, 4.31205, 4.32331, 4.3116
1.86413e+06, 3.99661, 4.00576, 4.05996
2.09715e+06, 3.75662, 3.74865, 3.80506
2.39674e+06, 3.71098, 3.71106, 3.71915
2.7962e+06, 3.58747, 3.65207, 3.68423
3.35544e+06, 3.54006, 3.57078, 3.59819
4.1943e+06, 3.49545, 3.50071, 3.59974
5.5924e+06, 3.24634, 3.26106, 3.2775
8.38861e+06, 3.57435, 3.58105, 3.60595
1.67772e+07, 4.05859, 4.06363, 4.20592
