16776, 7.96298
17656, 8.81478
18640, 9.05294
19736, 9.51018
20968, 8.76222
22368, 9.27748
23960, 10.6347
25808, 9.83724
27960, 9.6223
30504, 8.97374
33552, 9.25445
37280, 9.2129
41936, 9.40533
47928, 9.51377
55920, 9.22468
67104, 9.27011
83880, 9.23052
111848, 9.76647
167768, 9.67562
176600, 9.72025
186408, 9.29843
197376, 9.76372
209712, 9.66537
223696, 9.83636
239672, 9.77196
258104, 9.76973
279616, 9.90282
305040, 9.76245
335544, 9.76803
372824, 9.87528
419424, 9.81861
479344, 9.83905
493440, 9.79947
508400, 9.81335
524288, 9.75964
541200, 9.83902
559240, 9.85119
578520, 9.9169
599184, 9.89524
621376, 9.90746
645272, 9.92822
671088, 9.77774
699048, 9.89242
729440, 9.90734
762600, 9.85612
798912, 10.0922
838856, 9.91632
883008, 9.94303
932064, 9.85917
986888, 9.95564
1.04858e+06, 9.95102
1.11848e+06, 9.96104
1.19837e+06, 9.98083
1.29055e+06, 9.92448
1.3981e+06, 9.91394
1.5252e+06, 9.91869
1.67772e+06, 9.91278
1.86413e+06, 9.94145
2.09715e+06, 9.95571
2.39674e+06, 11.0616
2.7962e+06, 11.1157
3.35544e+06, 11.1762
4.1943e+06, 11.3964
5.5924e+06, 11.1928
8.38861e+06, 10.7935
1.67772e+07, 8.72263
