16776, 101.366
17656, 326.963
18640, 317.277
19736, 897.091
20968, 21.4452
22368, 22.2346
23960, 23.7581
25808, 25.4768
27960, 27.939
30504, 30.2619
33552, 33.1623
37280, 36.711
41936, 41.2147
47928, 23.8122
55920, 27.814
67104, 30.6726
83880, 26.2227
111848, 27.6117
167768, 20.0027
176600, 23.2345
186408, 19.6929
197376, 20.2978
209712, 19.6811
223696, 19.5398
239672, 19.5806
258104, 20.1113
279616, 20.7611
305040, 20.2995
335544, 20.5147
372824, 20.3579
419424, 21.08
479344, 21.4479
493440, 21.7979
508400, 22.0803
524288, 21.8244
541200, 22.1096
559240, 21.8057
578520, 21.8077
599184, 22.337
621376, 22.8038
645272, 23.0547
671088, 23.001
699048, 22.3474
729440, 23.2708
762600, 23.1836
798912, 22.8564
838856, 23.2315
883008, 23.7165
932064, 23.8329
986888, 24.0523
1.04858e+06, 23.9137
1.11848e+06, 24.6159
1.19837e+06, 24.5323
1.29055e+06, 24.5476
1.3981e+06, 24.9477
1.5252e+06, 25.0926
1.67772e+06, 25.3191
1.86413e+06, 25.2883
2.09715e+06, 25.5248
2.39674e+06, 26.5798
2.7962e+06, 27.3512
3.35544e+06, 27.1406
4.1943e+06, 23.5193
5.5924e+06, 17.7725
8.38861e+06, 9.6306
1.67772e+07, 9.02204
