16776, 5.95897, 5.52569, 6.04105, 5.91329
17656, 6.15943, 5.95933, 6.62638, 5.89467
18640, 7.31124, 7.12811, 7.41669, 6.49082
19736, 7.21675, 7.00914, 7.16826, 6.8498
20968, 6.88548, 6.49013, 6.81332, 5.68739
22368, 7.80665, 6.86293, 7.03452, 6.44983
23960, 6.76836, 6.35586, 6.32273, 6.24243
25808, 6.68644, 6.51758, 6.50567, 6.15355
27960, 5.9231, 5.69421, 5.83625, 5.70554
30504, 6.01242, 5.67833, 5.80835, 5.7145
33552, 5.8683, 5.64255, 5.70855, 5.51321
37280, 5.21873, 4.97963, 4.94184, 5.04927
41936, 4.97801, 4.81, 4.95039, 5.01267
47928, 5.10049, 4.75464, 5.04412, 4.71153
55920, 4.89496, 4.67246, 4.66963, 4.69275
67104, 4.73539, 4.73606, 4.61719, 4.83781
83880, 4.48227, 4.42143, 4.47826, 4.37793
111848, 4.42875, 4.37766, 4.50532, 4.36327
167768, 4.35035, 4.36575, 4.31966, 4.35012
176600, 4.44554, 4.3552, 4.30443, 4.28823
186408, 4.34578, 4.2918, 4.36594, 4.25528
197376, 4.37575, 4.4112, 4.28178, 4.35653
209712, 4.33894, 4.31719, 4.27003, 4.31067
223696, 4.32081, 4.31994, 4.21317, 4.27241
239672, 4.35567, 4.31643, 4.22212, 4.18531
258104, 4.34107, 4.29238, 4.28196, 4.20611
279616, 4.31979, 4.37129, 4.22692, 4.30283
305040, 4.22944, 4.24522, 4.21573, 4.18172
335544, 4.27533, 4.29226, 4.20612, 4.26908
372824, 4.27858, 4.27739, 4.17988, 4.19749
419424, 4.26759, 4.25275, 4.21563, 4.20692
479344, 4.23329, 4.25809, 4.18863, 4.21005
493440, 4.23582, 4.22874, 4.17708, 4.23101
508400, 4.20953, 4.21867, 4.17958, 4.19188
524288, 4.19619, 4.20309, 4.14632, 4.16738
541200, 4.21022, 4.19901, 4.17145, 4.16541
559240, 4.19998, 4.1953, 4.1603, 4.15786
578520, 4.20387, 4.18509, 4.15597, 4.1712
599184, 4.22287, 4.2319, 4.18651, 4.18078
621376, 4.19345, 4.19124, 4.17372, 4.20308
645272, 4.21989, 4.21071, 4.19073, 4.20884
671088, 4.18455, 4.19073, 4.16195, 4.15427
699048, 4.20804, 4.21429, 4.1864, 4.18989
729440, 4.21721, 4.22793, 4.19906, 4.19379
762600, 4.20339, 4.20154, 4.17137, 4.1881
798912, 4.20192, 4.20811, 4.17748, 4.17931
838856, 4.21019, 4.22004, 4.18797, 4.17847
883008, 4.20321, 4.20968, 4.18458, 4.17294
932064, 4.08384, 4.08554, 4.06669, 4.06646
986888, 4.20036, 4.20916, 4.18385, 4.17099
1.04858e+06, 4.22468, 4.20329, 4.18517, 4.18421
1.11848e+06, 4.13742, 4.12314, 4.09985, 4.10529
1.19837e+06, 4.13423, 4.12097, 4.09651, 4.10655
1.29055e+06, 4.12679, 4.09897, 4.086, 4.08421
1.3981e+06, 4.02389, 4.028, 3.99456, 4.00051
1.5252e+06, 3.61772, 3.56587, 3.55079, 3.53975
1.67772e+06, 3.12969, 3.14677, 3.11182, 3.12127
1.86413e+06, 2.53003, 2.53953, 2.51623, 2.5169
2.09715e+06, 2.10315, 2.0976, 2.08829, 2.10252
2.39674e+06, 1.68204, 1.68021, 1.67706, 1.68408
2.7962e+06, 1.62095, 1.62082, 1.61464, 1.61739
3.35544e+06, 1.68309, 1.68553, 1.68007, 1.67948
4.1943e+06, 1.92281, 1.92228, 1.9179, 1.91709
5.5924e+06, 2.15873, 2.15875, 2.15209, 2.15237
8.38861e+06, 2.19317, 2.19558, 2.19126, 2.19087
1.67772e+07, 2.20644, 2.20632, 2.20422, 2.20405
