25952, 5.0737
27312, 5.77177
28832, 5.67168
30528, 6.03618
32440, 6.23726
34600, 5.9394
37072, 6.33385
39920, 6.36835
43248, 6.63771
47184, 6.62697
51904, 6.70421
57664, 7.01466
64880, 7.27681
74144, 7.65713
86504, 7.99852
103808, 8.53719
129760, 8.26813
173008, 10.0727
259520, 10.3339
273176, 11.1147
288352, 10.8155
305320, 11.0784
324400, 11.3575
346024, 11.4663
370744, 11.3725
399264, 11.6473
432536, 11.8951
471856, 12.4838
519040, 11.9867
576712, 11.9869
648800, 12.1486
741488, 11.8879
763296, 11.9151
786432, 11.9828
811008, 12.0233
837168, 12.2516
865072, 11.7974
894904, 11.7622
926864, 11.6865
961192, 11.657
998160, 11.8299
1.03809e+06, 11.8102
1.08134e+06, 11.842
1.12835e+06, 11.6513
1.17965e+06, 11.7466
1.23582e+06, 11.6731
1.29761e+06, 11.7481
1.3659e+06, 11.6201
1.44179e+06, 11.7309
1.5266e+06, 11.7202
1.62202e+06, 11.6908
1.73014e+06, 11.7222
1.85373e+06, 11.7561
1.99632e+06, 11.9201
2.16269e+06, 11.9557
2.3593e+06, 11.9736
2.59522e+06, 12.0517
2.88358e+06, 11.9932
3.24403e+06, 12.0958
3.70746e+06, 12.1028
4.32538e+06, 12.158
5.19045e+06, 12.0735
6.48806e+06, 11.8088
8.65075e+06, 10.1471
1.29761e+07, 7.50253
2.59523e+07, 6.57619
