25952, 4.565
27312, 4.85504
28832, 4.96932
30528, 5.04137
32440, 4.98808
34600, 5.31327
37072, 5.19616
39920, 5.23438
43248, 5.55708
47184, 5.70406
51904, 5.79415
57664, 6.01889
64880, 6.32976
74144, 6.32898
86504, 6.44686
103808, 6.86493
129760, 6.7392
173008, 6.91147
259520, 6.66162
273176, 6.71912
288352, 6.70789
305320, 6.63487
324400, 6.66913
346024, 6.95421
370744, 6.61659
399264, 6.10547
432536, 6.13713
471856, 6.13146
519040, 6.39633
576712, 6.57394
648800, 6.50465
741488, 6.39655
763296, 6.33869
786432, 6.32081
811008, 6.31272
837168, 6.32154
865072, 6.2959
894904, 6.27457
926864, 6.27132
961192, 6.25253
998160, 6.14188
1.03809e+06, 6.05329
1.08134e+06, 6.12776
1.12835e+06, 6.19819
1.17965e+06, 6.34153
1.23582e+06, 6.03351
1.29761e+06, 6.10395
1.3659e+06, 6.58342
1.44179e+06, 6.72631
1.5266e+06, 6.57571
1.62202e+06, 6.18901
1.73014e+06, 6.17806
1.85373e+06, 6.13589
1.99632e+06, 6.17771
2.16269e+06, 6.21002
2.3593e+06, 6.32449
2.59522e+06, 6.64786
2.88358e+06, 6.98775
3.24403e+06, 6.30145
3.70746e+06, 6.31259
4.32538e+06, 6.27791
5.19045e+06, 6.25017
6.48806e+06, 6.23957
8.65075e+06, 6.09774
1.29761e+07, 5.95861
2.59523e+07, 5.74543
