25952, 4.64548
27312, 4.95951
28832, 4.74172
30528, 5.20378
32440, 5.24156
34600, 5.39908
37072, 5.46986
39920, 5.35875
43248, 5.37576
47184, 5.68003
51904, 5.82373
57664, 6.10136
64880, 6.72785
74144, 6.36183
86504, 6.50822
103808, 6.59203
129760, 6.82516
173008, 6.9424
259520, 7.01386
273176, 6.59487
288352, 6.98629
305320, 6.71594
324400, 6.64904
346024, 6.67021
370744, 6.44839
399264, 6.14087
432536, 6.23017
471856, 6.26173
519040, 6.45219
576712, 6.628
648800, 6.44357
741488, 6.32464
763296, 6.30867
786432, 6.32178
811008, 6.29342
837168, 6.3209
865072, 6.2923
894904, 6.27974
926864, 6.31166
961192, 6.24015
998160, 6.09331
1.03809e+06, 6.08601
1.08134e+06, 6.04758
1.12835e+06, 6.19048
1.17965e+06, 6.33734
1.23582e+06, 6.0646
1.29761e+06, 6.11409
1.3659e+06, 6.63761
1.44179e+06, 6.74906
1.5266e+06, 6.81515
1.62202e+06, 6.18439
1.73014e+06, 6.21203
1.85373e+06, 6.14303
1.99632e+06, 6.17758
2.16269e+06, 6.21229
2.3593e+06, 6.33951
2.59522e+06, 6.68118
2.88358e+06, 6.91707
3.24403e+06, 6.2588
3.70746e+06, 6.18029
4.32538e+06, 6.23293
5.19045e+06, 6.31782
6.48806e+06, 6.16623
8.65075e+06, 6.11087
1.29761e+07, 6.16851
2.59523e+07, 5.78087
