25952, 5.31259
27312, 5.71202
28832, 5.60661
30528, 5.8016
32440, 6.08687
34600, 5.6251
37072, 6.22379
39920, 6.26098
43248, 6.12535
47184, 6.40347
51904, 7.17402
57664, 7.23332
64880, 7.19649
74144, 7.56456
86504, 7.94052
103808, 8.23285
129760, 8.1664
173008, 10.0057
259520, 10.4846
273176, 10.963
288352, 10.9665
305320, 10.7923
324400, 11.0481
346024, 11.2082
370744, 11.3938
399264, 11.4649
432536, 12.0267
471856, 11.8642
519040, 11.5555
576712, 12.3871
648800, 11.6861
741488, 11.9342
763296, 11.7456
786432, 11.8963
811008, 11.7059
837168, 11.7046
865072, 11.8673
894904, 11.7196
926864, 11.6907
961192, 11.5296
998160, 11.7476
1.03809e+06, 11.5843
1.08134e+06, 11.6512
1.12835e+06, 11.6264
1.17965e+06, 11.711
1.23582e+06, 11.5659
1.29761e+06, 11.7057
1.3659e+06, 11.5566
1.44179e+06, 11.6042
1.5266e+06, 11.6208
1.62202e+06, 11.6994
1.73014e+06, 11.6828
1.85373e+06, 11.7249
1.99632e+06, 11.7909
2.16269e+06, 11.8109
2.3593e+06, 11.9351
2.59522e+06, 11.9634
2.88358e+06, 11.99
3.24403e+06, 12.0426
3.70746e+06, 12.041
4.32538e+06, 11.7791
5.19045e+06, 11.7321
6.48806e+06, 10.5115
8.65075e+06, 9.20275
1.29761e+07, 7.69271
2.59523e+07, 6.61401
