25952, 4.87911
27312, 4.83655
28832, 4.73938
30528, 5.22114
32440, 5.3307
34600, 5.44582
37072, 5.47067
39920, 5.20029
43248, 5.39858
47184, 5.69614
51904, 5.9059
57664, 5.96041
64880, 6.17905
74144, 6.44422
86504, 6.40533
103808, 6.63056
129760, 6.79301
173008, 7.06054
259520, 6.99911
273176, 6.94353
288352, 6.95738
305320, 6.7326
324400, 6.59042
346024, 6.85474
370744, 6.30163
399264, 6.62668
432536, 6.03599
471856, 6.1111
519040, 6.38803
576712, 6.41048
648800, 6.42526
741488, 6.30557
763296, 6.34441
786432, 6.2636
811008, 6.29802
837168, 6.32615
865072, 6.32323
894904, 6.28775
926864, 6.2314
961192, 6.19319
998160, 6.08569
1.03809e+06, 6.23958
1.08134e+06, 6.15554
1.12835e+06, 6.18792
1.17965e+06, 6.23084
1.23582e+06, 6.16809
1.29761e+06, 6.11504
1.3659e+06, 6.57803
1.44179e+06, 6.6666
1.5266e+06, 6.47302
1.62202e+06, 6.12937
1.73014e+06, 6.17546
1.85373e+06, 6.08373
1.99632e+06, 6.22627
2.16269e+06, 6.16536
2.3593e+06, 6.28995
2.59522e+06, 6.61428
2.88358e+06, 6.89145
3.24403e+06, 6.25174
3.70746e+06, 6.12722
4.32538e+06, 6.34295
5.19045e+06, 6.23314
6.48806e+06, 6.26147
8.65075e+06, 6.14635
1.29761e+07, 6.21608
2.59523e+07, 5.79646
