%!PS-Adobe-3.0 EPSF-3.0
%%Title: amd-diablo04-cholesky-govpowersave-amdpowersave-ratio0.6-measured-20480-512-simple.eps
%%Creator: matplotlib version 3.3.3, http://matplotlib.org/
%%CreationDate: Tue Jan 19 18:25:10 2021
%%Orientation: portrait
%%BoundingBox: -234.0 36.0 846.0 756.0
%%EndComments
%%BeginProlog
/mpldict 8 dict def
mpldict begin
/m { moveto } bind def
/l { lineto } bind def
/r { rlineto } bind def
/c { curveto } bind def
/cl { closepath } bind def
/box {
      m
      1 index 0 r
      0 exch r
      neg 0 r
      cl
    } bind def
/clipbox {
      box
      clip
      newpath
    } bind def
%!PS-Adobe-3.0 Resource-Font
%%Title: DejaVu Sans
%%Copyright: Copyright (c) 2003 by Bitstream, Inc. All Rights Reserved. Copyright (c) 2006 by Tavmjong Bah. All Rights Reserved. DejaVu changes are in public domain 
%%Creator: Converted from TrueType to type 3 by PPR
25 dict begin
/_d{bind def}bind def
/_m{moveto}_d
/_l{lineto}_d
/_cl{closepath eofill}_d
/_c{curveto}_d
/_sc{7 -1 roll{setcachedevice}{pop pop pop pop pop pop}ifelse}_d
/_e{exec}_d
/FontName /DejaVuSans def
/PaintType 0 def
/FontMatrix[.001 0 0 .001 0 0]def
/FontBBox[-1021 -463 1793 1232]def
/FontType 3 def
/Encoding [ /space /percent /parenleft /parenright /plus /hyphen /zero /one /two /three /four /five /six /A /C /E /H /K /M /N /O /P /S /T /b /c /d /e /f /i /l /m /n /o /p /r /s /u /minus ] def
/FontInfo 10 dict dup begin
/FamilyName (DejaVu Sans) def
/FullName (DejaVu Sans) def
/Notice (Copyright (c) 2003 by Bitstream, Inc. All Rights Reserved. Copyright (c) 2006 by Tavmjong Bah. All Rights Reserved. DejaVu changes are in public domain ) def
/Weight (Book) def
/Version (Version 2.35) def
/ItalicAngle 0.0 def
/isFixedPitch false def
/UnderlinePosition -130 def
/UnderlineThickness 90 def
end readonly def
/CharStrings 40 dict dup begin
/.notdef 0 def
/space{318 0 0 0 0 0 _sc
}_d
/percent{{950 0 55 -13 895 742 _sc
727 321 _m
699 321 676 309 660 285 _c
644 261 636 227 636 184 _c
636 142 644 108 660 84 _c
676 60 699 48 727 48 _c
755 48 777 60 793 84 _c
809 108 817 142 817 184 _c
817 226 809 260 793 284 _c
777 308 755 321 727 321 _c
727 383 _m
778 383 819 365 849 329 _c
879 293 895 244 895 184 _c
895 123 879 75 849 40 _c
819 4 778 -13 727 -13 _c
}_e{675 -13 633 4 603 40 _c
573 75 558 123 558 184 _c
558 245 573 293 603 329 _c
633 365 675 383 727 383 _c
223 680 _m
195 680 173 667 157 643 _c
141 619 133 586 133 544 _c
133 500 141 467 157 443 _c
173 419 195 407 223 407 _c
251 407 274 419 290 443 _c
306 467 314 500 314 544 _c
314 586 305 619 289 643 _c
273 667 251 680 223 680 _c
664 742 _m
742 742 _l
286 -13 _l
}_e{208 -13 _l
664 742 _l
223 742 _m
274 742 315 724 346 688 _c
376 652 392 604 392 544 _c
392 482 376 434 346 398 _c
316 362 275 345 223 345 _c
171 345 130 362 100 398 _c
70 434 55 482 55 544 _c
55 604 70 652 100 688 _c
130 724 171 742 223 742 _c
_cl}_e}_d
/parenleft{390 0 86 -131 310 759 _sc
310 759 _m
266 683 234 609 213 536 _c
191 463 181 389 181 314 _c
181 238 191 164 213 91 _c
234 17 266 -56 310 -131 _c
232 -131 _l
183 -54 146 20 122 94 _c
98 168 86 241 86 314 _c
86 386 98 459 122 533 _c
146 607 182 682 232 759 _c
310 759 _l
_cl}_d
/parenright{390 0 80 -131 304 759 _sc
80 759 _m
158 759 _l
206 682 243 607 267 533 _c
291 459 304 386 304 314 _c
304 241 291 168 267 94 _c
243 20 206 -54 158 -131 _c
80 -131 _l
123 -56 155 17 177 91 _c
198 164 209 238 209 314 _c
209 389 198 463 177 536 _c
155 609 123 683 80 759 _c
_cl}_d
/plus{838 0 106 0 732 627 _sc
460 627 _m
460 355 _l
732 355 _l
732 272 _l
460 272 _l
460 0 _l
378 0 _l
378 272 _l
106 272 _l
106 355 _l
378 355 _l
378 627 _l
460 627 _l
_cl}_d
/hyphen{361 0 49 234 312 314 _sc
49 314 _m
312 314 _l
312 234 _l
49 234 _l
49 314 _l
_cl}_d
/zero{636 0 66 -13 570 742 _sc
318 664 _m
267 664 229 639 203 589 _c
177 539 165 464 165 364 _c
165 264 177 189 203 139 _c
229 89 267 64 318 64 _c
369 64 407 89 433 139 _c
458 189 471 264 471 364 _c
471 464 458 539 433 589 _c
407 639 369 664 318 664 _c
318 742 _m
399 742 461 709 505 645 _c
548 580 570 486 570 364 _c
570 241 548 147 505 83 _c
461 19 399 -13 318 -13 _c
236 -13 173 19 130 83 _c
87 147 66 241 66 364 _c
66 486 87 580 130 645 _c
173 709 236 742 318 742 _c
_cl}_d
/one{636 0 110 0 544 729 _sc
124 83 _m
285 83 _l
285 639 _l
110 604 _l
110 694 _l
284 729 _l
383 729 _l
383 83 _l
544 83 _l
544 0 _l
124 0 _l
124 83 _l
_cl}_d
/two{{636 0 73 0 536 742 _sc
192 83 _m
536 83 _l
536 0 _l
73 0 _l
73 83 _l
110 121 161 173 226 239 _c
290 304 331 346 348 365 _c
380 400 402 430 414 455 _c
426 479 433 504 433 528 _c
433 566 419 598 392 622 _c
365 646 330 659 286 659 _c
255 659 222 653 188 643 _c
154 632 117 616 78 594 _c
78 694 _l
118 710 155 722 189 730 _c
223 738 255 742 284 742 _c
}_e{359 742 419 723 464 685 _c
509 647 532 597 532 534 _c
532 504 526 475 515 449 _c
504 422 484 390 454 354 _c
446 344 420 317 376 272 _c
332 227 271 164 192 83 _c
_cl}_e}_d
/three{{636 0 76 -13 556 742 _sc
406 393 _m
453 383 490 362 516 330 _c
542 298 556 258 556 212 _c
556 140 531 84 482 45 _c
432 6 362 -13 271 -13 _c
240 -13 208 -10 176 -4 _c
144 1 110 10 76 22 _c
76 117 _l
103 101 133 89 166 81 _c
198 73 232 69 268 69 _c
330 69 377 81 409 105 _c
441 129 458 165 458 212 _c
458 254 443 288 413 312 _c
383 336 341 349 287 349 _c
}_e{202 349 _l
202 430 _l
291 430 _l
339 430 376 439 402 459 _c
428 478 441 506 441 543 _c
441 580 427 609 401 629 _c
374 649 336 659 287 659 _c
260 659 231 656 200 650 _c
169 644 135 635 98 623 _c
98 711 _l
135 721 170 729 203 734 _c
235 739 266 742 296 742 _c
370 742 429 725 473 691 _c
517 657 539 611 539 553 _c
539 513 527 479 504 451 _c
481 423 448 403 406 393 _c
_cl}_e}_d
/four{636 0 49 0 580 729 _sc
378 643 _m
129 254 _l
378 254 _l
378 643 _l
352 729 _m
476 729 _l
476 254 _l
580 254 _l
580 172 _l
476 172 _l
476 0 _l
378 0 _l
378 172 _l
49 172 _l
49 267 _l
352 729 _l
_cl}_d
/five{{636 0 77 -13 549 729 _sc
108 729 _m
495 729 _l
495 646 _l
198 646 _l
198 467 _l
212 472 227 476 241 478 _c
255 480 270 482 284 482 _c
365 482 429 459 477 415 _c
525 370 549 310 549 234 _c
549 155 524 94 475 51 _c
426 8 357 -13 269 -13 _c
238 -13 207 -10 175 -6 _c
143 -1 111 6 77 17 _c
77 116 _l
106 100 136 88 168 80 _c
199 72 232 69 267 69 _c
}_e{323 69 368 83 401 113 _c
433 143 450 183 450 234 _c
450 284 433 324 401 354 _c
368 384 323 399 267 399 _c
241 399 214 396 188 390 _c
162 384 135 375 108 363 _c
108 729 _l
_cl}_e}_d
/six{{636 0 70 -13 573 742 _sc
330 404 _m
286 404 251 388 225 358 _c
199 328 186 286 186 234 _c
186 181 199 139 225 109 _c
251 79 286 64 330 64 _c
374 64 409 79 435 109 _c
461 139 474 181 474 234 _c
474 286 461 328 435 358 _c
409 388 374 404 330 404 _c
526 713 _m
526 623 _l
501 635 476 644 451 650 _c
425 656 400 659 376 659 _c
310 659 260 637 226 593 _c
}_e{192 549 172 482 168 394 _c
187 422 211 444 240 459 _c
269 474 301 482 336 482 _c
409 482 467 459 509 415 _c
551 371 573 310 573 234 _c
573 159 550 99 506 54 _c
462 9 403 -13 330 -13 _c
246 -13 181 19 137 83 _c
92 147 70 241 70 364 _c
70 479 97 571 152 639 _c
206 707 280 742 372 742 _c
396 742 421 739 447 735 _c
472 730 498 723 526 713 _c
_cl}_e}_d
/A{684 0 8 0 676 729 _sc
342 632 _m
208 269 _l
476 269 _l
342 632 _l
286 729 _m
398 729 _l
676 0 _l
573 0 _l
507 187 _l
178 187 _l
112 0 _l
8 0 _l
286 729 _l
_cl}_d
/C{{698 0 56 -13 644 742 _sc
644 673 _m
644 569 _l
610 599 575 622 537 638 _c
499 653 460 661 418 661 _c
334 661 270 635 226 584 _c
182 533 160 460 160 364 _c
160 268 182 194 226 143 _c
270 92 334 67 418 67 _c
460 67 499 74 537 90 _c
575 105 610 128 644 159 _c
644 56 _l
609 32 572 15 534 4 _c
496 -7 455 -13 412 -13 _c
302 -13 215 20 151 87 _c
}_e{87 154 56 246 56 364 _c
56 481 87 573 151 641 _c
215 708 302 742 412 742 _c
456 742 497 736 535 725 _c
573 713 610 696 644 673 _c
_cl}_e}_d
/E{632 0 98 0 568 729 _sc
98 729 _m
559 729 _l
559 646 _l
197 646 _l
197 430 _l
544 430 _l
544 347 _l
197 347 _l
197 83 _l
568 83 _l
568 0 _l
98 0 _l
98 729 _l
_cl}_d
/H{752 0 98 0 654 729 _sc
98 729 _m
197 729 _l
197 430 _l
555 430 _l
555 729 _l
654 729 _l
654 0 _l
555 0 _l
555 347 _l
197 347 _l
197 0 _l
98 0 _l
98 729 _l
_cl}_d
/K{656 0 98 0 677 729 _sc
98 729 _m
197 729 _l
197 421 _l
524 729 _l
651 729 _l
289 389 _l
677 0 _l
547 0 _l
197 351 _l
197 0 _l
98 0 _l
98 729 _l
_cl}_d
/M{863 0 98 0 765 729 _sc
98 729 _m
245 729 _l
431 233 _l
618 729 _l
765 729 _l
765 0 _l
669 0 _l
669 640 _l
481 140 _l
382 140 _l
194 640 _l
194 0 _l
98 0 _l
98 729 _l
_cl}_d
/N{748 0 98 0 650 729 _sc
98 729 _m
231 729 _l
554 119 _l
554 729 _l
650 729 _l
650 0 _l
517 0 _l
194 610 _l
194 0 _l
98 0 _l
98 729 _l
_cl}_d
/O{787 0 56 -13 731 742 _sc
394 662 _m
322 662 265 635 223 582 _c
181 528 160 456 160 364 _c
160 272 181 199 223 146 _c
265 92 322 66 394 66 _c
465 66 522 92 564 146 _c
606 199 627 272 627 364 _c
627 456 606 528 564 582 _c
522 635 465 662 394 662 _c
394 742 _m
496 742 577 707 639 639 _c
700 571 731 479 731 364 _c
731 248 700 157 639 89 _c
577 21 496 -13 394 -13 _c
291 -13 209 21 148 89 _c
86 157 56 248 56 364 _c
56 479 86 571 148 639 _c
209 707 291 742 394 742 _c
_cl}_d
/P{603 0 98 0 569 729 _sc
197 648 _m
197 374 _l
321 374 _l
367 374 402 385 427 409 _c
452 433 465 467 465 511 _c
465 555 452 588 427 612 _c
402 636 367 648 321 648 _c
197 648 _l
98 729 _m
321 729 _l
402 729 464 710 506 673 _c
548 636 569 582 569 511 _c
569 439 548 384 506 348 _c
464 311 402 293 321 293 _c
197 293 _l
197 0 _l
98 0 _l
98 729 _l
_cl}_d
/S{{635 0 66 -13 579 742 _sc
535 705 _m
535 609 _l
497 627 462 640 429 649 _c
395 657 363 662 333 662 _c
279 662 237 651 208 631 _c
179 610 165 580 165 542 _c
165 510 174 485 194 469 _c
213 452 250 439 304 429 _c
364 417 _l
437 403 491 378 526 343 _c
561 307 579 260 579 201 _c
579 130 555 77 508 41 _c
460 5 391 -13 300 -13 _c
265 -13 228 -9 189 -2 _c
}_e{150 5 110 16 69 32 _c
69 134 _l
109 111 148 94 186 83 _c
224 71 262 66 300 66 _c
356 66 399 77 430 99 _c
460 121 476 152 476 194 _c
476 230 465 258 443 278 _c
421 298 385 313 335 323 _c
275 335 _l
201 349 148 372 115 404 _c
82 435 66 478 66 534 _c
66 598 88 649 134 686 _c
179 723 242 742 322 742 _c
356 742 390 739 426 733 _c
461 727 497 717 535 705 _c
}_e{_cl}_e}_d
/T{611 0 -2 0 614 729 _sc
-2 729 _m
614 729 _l
614 646 _l
355 646 _l
355 0 _l
256 0 _l
256 646 _l
-2 646 _l
-2 729 _l
_cl}_d
/b{{635 0 91 -13 580 760 _sc
487 273 _m
487 339 473 390 446 428 _c
418 466 381 485 334 485 _c
286 485 249 466 222 428 _c
194 390 181 339 181 273 _c
181 207 194 155 222 117 _c
249 79 286 61 334 61 _c
381 61 418 79 446 117 _c
473 155 487 207 487 273 _c
181 464 _m
199 496 223 520 252 536 _c
281 552 316 560 356 560 _c
422 560 476 533 518 481 _c
559 428 580 359 580 273 _c
}_e{580 187 559 117 518 65 _c
476 13 422 -13 356 -13 _c
316 -13 281 -5 252 10 _c
223 25 199 49 181 82 _c
181 0 _l
91 0 _l
91 760 _l
181 760 _l
181 464 _l
_cl}_e}_d
/c{{550 0 55 -13 488 560 _sc
488 526 _m
488 442 _l
462 456 437 466 411 473 _c
385 480 360 484 334 484 _c
276 484 230 465 198 428 _c
166 391 150 339 150 273 _c
150 206 166 154 198 117 _c
230 80 276 62 334 62 _c
360 62 385 65 411 72 _c
437 79 462 90 488 104 _c
488 21 _l
462 9 436 0 410 -5 _c
383 -10 354 -13 324 -13 _c
242 -13 176 12 128 64 _c
}_e{79 115 55 185 55 273 _c
55 362 79 432 128 483 _c
177 534 244 560 330 560 _c
358 560 385 557 411 551 _c
437 545 463 537 488 526 _c
_cl}_e}_d
/d{{635 0 55 -13 544 760 _sc
454 464 _m
454 760 _l
544 760 _l
544 0 _l
454 0 _l
454 82 _l
435 49 411 25 382 10 _c
353 -5 319 -13 279 -13 _c
213 -13 159 13 117 65 _c
75 117 55 187 55 273 _c
55 359 75 428 117 481 _c
159 533 213 560 279 560 _c
319 560 353 552 382 536 _c
411 520 435 496 454 464 _c
148 273 _m
148 207 161 155 188 117 _c
215 79 253 61 301 61 _c
}_e{348 61 385 79 413 117 _c
440 155 454 207 454 273 _c
454 339 440 390 413 428 _c
385 466 348 485 301 485 _c
253 485 215 466 188 428 _c
161 390 148 339 148 273 _c
_cl}_e}_d
/e{{615 0 55 -13 562 560 _sc
562 296 _m
562 252 _l
149 252 _l
153 190 171 142 205 110 _c
238 78 284 62 344 62 _c
378 62 412 66 444 74 _c
476 82 509 95 541 113 _c
541 28 _l
509 14 476 3 442 -3 _c
408 -9 373 -13 339 -13 _c
251 -13 182 12 131 62 _c
80 112 55 181 55 268 _c
55 357 79 428 127 481 _c
175 533 241 560 323 560 _c
397 560 455 536 498 489 _c
}_e{540 441 562 377 562 296 _c
472 322 _m
471 371 457 410 431 440 _c
404 469 368 484 324 484 _c
274 484 234 469 204 441 _c
174 413 156 373 152 322 _c
472 322 _l
_cl}_e}_d
/f{352 0 23 0 371 760 _sc
371 760 _m
371 685 _l
285 685 _l
253 685 230 678 218 665 _c
205 652 199 629 199 595 _c
199 547 _l
347 547 _l
347 477 _l
199 477 _l
199 0 _l
109 0 _l
109 477 _l
23 477 _l
23 547 _l
109 547 _l
109 585 _l
109 645 123 690 151 718 _c
179 746 224 760 286 760 _c
371 760 _l
_cl}_d
/i{278 0 94 0 184 760 _sc
94 547 _m
184 547 _l
184 0 _l
94 0 _l
94 547 _l
94 760 _m
184 760 _l
184 646 _l
94 646 _l
94 760 _l
_cl}_d
/l{278 0 94 0 184 760 _sc
94 760 _m
184 760 _l
184 0 _l
94 0 _l
94 760 _l
_cl}_d
/m{{974 0 91 0 889 560 _sc
520 442 _m
542 482 569 511 600 531 _c
631 550 668 560 711 560 _c
767 560 811 540 842 500 _c
873 460 889 403 889 330 _c
889 0 _l
799 0 _l
799 327 _l
799 379 789 418 771 444 _c
752 469 724 482 686 482 _c
639 482 602 466 575 435 _c
548 404 535 362 535 309 _c
535 0 _l
445 0 _l
445 327 _l
445 379 435 418 417 444 _c
398 469 369 482 331 482 _c
}_e{285 482 248 466 221 435 _c
194 404 181 362 181 309 _c
181 0 _l
91 0 _l
91 547 _l
181 547 _l
181 462 _l
201 495 226 520 255 536 _c
283 552 317 560 357 560 _c
397 560 430 550 458 530 _c
486 510 506 480 520 442 _c
_cl}_e}_d
/n{634 0 91 0 549 560 _sc
549 330 _m
549 0 _l
459 0 _l
459 327 _l
459 379 448 417 428 443 _c
408 469 378 482 338 482 _c
289 482 251 466 223 435 _c
195 404 181 362 181 309 _c
181 0 _l
91 0 _l
91 547 _l
181 547 _l
181 462 _l
202 494 227 519 257 535 _c
286 551 320 560 358 560 _c
420 560 468 540 500 501 _c
532 462 549 405 549 330 _c
_cl}_d
/o{612 0 55 -13 557 560 _sc
306 484 _m
258 484 220 465 192 427 _c
164 389 150 338 150 273 _c
150 207 163 156 191 118 _c
219 80 257 62 306 62 _c
354 62 392 80 420 118 _c
448 156 462 207 462 273 _c
462 337 448 389 420 427 _c
392 465 354 484 306 484 _c
306 560 _m
384 560 445 534 490 484 _c
534 433 557 363 557 273 _c
557 183 534 113 490 63 _c
445 12 384 -13 306 -13 _c
227 -13 165 12 121 63 _c
77 113 55 183 55 273 _c
55 363 77 433 121 484 _c
165 534 227 560 306 560 _c
_cl}_d
/p{{635 0 91 -207 580 560 _sc
181 82 _m
181 -207 _l
91 -207 _l
91 547 _l
181 547 _l
181 464 _l
199 496 223 520 252 536 _c
281 552 316 560 356 560 _c
422 560 476 533 518 481 _c
559 428 580 359 580 273 _c
580 187 559 117 518 65 _c
476 13 422 -13 356 -13 _c
316 -13 281 -5 252 10 _c
223 25 199 49 181 82 _c
487 273 _m
487 339 473 390 446 428 _c
418 466 381 485 334 485 _c
}_e{286 485 249 466 222 428 _c
194 390 181 339 181 273 _c
181 207 194 155 222 117 _c
249 79 286 61 334 61 _c
381 61 418 79 446 117 _c
473 155 487 207 487 273 _c
_cl}_e}_d
/r{411 0 91 0 411 560 _sc
411 463 _m
401 469 390 473 378 476 _c
366 478 353 480 339 480 _c
288 480 249 463 222 430 _c
194 397 181 350 181 288 _c
181 0 _l
91 0 _l
91 547 _l
181 547 _l
181 462 _l
199 495 224 520 254 536 _c
284 552 321 560 365 560 _c
371 560 378 559 386 559 _c
393 558 401 557 411 555 _c
411 463 _l
_cl}_d
/s{{521 0 54 -13 472 560 _sc
443 531 _m
443 446 _l
417 458 391 468 364 475 _c
336 481 308 485 279 485 _c
234 485 200 478 178 464 _c
156 450 145 430 145 403 _c
145 382 153 366 169 354 _c
185 342 217 330 265 320 _c
296 313 _l
360 299 405 279 432 255 _c
458 230 472 195 472 151 _c
472 100 452 60 412 31 _c
372 1 316 -13 246 -13 _c
216 -13 186 -10 154 -5 _c
}_e{122 0 89 8 54 20 _c
54 113 _l
87 95 120 82 152 74 _c
184 65 216 61 248 61 _c
290 61 323 68 346 82 _c
368 96 380 117 380 144 _c
380 168 371 187 355 200 _c
339 213 303 226 247 238 _c
216 245 _l
160 257 119 275 95 299 _c
70 323 58 356 58 399 _c
58 450 76 490 112 518 _c
148 546 200 560 268 560 _c
301 560 332 557 362 552 _c
391 547 418 540 443 531 _c
}_e{_cl}_e}_d
/u{634 0 85 -13 543 560 _sc
85 216 _m
85 547 _l
175 547 _l
175 219 _l
175 167 185 129 205 103 _c
225 77 255 64 296 64 _c
344 64 383 79 411 110 _c
439 141 453 183 453 237 _c
453 547 _l
543 547 _l
543 0 _l
453 0 _l
453 84 _l
431 50 405 26 377 10 _c
348 -5 315 -13 277 -13 _c
214 -13 166 6 134 45 _c
101 83 85 140 85 216 _c
311 560 _m
311 560 _l
_cl}_d
/minus{838 0 106 272 732 355 _sc
106 355 _m
732 355 _l
732 272 _l
106 272 _l
106 355 _l
_cl}_d
end readonly def

/BuildGlyph
 {exch begin
 CharStrings exch
 2 copy known not{pop /.notdef}if
 true 3 1 roll get exec
 end}_d

/BuildChar {
 1 index /Encoding get exch get
 1 index /BuildGlyph get exec
}_d

FontName currentdict end definefont pop
end
%%EndProlog
mpldict begin
-234 36 translate
1080 720 0 0 clipbox
gsave
0 0 m
1080 0 l
1080 720 l
0 720 l
cl
1.000 setgray
fill
grestore
gsave
135 79.2 m
972 79.2 l
972 633.6 l
135 633.6 l
cl
1.000 setgray
fill
grestore
0.800 setlinewidth
1 setlinejoin
0 setlinecap
[] 0 setdash
0.000 setgray
gsave
/o {
gsave
newpath
translate
0.8 setlinewidth
1 setlinejoin
0 setlinecap
0 0 m
0 -3.5 l

gsave
0.000 setgray
fill
grestore
stroke
grestore
} bind def
160.968 79.2 o
grestore
/DejaVuSans findfont
12.000 scalefont
setfont
gsave
157.147220 63.075000 translate
0.000000 rotate
0.000000 0 m /zero glyphshow
grestore
gsave
/o {
gsave
newpath
translate
0.8 setlinewidth
1 setlinejoin
0 setlinecap
0 0 m
0 -3.5 l

gsave
0.000 setgray
fill
grestore
stroke
grestore
} bind def
281.747 79.2 o
grestore
gsave
274.106128 63.075000 translate
0.000000 rotate
0.000000 0 m /one glyphshow
7.634766 0 m /zero glyphshow
grestore
gsave
/o {
gsave
newpath
translate
0.8 setlinewidth
1 setlinejoin
0 setlinecap
0 0 m
0 -3.5 l

gsave
0.000 setgray
fill
grestore
stroke
grestore
} bind def
402.526 79.2 o
grestore
gsave
394.885349 63.075000 translate
0.000000 rotate
0.000000 0 m /two glyphshow
7.634766 0 m /zero glyphshow
grestore
gsave
/o {
gsave
newpath
translate
0.8 setlinewidth
1 setlinejoin
0 setlinecap
0 0 m
0 -3.5 l

gsave
0.000 setgray
fill
grestore
stroke
grestore
} bind def
523.305 79.2 o
grestore
gsave
515.664570 63.075000 translate
0.000000 rotate
0.000000 0 m /three glyphshow
7.634766 0 m /zero glyphshow
grestore
gsave
/o {
gsave
newpath
translate
0.8 setlinewidth
1 setlinejoin
0 setlinecap
0 0 m
0 -3.5 l

gsave
0.000 setgray
fill
grestore
stroke
grestore
} bind def
644.084 79.2 o
grestore
gsave
636.443791 63.075000 translate
0.000000 rotate
0.000000 0 m /four glyphshow
7.634766 0 m /zero glyphshow
grestore
gsave
/o {
gsave
newpath
translate
0.8 setlinewidth
1 setlinejoin
0 setlinecap
0 0 m
0 -3.5 l

gsave
0.000 setgray
fill
grestore
stroke
grestore
} bind def
764.864 79.2 o
grestore
gsave
757.223011 63.075000 translate
0.000000 rotate
0.000000 0 m /five glyphshow
7.634766 0 m /zero glyphshow
grestore
gsave
/o {
gsave
newpath
translate
0.8 setlinewidth
1 setlinejoin
0 setlinecap
0 0 m
0 -3.5 l

gsave
0.000 setgray
fill
grestore
stroke
grestore
} bind def
885.643 79.2 o
grestore
gsave
878.002232 63.075000 translate
0.000000 rotate
0.000000 0 m /six glyphshow
7.634766 0 m /zero glyphshow
grestore
gsave
503.656250 47.450000 translate
0.000000 rotate
0.000000 0 m /N glyphshow
8.976562 0 m /u glyphshow
16.582031 0 m /m glyphshow
28.271484 0 m /b glyphshow
35.888672 0 m /e glyphshow
43.271484 0 m /r glyphshow
48.205078 0 m /space glyphshow
52.019531 0 m /o glyphshow
59.361328 0 m /f glyphshow
63.585938 0 m /space glyphshow
67.400391 0 m /c glyphshow
73.998047 0 m /o glyphshow
81.339844 0 m /r glyphshow
86.023438 0 m /e glyphshow
93.406250 0 m /s glyphshow
grestore
gsave
/o {
gsave
newpath
translate
0.8 setlinewidth
1 setlinejoin
0 setlinecap
-0 0 m
-3.5 0 l

gsave
0.000 setgray
fill
grestore
stroke
grestore
} bind def
135 134.64 o
grestore
gsave
102.656250 130.077500 translate
0.000000 rotate
0.000000 0 m /minus glyphshow
10.054688 0 m /four glyphshow
17.689453 0 m /zero glyphshow
grestore
gsave
/o {
gsave
newpath
translate
0.8 setlinewidth
1 setlinejoin
0 setlinecap
-0 0 m
-3.5 0 l

gsave
0.000 setgray
fill
grestore
stroke
grestore
} bind def
135 245.52 o
grestore
gsave
102.656250 240.957500 translate
0.000000 rotate
0.000000 0 m /minus glyphshow
10.054688 0 m /two glyphshow
17.689453 0 m /zero glyphshow
grestore
gsave
/o {
gsave
newpath
translate
0.8 setlinewidth
1 setlinejoin
0 setlinecap
-0 0 m
-3.5 0 l

gsave
0.000 setgray
fill
grestore
stroke
grestore
} bind def
135 356.4 o
grestore
gsave
120.359375 351.837500 translate
0.000000 rotate
0.000000 0 m /zero glyphshow
grestore
gsave
/o {
gsave
newpath
translate
0.8 setlinewidth
1 setlinejoin
0 setlinecap
-0 0 m
-3.5 0 l

gsave
0.000 setgray
fill
grestore
stroke
grestore
} bind def
135 467.28 o
grestore
gsave
112.718750 462.717500 translate
0.000000 rotate
0.000000 0 m /two glyphshow
7.634766 0 m /zero glyphshow
grestore
gsave
/o {
gsave
newpath
translate
0.8 setlinewidth
1 setlinejoin
0 setlinecap
-0 0 m
-3.5 0 l

gsave
0.000 setgray
fill
grestore
stroke
grestore
} bind def
135 578.16 o
grestore
gsave
112.718750 573.597500 translate
0.000000 rotate
0.000000 0 m /four glyphshow
7.634766 0 m /zero glyphshow
grestore
gsave
96.156250 300.915625 translate
90.000000 rotate
0.000000 0 m /P glyphshow
6.986328 0 m /r glyphshow
11.669922 0 m /e glyphshow
19.052734 0 m /c glyphshow
25.650391 0 m /i glyphshow
28.984375 0 m /s glyphshow
35.236328 0 m /i glyphshow
38.570312 0 m /o glyphshow
45.912109 0 m /n glyphshow
53.517578 0 m /space glyphshow
57.332031 0 m /e glyphshow
64.714844 0 m /r glyphshow
69.398438 0 m /r glyphshow
74.082031 0 m /o glyphshow
81.423828 0 m /r glyphshow
86.357422 0 m /space glyphshow
90.171875 0 m /parenleft glyphshow
94.853516 0 m /percent glyphshow
106.255859 0 m /parenright glyphshow
grestore
1.500 setlinewidth
2 setlinecap
0.500 0.000 1.000 setrgbcolor
gsave
837 554.4 135 79.2 clipbox
173.045455 355.439443 m
185.123377 357.122857 l
197.201299 356.10793 l
209.279221 357.793776 l
221.357143 356.403116 l
233.435065 357.840656 l
245.512987 358.156348 l
257.590909 356.236402 l
269.668831 357.652486 l
281.746753 356.983704 l
293.824675 358.390999 l
305.902597 357.040483 l
317.980519 357.617306 l
330.058442 359.192141 l
342.136364 357.666299 l
354.214286 357.914137 l
366.292208 359.096987 l
378.37013 359.825602 l
390.448052 360.832025 l
402.525974 361.278587 l
414.603896 360.910744 l
426.681818 359.85843 l
438.75974 361.6584 l
450.837662 362.436256 l
462.915584 360.239299 l
474.993506 363.089106 l
487.071429 366.643893 l
499.149351 364.725443 l
511.227273 362.211307 l
523.305195 362.360983 l
535.383117 365.04947 l
547.461039 362.166479 l
559.538961 366.374299 l
571.616883 362.272175 l
583.694805 361.243591 l
595.772727 367.70249 l
607.850649 372.525584 l
619.928571 367.93867 l
632.006494 364.404423 l
644.084416 373.205932 l
656.162338 375.408725 l
668.24026 370.501944 l
680.318182 377.015522 l
692.396104 371.163052 l
704.474026 372.825868 l
716.551948 372.464029 l
728.62987 377.996605 l
740.707792 375.617322 l
752.785714 371.198565 l
764.863636 374.081948 l
776.941558 382.912612 l
789.019481 377.445134 l
801.097403 379.726795 l
813.175325 369.363966 l
825.253247 375.2413 l
837.331169 373.277419 l
849.409091 371.853555 l
861.487013 371.435633 l
873.564935 372.526349 l
885.642857 381.789379 l
897.720779 369.399846 l
909.798701 382.154741 l
921.876623 375.95896 l
933.954545 378.688402 l
stroke
grestore
1.000 setlinewidth
0 setlinejoin
0 setlinecap
gsave
837 554.4 135 79.2 clipbox
/o {
gsave
newpath
translate
1.0 setlinewidth
0 setlinejoin
0 setlinecap
-0 -3 m
3 3 l
-3 3 l
cl

gsave
0.500 0.000 1.000 setrgbcolor
fill
grestore
stroke
grestore
} bind def
173.045 355.439 o
185.123 357.123 o
197.201 356.108 o
209.279 357.794 o
221.357 356.403 o
233.435 357.841 o
245.513 358.156 o
257.591 356.236 o
269.669 357.652 o
281.747 356.984 o
293.825 358.391 o
305.903 357.04 o
317.981 357.617 o
330.058 359.192 o
342.136 357.666 o
354.214 357.914 o
366.292 359.097 o
378.37 359.826 o
390.448 360.832 o
402.526 361.279 o
414.604 360.911 o
426.682 359.858 o
438.76 361.658 o
450.838 362.436 o
462.916 360.239 o
474.994 363.089 o
487.071 366.644 o
499.149 364.725 o
511.227 362.211 o
523.305 362.361 o
535.383 365.049 o
547.461 362.166 o
559.539 366.374 o
571.617 362.272 o
583.695 361.244 o
595.773 367.702 o
607.851 372.526 o
619.929 367.939 o
632.006 364.404 o
644.084 373.206 o
656.162 375.409 o
668.24 370.502 o
680.318 377.016 o
692.396 371.163 o
704.474 372.826 o
716.552 372.464 o
728.63 377.997 o
740.708 375.617 o
752.786 371.199 o
764.864 374.082 o
776.942 382.913 o
789.019 377.445 o
801.097 379.727 o
813.175 369.364 o
825.253 375.241 o
837.331 373.277 o
849.409 371.854 o
861.487 371.436 o
873.565 372.526 o
885.643 381.789 o
897.721 369.4 o
909.799 382.155 o
921.877 375.959 o
933.955 378.688 o
grestore
1.500 setlinewidth
1 setlinejoin
2 setlinecap
0.167 0.866 0.866 setrgbcolor
gsave
837 554.4 135 79.2 clipbox
173.045455 356.706319 m
185.123377 358.406513 l
197.201299 357.312643 l
209.279221 358.941806 l
221.357143 357.59371 l
233.435065 359.096717 l
245.512987 359.270476 l
257.590909 357.330227 l
269.668831 359.069966 l
281.746753 358.251739 l
293.824675 359.528295 l
305.902597 358.548338 l
317.980519 358.940882 l
330.058442 360.442031 l
342.136364 359.248967 l
354.214286 358.994699 l
366.292208 360.447192 l
378.37013 361.28044 l
390.448052 362.10217 l
402.525974 362.396706 l
414.603896 361.122412 l
426.681818 361.646972 l
438.75974 362.064973 l
450.837662 365.481679 l
462.915584 362.645046 l
474.993506 364.294182 l
487.071429 369.120516 l
499.149351 365.902525 l
511.227273 362.794979 l
523.305195 363.608956 l
535.383117 365.788459 l
547.461039 363.63358 l
559.538961 365.940296 l
571.616883 363.671679 l
583.694805 362.792046 l
595.772727 368.41433 l
607.850649 371.066881 l
619.928571 366.509748 l
632.006494 366.784565 l
644.084416 375.154072 l
656.162338 377.189126 l
668.24026 373.017396 l
680.318182 379.150596 l
692.396104 371.221446 l
704.474026 372.606107 l
716.551948 373.656438 l
728.62987 379.291064 l
740.707792 375.984223 l
752.785714 370.019651 l
764.863636 375.219761 l
776.941558 384.308292 l
789.019481 379.37175 l
801.097403 380.243755 l
813.175325 371.746879 l
825.253247 376.545908 l
837.331169 375.243522 l
849.409091 375.387909 l
861.487013 373.442688 l
873.564935 373.227097 l
885.642857 382.937708 l
897.720779 367.442323 l
909.798701 384.358237 l
921.876623 375.825033 l
933.954545 380.603884 l
stroke
grestore
1.000 setlinewidth
0 setlinecap
gsave
837 554.4 135 79.2 clipbox
/o {
gsave
newpath
translate
1.0 setlinewidth
1 setlinejoin
0 setlinecap
0 -3 m
0.795609 -3 1.55874 -2.683901 2.12132 -2.12132 c
2.683901 -1.55874 3 -0.795609 3 0 c
3 0.795609 2.683901 1.55874 2.12132 2.12132 c
1.55874 2.683901 0.795609 3 0 3 c
-0.795609 3 -1.55874 2.683901 -2.12132 2.12132 c
-2.683901 1.55874 -3 0.795609 -3 0 c
-3 -0.795609 -2.683901 -1.55874 -2.12132 -2.12132 c
-1.55874 -2.683901 -0.795609 -3 0 -3 c
cl

gsave
0.167 0.866 0.866 setrgbcolor
fill
grestore
stroke
grestore
} bind def
173.045 356.706 o
185.123 358.407 o
197.201 357.313 o
209.279 358.942 o
221.357 357.594 o
233.435 359.097 o
245.513 359.27 o
257.591 357.33 o
269.669 359.07 o
281.747 358.252 o
293.825 359.528 o
305.903 358.548 o
317.981 358.941 o
330.058 360.442 o
342.136 359.249 o
354.214 358.995 o
366.292 360.447 o
378.37 361.28 o
390.448 362.102 o
402.526 362.397 o
414.604 361.122 o
426.682 361.647 o
438.76 362.065 o
450.838 365.482 o
462.916 362.645 o
474.994 364.294 o
487.071 369.121 o
499.149 365.903 o
511.227 362.795 o
523.305 363.609 o
535.383 365.788 o
547.461 363.634 o
559.539 365.94 o
571.617 363.672 o
583.695 362.792 o
595.773 368.414 o
607.851 371.067 o
619.929 366.51 o
632.006 366.785 o
644.084 375.154 o
656.162 377.189 o
668.24 373.017 o
680.318 379.151 o
692.396 371.221 o
704.474 372.606 o
716.552 373.656 o
728.63 379.291 o
740.708 375.984 o
752.786 370.02 o
764.864 375.22 o
776.942 384.308 o
789.019 379.372 o
801.097 380.244 o
813.175 371.747 o
825.253 376.546 o
837.331 375.244 o
849.409 375.388 o
861.487 373.443 o
873.565 373.227 o
885.643 382.938 o
897.721 367.442 o
909.799 384.358 o
921.877 375.825 o
933.955 380.604 o
grestore
1.500 setlinewidth
2 setlinecap
0.833 0.866 0.500 setrgbcolor
gsave
837 554.4 135 79.2 clipbox
173.045455 355.375154 m
185.123377 357.05991 l
197.201299 356.046236 l
209.279221 357.731238 l
221.357143 356.332203 l
233.435065 357.787111 l
245.512987 358.055064 l
257.590909 356.022392 l
269.668831 357.899294 l
281.746753 356.95775 l
293.824675 358.395061 l
305.902597 357.182399 l
317.980519 357.727604 l
330.058442 359.264151 l
342.136364 357.864891 l
354.214286 357.578811 l
366.292208 358.21179 l
378.37013 359.864353 l
390.448052 360.08183 l
402.525974 359.850644 l
414.603896 359.503682 l
426.681818 358.895676 l
438.75974 359.426397 l
450.837662 362.935647 l
462.915584 358.821402 l
474.993506 359.318113 l
487.071429 363.242127 l
499.149351 362.125514 l
511.227273 360.21236 l
523.305195 360.116337 l
535.383117 361.28435 l
547.461039 358.13932 l
559.538961 359.512639 l
571.616883 358.131079 l
583.694805 358.523964 l
595.772727 363.706679 l
607.850649 366.509072 l
619.928571 361.626726 l
632.006494 360.137699 l
644.084416 365.102052 l
656.162338 369.984645 l
668.24026 359.792004 l
680.318182 370.258062 l
692.396104 357.403029 l
704.474026 361.277034 l
716.551948 363.421079 l
728.62987 365.339853 l
740.707792 362.860331 l
752.785714 357.484469 l
764.863636 361.102632 l
776.941558 367.241497 l
789.019481 363.620732 l
801.097403 364.092195 l
813.175325 352.873574 l
825.253247 359.117129 l
837.331169 355.343128 l
849.409091 356.070965 l
861.487013 353.875317 l
873.564935 356.449129 l
885.642857 358.813215 l
897.720779 348.155492 l
909.798701 359.937609 l
921.876623 356.759404 l
933.954545 355.79115 l
stroke
grestore
1.000 setlinewidth
2 setlinejoin
0 setlinecap
gsave
837 554.4 135 79.2 clipbox
/o {
gsave
newpath
translate
1.0 setlinewidth
2 setlinejoin
0 setlinecap
0 3 m
-0.673542 0.927051 l
-2.85317 0.927051 l
-1.089814 -0.354102 l
-1.763356 -2.427051 l
-0 -1.145898 l
1.763356 -2.427051 l
1.089814 -0.354102 l
2.85317 0.927051 l
0.673542 0.927051 l
cl

gsave
0.833 0.866 0.500 setrgbcolor
fill
grestore
stroke
grestore
} bind def
173.045 355.375 o
185.123 357.06 o
197.201 356.046 o
209.279 357.731 o
221.357 356.332 o
233.435 357.787 o
245.513 358.055 o
257.591 356.022 o
269.669 357.899 o
281.747 356.958 o
293.825 358.395 o
305.903 357.182 o
317.981 357.728 o
330.058 359.264 o
342.136 357.865 o
354.214 357.579 o
366.292 358.212 o
378.37 359.864 o
390.448 360.082 o
402.526 359.851 o
414.604 359.504 o
426.682 358.896 o
438.76 359.426 o
450.838 362.936 o
462.916 358.821 o
474.994 359.318 o
487.071 363.242 o
499.149 362.126 o
511.227 360.212 o
523.305 360.116 o
535.383 361.284 o
547.461 358.139 o
559.539 359.513 o
571.617 358.131 o
583.695 358.524 o
595.773 363.707 o
607.851 366.509 o
619.929 361.627 o
632.006 360.138 o
644.084 365.102 o
656.162 369.985 o
668.24 359.792 o
680.318 370.258 o
692.396 357.403 o
704.474 361.277 o
716.552 363.421 o
728.63 365.34 o
740.708 362.86 o
752.786 357.484 o
764.864 361.103 o
776.942 367.241 o
789.019 363.621 o
801.097 364.092 o
813.175 352.874 o
825.253 359.117 o
837.331 355.343 o
849.409 356.071 o
861.487 353.875 o
873.565 356.449 o
885.643 358.813 o
897.721 348.155 o
909.799 359.938 o
921.877 356.759 o
933.955 355.791 o
grestore
1.500 setlinewidth
1 setlinejoin
2 setlinecap
1.000 0.000 0.000 setrgbcolor
gsave
837 554.4 135 79.2 clipbox
173.045455 356.706319 m
185.123377 358.380286 l
197.201299 357.361999 l
209.279221 359.0103 l
221.357143 357.718741 l
233.435065 359.114565 l
245.512987 359.340596 l
257.590909 357.28267 l
269.668831 358.98992 l
281.746753 358.055231 l
293.824675 359.589221 l
305.902597 358.233462 l
317.980519 358.255116 l
330.058442 359.984253 l
342.136364 358.372404 l
354.214286 358.291159 l
366.292208 359.690231 l
378.37013 360.259097 l
390.448052 360.119167 l
402.525974 358.630943 l
414.603896 359.410031 l
426.681818 358.69341 l
438.75974 358.450622 l
450.837662 360.685806 l
462.915584 357.522262 l
474.993506 357.535682 l
487.071429 357.941234 l
499.149351 358.491783 l
511.227273 359.001628 l
523.305195 354.458935 l
535.383117 355.410806 l
547.461039 352.711952 l
559.538961 350.492566 l
571.616883 348.978083 l
583.694805 347.083833 l
595.772727 353.14793 l
607.850649 349.867055 l
619.928571 347.382168 l
632.006494 339.88829 l
644.084416 326.791814 l
656.162338 336.31309 l
668.24026 334.260604 l
680.318182 340.465185 l
692.396104 330.660073 l
704.474026 336.977497 l
716.551948 334.944621 l
728.62987 338.087771 l
740.707792 333.267364 l
752.785714 321.475952 l
764.863636 333.539518 l
776.941558 338.893093 l
789.019481 322.393872 l
801.097403 322.588908 l
813.175325 317.637723 l
825.253247 319.567275 l
837.331169 310.543033 l
849.409091 309.216746 l
861.487013 303.657657 l
873.564935 302.718116 l
885.642857 301.519217 l
897.720779 295.823864 l
909.798701 315.563423 l
921.876623 310.948326 l
933.954545 295.964536 l
stroke
grestore
1.000 setlinewidth
0 setlinecap
gsave
837 554.4 135 79.2 clipbox
/o {
gsave
newpath
translate
1.0 setlinewidth
1 setlinejoin
0 setlinecap
0 -1.5 m
0.397805 -1.5 0.77937 -1.341951 1.06066 -1.06066 c
1.341951 -0.77937 1.5 -0.397805 1.5 0 c
1.5 0.397805 1.341951 0.77937 1.06066 1.06066 c
0.77937 1.341951 0.397805 1.5 0 1.5 c
-0.397805 1.5 -0.77937 1.341951 -1.06066 1.06066 c
-1.341951 0.77937 -1.5 0.397805 -1.5 0 c
-1.5 -0.397805 -1.341951 -0.77937 -1.06066 -1.06066 c
-0.77937 -1.341951 -0.397805 -1.5 0 -1.5 c
cl

gsave
1.000 0.000 0.000 setrgbcolor
fill
grestore
stroke
grestore
} bind def
173.045 356.706 o
185.123 358.38 o
197.201 357.362 o
209.279 359.01 o
221.357 357.719 o
233.435 359.115 o
245.513 359.341 o
257.591 357.283 o
269.669 358.99 o
281.747 358.055 o
293.825 359.589 o
305.903 358.233 o
317.981 358.255 o
330.058 359.984 o
342.136 358.372 o
354.214 358.291 o
366.292 359.69 o
378.37 360.259 o
390.448 360.119 o
402.526 358.631 o
414.604 359.41 o
426.682 358.693 o
438.76 358.451 o
450.838 360.686 o
462.916 357.522 o
474.994 357.536 o
487.071 357.941 o
499.149 358.492 o
511.227 359.002 o
523.305 354.459 o
535.383 355.411 o
547.461 352.712 o
559.539 350.493 o
571.617 348.978 o
583.695 347.084 o
595.773 353.148 o
607.851 349.867 o
619.929 347.382 o
632.006 339.888 o
644.084 326.792 o
656.162 336.313 o
668.24 334.261 o
680.318 340.465 o
692.396 330.66 o
704.474 336.977 o
716.552 334.945 o
728.63 338.088 o
740.708 333.267 o
752.786 321.476 o
764.864 333.54 o
776.942 338.893 o
789.019 322.394 o
801.097 322.589 o
813.175 317.638 o
825.253 319.567 o
837.331 310.543 o
849.409 309.217 o
861.487 303.658 o
873.565 302.718 o
885.643 301.519 o
897.721 295.824 o
909.799 315.563 o
921.877 310.948 o
933.955 295.965 o
grestore
0.100 setlinewidth
2 setlinecap
0.000 setgray
gsave
837 554.4 135 79.2 clipbox
-1 79.2 m
1081 79.2 l
stroke
grestore
gsave
837 554.4 135 79.2 clipbox
-1 106.92 m
1081 106.92 l
stroke
grestore
gsave
837 554.4 135 79.2 clipbox
-1 134.64 m
1081 134.64 l
stroke
grestore
gsave
837 554.4 135 79.2 clipbox
-1 162.36 m
1081 162.36 l
stroke
grestore
gsave
837 554.4 135 79.2 clipbox
-1 190.08 m
1081 190.08 l
stroke
grestore
gsave
837 554.4 135 79.2 clipbox
-1 217.8 m
1081 217.8 l
stroke
grestore
gsave
837 554.4 135 79.2 clipbox
-1 245.52 m
1081 245.52 l
stroke
grestore
gsave
837 554.4 135 79.2 clipbox
-1 273.24 m
1081 273.24 l
stroke
grestore
gsave
837 554.4 135 79.2 clipbox
-1 300.96 m
1081 300.96 l
stroke
grestore
gsave
837 554.4 135 79.2 clipbox
-1 328.68 m
1081 328.68 l
stroke
grestore
gsave
837 554.4 135 79.2 clipbox
-1 356.4 m
1081 356.4 l
stroke
grestore
gsave
837 554.4 135 79.2 clipbox
-1 384.12 m
1081 384.12 l
stroke
grestore
gsave
837 554.4 135 79.2 clipbox
-1 411.84 m
1081 411.84 l
stroke
grestore
gsave
837 554.4 135 79.2 clipbox
-1 439.56 m
1081 439.56 l
stroke
grestore
gsave
837 554.4 135 79.2 clipbox
-1 467.28 m
1081 467.28 l
stroke
grestore
gsave
837 554.4 135 79.2 clipbox
-1 495 m
1081 495 l
stroke
grestore
gsave
837 554.4 135 79.2 clipbox
-1 522.72 m
1081 522.72 l
stroke
grestore
gsave
837 554.4 135 79.2 clipbox
-1 550.44 m
1081 550.44 l
stroke
grestore
gsave
837 554.4 135 79.2 clipbox
-1 578.16 m
1081 578.16 l
stroke
grestore
gsave
837 554.4 135 79.2 clipbox
-1 605.88 m
1081 605.88 l
stroke
grestore
0.800 setlinewidth
0 setlinejoin
gsave
135 79.2 m
135 633.6 l
stroke
grestore
gsave
972 79.2 m
972 633.6 l
stroke
grestore
gsave
135 79.2 m
972 79.2 l
stroke
grestore
gsave
135 633.6 m
972 633.6 l
stroke
grestore
1.000 setlinewidth
0 setlinecap
0.800 setgray
gsave
750.66875 553.5 m
963.6 553.5 l
965.2 553.5 966 554.3 966 555.9 c
966 625.2 l
966 626.8 965.2 627.6 963.6 627.6 c
750.66875 627.6 l
749.06875 627.6 748.26875 626.8 748.26875 625.2 c
748.26875 555.9 l
748.26875 554.3 749.06875 553.5 750.66875 553.5 c
cl
gsave
1.000 setgray
fill
grestore
stroke
grestore
1.500 setlinewidth
1 setlinejoin
2 setlinecap
0.500 0.000 1.000 setrgbcolor
gsave
753.06875 617.875 m
777.06875 617.875 l
stroke
grestore
1.000 setlinewidth
0 setlinejoin
0 setlinecap
gsave
/o {
gsave
newpath
translate
1.0 setlinewidth
0 setlinejoin
0 setlinecap
-0 -3 m
3 3 l
-3 3 l
cl

gsave
0.500 0.000 1.000 setrgbcolor
fill
grestore
stroke
grestore
} bind def
765.069 617.875 o
grestore
0.000 setgray
gsave
786.668750 613.675000 translate
0.000000 rotate
0.000000 0 m /C glyphshow
8.378906 0 m /O glyphshow
17.824219 0 m /M glyphshow
28.177734 0 m /M glyphshow
38.531250 0 m /plus glyphshow
48.585938 0 m /C glyphshow
56.964844 0 m /A glyphshow
64.923828 0 m /C glyphshow
73.302734 0 m /H glyphshow
82.326172 0 m /E glyphshow
89.908203 0 m /space glyphshow
93.722656 0 m /s glyphshow
99.974609 0 m /i glyphshow
103.308594 0 m /m glyphshow
114.998047 0 m /p glyphshow
122.615234 0 m /l glyphshow
125.949219 0 m /e glyphshow
133.332031 0 m /space glyphshow
137.146484 0 m /m glyphshow
148.835938 0 m /o glyphshow
156.177734 0 m /d glyphshow
163.794922 0 m /e glyphshow
171.177734 0 m /l glyphshow
grestore
1.500 setlinewidth
1 setlinejoin
2 setlinecap
0.167 0.866 0.866 setrgbcolor
gsave
753.06875 600.25 m
777.06875 600.25 l
stroke
grestore
1.000 setlinewidth
0 setlinecap
gsave
/o {
gsave
newpath
translate
1.0 setlinewidth
1 setlinejoin
0 setlinecap
0 -3 m
0.795609 -3 1.55874 -2.683901 2.12132 -2.12132 c
2.683901 -1.55874 3 -0.795609 3 0 c
3 0.795609 2.683901 1.55874 2.12132 2.12132 c
1.55874 2.683901 0.795609 3 0 3 c
-0.795609 3 -1.55874 2.683901 -2.12132 2.12132 c
-2.683901 1.55874 -3 0.795609 -3 0 c
-3 -0.795609 -2.683901 -1.55874 -2.12132 -2.12132 c
-1.55874 -2.683901 -0.795609 -3 0 -3 c
cl

gsave
0.167 0.866 0.866 setrgbcolor
fill
grestore
stroke
grestore
} bind def
765.069 600.25 o
grestore
0.000 setgray
gsave
786.668750 596.050000 translate
0.000000 rotate
0.000000 0 m /T glyphshow
6.455078 0 m /A glyphshow
14.664062 0 m /S glyphshow
22.281250 0 m /K glyphshow
28.900391 0 m /hyphen glyphshow
33.230469 0 m /d glyphshow
40.847656 0 m /i glyphshow
44.181641 0 m /e glyphshow
51.564453 0 m /space glyphshow
55.378906 0 m /m glyphshow
67.068359 0 m /o glyphshow
74.410156 0 m /d glyphshow
82.027344 0 m /e glyphshow
89.410156 0 m /l glyphshow
grestore
1.500 setlinewidth
2 setlinecap
0.833 0.866 0.500 setrgbcolor
gsave
753.06875 582.625 m
777.06875 582.625 l
stroke
grestore
1.000 setlinewidth
2 setlinejoin
0 setlinecap
gsave
/o {
gsave
newpath
translate
1.0 setlinewidth
2 setlinejoin
0 setlinecap
0 3 m
-0.673542 0.927051 l
-2.85317 0.927051 l
-1.089814 -0.354102 l
-1.763356 -2.427051 l
-0 -1.145898 l
1.763356 -2.427051 l
1.089814 -0.354102 l
2.85317 0.927051 l
0.673542 0.927051 l
cl

gsave
0.833 0.866 0.500 setrgbcolor
fill
grestore
stroke
grestore
} bind def
765.069 582.625 o
grestore
0.000 setgray
gsave
786.668750 578.425000 translate
0.000000 rotate
0.000000 0 m /C glyphshow
8.378906 0 m /O glyphshow
17.824219 0 m /M glyphshow
28.177734 0 m /M glyphshow
38.531250 0 m /plus glyphshow
48.585938 0 m /C glyphshow
56.964844 0 m /A glyphshow
64.923828 0 m /C glyphshow
73.302734 0 m /H glyphshow
82.326172 0 m /E glyphshow
89.908203 0 m /space glyphshow
93.722656 0 m /m glyphshow
105.412109 0 m /o glyphshow
112.753906 0 m /d glyphshow
120.371094 0 m /e glyphshow
127.753906 0 m /l glyphshow
grestore
1.500 setlinewidth
1 setlinejoin
2 setlinecap
1.000 0.000 0.000 setrgbcolor
gsave
753.06875 565 m
777.06875 565 l
stroke
grestore
1.000 setlinewidth
0 setlinecap
gsave
/o {
gsave
newpath
translate
1.0 setlinewidth
1 setlinejoin
0 setlinecap
0 -1.5 m
0.397805 -1.5 0.77937 -1.341951 1.06066 -1.06066 c
1.341951 -0.77937 1.5 -0.397805 1.5 0 c
1.5 0.397805 1.341951 0.77937 1.06066 1.06066 c
0.77937 1.341951 0.397805 1.5 0 1.5 c
-0.397805 1.5 -0.77937 1.341951 -1.06066 1.06066 c
-1.341951 0.77937 -1.5 0.397805 -1.5 0 c
-1.5 -0.397805 -1.341951 -0.77937 -1.06066 -1.06066 c
-0.77937 -1.341951 -0.397805 -1.5 0 -1.5 c
cl

gsave
1.000 0.000 0.000 setrgbcolor
fill
grestore
stroke
grestore
} bind def
765.069 565 o
grestore
0.000 setgray
gsave
786.668750 560.800000 translate
0.000000 rotate
0.000000 0 m /C glyphshow
8.378906 0 m /O glyphshow
17.824219 0 m /M glyphshow
28.177734 0 m /M glyphshow
38.531250 0 m /space glyphshow
42.345703 0 m /m glyphshow
54.035156 0 m /o glyphshow
61.376953 0 m /d glyphshow
68.994141 0 m /e glyphshow
76.376953 0 m /l glyphshow
grestore

end
showpage
