%!PS-Adobe-3.0 EPSF-3.0
%%Title: gflops-diablo04-qr-govpowersave-amdpowersave-ratio0.6-measured-12288-512.eps
%%Creator: matplotlib version 3.3.3, http://matplotlib.org/
%%CreationDate: Tue Jan 19 16:48:17 2021
%%Orientation: portrait
%%BoundingBox: -234.0 36.0 846.0 756.0
%%EndComments
%%BeginProlog
/mpldict 8 dict def
mpldict begin
/m { moveto } bind def
/l { lineto } bind def
/r { rlineto } bind def
/c { curveto } bind def
/cl { closepath } bind def
/box {
      m
      1 index 0 r
      0 exch r
      neg 0 r
      cl
    } bind def
/clipbox {
      box
      clip
      newpath
    } bind def
%!PS-Adobe-3.0 Resource-Font
%%Title: DejaVu Sans
%%Copyright: Copyright (c) 2003 by Bitstream, Inc. All Rights Reserved. Copyright (c) 2006 by Tavmjong Bah. All Rights Reserved. DejaVu changes are in public domain 
%%Creator: Converted from TrueType to type 3 by PPR
25 dict begin
/_d{bind def}bind def
/_m{moveto}_d
/_l{lineto}_d
/_cl{closepath eofill}_d
/_c{curveto}_d
/_sc{7 -1 roll{setcachedevice}{pop pop pop pop pop pop}ifelse}_d
/_e{exec}_d
/FontName /DejaVuSans def
/PaintType 0 def
/FontMatrix[.001 0 0 .001 0 0]def
/FontBBox[-1021 -463 1793 1232]def
/FontType 3 def
/Encoding [ /space /plus /hyphen /slash /zero /one /two /three /four /five /six /A /C /E /F /G /H /M /N /O /T /a /b /c /d /e /f /i /k /l /m /o /p /r /s /t /u /v ] def
/FontInfo 10 dict dup begin
/FamilyName (DejaVu Sans) def
/FullName (DejaVu Sans) def
/Notice (Copyright (c) 2003 by Bitstream, Inc. All Rights Reserved. Copyright (c) 2006 by Tavmjong Bah. All Rights Reserved. DejaVu changes are in public domain ) def
/Weight (Book) def
/Version (Version 2.35) def
/ItalicAngle 0.0 def
/isFixedPitch false def
/UnderlinePosition -130 def
/UnderlineThickness 90 def
end readonly def
/CharStrings 39 dict dup begin
/.notdef 0 def
/space{318 0 0 0 0 0 _sc
}_d
/plus{838 0 106 0 732 627 _sc
460 627 _m
460 355 _l
732 355 _l
732 272 _l
460 272 _l
460 0 _l
378 0 _l
378 272 _l
106 272 _l
106 355 _l
378 355 _l
378 627 _l
460 627 _l
_cl}_d
/hyphen{361 0 49 234 312 314 _sc
49 314 _m
312 314 _l
312 234 _l
49 234 _l
49 314 _l
_cl}_d
/slash{337 0 0 -92 337 729 _sc
254 729 _m
337 729 _l
83 -92 _l
0 -92 _l
254 729 _l
_cl}_d
/zero{636 0 66 -13 570 742 _sc
318 664 _m
267 664 229 639 203 589 _c
177 539 165 464 165 364 _c
165 264 177 189 203 139 _c
229 89 267 64 318 64 _c
369 64 407 89 433 139 _c
458 189 471 264 471 364 _c
471 464 458 539 433 589 _c
407 639 369 664 318 664 _c
318 742 _m
399 742 461 709 505 645 _c
548 580 570 486 570 364 _c
570 241 548 147 505 83 _c
461 19 399 -13 318 -13 _c
236 -13 173 19 130 83 _c
87 147 66 241 66 364 _c
66 486 87 580 130 645 _c
173 709 236 742 318 742 _c
_cl}_d
/one{636 0 110 0 544 729 _sc
124 83 _m
285 83 _l
285 639 _l
110 604 _l
110 694 _l
284 729 _l
383 729 _l
383 83 _l
544 83 _l
544 0 _l
124 0 _l
124 83 _l
_cl}_d
/two{{636 0 73 0 536 742 _sc
192 83 _m
536 83 _l
536 0 _l
73 0 _l
73 83 _l
110 121 161 173 226 239 _c
290 304 331 346 348 365 _c
380 400 402 430 414 455 _c
426 479 433 504 433 528 _c
433 566 419 598 392 622 _c
365 646 330 659 286 659 _c
255 659 222 653 188 643 _c
154 632 117 616 78 594 _c
78 694 _l
118 710 155 722 189 730 _c
223 738 255 742 284 742 _c
}_e{359 742 419 723 464 685 _c
509 647 532 597 532 534 _c
532 504 526 475 515 449 _c
504 422 484 390 454 354 _c
446 344 420 317 376 272 _c
332 227 271 164 192 83 _c
_cl}_e}_d
/three{{636 0 76 -13 556 742 _sc
406 393 _m
453 383 490 362 516 330 _c
542 298 556 258 556 212 _c
556 140 531 84 482 45 _c
432 6 362 -13 271 -13 _c
240 -13 208 -10 176 -4 _c
144 1 110 10 76 22 _c
76 117 _l
103 101 133 89 166 81 _c
198 73 232 69 268 69 _c
330 69 377 81 409 105 _c
441 129 458 165 458 212 _c
458 254 443 288 413 312 _c
383 336 341 349 287 349 _c
}_e{202 349 _l
202 430 _l
291 430 _l
339 430 376 439 402 459 _c
428 478 441 506 441 543 _c
441 580 427 609 401 629 _c
374 649 336 659 287 659 _c
260 659 231 656 200 650 _c
169 644 135 635 98 623 _c
98 711 _l
135 721 170 729 203 734 _c
235 739 266 742 296 742 _c
370 742 429 725 473 691 _c
517 657 539 611 539 553 _c
539 513 527 479 504 451 _c
481 423 448 403 406 393 _c
_cl}_e}_d
/four{636 0 49 0 580 729 _sc
378 643 _m
129 254 _l
378 254 _l
378 643 _l
352 729 _m
476 729 _l
476 254 _l
580 254 _l
580 172 _l
476 172 _l
476 0 _l
378 0 _l
378 172 _l
49 172 _l
49 267 _l
352 729 _l
_cl}_d
/five{{636 0 77 -13 549 729 _sc
108 729 _m
495 729 _l
495 646 _l
198 646 _l
198 467 _l
212 472 227 476 241 478 _c
255 480 270 482 284 482 _c
365 482 429 459 477 415 _c
525 370 549 310 549 234 _c
549 155 524 94 475 51 _c
426 8 357 -13 269 -13 _c
238 -13 207 -10 175 -6 _c
143 -1 111 6 77 17 _c
77 116 _l
106 100 136 88 168 80 _c
199 72 232 69 267 69 _c
}_e{323 69 368 83 401 113 _c
433 143 450 183 450 234 _c
450 284 433 324 401 354 _c
368 384 323 399 267 399 _c
241 399 214 396 188 390 _c
162 384 135 375 108 363 _c
108 729 _l
_cl}_e}_d
/six{{636 0 70 -13 573 742 _sc
330 404 _m
286 404 251 388 225 358 _c
199 328 186 286 186 234 _c
186 181 199 139 225 109 _c
251 79 286 64 330 64 _c
374 64 409 79 435 109 _c
461 139 474 181 474 234 _c
474 286 461 328 435 358 _c
409 388 374 404 330 404 _c
526 713 _m
526 623 _l
501 635 476 644 451 650 _c
425 656 400 659 376 659 _c
310 659 260 637 226 593 _c
}_e{192 549 172 482 168 394 _c
187 422 211 444 240 459 _c
269 474 301 482 336 482 _c
409 482 467 459 509 415 _c
551 371 573 310 573 234 _c
573 159 550 99 506 54 _c
462 9 403 -13 330 -13 _c
246 -13 181 19 137 83 _c
92 147 70 241 70 364 _c
70 479 97 571 152 639 _c
206 707 280 742 372 742 _c
396 742 421 739 447 735 _c
472 730 498 723 526 713 _c
_cl}_e}_d
/A{684 0 8 0 676 729 _sc
342 632 _m
208 269 _l
476 269 _l
342 632 _l
286 729 _m
398 729 _l
676 0 _l
573 0 _l
507 187 _l
178 187 _l
112 0 _l
8 0 _l
286 729 _l
_cl}_d
/C{{698 0 56 -13 644 742 _sc
644 673 _m
644 569 _l
610 599 575 622 537 638 _c
499 653 460 661 418 661 _c
334 661 270 635 226 584 _c
182 533 160 460 160 364 _c
160 268 182 194 226 143 _c
270 92 334 67 418 67 _c
460 67 499 74 537 90 _c
575 105 610 128 644 159 _c
644 56 _l
609 32 572 15 534 4 _c
496 -7 455 -13 412 -13 _c
302 -13 215 20 151 87 _c
}_e{87 154 56 246 56 364 _c
56 481 87 573 151 641 _c
215 708 302 742 412 742 _c
456 742 497 736 535 725 _c
573 713 610 696 644 673 _c
_cl}_e}_d
/E{632 0 98 0 568 729 _sc
98 729 _m
559 729 _l
559 646 _l
197 646 _l
197 430 _l
544 430 _l
544 347 _l
197 347 _l
197 83 _l
568 83 _l
568 0 _l
98 0 _l
98 729 _l
_cl}_d
/F{575 0 98 0 517 729 _sc
98 729 _m
517 729 _l
517 646 _l
197 646 _l
197 431 _l
486 431 _l
486 348 _l
197 348 _l
197 0 _l
98 0 _l
98 729 _l
_cl}_d
/G{{775 0 56 -13 693 742 _sc
595 104 _m
595 300 _l
434 300 _l
434 381 _l
693 381 _l
693 68 _l
655 40 613 20 567 7 _c
521 -6 472 -13 420 -13 _c
306 -13 216 20 152 86 _c
88 152 56 245 56 364 _c
56 482 88 575 152 642 _c
216 708 306 742 420 742 _c
467 742 512 736 555 724 _c
598 712 638 695 674 673 _c
674 568 _l
637 598 598 621 557 637 _c
516 653 473 661 428 661 _c
}_e{338 661 271 636 227 586 _c
182 536 160 462 160 364 _c
160 265 182 191 227 141 _c
271 91 338 67 428 67 _c
462 67 493 70 521 76 _c
549 82 573 91 595 104 _c
_cl}_e}_d
/H{752 0 98 0 654 729 _sc
98 729 _m
197 729 _l
197 430 _l
555 430 _l
555 729 _l
654 729 _l
654 0 _l
555 0 _l
555 347 _l
197 347 _l
197 0 _l
98 0 _l
98 729 _l
_cl}_d
/M{863 0 98 0 765 729 _sc
98 729 _m
245 729 _l
431 233 _l
618 729 _l
765 729 _l
765 0 _l
669 0 _l
669 640 _l
481 140 _l
382 140 _l
194 640 _l
194 0 _l
98 0 _l
98 729 _l
_cl}_d
/N{748 0 98 0 650 729 _sc
98 729 _m
231 729 _l
554 119 _l
554 729 _l
650 729 _l
650 0 _l
517 0 _l
194 610 _l
194 0 _l
98 0 _l
98 729 _l
_cl}_d
/O{787 0 56 -13 731 742 _sc
394 662 _m
322 662 265 635 223 582 _c
181 528 160 456 160 364 _c
160 272 181 199 223 146 _c
265 92 322 66 394 66 _c
465 66 522 92 564 146 _c
606 199 627 272 627 364 _c
627 456 606 528 564 582 _c
522 635 465 662 394 662 _c
394 742 _m
496 742 577 707 639 639 _c
700 571 731 479 731 364 _c
731 248 700 157 639 89 _c
577 21 496 -13 394 -13 _c
291 -13 209 21 148 89 _c
86 157 56 248 56 364 _c
56 479 86 571 148 639 _c
209 707 291 742 394 742 _c
_cl}_d
/T{611 0 -2 0 614 729 _sc
-2 729 _m
614 729 _l
614 646 _l
355 646 _l
355 0 _l
256 0 _l
256 646 _l
-2 646 _l
-2 729 _l
_cl}_d
/a{{613 0 60 -13 522 560 _sc
343 275 _m
270 275 220 266 192 250 _c
164 233 150 205 150 165 _c
150 133 160 107 181 89 _c
202 70 231 61 267 61 _c
317 61 357 78 387 114 _c
417 149 432 196 432 255 _c
432 275 _l
343 275 _l
522 312 _m
522 0 _l
432 0 _l
432 83 _l
411 49 385 25 355 10 _c
325 -5 287 -13 243 -13 _c
187 -13 142 2 109 33 _c
76 64 60 106 60 159 _c
}_e{60 220 80 266 122 298 _c
163 329 224 345 306 345 _c
432 345 _l
432 354 _l
432 395 418 427 391 450 _c
364 472 326 484 277 484 _c
245 484 215 480 185 472 _c
155 464 127 453 100 439 _c
100 522 _l
132 534 164 544 195 550 _c
226 556 256 560 286 560 _c
365 560 424 539 463 498 _c
502 457 522 395 522 312 _c
_cl}_e}_d
/b{{635 0 91 -13 580 760 _sc
487 273 _m
487 339 473 390 446 428 _c
418 466 381 485 334 485 _c
286 485 249 466 222 428 _c
194 390 181 339 181 273 _c
181 207 194 155 222 117 _c
249 79 286 61 334 61 _c
381 61 418 79 446 117 _c
473 155 487 207 487 273 _c
181 464 _m
199 496 223 520 252 536 _c
281 552 316 560 356 560 _c
422 560 476 533 518 481 _c
559 428 580 359 580 273 _c
}_e{580 187 559 117 518 65 _c
476 13 422 -13 356 -13 _c
316 -13 281 -5 252 10 _c
223 25 199 49 181 82 _c
181 0 _l
91 0 _l
91 760 _l
181 760 _l
181 464 _l
_cl}_e}_d
/c{{550 0 55 -13 488 560 _sc
488 526 _m
488 442 _l
462 456 437 466 411 473 _c
385 480 360 484 334 484 _c
276 484 230 465 198 428 _c
166 391 150 339 150 273 _c
150 206 166 154 198 117 _c
230 80 276 62 334 62 _c
360 62 385 65 411 72 _c
437 79 462 90 488 104 _c
488 21 _l
462 9 436 0 410 -5 _c
383 -10 354 -13 324 -13 _c
242 -13 176 12 128 64 _c
}_e{79 115 55 185 55 273 _c
55 362 79 432 128 483 _c
177 534 244 560 330 560 _c
358 560 385 557 411 551 _c
437 545 463 537 488 526 _c
_cl}_e}_d
/d{{635 0 55 -13 544 760 _sc
454 464 _m
454 760 _l
544 760 _l
544 0 _l
454 0 _l
454 82 _l
435 49 411 25 382 10 _c
353 -5 319 -13 279 -13 _c
213 -13 159 13 117 65 _c
75 117 55 187 55 273 _c
55 359 75 428 117 481 _c
159 533 213 560 279 560 _c
319 560 353 552 382 536 _c
411 520 435 496 454 464 _c
148 273 _m
148 207 161 155 188 117 _c
215 79 253 61 301 61 _c
}_e{348 61 385 79 413 117 _c
440 155 454 207 454 273 _c
454 339 440 390 413 428 _c
385 466 348 485 301 485 _c
253 485 215 466 188 428 _c
161 390 148 339 148 273 _c
_cl}_e}_d
/e{{615 0 55 -13 562 560 _sc
562 296 _m
562 252 _l
149 252 _l
153 190 171 142 205 110 _c
238 78 284 62 344 62 _c
378 62 412 66 444 74 _c
476 82 509 95 541 113 _c
541 28 _l
509 14 476 3 442 -3 _c
408 -9 373 -13 339 -13 _c
251 -13 182 12 131 62 _c
80 112 55 181 55 268 _c
55 357 79 428 127 481 _c
175 533 241 560 323 560 _c
397 560 455 536 498 489 _c
}_e{540 441 562 377 562 296 _c
472 322 _m
471 371 457 410 431 440 _c
404 469 368 484 324 484 _c
274 484 234 469 204 441 _c
174 413 156 373 152 322 _c
472 322 _l
_cl}_e}_d
/f{352 0 23 0 371 760 _sc
371 760 _m
371 685 _l
285 685 _l
253 685 230 678 218 665 _c
205 652 199 629 199 595 _c
199 547 _l
347 547 _l
347 477 _l
199 477 _l
199 0 _l
109 0 _l
109 477 _l
23 477 _l
23 547 _l
109 547 _l
109 585 _l
109 645 123 690 151 718 _c
179 746 224 760 286 760 _c
371 760 _l
_cl}_d
/i{278 0 94 0 184 760 _sc
94 547 _m
184 547 _l
184 0 _l
94 0 _l
94 547 _l
94 760 _m
184 760 _l
184 646 _l
94 646 _l
94 760 _l
_cl}_d
/k{579 0 91 0 576 760 _sc
91 760 _m
181 760 _l
181 311 _l
449 547 _l
564 547 _l
274 291 _l
576 0 _l
459 0 _l
181 267 _l
181 0 _l
91 0 _l
91 760 _l
_cl}_d
/l{278 0 94 0 184 760 _sc
94 760 _m
184 760 _l
184 0 _l
94 0 _l
94 760 _l
_cl}_d
/m{{974 0 91 0 889 560 _sc
520 442 _m
542 482 569 511 600 531 _c
631 550 668 560 711 560 _c
767 560 811 540 842 500 _c
873 460 889 403 889 330 _c
889 0 _l
799 0 _l
799 327 _l
799 379 789 418 771 444 _c
752 469 724 482 686 482 _c
639 482 602 466 575 435 _c
548 404 535 362 535 309 _c
535 0 _l
445 0 _l
445 327 _l
445 379 435 418 417 444 _c
398 469 369 482 331 482 _c
}_e{285 482 248 466 221 435 _c
194 404 181 362 181 309 _c
181 0 _l
91 0 _l
91 547 _l
181 547 _l
181 462 _l
201 495 226 520 255 536 _c
283 552 317 560 357 560 _c
397 560 430 550 458 530 _c
486 510 506 480 520 442 _c
_cl}_e}_d
/o{612 0 55 -13 557 560 _sc
306 484 _m
258 484 220 465 192 427 _c
164 389 150 338 150 273 _c
150 207 163 156 191 118 _c
219 80 257 62 306 62 _c
354 62 392 80 420 118 _c
448 156 462 207 462 273 _c
462 337 448 389 420 427 _c
392 465 354 484 306 484 _c
306 560 _m
384 560 445 534 490 484 _c
534 433 557 363 557 273 _c
557 183 534 113 490 63 _c
445 12 384 -13 306 -13 _c
227 -13 165 12 121 63 _c
77 113 55 183 55 273 _c
55 363 77 433 121 484 _c
165 534 227 560 306 560 _c
_cl}_d
/p{{635 0 91 -207 580 560 _sc
181 82 _m
181 -207 _l
91 -207 _l
91 547 _l
181 547 _l
181 464 _l
199 496 223 520 252 536 _c
281 552 316 560 356 560 _c
422 560 476 533 518 481 _c
559 428 580 359 580 273 _c
580 187 559 117 518 65 _c
476 13 422 -13 356 -13 _c
316 -13 281 -5 252 10 _c
223 25 199 49 181 82 _c
487 273 _m
487 339 473 390 446 428 _c
418 466 381 485 334 485 _c
}_e{286 485 249 466 222 428 _c
194 390 181 339 181 273 _c
181 207 194 155 222 117 _c
249 79 286 61 334 61 _c
381 61 418 79 446 117 _c
473 155 487 207 487 273 _c
_cl}_e}_d
/r{411 0 91 0 411 560 _sc
411 463 _m
401 469 390 473 378 476 _c
366 478 353 480 339 480 _c
288 480 249 463 222 430 _c
194 397 181 350 181 288 _c
181 0 _l
91 0 _l
91 547 _l
181 547 _l
181 462 _l
199 495 224 520 254 536 _c
284 552 321 560 365 560 _c
371 560 378 559 386 559 _c
393 558 401 557 411 555 _c
411 463 _l
_cl}_d
/s{{521 0 54 -13 472 560 _sc
443 531 _m
443 446 _l
417 458 391 468 364 475 _c
336 481 308 485 279 485 _c
234 485 200 478 178 464 _c
156 450 145 430 145 403 _c
145 382 153 366 169 354 _c
185 342 217 330 265 320 _c
296 313 _l
360 299 405 279 432 255 _c
458 230 472 195 472 151 _c
472 100 452 60 412 31 _c
372 1 316 -13 246 -13 _c
216 -13 186 -10 154 -5 _c
}_e{122 0 89 8 54 20 _c
54 113 _l
87 95 120 82 152 74 _c
184 65 216 61 248 61 _c
290 61 323 68 346 82 _c
368 96 380 117 380 144 _c
380 168 371 187 355 200 _c
339 213 303 226 247 238 _c
216 245 _l
160 257 119 275 95 299 _c
70 323 58 356 58 399 _c
58 450 76 490 112 518 _c
148 546 200 560 268 560 _c
301 560 332 557 362 552 _c
391 547 418 540 443 531 _c
}_e{_cl}_e}_d
/t{392 0 27 0 368 702 _sc
183 702 _m
183 547 _l
368 547 _l
368 477 _l
183 477 _l
183 180 _l
183 135 189 106 201 94 _c
213 81 238 75 276 75 _c
368 75 _l
368 0 _l
276 0 _l
206 0 158 13 132 39 _c
106 65 93 112 93 180 _c
93 477 _l
27 477 _l
27 547 _l
93 547 _l
93 702 _l
183 702 _l
_cl}_d
/u{634 0 85 -13 543 560 _sc
85 216 _m
85 547 _l
175 547 _l
175 219 _l
175 167 185 129 205 103 _c
225 77 255 64 296 64 _c
344 64 383 79 411 110 _c
439 141 453 183 453 237 _c
453 547 _l
543 547 _l
543 0 _l
453 0 _l
453 84 _l
431 50 405 26 377 10 _c
348 -5 315 -13 277 -13 _c
214 -13 166 6 134 45 _c
101 83 85 140 85 216 _c
311 560 _m
311 560 _l
_cl}_d
/v{592 0 30 0 562 547 _sc
30 547 _m
125 547 _l
296 88 _l
467 547 _l
562 547 _l
357 0 _l
235 0 _l
30 547 _l
_cl}_d
end readonly def

/BuildGlyph
 {exch begin
 CharStrings exch
 2 copy known not{pop /.notdef}if
 true 3 1 roll get exec
 end}_d

/BuildChar {
 1 index /Encoding get exch get
 1 index /BuildGlyph get exec
}_d

FontName currentdict end definefont pop
end
%%EndProlog
mpldict begin
-234 36 translate
1080 720 0 0 clipbox
gsave
0 0 m
1080 0 l
1080 720 l
0 720 l
cl
1.000 setgray
fill
grestore
gsave
135 79.2 m
972 79.2 l
972 633.6 l
135 633.6 l
cl
1.000 setgray
fill
grestore
0.800 setlinewidth
1 setlinejoin
0 setlinecap
[] 0 setdash
0.000 setgray
gsave
/o {
gsave
newpath
translate
0.8 setlinewidth
1 setlinejoin
0 setlinecap
0 0 m
0 -3.5 l

gsave
0.000 setgray
fill
grestore
stroke
grestore
} bind def
160.968 79.2 o
grestore
/DejaVuSans findfont
12.000 scalefont
setfont
gsave
157.147220 63.075000 translate
0.000000 rotate
0.000000 0 m /zero glyphshow
grestore
gsave
/o {
gsave
newpath
translate
0.8 setlinewidth
1 setlinejoin
0 setlinecap
0 0 m
0 -3.5 l

gsave
0.000 setgray
fill
grestore
stroke
grestore
} bind def
281.747 79.2 o
grestore
gsave
274.106128 63.075000 translate
0.000000 rotate
0.000000 0 m /one glyphshow
7.634766 0 m /zero glyphshow
grestore
gsave
/o {
gsave
newpath
translate
0.8 setlinewidth
1 setlinejoin
0 setlinecap
0 0 m
0 -3.5 l

gsave
0.000 setgray
fill
grestore
stroke
grestore
} bind def
402.526 79.2 o
grestore
gsave
394.885349 63.075000 translate
0.000000 rotate
0.000000 0 m /two glyphshow
7.634766 0 m /zero glyphshow
grestore
gsave
/o {
gsave
newpath
translate
0.8 setlinewidth
1 setlinejoin
0 setlinecap
0 0 m
0 -3.5 l

gsave
0.000 setgray
fill
grestore
stroke
grestore
} bind def
523.305 79.2 o
grestore
gsave
515.664570 63.075000 translate
0.000000 rotate
0.000000 0 m /three glyphshow
7.634766 0 m /zero glyphshow
grestore
gsave
/o {
gsave
newpath
translate
0.8 setlinewidth
1 setlinejoin
0 setlinecap
0 0 m
0 -3.5 l

gsave
0.000 setgray
fill
grestore
stroke
grestore
} bind def
644.084 79.2 o
grestore
gsave
636.443791 63.075000 translate
0.000000 rotate
0.000000 0 m /four glyphshow
7.634766 0 m /zero glyphshow
grestore
gsave
/o {
gsave
newpath
translate
0.8 setlinewidth
1 setlinejoin
0 setlinecap
0 0 m
0 -3.5 l

gsave
0.000 setgray
fill
grestore
stroke
grestore
} bind def
764.864 79.2 o
grestore
gsave
757.223011 63.075000 translate
0.000000 rotate
0.000000 0 m /five glyphshow
7.634766 0 m /zero glyphshow
grestore
gsave
/o {
gsave
newpath
translate
0.8 setlinewidth
1 setlinejoin
0 setlinecap
0 0 m
0 -3.5 l

gsave
0.000 setgray
fill
grestore
stroke
grestore
} bind def
885.643 79.2 o
grestore
gsave
878.002232 63.075000 translate
0.000000 rotate
0.000000 0 m /six glyphshow
7.634766 0 m /zero glyphshow
grestore
gsave
503.656250 47.450000 translate
0.000000 rotate
0.000000 0 m /N glyphshow
8.976562 0 m /u glyphshow
16.582031 0 m /m glyphshow
28.271484 0 m /b glyphshow
35.888672 0 m /e glyphshow
43.271484 0 m /r glyphshow
48.205078 0 m /space glyphshow
52.019531 0 m /o glyphshow
59.361328 0 m /f glyphshow
63.585938 0 m /space glyphshow
67.400391 0 m /c glyphshow
73.998047 0 m /o glyphshow
81.339844 0 m /r glyphshow
86.023438 0 m /e glyphshow
93.406250 0 m /s glyphshow
grestore
gsave
/o {
gsave
newpath
translate
0.8 setlinewidth
1 setlinejoin
0 setlinecap
-0 0 m
-3.5 0 l

gsave
0.000 setgray
fill
grestore
stroke
grestore
} bind def
135 90.3425 o
grestore
gsave
120.359375 85.779958 translate
0.000000 rotate
0.000000 0 m /zero glyphshow
grestore
gsave
/o {
gsave
newpath
translate
0.8 setlinewidth
1 setlinejoin
0 setlinecap
-0 0 m
-3.5 0 l

gsave
0.000 setgray
fill
grestore
stroke
grestore
} bind def
135 198.106 o
grestore
gsave
105.078125 193.543791 translate
0.000000 rotate
0.000000 0 m /one glyphshow
7.634766 0 m /zero glyphshow
15.269531 0 m /zero glyphshow
grestore
gsave
/o {
gsave
newpath
translate
0.8 setlinewidth
1 setlinejoin
0 setlinecap
-0 0 m
-3.5 0 l

gsave
0.000 setgray
fill
grestore
stroke
grestore
} bind def
135 305.87 o
grestore
gsave
105.078125 301.307625 translate
0.000000 rotate
0.000000 0 m /two glyphshow
7.634766 0 m /zero glyphshow
15.269531 0 m /zero glyphshow
grestore
gsave
/o {
gsave
newpath
translate
0.8 setlinewidth
1 setlinejoin
0 setlinecap
-0 0 m
-3.5 0 l

gsave
0.000 setgray
fill
grestore
stroke
grestore
} bind def
135 413.634 o
grestore
gsave
105.078125 409.071459 translate
0.000000 rotate
0.000000 0 m /three glyphshow
7.634766 0 m /zero glyphshow
15.269531 0 m /zero glyphshow
grestore
gsave
/o {
gsave
newpath
translate
0.8 setlinewidth
1 setlinejoin
0 setlinecap
-0 0 m
-3.5 0 l

gsave
0.000 setgray
fill
grestore
stroke
grestore
} bind def
135 521.398 o
grestore
gsave
105.078125 516.835293 translate
0.000000 rotate
0.000000 0 m /four glyphshow
7.634766 0 m /zero glyphshow
15.269531 0 m /zero glyphshow
grestore
gsave
/o {
gsave
newpath
translate
0.8 setlinewidth
1 setlinejoin
0 setlinecap
-0 0 m
-3.5 0 l

gsave
0.000 setgray
fill
grestore
stroke
grestore
} bind def
135 629.162 o
grestore
gsave
105.078125 624.599127 translate
0.000000 rotate
0.000000 0 m /five glyphshow
7.634766 0 m /zero glyphshow
15.269531 0 m /zero glyphshow
grestore
gsave
98.578125 334.001563 translate
90.000000 rotate
0.000000 0 m /G glyphshow
9.298828 0 m /F glyphshow
16.201172 0 m /l glyphshow
19.535156 0 m /o glyphshow
26.876953 0 m /p glyphshow
34.494141 0 m /slash glyphshow
38.537109 0 m /s glyphshow
grestore
1.500 setlinewidth
2 setlinecap
0.500 0.000 1.000 setrgbcolor
gsave
837 554.4 135 79.2 clipbox
173.045455 104.568631 m
185.123377 118.906379 l
197.201299 132.508859 l
209.279221 146.557273 l
221.357143 160.267725 l
233.435065 174.004377 l
245.512987 187.501658 l
257.590909 200.37241 l
269.668831 213.543442 l
281.746753 226.832123 l
293.824675 239.250254 l
305.902597 252.553489 l
317.980519 264.759909 l
330.058442 276.909663 l
342.136364 289.080445 l
354.214286 299.781518 l
366.292208 312.412306 l
378.37013 324.070375 l
390.448052 334.516985 l
402.525974 344.811535 l
414.603896 356.142132 l
426.681818 366.152697 l
438.75974 377.376653 l
450.837662 386.605539 l
462.915584 396.371004 l
474.993506 404.792546 l
487.071429 414.994055 l
499.149351 424.274613 l
511.227273 431.858614 l
523.305195 440.679097 l
535.383117 447.692028 l
547.461039 458.156415 l
559.538961 462.510091 l
571.616883 470.485639 l
583.694805 477.16071 l
595.772727 484.34672 l
607.850649 490.764624 l
619.928571 499.593967 l
632.006494 502.289794 l
644.084416 508.669779 l
656.162338 514.581093 l
668.24026 520.827241 l
680.318182 528.298651 l
692.396104 527.870991 l
704.474026 535.666213 l
716.551948 545.780568 l
728.62987 551.657295 l
740.707792 556.153335 l
752.785714 560.463311 l
764.863636 560.463311 l
776.941558 567.597537 l
789.019481 570.056199 l
801.097403 572.190841 l
813.175325 578.349139 l
825.253247 581.597205 l
837.331169 581.820898 l
849.409091 583.645187 l
861.487013 590.008982 l
873.564935 592.61377 l
885.642857 594.164772 l
897.720779 601.650573 l
909.798701 598.044867 l
921.876623 606.37841 l
933.954545 608.4 l
stroke
grestore
1.000 setlinewidth
0 setlinejoin
0 setlinecap
gsave
837 554.4 135 79.2 clipbox
/o {
gsave
newpath
translate
1.0 setlinewidth
0 setlinejoin
0 setlinecap
-0 -3 m
3 3 l
-3 3 l
cl

gsave
0.500 0.000 1.000 setrgbcolor
fill
grestore
stroke
grestore
} bind def
173.045 104.569 o
185.123 118.906 o
197.201 132.509 o
209.279 146.557 o
221.357 160.268 o
233.435 174.004 o
245.513 187.502 o
257.591 200.372 o
269.669 213.543 o
281.747 226.832 o
293.825 239.25 o
305.903 252.553 o
317.981 264.76 o
330.058 276.91 o
342.136 289.08 o
354.214 299.782 o
366.292 312.412 o
378.37 324.07 o
390.448 334.517 o
402.526 344.812 o
414.604 356.142 o
426.682 366.153 o
438.76 377.377 o
450.838 386.606 o
462.916 396.371 o
474.994 404.793 o
487.071 414.994 o
499.149 424.275 o
511.227 431.859 o
523.305 440.679 o
535.383 447.692 o
547.461 458.156 o
559.539 462.51 o
571.617 470.486 o
583.695 477.161 o
595.773 484.347 o
607.851 490.765 o
619.929 499.594 o
632.006 502.29 o
644.084 508.67 o
656.162 514.581 o
668.24 520.827 o
680.318 528.299 o
692.396 527.871 o
704.474 535.666 o
716.552 545.781 o
728.63 551.657 o
740.708 556.153 o
752.786 560.463 o
764.864 560.463 o
776.942 567.598 o
789.019 570.056 o
801.097 572.191 o
813.175 578.349 o
825.253 581.597 o
837.331 581.821 o
849.409 583.645 o
861.487 590.009 o
873.565 592.614 o
885.643 594.165 o
897.721 601.651 o
909.799 598.045 o
921.877 606.378 o
933.955 608.4 o
grestore
1.500 setlinewidth
1 setlinejoin
2 setlinecap
0.167 0.866 0.866 setrgbcolor
gsave
837 554.4 135 79.2 clipbox
173.045455 104.463065 m
185.123377 118.854772 l
197.201299 132.679007 l
209.279221 146.811879 l
221.357143 160.363855 l
233.435065 173.534535 l
245.512987 187.631059 l
257.590909 200.280166 l
269.668831 213.060514 l
281.746753 226.333828 l
293.824675 238.534412 l
305.902597 252.227752 l
317.980519 264.072864 l
330.058442 275.089332 l
342.136364 287.219663 l
354.214286 298.289373 l
366.292208 309.367095 l
378.37013 319.914636 l
390.448052 331.78597 l
402.525974 341.954998 l
414.603896 352.382163 l
426.681818 360.059565 l
438.75974 372.25714 l
450.837662 383.993386 l
462.915584 390.254411 l
474.993506 399.754698 l
487.071429 408.680207 l
499.149351 415.096007 l
511.227273 426.813624 l
523.305195 435.281858 l
535.383117 440.677302 l
547.461039 445.316494 l
559.538961 452.694107 l
571.616883 460.891201 l
583.694805 465.436705 l
595.772727 471.839059 l
607.850649 477.475492 l
619.928571 479.017392 l
632.006494 488.124988 l
644.084416 481.976029 l
656.162338 493.942002 l
668.24026 496.01795 l
680.318182 499.876619 l
692.396104 495.756997 l
704.474026 496.008135 l
716.551948 511.524637 l
728.62987 507.180188 l
740.707792 511.873263 l
752.785714 521.074429 l
764.863636 523.889961 l
776.941558 518.342498 l
789.019481 527.390065 l
801.097403 531.454399 l
813.175325 528.705523 l
825.253247 525.067972 l
837.331169 529.22345 l
849.409091 532.250363 l
861.487013 534.231538 l
873.564935 528.514379 l
885.642857 531.661924 l
897.720779 535.419014 l
909.798701 530.687261 l
921.876623 541.246752 l
933.954545 527.39114 l
stroke
grestore
1.000 setlinewidth
0 setlinecap
gsave
837 554.4 135 79.2 clipbox
/o {
gsave
newpath
translate
1.0 setlinewidth
1 setlinejoin
0 setlinecap
0 -1.5 m
0.397805 -1.5 0.77937 -1.341951 1.06066 -1.06066 c
1.341951 -0.77937 1.5 -0.397805 1.5 0 c
1.5 0.397805 1.341951 0.77937 1.06066 1.06066 c
0.77937 1.341951 0.397805 1.5 0 1.5 c
-0.397805 1.5 -0.77937 1.341951 -1.06066 1.06066 c
-1.341951 0.77937 -1.5 0.397805 -1.5 0 c
-1.5 -0.397805 -1.341951 -0.77937 -1.06066 -1.06066 c
-0.77937 -1.341951 -0.397805 -1.5 0 -1.5 c
cl

gsave
0.167 0.866 0.866 setrgbcolor
fill
grestore
stroke
grestore
} bind def
173.045 104.463 o
185.123 118.855 o
197.201 132.679 o
209.279 146.812 o
221.357 160.364 o
233.435 173.535 o
245.513 187.631 o
257.591 200.28 o
269.669 213.061 o
281.747 226.334 o
293.825 238.534 o
305.903 252.228 o
317.981 264.073 o
330.058 275.089 o
342.136 287.22 o
354.214 298.289 o
366.292 309.367 o
378.37 319.915 o
390.448 331.786 o
402.526 341.955 o
414.604 352.382 o
426.682 360.06 o
438.76 372.257 o
450.838 383.993 o
462.916 390.254 o
474.994 399.755 o
487.071 408.68 o
499.149 415.096 o
511.227 426.814 o
523.305 435.282 o
535.383 440.677 o
547.461 445.316 o
559.539 452.694 o
571.617 460.891 o
583.695 465.437 o
595.773 471.839 o
607.851 477.475 o
619.929 479.017 o
632.006 488.125 o
644.084 481.976 o
656.162 493.942 o
668.24 496.018 o
680.318 499.877 o
692.396 495.757 o
704.474 496.008 o
716.552 511.525 o
728.63 507.18 o
740.708 511.873 o
752.786 521.074 o
764.864 523.89 o
776.942 518.342 o
789.019 527.39 o
801.097 531.454 o
813.175 528.706 o
825.253 525.068 o
837.331 529.223 o
849.409 532.25 o
861.487 534.232 o
873.565 528.514 o
885.643 531.662 o
897.721 535.419 o
909.799 530.687 o
921.877 541.247 o
933.955 527.391 o
grestore
1.500 setlinewidth
2 setlinecap
0.833 0.866 0.500 setrgbcolor
gsave
837 554.4 135 79.2 clipbox
173.045455 104.462168 m
185.123377 118.678467 l
197.201299 132.084212 l
209.279221 145.986921 l
221.357143 159.629303 l
233.435065 173.258895 l
245.512987 186.833865 l
257.590909 199.331527 l
269.668831 212.28676 l
281.746753 225.285956 l
293.824675 237.592168 l
305.902597 248.95 l
317.980519 262.88268 l
330.058442 275.013789 l
342.136364 286.550056 l
354.214286 295.837604 l
366.292208 307.114482 l
378.37013 319.051578 l
390.448052 329.963046 l
402.525974 340.023632 l
414.603896 347.088197 l
426.681818 358.263867 l
438.75974 368.952937 l
450.837662 376.920313 l
462.915584 388.638564 l
474.993506 396.651944 l
487.071429 404.758798 l
499.149351 412.510644 l
511.227273 421.147869 l
523.305195 425.926985 l
535.383117 435.222465 l
547.461039 438.234625 l
559.538961 443.971538 l
571.616883 454.297507 l
583.694805 460.295545 l
595.772727 467.818626 l
607.850649 472.74305 l
619.928571 482.033512 l
632.006494 483.750765 l
644.084416 486.33536 l
656.162338 492.733699 l
668.24026 493.97836 l
680.318182 504.111967 l
692.396104 506.216792 l
704.474026 512.498571 l
716.551948 521.257255 l
728.62987 525.070666 l
740.707792 524.795082 l
752.785714 537.265301 l
764.863636 540.217119 l
776.941558 538.137595 l
789.019481 539.522054 l
801.097403 550.469372 l
813.175325 551.452236 l
825.253247 555.384669 l
837.331169 556.043487 l
849.409091 559.783672 l
861.487013 565.371232 l
873.564935 555.294643 l
885.642857 564.100781 l
897.720779 571.777522 l
909.798701 570.731303 l
921.876623 573.984569 l
933.954545 570.013043 l
stroke
grestore
1.000 setlinewidth
0 setlinecap
gsave
837 554.4 135 79.2 clipbox
/o {
gsave
newpath
translate
1.0 setlinewidth
1 setlinejoin
0 setlinecap
0 -3 m
0.795609 -3 1.55874 -2.683901 2.12132 -2.12132 c
2.683901 -1.55874 3 -0.795609 3 0 c
3 0.795609 2.683901 1.55874 2.12132 2.12132 c
1.55874 2.683901 0.795609 3 0 3 c
-0.795609 3 -1.55874 2.683901 -2.12132 2.12132 c
-2.683901 1.55874 -3 0.795609 -3 0 c
-3 -0.795609 -2.683901 -1.55874 -2.12132 -2.12132 c
-1.55874 -2.683901 -0.795609 -3 0 -3 c
cl

gsave
0.833 0.866 0.500 setrgbcolor
fill
grestore
stroke
grestore
} bind def
173.045 104.462 o
185.123 118.678 o
197.201 132.084 o
209.279 145.987 o
221.357 159.629 o
233.435 173.259 o
245.513 186.834 o
257.591 199.332 o
269.669 212.287 o
281.747 225.286 o
293.825 237.592 o
305.903 248.95 o
317.981 262.883 o
330.058 275.014 o
342.136 286.55 o
354.214 295.838 o
366.292 307.114 o
378.37 319.052 o
390.448 329.963 o
402.526 340.024 o
414.604 347.088 o
426.682 358.264 o
438.76 368.953 o
450.838 376.92 o
462.916 388.639 o
474.994 396.652 o
487.071 404.759 o
499.149 412.511 o
511.227 421.148 o
523.305 425.927 o
535.383 435.222 o
547.461 438.235 o
559.539 443.972 o
571.617 454.298 o
583.695 460.296 o
595.773 467.819 o
607.851 472.743 o
619.929 482.034 o
632.006 483.751 o
644.084 486.335 o
656.162 492.734 o
668.24 493.978 o
680.318 504.112 o
692.396 506.217 o
704.474 512.499 o
716.552 521.257 o
728.63 525.071 o
740.708 524.795 o
752.786 537.265 o
764.864 540.217 o
776.942 538.138 o
789.019 539.522 o
801.097 550.469 o
813.175 551.452 o
825.253 555.385 o
837.331 556.043 o
849.409 559.784 o
861.487 565.371 o
873.565 555.295 o
885.643 564.101 o
897.721 571.778 o
909.799 570.731 o
921.877 573.985 o
933.955 570.013 o
grestore
1.500 setlinewidth
2 setlinecap
1.000 0.000 0.000 setrgbcolor
gsave
837 554.4 135 79.2 clipbox
173.045455 104.4 m
185.123377 118.510032 l
197.201299 131.9153 l
209.279221 145.572386 l
221.357143 159.200876 l
233.435065 172.516954 l
245.512987 185.351768 l
257.590909 197.875532 l
269.668831 210.743622 l
281.746753 224.023322 l
293.824675 235.35985 l
305.902597 244.940778 l
317.980519 260.161409 l
330.058442 270.548672 l
342.136364 281.771205 l
354.214286 286.643963 l
366.292208 301.982866 l
378.37013 311.38123 l
390.448052 323.951586 l
402.525974 327.126103 l
414.603896 334.731866 l
426.681818 348.021268 l
438.75974 354.891919 l
450.837662 357.642799 l
462.915584 373.603495 l
474.993506 384.715708 l
487.071429 391.962437 l
499.149351 399.096142 l
511.227273 403.279572 l
523.305195 409.671253 l
535.383117 417.918459 l
547.461039 422.195432 l
559.538961 419.56 l
571.616883 430.292617 l
583.694805 435.236296 l
595.772727 440.030245 l
607.850649 440.00823 l
619.928571 461.859204 l
632.006494 461.012582 l
644.084416 448.298025 l
656.162338 454.909682 l
668.24026 459.55622 l
680.318182 467.972617 l
692.396104 474.698551 l
704.474026 472.241824 l
716.551948 487.065474 l
728.62987 491.48341 l
740.707792 470.756314 l
752.785714 477.63949 l
764.863636 498.852733 l
776.941558 492.946993 l
789.019481 493.974083 l
801.097403 489.612014 l
813.175325 499.83724 l
825.253247 510.380135 l
837.331169 507.982334 l
849.409091 508.694724 l
861.487013 523.785709 l
873.564935 496.575713 l
885.642857 517.353482 l
897.720779 523.390025 l
909.798701 511.122652 l
921.876623 508.284164 l
933.954545 519.036444 l
stroke
grestore
1.000 setlinewidth
2 setlinejoin
0 setlinecap
gsave
837 554.4 135 79.2 clipbox
/o {
gsave
newpath
translate
1.0 setlinewidth
2 setlinejoin
0 setlinecap
0 3 m
-0.673542 0.927051 l
-2.85317 0.927051 l
-1.089814 -0.354102 l
-1.763356 -2.427051 l
-0 -1.145898 l
1.763356 -2.427051 l
1.089814 -0.354102 l
2.85317 0.927051 l
0.673542 0.927051 l
cl

gsave
1.000 0.000 0.000 setrgbcolor
fill
grestore
stroke
grestore
} bind def
173.045 104.4 o
185.123 118.51 o
197.201 131.915 o
209.279 145.572 o
221.357 159.201 o
233.435 172.517 o
245.513 185.352 o
257.591 197.876 o
269.669 210.744 o
281.747 224.023 o
293.825 235.36 o
305.903 244.941 o
317.981 260.161 o
330.058 270.549 o
342.136 281.771 o
354.214 286.644 o
366.292 301.983 o
378.37 311.381 o
390.448 323.952 o
402.526 327.126 o
414.604 334.732 o
426.682 348.021 o
438.76 354.892 o
450.838 357.643 o
462.916 373.603 o
474.994 384.716 o
487.071 391.962 o
499.149 399.096 o
511.227 403.28 o
523.305 409.671 o
535.383 417.918 o
547.461 422.195 o
559.539 419.56 o
571.617 430.293 o
583.695 435.236 o
595.773 440.03 o
607.851 440.008 o
619.929 461.859 o
632.006 461.013 o
644.084 448.298 o
656.162 454.91 o
668.24 459.556 o
680.318 467.973 o
692.396 474.699 o
704.474 472.242 o
716.552 487.065 o
728.63 491.483 o
740.708 470.756 o
752.786 477.639 o
764.864 498.853 o
776.942 492.947 o
789.019 493.974 o
801.097 489.612 o
813.175 499.837 o
825.253 510.38 o
837.331 507.982 o
849.409 508.695 o
861.487 523.786 o
873.565 496.576 o
885.643 517.353 o
897.721 523.39 o
909.799 511.123 o
921.877 508.284 o
933.955 519.036 o
grestore
0.800 setlinewidth
0 setlinejoin
2 setlinecap
0.000 setgray
gsave
135 79.2 m
135 633.6 l
stroke
grestore
gsave
972 79.2 m
972 633.6 l
stroke
grestore
gsave
135 79.2 m
972 79.2 l
stroke
grestore
gsave
135 633.6 m
972 633.6 l
stroke
grestore
1.000 setlinewidth
0 setlinecap
0.800 setgray
gsave
143.4 553.5 m
312.909375 553.5 l
314.509375 553.5 315.309375 554.3 315.309375 555.9 c
315.309375 625.2 l
315.309375 626.8 314.509375 627.6 312.909375 627.6 c
143.4 627.6 l
141.8 627.6 141 626.8 141 625.2 c
141 555.9 l
141 554.3 141.8 553.5 143.4 553.5 c
cl
gsave
1.000 setgray
fill
grestore
stroke
grestore
1.500 setlinewidth
1 setlinejoin
2 setlinecap
0.500 0.000 1.000 setrgbcolor
gsave
145.8 617.875 m
169.8 617.875 l
stroke
grestore
1.000 setlinewidth
0 setlinejoin
0 setlinecap
gsave
/o {
gsave
newpath
translate
1.0 setlinewidth
0 setlinejoin
0 setlinecap
-0 -3 m
3 3 l
-3 3 l
cl

gsave
0.500 0.000 1.000 setrgbcolor
fill
grestore
stroke
grestore
} bind def
157.8 617.875 o
grestore
0.000 setgray
gsave
179.400000 613.675000 translate
0.000000 rotate
0.000000 0 m /T glyphshow
5.330078 0 m /a glyphshow
12.683594 0 m /s glyphshow
18.935547 0 m /k glyphshow
25.884766 0 m /hyphen glyphshow
30.214844 0 m /d glyphshow
37.832031 0 m /i glyphshow
41.166016 0 m /e glyphshow
48.548828 0 m /space glyphshow
52.363281 0 m /m glyphshow
64.052734 0 m /o glyphshow
71.394531 0 m /d glyphshow
79.011719 0 m /e glyphshow
86.394531 0 m /l glyphshow
grestore
1.500 setlinewidth
1 setlinejoin
2 setlinecap
0.167 0.866 0.866 setrgbcolor
gsave
145.8 600.25 m
169.8 600.25 l
stroke
grestore
1.000 setlinewidth
0 setlinecap
gsave
/o {
gsave
newpath
translate
1.0 setlinewidth
1 setlinejoin
0 setlinecap
0 -1.5 m
0.397805 -1.5 0.77937 -1.341951 1.06066 -1.06066 c
1.341951 -0.77937 1.5 -0.397805 1.5 0 c
1.5 0.397805 1.341951 0.77937 1.06066 1.06066 c
0.77937 1.341951 0.397805 1.5 0 1.5 c
-0.397805 1.5 -0.77937 1.341951 -1.06066 1.06066 c
-1.341951 0.77937 -1.5 0.397805 -1.5 0 c
-1.5 -0.397805 -1.341951 -0.77937 -1.06066 -1.06066 c
-0.77937 -1.341951 -0.397805 -1.5 0 -1.5 c
cl

gsave
0.167 0.866 0.866 setrgbcolor
fill
grestore
stroke
grestore
} bind def
157.8 600.25 o
grestore
0.000 setgray
gsave
179.400000 596.050000 translate
0.000000 rotate
0.000000 0 m /N glyphshow
8.976562 0 m /a glyphshow
16.330078 0 m /t glyphshow
21.035156 0 m /i glyphshow
24.369141 0 m /v glyphshow
31.470703 0 m /e glyphshow
grestore
1.500 setlinewidth
2 setlinecap
0.833 0.866 0.500 setrgbcolor
gsave
145.8 582.625 m
169.8 582.625 l
stroke
grestore
1.000 setlinewidth
0 setlinecap
gsave
/o {
gsave
newpath
translate
1.0 setlinewidth
1 setlinejoin
0 setlinecap
0 -3 m
0.795609 -3 1.55874 -2.683901 2.12132 -2.12132 c
2.683901 -1.55874 3 -0.795609 3 0 c
3 0.795609 2.683901 1.55874 2.12132 2.12132 c
1.55874 2.683901 0.795609 3 0 3 c
-0.795609 3 -1.55874 2.683901 -2.12132 2.12132 c
-2.683901 1.55874 -3 0.795609 -3 0 c
-3 -0.795609 -2.683901 -1.55874 -2.12132 -2.12132 c
-1.55874 -2.683901 -0.795609 -3 0 -3 c
cl

gsave
0.833 0.866 0.500 setrgbcolor
fill
grestore
stroke
grestore
} bind def
157.8 582.625 o
grestore
0.000 setgray
gsave
179.400000 578.425000 translate
0.000000 rotate
0.000000 0 m /C glyphshow
8.378906 0 m /O glyphshow
17.824219 0 m /M glyphshow
28.177734 0 m /M glyphshow
38.531250 0 m /plus glyphshow
48.585938 0 m /C glyphshow
56.964844 0 m /A glyphshow
64.923828 0 m /C glyphshow
73.302734 0 m /H glyphshow
82.326172 0 m /E glyphshow
89.908203 0 m /space glyphshow
93.722656 0 m /m glyphshow
105.412109 0 m /o glyphshow
112.753906 0 m /d glyphshow
120.371094 0 m /e glyphshow
127.753906 0 m /l glyphshow
grestore
1.500 setlinewidth
2 setlinecap
1.000 0.000 0.000 setrgbcolor
gsave
145.8 565 m
169.8 565 l
stroke
grestore
1.000 setlinewidth
2 setlinejoin
0 setlinecap
gsave
/o {
gsave
newpath
translate
1.0 setlinewidth
2 setlinejoin
0 setlinecap
0 3 m
-0.673542 0.927051 l
-2.85317 0.927051 l
-1.089814 -0.354102 l
-1.763356 -2.427051 l
-0 -1.145898 l
1.763356 -2.427051 l
1.089814 -0.354102 l
2.85317 0.927051 l
0.673542 0.927051 l
cl

gsave
1.000 0.000 0.000 setrgbcolor
fill
grestore
stroke
grestore
} bind def
157.8 565 o
grestore
0.000 setgray
gsave
179.400000 560.800000 translate
0.000000 rotate
0.000000 0 m /C glyphshow
8.378906 0 m /O glyphshow
17.824219 0 m /M glyphshow
28.177734 0 m /M glyphshow
38.531250 0 m /space glyphshow
42.345703 0 m /m glyphshow
54.035156 0 m /o glyphshow
61.376953 0 m /d glyphshow
68.994141 0 m /e glyphshow
76.376953 0 m /l glyphshow
grestore

end
showpage
