%!PS-Adobe-3.0 EPSF-3.0
%%Title: gflops-diablo04-qr-govpowersave-amdpowersave-ratio0.6-measured-24576-512.eps
%%Creator: matplotlib version 3.3.3, http://matplotlib.org/
%%CreationDate: Tue Jan 19 16:47:31 2021
%%Orientation: portrait
%%BoundingBox: -234.0 36.0 846.0 756.0
%%EndComments
%%BeginProlog
/mpldict 8 dict def
mpldict begin
/m { moveto } bind def
/l { lineto } bind def
/r { rlineto } bind def
/c { curveto } bind def
/cl { closepath } bind def
/box {
      m
      1 index 0 r
      0 exch r
      neg 0 r
      cl
    } bind def
/clipbox {
      box
      clip
      newpath
    } bind def
%!PS-Adobe-3.0 Resource-Font
%%Title: DejaVu Sans
%%Copyright: Copyright (c) 2003 by Bitstream, Inc. All Rights Reserved. Copyright (c) 2006 by Tavmjong Bah. All Rights Reserved. DejaVu changes are in public domain 
%%Creator: Converted from TrueType to type 3 by PPR
25 dict begin
/_d{bind def}bind def
/_m{moveto}_d
/_l{lineto}_d
/_cl{closepath eofill}_d
/_c{curveto}_d
/_sc{7 -1 roll{setcachedevice}{pop pop pop pop pop pop}ifelse}_d
/_e{exec}_d
/FontName /DejaVuSans def
/PaintType 0 def
/FontMatrix[.001 0 0 .001 0 0]def
/FontBBox[-1021 -463 1793 1232]def
/FontType 3 def
/Encoding [ /space /plus /hyphen /slash /zero /one /two /three /four /five /six /seven /eight /A /C /E /F /G /H /M /N /O /T /a /b /c /d /e /f /i /k /l /m /o /p /r /s /t /u /v ] def
/FontInfo 10 dict dup begin
/FamilyName (DejaVu Sans) def
/FullName (DejaVu Sans) def
/Notice (Copyright (c) 2003 by Bitstream, Inc. All Rights Reserved. Copyright (c) 2006 by Tavmjong Bah. All Rights Reserved. DejaVu changes are in public domain ) def
/Weight (Book) def
/Version (Version 2.35) def
/ItalicAngle 0.0 def
/isFixedPitch false def
/UnderlinePosition -130 def
/UnderlineThickness 90 def
end readonly def
/CharStrings 41 dict dup begin
/.notdef 0 def
/space{318 0 0 0 0 0 _sc
}_d
/plus{838 0 106 0 732 627 _sc
460 627 _m
460 355 _l
732 355 _l
732 272 _l
460 272 _l
460 0 _l
378 0 _l
378 272 _l
106 272 _l
106 355 _l
378 355 _l
378 627 _l
460 627 _l
_cl}_d
/hyphen{361 0 49 234 312 314 _sc
49 314 _m
312 314 _l
312 234 _l
49 234 _l
49 314 _l
_cl}_d
/slash{337 0 0 -92 337 729 _sc
254 729 _m
337 729 _l
83 -92 _l
0 -92 _l
254 729 _l
_cl}_d
/zero{636 0 66 -13 570 742 _sc
318 664 _m
267 664 229 639 203 589 _c
177 539 165 464 165 364 _c
165 264 177 189 203 139 _c
229 89 267 64 318 64 _c
369 64 407 89 433 139 _c
458 189 471 264 471 364 _c
471 464 458 539 433 589 _c
407 639 369 664 318 664 _c
318 742 _m
399 742 461 709 505 645 _c
548 580 570 486 570 364 _c
570 241 548 147 505 83 _c
461 19 399 -13 318 -13 _c
236 -13 173 19 130 83 _c
87 147 66 241 66 364 _c
66 486 87 580 130 645 _c
173 709 236 742 318 742 _c
_cl}_d
/one{636 0 110 0 544 729 _sc
124 83 _m
285 83 _l
285 639 _l
110 604 _l
110 694 _l
284 729 _l
383 729 _l
383 83 _l
544 83 _l
544 0 _l
124 0 _l
124 83 _l
_cl}_d
/two{{636 0 73 0 536 742 _sc
192 83 _m
536 83 _l
536 0 _l
73 0 _l
73 83 _l
110 121 161 173 226 239 _c
290 304 331 346 348 365 _c
380 400 402 430 414 455 _c
426 479 433 504 433 528 _c
433 566 419 598 392 622 _c
365 646 330 659 286 659 _c
255 659 222 653 188 643 _c
154 632 117 616 78 594 _c
78 694 _l
118 710 155 722 189 730 _c
223 738 255 742 284 742 _c
}_e{359 742 419 723 464 685 _c
509 647 532 597 532 534 _c
532 504 526 475 515 449 _c
504 422 484 390 454 354 _c
446 344 420 317 376 272 _c
332 227 271 164 192 83 _c
_cl}_e}_d
/three{{636 0 76 -13 556 742 _sc
406 393 _m
453 383 490 362 516 330 _c
542 298 556 258 556 212 _c
556 140 531 84 482 45 _c
432 6 362 -13 271 -13 _c
240 -13 208 -10 176 -4 _c
144 1 110 10 76 22 _c
76 117 _l
103 101 133 89 166 81 _c
198 73 232 69 268 69 _c
330 69 377 81 409 105 _c
441 129 458 165 458 212 _c
458 254 443 288 413 312 _c
383 336 341 349 287 349 _c
}_e{202 349 _l
202 430 _l
291 430 _l
339 430 376 439 402 459 _c
428 478 441 506 441 543 _c
441 580 427 609 401 629 _c
374 649 336 659 287 659 _c
260 659 231 656 200 650 _c
169 644 135 635 98 623 _c
98 711 _l
135 721 170 729 203 734 _c
235 739 266 742 296 742 _c
370 742 429 725 473 691 _c
517 657 539 611 539 553 _c
539 513 527 479 504 451 _c
481 423 448 403 406 393 _c
_cl}_e}_d
/four{636 0 49 0 580 729 _sc
378 643 _m
129 254 _l
378 254 _l
378 643 _l
352 729 _m
476 729 _l
476 254 _l
580 254 _l
580 172 _l
476 172 _l
476 0 _l
378 0 _l
378 172 _l
49 172 _l
49 267 _l
352 729 _l
_cl}_d
/five{{636 0 77 -13 549 729 _sc
108 729 _m
495 729 _l
495 646 _l
198 646 _l
198 467 _l
212 472 227 476 241 478 _c
255 480 270 482 284 482 _c
365 482 429 459 477 415 _c
525 370 549 310 549 234 _c
549 155 524 94 475 51 _c
426 8 357 -13 269 -13 _c
238 -13 207 -10 175 -6 _c
143 -1 111 6 77 17 _c
77 116 _l
106 100 136 88 168 80 _c
199 72 232 69 267 69 _c
}_e{323 69 368 83 401 113 _c
433 143 450 183 450 234 _c
450 284 433 324 401 354 _c
368 384 323 399 267 399 _c
241 399 214 396 188 390 _c
162 384 135 375 108 363 _c
108 729 _l
_cl}_e}_d
/six{{636 0 70 -13 573 742 _sc
330 404 _m
286 404 251 388 225 358 _c
199 328 186 286 186 234 _c
186 181 199 139 225 109 _c
251 79 286 64 330 64 _c
374 64 409 79 435 109 _c
461 139 474 181 474 234 _c
474 286 461 328 435 358 _c
409 388 374 404 330 404 _c
526 713 _m
526 623 _l
501 635 476 644 451 650 _c
425 656 400 659 376 659 _c
310 659 260 637 226 593 _c
}_e{192 549 172 482 168 394 _c
187 422 211 444 240 459 _c
269 474 301 482 336 482 _c
409 482 467 459 509 415 _c
551 371 573 310 573 234 _c
573 159 550 99 506 54 _c
462 9 403 -13 330 -13 _c
246 -13 181 19 137 83 _c
92 147 70 241 70 364 _c
70 479 97 571 152 639 _c
206 707 280 742 372 742 _c
396 742 421 739 447 735 _c
472 730 498 723 526 713 _c
_cl}_e}_d
/seven{636 0 82 0 551 729 _sc
82 729 _m
551 729 _l
551 687 _l
286 0 _l
183 0 _l
432 646 _l
82 646 _l
82 729 _l
_cl}_d
/eight{{636 0 68 -13 568 742 _sc
318 346 _m
271 346 234 333 207 308 _c
180 283 167 249 167 205 _c
167 161 180 126 207 101 _c
234 76 271 64 318 64 _c
364 64 401 76 428 102 _c
455 127 469 161 469 205 _c
469 249 455 283 429 308 _c
402 333 365 346 318 346 _c
219 388 _m
177 398 144 418 120 447 _c
96 476 85 511 85 553 _c
85 611 105 657 147 691 _c
188 725 245 742 318 742 _c
}_e{390 742 447 725 489 691 _c
530 657 551 611 551 553 _c
551 511 539 476 515 447 _c
491 418 459 398 417 388 _c
464 377 501 355 528 323 _c
554 291 568 251 568 205 _c
568 134 546 80 503 43 _c
459 5 398 -13 318 -13 _c
237 -13 175 5 132 43 _c
89 80 68 134 68 205 _c
68 251 81 291 108 323 _c
134 355 171 377 219 388 _c
183 544 _m
183 506 194 476 218 455 _c
}_e{242 434 275 424 318 424 _c
360 424 393 434 417 455 _c
441 476 453 506 453 544 _c
453 582 441 611 417 632 _c
393 653 360 664 318 664 _c
275 664 242 653 218 632 _c
194 611 183 582 183 544 _c
_cl}_e}_d
/A{684 0 8 0 676 729 _sc
342 632 _m
208 269 _l
476 269 _l
342 632 _l
286 729 _m
398 729 _l
676 0 _l
573 0 _l
507 187 _l
178 187 _l
112 0 _l
8 0 _l
286 729 _l
_cl}_d
/C{{698 0 56 -13 644 742 _sc
644 673 _m
644 569 _l
610 599 575 622 537 638 _c
499 653 460 661 418 661 _c
334 661 270 635 226 584 _c
182 533 160 460 160 364 _c
160 268 182 194 226 143 _c
270 92 334 67 418 67 _c
460 67 499 74 537 90 _c
575 105 610 128 644 159 _c
644 56 _l
609 32 572 15 534 4 _c
496 -7 455 -13 412 -13 _c
302 -13 215 20 151 87 _c
}_e{87 154 56 246 56 364 _c
56 481 87 573 151 641 _c
215 708 302 742 412 742 _c
456 742 497 736 535 725 _c
573 713 610 696 644 673 _c
_cl}_e}_d
/E{632 0 98 0 568 729 _sc
98 729 _m
559 729 _l
559 646 _l
197 646 _l
197 430 _l
544 430 _l
544 347 _l
197 347 _l
197 83 _l
568 83 _l
568 0 _l
98 0 _l
98 729 _l
_cl}_d
/F{575 0 98 0 517 729 _sc
98 729 _m
517 729 _l
517 646 _l
197 646 _l
197 431 _l
486 431 _l
486 348 _l
197 348 _l
197 0 _l
98 0 _l
98 729 _l
_cl}_d
/G{{775 0 56 -13 693 742 _sc
595 104 _m
595 300 _l
434 300 _l
434 381 _l
693 381 _l
693 68 _l
655 40 613 20 567 7 _c
521 -6 472 -13 420 -13 _c
306 -13 216 20 152 86 _c
88 152 56 245 56 364 _c
56 482 88 575 152 642 _c
216 708 306 742 420 742 _c
467 742 512 736 555 724 _c
598 712 638 695 674 673 _c
674 568 _l
637 598 598 621 557 637 _c
516 653 473 661 428 661 _c
}_e{338 661 271 636 227 586 _c
182 536 160 462 160 364 _c
160 265 182 191 227 141 _c
271 91 338 67 428 67 _c
462 67 493 70 521 76 _c
549 82 573 91 595 104 _c
_cl}_e}_d
/H{752 0 98 0 654 729 _sc
98 729 _m
197 729 _l
197 430 _l
555 430 _l
555 729 _l
654 729 _l
654 0 _l
555 0 _l
555 347 _l
197 347 _l
197 0 _l
98 0 _l
98 729 _l
_cl}_d
/M{863 0 98 0 765 729 _sc
98 729 _m
245 729 _l
431 233 _l
618 729 _l
765 729 _l
765 0 _l
669 0 _l
669 640 _l
481 140 _l
382 140 _l
194 640 _l
194 0 _l
98 0 _l
98 729 _l
_cl}_d
/N{748 0 98 0 650 729 _sc
98 729 _m
231 729 _l
554 119 _l
554 729 _l
650 729 _l
650 0 _l
517 0 _l
194 610 _l
194 0 _l
98 0 _l
98 729 _l
_cl}_d
/O{787 0 56 -13 731 742 _sc
394 662 _m
322 662 265 635 223 582 _c
181 528 160 456 160 364 _c
160 272 181 199 223 146 _c
265 92 322 66 394 66 _c
465 66 522 92 564 146 _c
606 199 627 272 627 364 _c
627 456 606 528 564 582 _c
522 635 465 662 394 662 _c
394 742 _m
496 742 577 707 639 639 _c
700 571 731 479 731 364 _c
731 248 700 157 639 89 _c
577 21 496 -13 394 -13 _c
291 -13 209 21 148 89 _c
86 157 56 248 56 364 _c
56 479 86 571 148 639 _c
209 707 291 742 394 742 _c
_cl}_d
/T{611 0 -2 0 614 729 _sc
-2 729 _m
614 729 _l
614 646 _l
355 646 _l
355 0 _l
256 0 _l
256 646 _l
-2 646 _l
-2 729 _l
_cl}_d
/a{{613 0 60 -13 522 560 _sc
343 275 _m
270 275 220 266 192 250 _c
164 233 150 205 150 165 _c
150 133 160 107 181 89 _c
202 70 231 61 267 61 _c
317 61 357 78 387 114 _c
417 149 432 196 432 255 _c
432 275 _l
343 275 _l
522 312 _m
522 0 _l
432 0 _l
432 83 _l
411 49 385 25 355 10 _c
325 -5 287 -13 243 -13 _c
187 -13 142 2 109 33 _c
76 64 60 106 60 159 _c
}_e{60 220 80 266 122 298 _c
163 329 224 345 306 345 _c
432 345 _l
432 354 _l
432 395 418 427 391 450 _c
364 472 326 484 277 484 _c
245 484 215 480 185 472 _c
155 464 127 453 100 439 _c
100 522 _l
132 534 164 544 195 550 _c
226 556 256 560 286 560 _c
365 560 424 539 463 498 _c
502 457 522 395 522 312 _c
_cl}_e}_d
/b{{635 0 91 -13 580 760 _sc
487 273 _m
487 339 473 390 446 428 _c
418 466 381 485 334 485 _c
286 485 249 466 222 428 _c
194 390 181 339 181 273 _c
181 207 194 155 222 117 _c
249 79 286 61 334 61 _c
381 61 418 79 446 117 _c
473 155 487 207 487 273 _c
181 464 _m
199 496 223 520 252 536 _c
281 552 316 560 356 560 _c
422 560 476 533 518 481 _c
559 428 580 359 580 273 _c
}_e{580 187 559 117 518 65 _c
476 13 422 -13 356 -13 _c
316 -13 281 -5 252 10 _c
223 25 199 49 181 82 _c
181 0 _l
91 0 _l
91 760 _l
181 760 _l
181 464 _l
_cl}_e}_d
/c{{550 0 55 -13 488 560 _sc
488 526 _m
488 442 _l
462 456 437 466 411 473 _c
385 480 360 484 334 484 _c
276 484 230 465 198 428 _c
166 391 150 339 150 273 _c
150 206 166 154 198 117 _c
230 80 276 62 334 62 _c
360 62 385 65 411 72 _c
437 79 462 90 488 104 _c
488 21 _l
462 9 436 0 410 -5 _c
383 -10 354 -13 324 -13 _c
242 -13 176 12 128 64 _c
}_e{79 115 55 185 55 273 _c
55 362 79 432 128 483 _c
177 534 244 560 330 560 _c
358 560 385 557 411 551 _c
437 545 463 537 488 526 _c
_cl}_e}_d
/d{{635 0 55 -13 544 760 _sc
454 464 _m
454 760 _l
544 760 _l
544 0 _l
454 0 _l
454 82 _l
435 49 411 25 382 10 _c
353 -5 319 -13 279 -13 _c
213 -13 159 13 117 65 _c
75 117 55 187 55 273 _c
55 359 75 428 117 481 _c
159 533 213 560 279 560 _c
319 560 353 552 382 536 _c
411 520 435 496 454 464 _c
148 273 _m
148 207 161 155 188 117 _c
215 79 253 61 301 61 _c
}_e{348 61 385 79 413 117 _c
440 155 454 207 454 273 _c
454 339 440 390 413 428 _c
385 466 348 485 301 485 _c
253 485 215 466 188 428 _c
161 390 148 339 148 273 _c
_cl}_e}_d
/e{{615 0 55 -13 562 560 _sc
562 296 _m
562 252 _l
149 252 _l
153 190 171 142 205 110 _c
238 78 284 62 344 62 _c
378 62 412 66 444 74 _c
476 82 509 95 541 113 _c
541 28 _l
509 14 476 3 442 -3 _c
408 -9 373 -13 339 -13 _c
251 -13 182 12 131 62 _c
80 112 55 181 55 268 _c
55 357 79 428 127 481 _c
175 533 241 560 323 560 _c
397 560 455 536 498 489 _c
}_e{540 441 562 377 562 296 _c
472 322 _m
471 371 457 410 431 440 _c
404 469 368 484 324 484 _c
274 484 234 469 204 441 _c
174 413 156 373 152 322 _c
472 322 _l
_cl}_e}_d
/f{352 0 23 0 371 760 _sc
371 760 _m
371 685 _l
285 685 _l
253 685 230 678 218 665 _c
205 652 199 629 199 595 _c
199 547 _l
347 547 _l
347 477 _l
199 477 _l
199 0 _l
109 0 _l
109 477 _l
23 477 _l
23 547 _l
109 547 _l
109 585 _l
109 645 123 690 151 718 _c
179 746 224 760 286 760 _c
371 760 _l
_cl}_d
/i{278 0 94 0 184 760 _sc
94 547 _m
184 547 _l
184 0 _l
94 0 _l
94 547 _l
94 760 _m
184 760 _l
184 646 _l
94 646 _l
94 760 _l
_cl}_d
/k{579 0 91 0 576 760 _sc
91 760 _m
181 760 _l
181 311 _l
449 547 _l
564 547 _l
274 291 _l
576 0 _l
459 0 _l
181 267 _l
181 0 _l
91 0 _l
91 760 _l
_cl}_d
/l{278 0 94 0 184 760 _sc
94 760 _m
184 760 _l
184 0 _l
94 0 _l
94 760 _l
_cl}_d
/m{{974 0 91 0 889 560 _sc
520 442 _m
542 482 569 511 600 531 _c
631 550 668 560 711 560 _c
767 560 811 540 842 500 _c
873 460 889 403 889 330 _c
889 0 _l
799 0 _l
799 327 _l
799 379 789 418 771 444 _c
752 469 724 482 686 482 _c
639 482 602 466 575 435 _c
548 404 535 362 535 309 _c
535 0 _l
445 0 _l
445 327 _l
445 379 435 418 417 444 _c
398 469 369 482 331 482 _c
}_e{285 482 248 466 221 435 _c
194 404 181 362 181 309 _c
181 0 _l
91 0 _l
91 547 _l
181 547 _l
181 462 _l
201 495 226 520 255 536 _c
283 552 317 560 357 560 _c
397 560 430 550 458 530 _c
486 510 506 480 520 442 _c
_cl}_e}_d
/o{612 0 55 -13 557 560 _sc
306 484 _m
258 484 220 465 192 427 _c
164 389 150 338 150 273 _c
150 207 163 156 191 118 _c
219 80 257 62 306 62 _c
354 62 392 80 420 118 _c
448 156 462 207 462 273 _c
462 337 448 389 420 427 _c
392 465 354 484 306 484 _c
306 560 _m
384 560 445 534 490 484 _c
534 433 557 363 557 273 _c
557 183 534 113 490 63 _c
445 12 384 -13 306 -13 _c
227 -13 165 12 121 63 _c
77 113 55 183 55 273 _c
55 363 77 433 121 484 _c
165 534 227 560 306 560 _c
_cl}_d
/p{{635 0 91 -207 580 560 _sc
181 82 _m
181 -207 _l
91 -207 _l
91 547 _l
181 547 _l
181 464 _l
199 496 223 520 252 536 _c
281 552 316 560 356 560 _c
422 560 476 533 518 481 _c
559 428 580 359 580 273 _c
580 187 559 117 518 65 _c
476 13 422 -13 356 -13 _c
316 -13 281 -5 252 10 _c
223 25 199 49 181 82 _c
487 273 _m
487 339 473 390 446 428 _c
418 466 381 485 334 485 _c
}_e{286 485 249 466 222 428 _c
194 390 181 339 181 273 _c
181 207 194 155 222 117 _c
249 79 286 61 334 61 _c
381 61 418 79 446 117 _c
473 155 487 207 487 273 _c
_cl}_e}_d
/r{411 0 91 0 411 560 _sc
411 463 _m
401 469 390 473 378 476 _c
366 478 353 480 339 480 _c
288 480 249 463 222 430 _c
194 397 181 350 181 288 _c
181 0 _l
91 0 _l
91 547 _l
181 547 _l
181 462 _l
199 495 224 520 254 536 _c
284 552 321 560 365 560 _c
371 560 378 559 386 559 _c
393 558 401 557 411 555 _c
411 463 _l
_cl}_d
/s{{521 0 54 -13 472 560 _sc
443 531 _m
443 446 _l
417 458 391 468 364 475 _c
336 481 308 485 279 485 _c
234 485 200 478 178 464 _c
156 450 145 430 145 403 _c
145 382 153 366 169 354 _c
185 342 217 330 265 320 _c
296 313 _l
360 299 405 279 432 255 _c
458 230 472 195 472 151 _c
472 100 452 60 412 31 _c
372 1 316 -13 246 -13 _c
216 -13 186 -10 154 -5 _c
}_e{122 0 89 8 54 20 _c
54 113 _l
87 95 120 82 152 74 _c
184 65 216 61 248 61 _c
290 61 323 68 346 82 _c
368 96 380 117 380 144 _c
380 168 371 187 355 200 _c
339 213 303 226 247 238 _c
216 245 _l
160 257 119 275 95 299 _c
70 323 58 356 58 399 _c
58 450 76 490 112 518 _c
148 546 200 560 268 560 _c
301 560 332 557 362 552 _c
391 547 418 540 443 531 _c
}_e{_cl}_e}_d
/t{392 0 27 0 368 702 _sc
183 702 _m
183 547 _l
368 547 _l
368 477 _l
183 477 _l
183 180 _l
183 135 189 106 201 94 _c
213 81 238 75 276 75 _c
368 75 _l
368 0 _l
276 0 _l
206 0 158 13 132 39 _c
106 65 93 112 93 180 _c
93 477 _l
27 477 _l
27 547 _l
93 547 _l
93 702 _l
183 702 _l
_cl}_d
/u{634 0 85 -13 543 560 _sc
85 216 _m
85 547 _l
175 547 _l
175 219 _l
175 167 185 129 205 103 _c
225 77 255 64 296 64 _c
344 64 383 79 411 110 _c
439 141 453 183 453 237 _c
453 547 _l
543 547 _l
543 0 _l
453 0 _l
453 84 _l
431 50 405 26 377 10 _c
348 -5 315 -13 277 -13 _c
214 -13 166 6 134 45 _c
101 83 85 140 85 216 _c
311 560 _m
311 560 _l
_cl}_d
/v{592 0 30 0 562 547 _sc
30 547 _m
125 547 _l
296 88 _l
467 547 _l
562 547 _l
357 0 _l
235 0 _l
30 547 _l
_cl}_d
end readonly def

/BuildGlyph
 {exch begin
 CharStrings exch
 2 copy known not{pop /.notdef}if
 true 3 1 roll get exec
 end}_d

/BuildChar {
 1 index /Encoding get exch get
 1 index /BuildGlyph get exec
}_d

FontName currentdict end definefont pop
end
%%EndProlog
mpldict begin
-234 36 translate
1080 720 0 0 clipbox
gsave
0 0 m
1080 0 l
1080 720 l
0 720 l
cl
1.000 setgray
fill
grestore
gsave
135 79.2 m
972 79.2 l
972 633.6 l
135 633.6 l
cl
1.000 setgray
fill
grestore
0.800 setlinewidth
1 setlinejoin
0 setlinecap
[] 0 setdash
0.000 setgray
gsave
/o {
gsave
newpath
translate
0.8 setlinewidth
1 setlinejoin
0 setlinecap
0 0 m
0 -3.5 l

gsave
0.000 setgray
fill
grestore
stroke
grestore
} bind def
160.968 79.2 o
grestore
/DejaVuSans findfont
12.000 scalefont
setfont
gsave
157.147220 63.075000 translate
0.000000 rotate
0.000000 0 m /zero glyphshow
grestore
gsave
/o {
gsave
newpath
translate
0.8 setlinewidth
1 setlinejoin
0 setlinecap
0 0 m
0 -3.5 l

gsave
0.000 setgray
fill
grestore
stroke
grestore
} bind def
281.747 79.2 o
grestore
gsave
274.106128 63.075000 translate
0.000000 rotate
0.000000 0 m /one glyphshow
7.634766 0 m /zero glyphshow
grestore
gsave
/o {
gsave
newpath
translate
0.8 setlinewidth
1 setlinejoin
0 setlinecap
0 0 m
0 -3.5 l

gsave
0.000 setgray
fill
grestore
stroke
grestore
} bind def
402.526 79.2 o
grestore
gsave
394.885349 63.075000 translate
0.000000 rotate
0.000000 0 m /two glyphshow
7.634766 0 m /zero glyphshow
grestore
gsave
/o {
gsave
newpath
translate
0.8 setlinewidth
1 setlinejoin
0 setlinecap
0 0 m
0 -3.5 l

gsave
0.000 setgray
fill
grestore
stroke
grestore
} bind def
523.305 79.2 o
grestore
gsave
515.664570 63.075000 translate
0.000000 rotate
0.000000 0 m /three glyphshow
7.634766 0 m /zero glyphshow
grestore
gsave
/o {
gsave
newpath
translate
0.8 setlinewidth
1 setlinejoin
0 setlinecap
0 0 m
0 -3.5 l

gsave
0.000 setgray
fill
grestore
stroke
grestore
} bind def
644.084 79.2 o
grestore
gsave
636.443791 63.075000 translate
0.000000 rotate
0.000000 0 m /four glyphshow
7.634766 0 m /zero glyphshow
grestore
gsave
/o {
gsave
newpath
translate
0.8 setlinewidth
1 setlinejoin
0 setlinecap
0 0 m
0 -3.5 l

gsave
0.000 setgray
fill
grestore
stroke
grestore
} bind def
764.864 79.2 o
grestore
gsave
757.223011 63.075000 translate
0.000000 rotate
0.000000 0 m /five glyphshow
7.634766 0 m /zero glyphshow
grestore
gsave
/o {
gsave
newpath
translate
0.8 setlinewidth
1 setlinejoin
0 setlinecap
0 0 m
0 -3.5 l

gsave
0.000 setgray
fill
grestore
stroke
grestore
} bind def
885.643 79.2 o
grestore
gsave
878.002232 63.075000 translate
0.000000 rotate
0.000000 0 m /six glyphshow
7.634766 0 m /zero glyphshow
grestore
gsave
503.656250 47.450000 translate
0.000000 rotate
0.000000 0 m /N glyphshow
8.976562 0 m /u glyphshow
16.582031 0 m /m glyphshow
28.271484 0 m /b glyphshow
35.888672 0 m /e glyphshow
43.271484 0 m /r glyphshow
48.205078 0 m /space glyphshow
52.019531 0 m /o glyphshow
59.361328 0 m /f glyphshow
63.585938 0 m /space glyphshow
67.400391 0 m /c glyphshow
73.998047 0 m /o glyphshow
81.339844 0 m /r glyphshow
86.023438 0 m /e glyphshow
93.406250 0 m /s glyphshow
grestore
gsave
/o {
gsave
newpath
translate
0.8 setlinewidth
1 setlinejoin
0 setlinecap
-0 0 m
-3.5 0 l

gsave
0.000 setgray
fill
grestore
stroke
grestore
} bind def
135 95.7143 o
grestore
gsave
120.359375 91.151827 translate
0.000000 rotate
0.000000 0 m /zero glyphshow
grestore
gsave
/o {
gsave
newpath
translate
0.8 setlinewidth
1 setlinejoin
0 setlinecap
-0 0 m
-3.5 0 l

gsave
0.000 setgray
fill
grestore
stroke
grestore
} bind def
135 158.487 o
grestore
gsave
105.078125 153.924914 translate
0.000000 rotate
0.000000 0 m /one glyphshow
7.634766 0 m /zero glyphshow
15.269531 0 m /zero glyphshow
grestore
gsave
/o {
gsave
newpath
translate
0.8 setlinewidth
1 setlinejoin
0 setlinecap
-0 0 m
-3.5 0 l

gsave
0.000 setgray
fill
grestore
stroke
grestore
} bind def
135 221.261 o
grestore
gsave
105.078125 216.698001 translate
0.000000 rotate
0.000000 0 m /two glyphshow
7.634766 0 m /zero glyphshow
15.269531 0 m /zero glyphshow
grestore
gsave
/o {
gsave
newpath
translate
0.8 setlinewidth
1 setlinejoin
0 setlinecap
-0 0 m
-3.5 0 l

gsave
0.000 setgray
fill
grestore
stroke
grestore
} bind def
135 284.034 o
grestore
gsave
105.078125 279.471088 translate
0.000000 rotate
0.000000 0 m /three glyphshow
7.634766 0 m /zero glyphshow
15.269531 0 m /zero glyphshow
grestore
gsave
/o {
gsave
newpath
translate
0.8 setlinewidth
1 setlinejoin
0 setlinecap
-0 0 m
-3.5 0 l

gsave
0.000 setgray
fill
grestore
stroke
grestore
} bind def
135 346.807 o
grestore
gsave
105.078125 342.244175 translate
0.000000 rotate
0.000000 0 m /four glyphshow
7.634766 0 m /zero glyphshow
15.269531 0 m /zero glyphshow
grestore
gsave
/o {
gsave
newpath
translate
0.8 setlinewidth
1 setlinejoin
0 setlinecap
-0 0 m
-3.5 0 l

gsave
0.000 setgray
fill
grestore
stroke
grestore
} bind def
135 409.58 o
grestore
gsave
105.078125 405.017262 translate
0.000000 rotate
0.000000 0 m /five glyphshow
7.634766 0 m /zero glyphshow
15.269531 0 m /zero glyphshow
grestore
gsave
/o {
gsave
newpath
translate
0.8 setlinewidth
1 setlinejoin
0 setlinecap
-0 0 m
-3.5 0 l

gsave
0.000 setgray
fill
grestore
stroke
grestore
} bind def
135 472.353 o
grestore
gsave
105.078125 467.790349 translate
0.000000 rotate
0.000000 0 m /six glyphshow
7.634766 0 m /zero glyphshow
15.269531 0 m /zero glyphshow
grestore
gsave
/o {
gsave
newpath
translate
0.8 setlinewidth
1 setlinejoin
0 setlinecap
-0 0 m
-3.5 0 l

gsave
0.000 setgray
fill
grestore
stroke
grestore
} bind def
135 535.126 o
grestore
gsave
105.078125 530.563436 translate
0.000000 rotate
0.000000 0 m /seven glyphshow
7.634766 0 m /zero glyphshow
15.269531 0 m /zero glyphshow
grestore
gsave
/o {
gsave
newpath
translate
0.8 setlinewidth
1 setlinejoin
0 setlinecap
-0 0 m
-3.5 0 l

gsave
0.000 setgray
fill
grestore
stroke
grestore
} bind def
135 597.899 o
grestore
gsave
105.078125 593.336523 translate
0.000000 rotate
0.000000 0 m /eight glyphshow
7.634766 0 m /zero glyphshow
15.269531 0 m /zero glyphshow
grestore
gsave
98.578125 334.001563 translate
90.000000 rotate
0.000000 0 m /G glyphshow
9.298828 0 m /F glyphshow
16.201172 0 m /l glyphshow
19.535156 0 m /o glyphshow
26.876953 0 m /p glyphshow
34.494141 0 m /slash glyphshow
38.537109 0 m /s glyphshow
grestore
1.500 setlinewidth
2 setlinecap
0.500 0.000 1.000 setrgbcolor
gsave
837 554.4 135 79.2 clipbox
173.045455 104.514248 m
185.123377 113.429461 l
197.201299 121.907224 l
209.279221 130.700297 l
221.357143 139.374371 l
233.435065 148.144779 l
245.512987 156.88336 l
257.590909 165.166211 l
269.668831 173.879868 l
281.746753 182.703033 l
293.824675 191.063018 l
305.902597 199.80603 l
317.980519 208.379177 l
330.058442 217.02624 l
342.136364 225.586165 l
354.214286 233.7739 l
366.292208 242.356139 l
378.37013 251.158549 l
390.448052 259.227741 l
402.525974 267.864143 l
414.603896 276.148655 l
426.681818 284.616575 l
438.75974 293.114428 l
450.837662 301.221621 l
462.915584 309.64426 l
474.993506 317.912259 l
487.071429 325.99804 l
499.149351 334.333288 l
511.227273 342.142009 l
523.305195 350.89878 l
535.383117 358.873902 l
547.461039 366.497959 l
559.538961 374.664611 l
571.616883 382.998648 l
583.694805 390.945241 l
595.772727 399.1015 l
607.850649 407.09874 l
619.928571 415.168813 l
632.006494 423.034103 l
644.084416 430.609871 l
656.162338 438.399944 l
668.24026 446.403594 l
680.318182 454.112584 l
692.396104 461.433488 l
704.474026 469.259527 l
716.551948 477.043534 l
728.62987 485.094162 l
740.707792 492.152921 l
752.785714 500.167675 l
764.863636 508.404852 l
776.941558 515.501285 l
789.019481 522.646416 l
801.097403 529.743108 l
813.175325 537.311907 l
825.253247 545.146115 l
837.331169 551.915829 l
849.409091 558.98069 l
861.487013 566.253551 l
873.564935 573.865122 l
885.642857 581.007472 l
897.720779 587.566759 l
909.798701 594.814558 l
921.876623 601.899388 l
933.954545 608.4 l
stroke
grestore
1.000 setlinewidth
0 setlinejoin
0 setlinecap
gsave
837 554.4 135 79.2 clipbox
/o {
gsave
newpath
translate
1.0 setlinewidth
0 setlinejoin
0 setlinecap
-0 -3 m
3 3 l
-3 3 l
cl

gsave
0.500 0.000 1.000 setrgbcolor
fill
grestore
stroke
grestore
} bind def
173.045 104.514 o
185.123 113.429 o
197.201 121.907 o
209.279 130.7 o
221.357 139.374 o
233.435 148.145 o
245.513 156.883 o
257.591 165.166 o
269.669 173.88 o
281.747 182.703 o
293.825 191.063 o
305.903 199.806 o
317.981 208.379 o
330.058 217.026 o
342.136 225.586 o
354.214 233.774 o
366.292 242.356 o
378.37 251.159 o
390.448 259.228 o
402.526 267.864 o
414.604 276.149 o
426.682 284.617 o
438.76 293.114 o
450.838 301.222 o
462.916 309.644 o
474.994 317.912 o
487.071 325.998 o
499.149 334.333 o
511.227 342.142 o
523.305 350.899 o
535.383 358.874 o
547.461 366.498 o
559.539 374.665 o
571.617 382.999 o
583.695 390.945 o
595.773 399.101 o
607.851 407.099 o
619.929 415.169 o
632.006 423.034 o
644.084 430.61 o
656.162 438.4 o
668.24 446.404 o
680.318 454.113 o
692.396 461.433 o
704.474 469.26 o
716.552 477.044 o
728.63 485.094 o
740.708 492.153 o
752.786 500.168 o
764.864 508.405 o
776.942 515.501 o
789.019 522.646 o
801.097 529.743 o
813.175 537.312 o
825.253 545.146 o
837.331 551.916 o
849.409 558.981 o
861.487 566.254 o
873.565 573.865 o
885.643 581.007 o
897.721 587.567 o
909.799 594.815 o
921.877 601.899 o
933.955 608.4 o
grestore
1.500 setlinewidth
1 setlinejoin
2 setlinecap
0.167 0.866 0.866 setrgbcolor
gsave
837 554.4 135 79.2 clipbox
173.045455 104.447072 m
185.123377 113.420742 l
197.201299 122.121592 l
209.279221 130.826218 l
221.357143 139.582763 l
233.435065 148.300344 l
245.512987 156.912513 l
257.590909 165.21597 l
269.668831 173.893386 l
281.746753 182.604405 l
293.824675 190.835277 l
305.902597 199.275499 l
317.980519 208.011163 l
330.058442 216.370796 l
342.136364 224.636392 l
354.214286 232.863773 l
366.292208 241.343852 l
378.37013 249.583275 l
390.448052 257.698206 l
402.525974 265.979223 l
414.603896 274.035234 l
426.681818 282.179579 l
438.75974 289.877258 l
450.837662 298.371165 l
462.915584 306.613702 l
474.993506 314.675751 l
487.071429 322.129952 l
499.149351 330.469812 l
511.227273 338.087421 l
523.305195 345.74203 l
535.383117 353.164823 l
547.461039 361.719274 l
559.538961 367.839784 l
571.616883 374.354781 l
583.694805 381.682396 l
595.772727 388.413069 l
607.850649 396.202229 l
619.928571 402.551288 l
632.006494 409.813986 l
644.084416 414.753069 l
656.162338 422.100025 l
668.24026 429.307442 l
680.318182 436.795091 l
692.396104 442.720864 l
704.474026 447.570448 l
716.551948 455.900187 l
728.62987 462.283 l
740.707792 468.801919 l
752.785714 474.003309 l
764.863636 479.449766 l
776.941558 489.397008 l
789.019481 494.34852 l
801.097403 495.323627 l
813.175325 508.493444 l
825.253247 513.377791 l
837.331169 520.309433 l
849.409091 524.436836 l
861.487013 531.25847 l
873.564935 536.001915 l
885.642857 543.905462 l
897.720779 550.770127 l
909.798701 554.769403 l
921.876623 561.535513 l
933.954545 563.852188 l
stroke
grestore
1.000 setlinewidth
0 setlinecap
gsave
837 554.4 135 79.2 clipbox
/o {
gsave
newpath
translate
1.0 setlinewidth
1 setlinejoin
0 setlinecap
0 -1.5 m
0.397805 -1.5 0.77937 -1.341951 1.06066 -1.06066 c
1.341951 -0.77937 1.5 -0.397805 1.5 0 c
1.5 0.397805 1.341951 0.77937 1.06066 1.06066 c
0.77937 1.341951 0.397805 1.5 0 1.5 c
-0.397805 1.5 -0.77937 1.341951 -1.06066 1.06066 c
-1.341951 0.77937 -1.5 0.397805 -1.5 0 c
-1.5 -0.397805 -1.341951 -0.77937 -1.06066 -1.06066 c
-0.77937 -1.341951 -0.397805 -1.5 0 -1.5 c
cl

gsave
0.167 0.866 0.866 setrgbcolor
fill
grestore
stroke
grestore
} bind def
173.045 104.447 o
185.123 113.421 o
197.201 122.122 o
209.279 130.826 o
221.357 139.583 o
233.435 148.3 o
245.513 156.913 o
257.591 165.216 o
269.669 173.893 o
281.747 182.604 o
293.825 190.835 o
305.903 199.275 o
317.981 208.011 o
330.058 216.371 o
342.136 224.636 o
354.214 232.864 o
366.292 241.344 o
378.37 249.583 o
390.448 257.698 o
402.526 265.979 o
414.604 274.035 o
426.682 282.18 o
438.76 289.877 o
450.838 298.371 o
462.916 306.614 o
474.994 314.676 o
487.071 322.13 o
499.149 330.47 o
511.227 338.087 o
523.305 345.742 o
535.383 353.165 o
547.461 361.719 o
559.539 367.84 o
571.617 374.355 o
583.695 381.682 o
595.773 388.413 o
607.851 396.202 o
619.929 402.551 o
632.006 409.814 o
644.084 414.753 o
656.162 422.1 o
668.24 429.307 o
680.318 436.795 o
692.396 442.721 o
704.474 447.57 o
716.552 455.9 o
728.63 462.283 o
740.708 468.802 o
752.786 474.003 o
764.864 479.45 o
776.942 489.397 o
789.019 494.349 o
801.097 495.324 o
813.175 508.493 o
825.253 513.378 o
837.331 520.309 o
849.409 524.437 o
861.487 531.258 o
873.565 536.002 o
885.643 543.905 o
897.721 550.77 o
909.799 554.769 o
921.877 561.536 o
933.955 563.852 o
grestore
1.500 setlinewidth
2 setlinecap
0.833 0.866 0.500 setrgbcolor
gsave
837 554.4 135 79.2 clipbox
173.045455 104.447072 m
185.123377 113.286935 l
197.201299 121.618964 l
209.279221 130.261814 l
221.357143 139.01766 l
233.435065 147.681369 l
245.512987 156.54998 l
257.590909 164.645604 l
269.668831 173.473798 l
281.746753 182.127622 l
293.824675 190.507193 l
305.902597 198.852012 l
317.980519 207.529435 l
330.058442 215.977562 l
342.136364 224.458344 l
354.214286 232.721532 l
366.292208 241.478496 l
378.37013 249.870489 l
390.448052 258.124115 l
402.525974 266.427793 l
414.603896 274.76263 l
426.681818 283.017719 l
438.75974 291.402742 l
450.837662 298.374468 l
462.915584 307.292501 l
474.993506 315.585044 l
487.071429 323.268599 l
499.149351 330.851243 l
511.227273 338.477064 l
523.305195 346.311453 l
535.383117 354.399844 l
547.461039 361.565686 l
559.538961 370.132141 l
571.616883 378.151252 l
583.694805 385.381236 l
595.772727 391.649903 l
607.850649 400.845125 l
619.928571 405.86429 l
632.006494 415.61218 l
644.084416 421.798681 l
656.162338 429.000794 l
668.24026 436.501123 l
680.318182 442.83888 l
692.396104 451.379234 l
704.474026 456.813738 l
716.551948 463.538421 l
728.62987 471.346719 l
740.707792 474.854548 l
752.785714 486.636729 l
764.863636 492.013815 l
776.941558 499.231032 l
789.019481 506.167415 l
801.097403 513.586648 l
813.175325 518.50562 l
825.253247 526.155075 l
837.331169 532.123065 l
849.409091 538.069785 l
861.487013 544.861771 l
873.564935 551.863904 l
885.642857 558.2029 l
897.720779 564.395004 l
909.798701 568.558422 l
921.876623 577.038443 l
933.954545 581.223674 l
stroke
grestore
1.000 setlinewidth
0 setlinecap
gsave
837 554.4 135 79.2 clipbox
/o {
gsave
newpath
translate
1.0 setlinewidth
1 setlinejoin
0 setlinecap
0 -3 m
0.795609 -3 1.55874 -2.683901 2.12132 -2.12132 c
2.683901 -1.55874 3 -0.795609 3 0 c
3 0.795609 2.683901 1.55874 2.12132 2.12132 c
1.55874 2.683901 0.795609 3 0 3 c
-0.795609 3 -1.55874 2.683901 -2.12132 2.12132 c
-2.683901 1.55874 -3 0.795609 -3 0 c
-3 -0.795609 -2.683901 -1.55874 -2.12132 -2.12132 c
-1.55874 -2.683901 -0.795609 -3 0 -3 c
cl

gsave
0.833 0.866 0.500 setrgbcolor
fill
grestore
stroke
grestore
} bind def
173.045 104.447 o
185.123 113.287 o
197.201 121.619 o
209.279 130.262 o
221.357 139.018 o
233.435 147.681 o
245.513 156.55 o
257.591 164.646 o
269.669 173.474 o
281.747 182.128 o
293.825 190.507 o
305.903 198.852 o
317.981 207.529 o
330.058 215.978 o
342.136 224.458 o
354.214 232.722 o
366.292 241.478 o
378.37 249.87 o
390.448 258.124 o
402.526 266.428 o
414.604 274.763 o
426.682 283.018 o
438.76 291.403 o
450.838 298.374 o
462.916 307.293 o
474.994 315.585 o
487.071 323.269 o
499.149 330.851 o
511.227 338.477 o
523.305 346.311 o
535.383 354.4 o
547.461 361.566 o
559.539 370.132 o
571.617 378.151 o
583.695 385.381 o
595.773 391.65 o
607.851 400.845 o
619.929 405.864 o
632.006 415.612 o
644.084 421.799 o
656.162 429.001 o
668.24 436.501 o
680.318 442.839 o
692.396 451.379 o
704.474 456.814 o
716.552 463.538 o
728.63 471.347 o
740.708 474.855 o
752.786 486.637 o
764.864 492.014 o
776.942 499.231 o
789.019 506.167 o
801.097 513.587 o
813.175 518.506 o
825.253 526.155 o
837.331 532.123 o
849.409 538.07 o
861.487 544.862 o
873.565 551.864 o
885.643 558.203 o
897.721 564.395 o
909.799 568.558 o
921.877 577.038 o
933.955 581.224 o
grestore
1.500 setlinewidth
2 setlinecap
1.000 0.000 0.000 setrgbcolor
gsave
837 554.4 135 79.2 clipbox
173.045455 104.4 m
185.123377 113.173338 l
197.201299 121.48837 l
209.279221 130.063138 l
221.357143 137.745713 l
233.435065 144.268867 l
245.512987 153.331606 l
257.590909 160.07273 l
269.668831 167.441777 l
281.746753 178.301264 l
293.824675 188.018927 l
305.902597 191.6654 l
317.980519 202.533981 l
330.058442 211.455605 l
342.136364 217.482827 l
354.214286 212.098576 l
366.292208 227.841973 l
378.37013 234.095915 l
390.448052 245.317282 l
402.525974 250.600807 l
414.603896 260.238984 l
426.681818 266.275453 l
438.75974 275.722253 l
450.837662 278.061813 l
462.915584 286.366349 l
474.993506 295.233386 l
487.071429 299.97517 l
499.149351 310.79386 l
511.227273 313.796891 l
523.305195 319.553256 l
535.383117 329.294642 l
547.461039 330.311321 l
559.538961 339.972424 l
571.616883 331.935882 l
583.694805 351.994765 l
595.772727 359.120519 l
607.850649 363.830819 l
619.928571 377.0416 l
632.006494 378.309938 l
644.084416 380.053006 l
656.162338 381.321783 l
668.24026 390.605365 l
680.318182 393.606968 l
692.396104 362.051841 l
704.474026 405.276181 l
716.551948 401.166967 l
728.62987 404.434623 l
740.707792 398.040576 l
752.785714 432.258262 l
764.863636 423.914367 l
776.941558 432.991014 l
789.019481 444.310605 l
801.097403 448.626097 l
813.175325 452.54789 l
825.253247 462.864468 l
837.331169 455.152613 l
849.409091 467.314293 l
861.487013 466.830315 l
873.564935 477.132509 l
885.642857 472.837025 l
897.720779 476.95928 l
909.798701 482.253212 l
921.876623 488.805029 l
933.954545 489.229613 l
stroke
grestore
1.000 setlinewidth
2 setlinejoin
0 setlinecap
gsave
837 554.4 135 79.2 clipbox
/o {
gsave
newpath
translate
1.0 setlinewidth
2 setlinejoin
0 setlinecap
0 3 m
-0.673542 0.927051 l
-2.85317 0.927051 l
-1.089814 -0.354102 l
-1.763356 -2.427051 l
-0 -1.145898 l
1.763356 -2.427051 l
1.089814 -0.354102 l
2.85317 0.927051 l
0.673542 0.927051 l
cl

gsave
1.000 0.000 0.000 setrgbcolor
fill
grestore
stroke
grestore
} bind def
173.045 104.4 o
185.123 113.173 o
197.201 121.488 o
209.279 130.063 o
221.357 137.746 o
233.435 144.269 o
245.513 153.332 o
257.591 160.073 o
269.669 167.442 o
281.747 178.301 o
293.825 188.019 o
305.903 191.665 o
317.981 202.534 o
330.058 211.456 o
342.136 217.483 o
354.214 212.099 o
366.292 227.842 o
378.37 234.096 o
390.448 245.317 o
402.526 250.601 o
414.604 260.239 o
426.682 266.275 o
438.76 275.722 o
450.838 278.062 o
462.916 286.366 o
474.994 295.233 o
487.071 299.975 o
499.149 310.794 o
511.227 313.797 o
523.305 319.553 o
535.383 329.295 o
547.461 330.311 o
559.539 339.972 o
571.617 331.936 o
583.695 351.995 o
595.773 359.121 o
607.851 363.831 o
619.929 377.042 o
632.006 378.31 o
644.084 380.053 o
656.162 381.322 o
668.24 390.605 o
680.318 393.607 o
692.396 362.052 o
704.474 405.276 o
716.552 401.167 o
728.63 404.435 o
740.708 398.041 o
752.786 432.258 o
764.864 423.914 o
776.942 432.991 o
789.019 444.311 o
801.097 448.626 o
813.175 452.548 o
825.253 462.864 o
837.331 455.153 o
849.409 467.314 o
861.487 466.83 o
873.565 477.133 o
885.643 472.837 o
897.721 476.959 o
909.799 482.253 o
921.877 488.805 o
933.955 489.23 o
grestore
0.800 setlinewidth
0 setlinejoin
2 setlinecap
0.000 setgray
gsave
135 79.2 m
135 633.6 l
stroke
grestore
gsave
972 79.2 m
972 633.6 l
stroke
grestore
gsave
135 79.2 m
972 79.2 l
stroke
grestore
gsave
135 633.6 m
972 633.6 l
stroke
grestore
1.000 setlinewidth
0 setlinecap
0.800 setgray
gsave
143.4 553.5 m
312.909375 553.5 l
314.509375 553.5 315.309375 554.3 315.309375 555.9 c
315.309375 625.2 l
315.309375 626.8 314.509375 627.6 312.909375 627.6 c
143.4 627.6 l
141.8 627.6 141 626.8 141 625.2 c
141 555.9 l
141 554.3 141.8 553.5 143.4 553.5 c
cl
gsave
1.000 setgray
fill
grestore
stroke
grestore
1.500 setlinewidth
1 setlinejoin
2 setlinecap
0.500 0.000 1.000 setrgbcolor
gsave
145.8 617.875 m
169.8 617.875 l
stroke
grestore
1.000 setlinewidth
0 setlinejoin
0 setlinecap
gsave
/o {
gsave
newpath
translate
1.0 setlinewidth
0 setlinejoin
0 setlinecap
-0 -3 m
3 3 l
-3 3 l
cl

gsave
0.500 0.000 1.000 setrgbcolor
fill
grestore
stroke
grestore
} bind def
157.8 617.875 o
grestore
0.000 setgray
gsave
179.400000 613.675000 translate
0.000000 rotate
0.000000 0 m /T glyphshow
5.330078 0 m /a glyphshow
12.683594 0 m /s glyphshow
18.935547 0 m /k glyphshow
25.884766 0 m /hyphen glyphshow
30.214844 0 m /d glyphshow
37.832031 0 m /i glyphshow
41.166016 0 m /e glyphshow
48.548828 0 m /space glyphshow
52.363281 0 m /m glyphshow
64.052734 0 m /o glyphshow
71.394531 0 m /d glyphshow
79.011719 0 m /e glyphshow
86.394531 0 m /l glyphshow
grestore
1.500 setlinewidth
1 setlinejoin
2 setlinecap
0.167 0.866 0.866 setrgbcolor
gsave
145.8 600.25 m
169.8 600.25 l
stroke
grestore
1.000 setlinewidth
0 setlinecap
gsave
/o {
gsave
newpath
translate
1.0 setlinewidth
1 setlinejoin
0 setlinecap
0 -1.5 m
0.397805 -1.5 0.77937 -1.341951 1.06066 -1.06066 c
1.341951 -0.77937 1.5 -0.397805 1.5 0 c
1.5 0.397805 1.341951 0.77937 1.06066 1.06066 c
0.77937 1.341951 0.397805 1.5 0 1.5 c
-0.397805 1.5 -0.77937 1.341951 -1.06066 1.06066 c
-1.341951 0.77937 -1.5 0.397805 -1.5 0 c
-1.5 -0.397805 -1.341951 -0.77937 -1.06066 -1.06066 c
-0.77937 -1.341951 -0.397805 -1.5 0 -1.5 c
cl

gsave
0.167 0.866 0.866 setrgbcolor
fill
grestore
stroke
grestore
} bind def
157.8 600.25 o
grestore
0.000 setgray
gsave
179.400000 596.050000 translate
0.000000 rotate
0.000000 0 m /N glyphshow
8.976562 0 m /a glyphshow
16.330078 0 m /t glyphshow
21.035156 0 m /i glyphshow
24.369141 0 m /v glyphshow
31.470703 0 m /e glyphshow
grestore
1.500 setlinewidth
2 setlinecap
0.833 0.866 0.500 setrgbcolor
gsave
145.8 582.625 m
169.8 582.625 l
stroke
grestore
1.000 setlinewidth
0 setlinecap
gsave
/o {
gsave
newpath
translate
1.0 setlinewidth
1 setlinejoin
0 setlinecap
0 -3 m
0.795609 -3 1.55874 -2.683901 2.12132 -2.12132 c
2.683901 -1.55874 3 -0.795609 3 0 c
3 0.795609 2.683901 1.55874 2.12132 2.12132 c
1.55874 2.683901 0.795609 3 0 3 c
-0.795609 3 -1.55874 2.683901 -2.12132 2.12132 c
-2.683901 1.55874 -3 0.795609 -3 0 c
-3 -0.795609 -2.683901 -1.55874 -2.12132 -2.12132 c
-1.55874 -2.683901 -0.795609 -3 0 -3 c
cl

gsave
0.833 0.866 0.500 setrgbcolor
fill
grestore
stroke
grestore
} bind def
157.8 582.625 o
grestore
0.000 setgray
gsave
179.400000 578.425000 translate
0.000000 rotate
0.000000 0 m /C glyphshow
8.378906 0 m /O glyphshow
17.824219 0 m /M glyphshow
28.177734 0 m /M glyphshow
38.531250 0 m /plus glyphshow
48.585938 0 m /C glyphshow
56.964844 0 m /A glyphshow
64.923828 0 m /C glyphshow
73.302734 0 m /H glyphshow
82.326172 0 m /E glyphshow
89.908203 0 m /space glyphshow
93.722656 0 m /m glyphshow
105.412109 0 m /o glyphshow
112.753906 0 m /d glyphshow
120.371094 0 m /e glyphshow
127.753906 0 m /l glyphshow
grestore
1.500 setlinewidth
2 setlinecap
1.000 0.000 0.000 setrgbcolor
gsave
145.8 565 m
169.8 565 l
stroke
grestore
1.000 setlinewidth
2 setlinejoin
0 setlinecap
gsave
/o {
gsave
newpath
translate
1.0 setlinewidth
2 setlinejoin
0 setlinecap
0 3 m
-0.673542 0.927051 l
-2.85317 0.927051 l
-1.089814 -0.354102 l
-1.763356 -2.427051 l
-0 -1.145898 l
1.763356 -2.427051 l
1.089814 -0.354102 l
2.85317 0.927051 l
0.673542 0.927051 l
cl

gsave
1.000 0.000 0.000 setrgbcolor
fill
grestore
stroke
grestore
} bind def
157.8 565 o
grestore
0.000 setgray
gsave
179.400000 560.800000 translate
0.000000 rotate
0.000000 0 m /C glyphshow
8.378906 0 m /O glyphshow
17.824219 0 m /M glyphshow
28.177734 0 m /M glyphshow
38.531250 0 m /space glyphshow
42.345703 0 m /m glyphshow
54.035156 0 m /o glyphshow
61.376953 0 m /d glyphshow
68.994141 0 m /e glyphshow
76.376953 0 m /l glyphshow
grestore

end
showpage
