%!PS-Adobe-3.0 EPSF-3.0
%%Title: gflops-diablo04-qr-govpowersave-amdpowersave-ratio0.6-measured-16384-512.eps
%%Creator: matplotlib version 3.3.3, http://matplotlib.org/
%%CreationDate: Tue Jan 19 16:48:04 2021
%%Orientation: portrait
%%BoundingBox: -234.0 36.0 846.0 756.0
%%EndComments
%%BeginProlog
/mpldict 8 dict def
mpldict begin
/m { moveto } bind def
/l { lineto } bind def
/r { rlineto } bind def
/c { curveto } bind def
/cl { closepath } bind def
/box {
      m
      1 index 0 r
      0 exch r
      neg 0 r
      cl
    } bind def
/clipbox {
      box
      clip
      newpath
    } bind def
%!PS-Adobe-3.0 Resource-Font
%%Title: DejaVu Sans
%%Copyright: Copyright (c) 2003 by Bitstream, Inc. All Rights Reserved. Copyright (c) 2006 by Tavmjong Bah. All Rights Reserved. DejaVu changes are in public domain 
%%Creator: Converted from TrueType to type 3 by PPR
25 dict begin
/_d{bind def}bind def
/_m{moveto}_d
/_l{lineto}_d
/_cl{closepath eofill}_d
/_c{curveto}_d
/_sc{7 -1 roll{setcachedevice}{pop pop pop pop pop pop}ifelse}_d
/_e{exec}_d
/FontName /DejaVuSans def
/PaintType 0 def
/FontMatrix[.001 0 0 .001 0 0]def
/FontBBox[-1021 -463 1793 1232]def
/FontType 3 def
/Encoding [ /space /plus /hyphen /slash /zero /one /two /three /four /five /six /A /C /E /F /G /H /M /N /O /T /a /b /c /d /e /f /i /k /l /m /o /p /r /s /t /u /v ] def
/FontInfo 10 dict dup begin
/FamilyName (DejaVu Sans) def
/FullName (DejaVu Sans) def
/Notice (Copyright (c) 2003 by Bitstream, Inc. All Rights Reserved. Copyright (c) 2006 by Tavmjong Bah. All Rights Reserved. DejaVu changes are in public domain ) def
/Weight (Book) def
/Version (Version 2.35) def
/ItalicAngle 0.0 def
/isFixedPitch false def
/UnderlinePosition -130 def
/UnderlineThickness 90 def
end readonly def
/CharStrings 39 dict dup begin
/.notdef 0 def
/space{318 0 0 0 0 0 _sc
}_d
/plus{838 0 106 0 732 627 _sc
460 627 _m
460 355 _l
732 355 _l
732 272 _l
460 272 _l
460 0 _l
378 0 _l
378 272 _l
106 272 _l
106 355 _l
378 355 _l
378 627 _l
460 627 _l
_cl}_d
/hyphen{361 0 49 234 312 314 _sc
49 314 _m
312 314 _l
312 234 _l
49 234 _l
49 314 _l
_cl}_d
/slash{337 0 0 -92 337 729 _sc
254 729 _m
337 729 _l
83 -92 _l
0 -92 _l
254 729 _l
_cl}_d
/zero{636 0 66 -13 570 742 _sc
318 664 _m
267 664 229 639 203 589 _c
177 539 165 464 165 364 _c
165 264 177 189 203 139 _c
229 89 267 64 318 64 _c
369 64 407 89 433 139 _c
458 189 471 264 471 364 _c
471 464 458 539 433 589 _c
407 639 369 664 318 664 _c
318 742 _m
399 742 461 709 505 645 _c
548 580 570 486 570 364 _c
570 241 548 147 505 83 _c
461 19 399 -13 318 -13 _c
236 -13 173 19 130 83 _c
87 147 66 241 66 364 _c
66 486 87 580 130 645 _c
173 709 236 742 318 742 _c
_cl}_d
/one{636 0 110 0 544 729 _sc
124 83 _m
285 83 _l
285 639 _l
110 604 _l
110 694 _l
284 729 _l
383 729 _l
383 83 _l
544 83 _l
544 0 _l
124 0 _l
124 83 _l
_cl}_d
/two{{636 0 73 0 536 742 _sc
192 83 _m
536 83 _l
536 0 _l
73 0 _l
73 83 _l
110 121 161 173 226 239 _c
290 304 331 346 348 365 _c
380 400 402 430 414 455 _c
426 479 433 504 433 528 _c
433 566 419 598 392 622 _c
365 646 330 659 286 659 _c
255 659 222 653 188 643 _c
154 632 117 616 78 594 _c
78 694 _l
118 710 155 722 189 730 _c
223 738 255 742 284 742 _c
}_e{359 742 419 723 464 685 _c
509 647 532 597 532 534 _c
532 504 526 475 515 449 _c
504 422 484 390 454 354 _c
446 344 420 317 376 272 _c
332 227 271 164 192 83 _c
_cl}_e}_d
/three{{636 0 76 -13 556 742 _sc
406 393 _m
453 383 490 362 516 330 _c
542 298 556 258 556 212 _c
556 140 531 84 482 45 _c
432 6 362 -13 271 -13 _c
240 -13 208 -10 176 -4 _c
144 1 110 10 76 22 _c
76 117 _l
103 101 133 89 166 81 _c
198 73 232 69 268 69 _c
330 69 377 81 409 105 _c
441 129 458 165 458 212 _c
458 254 443 288 413 312 _c
383 336 341 349 287 349 _c
}_e{202 349 _l
202 430 _l
291 430 _l
339 430 376 439 402 459 _c
428 478 441 506 441 543 _c
441 580 427 609 401 629 _c
374 649 336 659 287 659 _c
260 659 231 656 200 650 _c
169 644 135 635 98 623 _c
98 711 _l
135 721 170 729 203 734 _c
235 739 266 742 296 742 _c
370 742 429 725 473 691 _c
517 657 539 611 539 553 _c
539 513 527 479 504 451 _c
481 423 448 403 406 393 _c
_cl}_e}_d
/four{636 0 49 0 580 729 _sc
378 643 _m
129 254 _l
378 254 _l
378 643 _l
352 729 _m
476 729 _l
476 254 _l
580 254 _l
580 172 _l
476 172 _l
476 0 _l
378 0 _l
378 172 _l
49 172 _l
49 267 _l
352 729 _l
_cl}_d
/five{{636 0 77 -13 549 729 _sc
108 729 _m
495 729 _l
495 646 _l
198 646 _l
198 467 _l
212 472 227 476 241 478 _c
255 480 270 482 284 482 _c
365 482 429 459 477 415 _c
525 370 549 310 549 234 _c
549 155 524 94 475 51 _c
426 8 357 -13 269 -13 _c
238 -13 207 -10 175 -6 _c
143 -1 111 6 77 17 _c
77 116 _l
106 100 136 88 168 80 _c
199 72 232 69 267 69 _c
}_e{323 69 368 83 401 113 _c
433 143 450 183 450 234 _c
450 284 433 324 401 354 _c
368 384 323 399 267 399 _c
241 399 214 396 188 390 _c
162 384 135 375 108 363 _c
108 729 _l
_cl}_e}_d
/six{{636 0 70 -13 573 742 _sc
330 404 _m
286 404 251 388 225 358 _c
199 328 186 286 186 234 _c
186 181 199 139 225 109 _c
251 79 286 64 330 64 _c
374 64 409 79 435 109 _c
461 139 474 181 474 234 _c
474 286 461 328 435 358 _c
409 388 374 404 330 404 _c
526 713 _m
526 623 _l
501 635 476 644 451 650 _c
425 656 400 659 376 659 _c
310 659 260 637 226 593 _c
}_e{192 549 172 482 168 394 _c
187 422 211 444 240 459 _c
269 474 301 482 336 482 _c
409 482 467 459 509 415 _c
551 371 573 310 573 234 _c
573 159 550 99 506 54 _c
462 9 403 -13 330 -13 _c
246 -13 181 19 137 83 _c
92 147 70 241 70 364 _c
70 479 97 571 152 639 _c
206 707 280 742 372 742 _c
396 742 421 739 447 735 _c
472 730 498 723 526 713 _c
_cl}_e}_d
/A{684 0 8 0 676 729 _sc
342 632 _m
208 269 _l
476 269 _l
342 632 _l
286 729 _m
398 729 _l
676 0 _l
573 0 _l
507 187 _l
178 187 _l
112 0 _l
8 0 _l
286 729 _l
_cl}_d
/C{{698 0 56 -13 644 742 _sc
644 673 _m
644 569 _l
610 599 575 622 537 638 _c
499 653 460 661 418 661 _c
334 661 270 635 226 584 _c
182 533 160 460 160 364 _c
160 268 182 194 226 143 _c
270 92 334 67 418 67 _c
460 67 499 74 537 90 _c
575 105 610 128 644 159 _c
644 56 _l
609 32 572 15 534 4 _c
496 -7 455 -13 412 -13 _c
302 -13 215 20 151 87 _c
}_e{87 154 56 246 56 364 _c
56 481 87 573 151 641 _c
215 708 302 742 412 742 _c
456 742 497 736 535 725 _c
573 713 610 696 644 673 _c
_cl}_e}_d
/E{632 0 98 0 568 729 _sc
98 729 _m
559 729 _l
559 646 _l
197 646 _l
197 430 _l
544 430 _l
544 347 _l
197 347 _l
197 83 _l
568 83 _l
568 0 _l
98 0 _l
98 729 _l
_cl}_d
/F{575 0 98 0 517 729 _sc
98 729 _m
517 729 _l
517 646 _l
197 646 _l
197 431 _l
486 431 _l
486 348 _l
197 348 _l
197 0 _l
98 0 _l
98 729 _l
_cl}_d
/G{{775 0 56 -13 693 742 _sc
595 104 _m
595 300 _l
434 300 _l
434 381 _l
693 381 _l
693 68 _l
655 40 613 20 567 7 _c
521 -6 472 -13 420 -13 _c
306 -13 216 20 152 86 _c
88 152 56 245 56 364 _c
56 482 88 575 152 642 _c
216 708 306 742 420 742 _c
467 742 512 736 555 724 _c
598 712 638 695 674 673 _c
674 568 _l
637 598 598 621 557 637 _c
516 653 473 661 428 661 _c
}_e{338 661 271 636 227 586 _c
182 536 160 462 160 364 _c
160 265 182 191 227 141 _c
271 91 338 67 428 67 _c
462 67 493 70 521 76 _c
549 82 573 91 595 104 _c
_cl}_e}_d
/H{752 0 98 0 654 729 _sc
98 729 _m
197 729 _l
197 430 _l
555 430 _l
555 729 _l
654 729 _l
654 0 _l
555 0 _l
555 347 _l
197 347 _l
197 0 _l
98 0 _l
98 729 _l
_cl}_d
/M{863 0 98 0 765 729 _sc
98 729 _m
245 729 _l
431 233 _l
618 729 _l
765 729 _l
765 0 _l
669 0 _l
669 640 _l
481 140 _l
382 140 _l
194 640 _l
194 0 _l
98 0 _l
98 729 _l
_cl}_d
/N{748 0 98 0 650 729 _sc
98 729 _m
231 729 _l
554 119 _l
554 729 _l
650 729 _l
650 0 _l
517 0 _l
194 610 _l
194 0 _l
98 0 _l
98 729 _l
_cl}_d
/O{787 0 56 -13 731 742 _sc
394 662 _m
322 662 265 635 223 582 _c
181 528 160 456 160 364 _c
160 272 181 199 223 146 _c
265 92 322 66 394 66 _c
465 66 522 92 564 146 _c
606 199 627 272 627 364 _c
627 456 606 528 564 582 _c
522 635 465 662 394 662 _c
394 742 _m
496 742 577 707 639 639 _c
700 571 731 479 731 364 _c
731 248 700 157 639 89 _c
577 21 496 -13 394 -13 _c
291 -13 209 21 148 89 _c
86 157 56 248 56 364 _c
56 479 86 571 148 639 _c
209 707 291 742 394 742 _c
_cl}_d
/T{611 0 -2 0 614 729 _sc
-2 729 _m
614 729 _l
614 646 _l
355 646 _l
355 0 _l
256 0 _l
256 646 _l
-2 646 _l
-2 729 _l
_cl}_d
/a{{613 0 60 -13 522 560 _sc
343 275 _m
270 275 220 266 192 250 _c
164 233 150 205 150 165 _c
150 133 160 107 181 89 _c
202 70 231 61 267 61 _c
317 61 357 78 387 114 _c
417 149 432 196 432 255 _c
432 275 _l
343 275 _l
522 312 _m
522 0 _l
432 0 _l
432 83 _l
411 49 385 25 355 10 _c
325 -5 287 -13 243 -13 _c
187 -13 142 2 109 33 _c
76 64 60 106 60 159 _c
}_e{60 220 80 266 122 298 _c
163 329 224 345 306 345 _c
432 345 _l
432 354 _l
432 395 418 427 391 450 _c
364 472 326 484 277 484 _c
245 484 215 480 185 472 _c
155 464 127 453 100 439 _c
100 522 _l
132 534 164 544 195 550 _c
226 556 256 560 286 560 _c
365 560 424 539 463 498 _c
502 457 522 395 522 312 _c
_cl}_e}_d
/b{{635 0 91 -13 580 760 _sc
487 273 _m
487 339 473 390 446 428 _c
418 466 381 485 334 485 _c
286 485 249 466 222 428 _c
194 390 181 339 181 273 _c
181 207 194 155 222 117 _c
249 79 286 61 334 61 _c
381 61 418 79 446 117 _c
473 155 487 207 487 273 _c
181 464 _m
199 496 223 520 252 536 _c
281 552 316 560 356 560 _c
422 560 476 533 518 481 _c
559 428 580 359 580 273 _c
}_e{580 187 559 117 518 65 _c
476 13 422 -13 356 -13 _c
316 -13 281 -5 252 10 _c
223 25 199 49 181 82 _c
181 0 _l
91 0 _l
91 760 _l
181 760 _l
181 464 _l
_cl}_e}_d
/c{{550 0 55 -13 488 560 _sc
488 526 _m
488 442 _l
462 456 437 466 411 473 _c
385 480 360 484 334 484 _c
276 484 230 465 198 428 _c
166 391 150 339 150 273 _c
150 206 166 154 198 117 _c
230 80 276 62 334 62 _c
360 62 385 65 411 72 _c
437 79 462 90 488 104 _c
488 21 _l
462 9 436 0 410 -5 _c
383 -10 354 -13 324 -13 _c
242 -13 176 12 128 64 _c
}_e{79 115 55 185 55 273 _c
55 362 79 432 128 483 _c
177 534 244 560 330 560 _c
358 560 385 557 411 551 _c
437 545 463 537 488 526 _c
_cl}_e}_d
/d{{635 0 55 -13 544 760 _sc
454 464 _m
454 760 _l
544 760 _l
544 0 _l
454 0 _l
454 82 _l
435 49 411 25 382 10 _c
353 -5 319 -13 279 -13 _c
213 -13 159 13 117 65 _c
75 117 55 187 55 273 _c
55 359 75 428 117 481 _c
159 533 213 560 279 560 _c
319 560 353 552 382 536 _c
411 520 435 496 454 464 _c
148 273 _m
148 207 161 155 188 117 _c
215 79 253 61 301 61 _c
}_e{348 61 385 79 413 117 _c
440 155 454 207 454 273 _c
454 339 440 390 413 428 _c
385 466 348 485 301 485 _c
253 485 215 466 188 428 _c
161 390 148 339 148 273 _c
_cl}_e}_d
/e{{615 0 55 -13 562 560 _sc
562 296 _m
562 252 _l
149 252 _l
153 190 171 142 205 110 _c
238 78 284 62 344 62 _c
378 62 412 66 444 74 _c
476 82 509 95 541 113 _c
541 28 _l
509 14 476 3 442 -3 _c
408 -9 373 -13 339 -13 _c
251 -13 182 12 131 62 _c
80 112 55 181 55 268 _c
55 357 79 428 127 481 _c
175 533 241 560 323 560 _c
397 560 455 536 498 489 _c
}_e{540 441 562 377 562 296 _c
472 322 _m
471 371 457 410 431 440 _c
404 469 368 484 324 484 _c
274 484 234 469 204 441 _c
174 413 156 373 152 322 _c
472 322 _l
_cl}_e}_d
/f{352 0 23 0 371 760 _sc
371 760 _m
371 685 _l
285 685 _l
253 685 230 678 218 665 _c
205 652 199 629 199 595 _c
199 547 _l
347 547 _l
347 477 _l
199 477 _l
199 0 _l
109 0 _l
109 477 _l
23 477 _l
23 547 _l
109 547 _l
109 585 _l
109 645 123 690 151 718 _c
179 746 224 760 286 760 _c
371 760 _l
_cl}_d
/i{278 0 94 0 184 760 _sc
94 547 _m
184 547 _l
184 0 _l
94 0 _l
94 547 _l
94 760 _m
184 760 _l
184 646 _l
94 646 _l
94 760 _l
_cl}_d
/k{579 0 91 0 576 760 _sc
91 760 _m
181 760 _l
181 311 _l
449 547 _l
564 547 _l
274 291 _l
576 0 _l
459 0 _l
181 267 _l
181 0 _l
91 0 _l
91 760 _l
_cl}_d
/l{278 0 94 0 184 760 _sc
94 760 _m
184 760 _l
184 0 _l
94 0 _l
94 760 _l
_cl}_d
/m{{974 0 91 0 889 560 _sc
520 442 _m
542 482 569 511 600 531 _c
631 550 668 560 711 560 _c
767 560 811 540 842 500 _c
873 460 889 403 889 330 _c
889 0 _l
799 0 _l
799 327 _l
799 379 789 418 771 444 _c
752 469 724 482 686 482 _c
639 482 602 466 575 435 _c
548 404 535 362 535 309 _c
535 0 _l
445 0 _l
445 327 _l
445 379 435 418 417 444 _c
398 469 369 482 331 482 _c
}_e{285 482 248 466 221 435 _c
194 404 181 362 181 309 _c
181 0 _l
91 0 _l
91 547 _l
181 547 _l
181 462 _l
201 495 226 520 255 536 _c
283 552 317 560 357 560 _c
397 560 430 550 458 530 _c
486 510 506 480 520 442 _c
_cl}_e}_d
/o{612 0 55 -13 557 560 _sc
306 484 _m
258 484 220 465 192 427 _c
164 389 150 338 150 273 _c
150 207 163 156 191 118 _c
219 80 257 62 306 62 _c
354 62 392 80 420 118 _c
448 156 462 207 462 273 _c
462 337 448 389 420 427 _c
392 465 354 484 306 484 _c
306 560 _m
384 560 445 534 490 484 _c
534 433 557 363 557 273 _c
557 183 534 113 490 63 _c
445 12 384 -13 306 -13 _c
227 -13 165 12 121 63 _c
77 113 55 183 55 273 _c
55 363 77 433 121 484 _c
165 534 227 560 306 560 _c
_cl}_d
/p{{635 0 91 -207 580 560 _sc
181 82 _m
181 -207 _l
91 -207 _l
91 547 _l
181 547 _l
181 464 _l
199 496 223 520 252 536 _c
281 552 316 560 356 560 _c
422 560 476 533 518 481 _c
559 428 580 359 580 273 _c
580 187 559 117 518 65 _c
476 13 422 -13 356 -13 _c
316 -13 281 -5 252 10 _c
223 25 199 49 181 82 _c
487 273 _m
487 339 473 390 446 428 _c
418 466 381 485 334 485 _c
}_e{286 485 249 466 222 428 _c
194 390 181 339 181 273 _c
181 207 194 155 222 117 _c
249 79 286 61 334 61 _c
381 61 418 79 446 117 _c
473 155 487 207 487 273 _c
_cl}_e}_d
/r{411 0 91 0 411 560 _sc
411 463 _m
401 469 390 473 378 476 _c
366 478 353 480 339 480 _c
288 480 249 463 222 430 _c
194 397 181 350 181 288 _c
181 0 _l
91 0 _l
91 547 _l
181 547 _l
181 462 _l
199 495 224 520 254 536 _c
284 552 321 560 365 560 _c
371 560 378 559 386 559 _c
393 558 401 557 411 555 _c
411 463 _l
_cl}_d
/s{{521 0 54 -13 472 560 _sc
443 531 _m
443 446 _l
417 458 391 468 364 475 _c
336 481 308 485 279 485 _c
234 485 200 478 178 464 _c
156 450 145 430 145 403 _c
145 382 153 366 169 354 _c
185 342 217 330 265 320 _c
296 313 _l
360 299 405 279 432 255 _c
458 230 472 195 472 151 _c
472 100 452 60 412 31 _c
372 1 316 -13 246 -13 _c
216 -13 186 -10 154 -5 _c
}_e{122 0 89 8 54 20 _c
54 113 _l
87 95 120 82 152 74 _c
184 65 216 61 248 61 _c
290 61 323 68 346 82 _c
368 96 380 117 380 144 _c
380 168 371 187 355 200 _c
339 213 303 226 247 238 _c
216 245 _l
160 257 119 275 95 299 _c
70 323 58 356 58 399 _c
58 450 76 490 112 518 _c
148 546 200 560 268 560 _c
301 560 332 557 362 552 _c
391 547 418 540 443 531 _c
}_e{_cl}_e}_d
/t{392 0 27 0 368 702 _sc
183 702 _m
183 547 _l
368 547 _l
368 477 _l
183 477 _l
183 180 _l
183 135 189 106 201 94 _c
213 81 238 75 276 75 _c
368 75 _l
368 0 _l
276 0 _l
206 0 158 13 132 39 _c
106 65 93 112 93 180 _c
93 477 _l
27 477 _l
27 547 _l
93 547 _l
93 702 _l
183 702 _l
_cl}_d
/u{634 0 85 -13 543 560 _sc
85 216 _m
85 547 _l
175 547 _l
175 219 _l
175 167 185 129 205 103 _c
225 77 255 64 296 64 _c
344 64 383 79 411 110 _c
439 141 453 183 453 237 _c
453 547 _l
543 547 _l
543 0 _l
453 0 _l
453 84 _l
431 50 405 26 377 10 _c
348 -5 315 -13 277 -13 _c
214 -13 166 6 134 45 _c
101 83 85 140 85 216 _c
311 560 _m
311 560 _l
_cl}_d
/v{592 0 30 0 562 547 _sc
30 547 _m
125 547 _l
296 88 _l
467 547 _l
562 547 _l
357 0 _l
235 0 _l
30 547 _l
_cl}_d
end readonly def

/BuildGlyph
 {exch begin
 CharStrings exch
 2 copy known not{pop /.notdef}if
 true 3 1 roll get exec
 end}_d

/BuildChar {
 1 index /Encoding get exch get
 1 index /BuildGlyph get exec
}_d

FontName currentdict end definefont pop
end
%%EndProlog
mpldict begin
-234 36 translate
1080 720 0 0 clipbox
gsave
0 0 m
1080 0 l
1080 720 l
0 720 l
cl
1.000 setgray
fill
grestore
gsave
135 79.2 m
972 79.2 l
972 633.6 l
135 633.6 l
cl
1.000 setgray
fill
grestore
0.800 setlinewidth
1 setlinejoin
0 setlinecap
[] 0 setdash
0.000 setgray
gsave
/o {
gsave
newpath
translate
0.8 setlinewidth
1 setlinejoin
0 setlinecap
0 0 m
0 -3.5 l

gsave
0.000 setgray
fill
grestore
stroke
grestore
} bind def
160.968 79.2 o
grestore
/DejaVuSans findfont
12.000 scalefont
setfont
gsave
157.147220 63.075000 translate
0.000000 rotate
0.000000 0 m /zero glyphshow
grestore
gsave
/o {
gsave
newpath
translate
0.8 setlinewidth
1 setlinejoin
0 setlinecap
0 0 m
0 -3.5 l

gsave
0.000 setgray
fill
grestore
stroke
grestore
} bind def
281.747 79.2 o
grestore
gsave
274.106128 63.075000 translate
0.000000 rotate
0.000000 0 m /one glyphshow
7.634766 0 m /zero glyphshow
grestore
gsave
/o {
gsave
newpath
translate
0.8 setlinewidth
1 setlinejoin
0 setlinecap
0 0 m
0 -3.5 l

gsave
0.000 setgray
fill
grestore
stroke
grestore
} bind def
402.526 79.2 o
grestore
gsave
394.885349 63.075000 translate
0.000000 rotate
0.000000 0 m /two glyphshow
7.634766 0 m /zero glyphshow
grestore
gsave
/o {
gsave
newpath
translate
0.8 setlinewidth
1 setlinejoin
0 setlinecap
0 0 m
0 -3.5 l

gsave
0.000 setgray
fill
grestore
stroke
grestore
} bind def
523.305 79.2 o
grestore
gsave
515.664570 63.075000 translate
0.000000 rotate
0.000000 0 m /three glyphshow
7.634766 0 m /zero glyphshow
grestore
gsave
/o {
gsave
newpath
translate
0.8 setlinewidth
1 setlinejoin
0 setlinecap
0 0 m
0 -3.5 l

gsave
0.000 setgray
fill
grestore
stroke
grestore
} bind def
644.084 79.2 o
grestore
gsave
636.443791 63.075000 translate
0.000000 rotate
0.000000 0 m /four glyphshow
7.634766 0 m /zero glyphshow
grestore
gsave
/o {
gsave
newpath
translate
0.8 setlinewidth
1 setlinejoin
0 setlinecap
0 0 m
0 -3.5 l

gsave
0.000 setgray
fill
grestore
stroke
grestore
} bind def
764.864 79.2 o
grestore
gsave
757.223011 63.075000 translate
0.000000 rotate
0.000000 0 m /five glyphshow
7.634766 0 m /zero glyphshow
grestore
gsave
/o {
gsave
newpath
translate
0.8 setlinewidth
1 setlinejoin
0 setlinecap
0 0 m
0 -3.5 l

gsave
0.000 setgray
fill
grestore
stroke
grestore
} bind def
885.643 79.2 o
grestore
gsave
878.002232 63.075000 translate
0.000000 rotate
0.000000 0 m /six glyphshow
7.634766 0 m /zero glyphshow
grestore
gsave
503.656250 47.450000 translate
0.000000 rotate
0.000000 0 m /N glyphshow
8.976562 0 m /u glyphshow
16.582031 0 m /m glyphshow
28.271484 0 m /b glyphshow
35.888672 0 m /e glyphshow
43.271484 0 m /r glyphshow
48.205078 0 m /space glyphshow
52.019531 0 m /o glyphshow
59.361328 0 m /f glyphshow
63.585938 0 m /space glyphshow
67.400391 0 m /c glyphshow
73.998047 0 m /o glyphshow
81.339844 0 m /r glyphshow
86.023438 0 m /e glyphshow
93.406250 0 m /s glyphshow
grestore
gsave
/o {
gsave
newpath
translate
0.8 setlinewidth
1 setlinejoin
0 setlinecap
-0 0 m
-3.5 0 l

gsave
0.000 setgray
fill
grestore
stroke
grestore
} bind def
135 93.9519 o
grestore
gsave
120.359375 89.389402 translate
0.000000 rotate
0.000000 0 m /zero glyphshow
grestore
gsave
/o {
gsave
newpath
translate
0.8 setlinewidth
1 setlinejoin
0 setlinecap
-0 0 m
-3.5 0 l

gsave
0.000 setgray
fill
grestore
stroke
grestore
} bind def
135 171.75 o
grestore
gsave
105.078125 167.187712 translate
0.000000 rotate
0.000000 0 m /one glyphshow
7.634766 0 m /zero glyphshow
15.269531 0 m /zero glyphshow
grestore
gsave
/o {
gsave
newpath
translate
0.8 setlinewidth
1 setlinejoin
0 setlinecap
-0 0 m
-3.5 0 l

gsave
0.000 setgray
fill
grestore
stroke
grestore
} bind def
135 249.549 o
grestore
gsave
105.078125 244.986023 translate
0.000000 rotate
0.000000 0 m /two glyphshow
7.634766 0 m /zero glyphshow
15.269531 0 m /zero glyphshow
grestore
gsave
/o {
gsave
newpath
translate
0.8 setlinewidth
1 setlinejoin
0 setlinecap
-0 0 m
-3.5 0 l

gsave
0.000 setgray
fill
grestore
stroke
grestore
} bind def
135 327.347 o
grestore
gsave
105.078125 322.784333 translate
0.000000 rotate
0.000000 0 m /three glyphshow
7.634766 0 m /zero glyphshow
15.269531 0 m /zero glyphshow
grestore
gsave
/o {
gsave
newpath
translate
0.8 setlinewidth
1 setlinejoin
0 setlinecap
-0 0 m
-3.5 0 l

gsave
0.000 setgray
fill
grestore
stroke
grestore
} bind def
135 405.145 o
grestore
gsave
105.078125 400.582643 translate
0.000000 rotate
0.000000 0 m /four glyphshow
7.634766 0 m /zero glyphshow
15.269531 0 m /zero glyphshow
grestore
gsave
/o {
gsave
newpath
translate
0.8 setlinewidth
1 setlinejoin
0 setlinecap
-0 0 m
-3.5 0 l

gsave
0.000 setgray
fill
grestore
stroke
grestore
} bind def
135 482.943 o
grestore
gsave
105.078125 478.380954 translate
0.000000 rotate
0.000000 0 m /five glyphshow
7.634766 0 m /zero glyphshow
15.269531 0 m /zero glyphshow
grestore
gsave
/o {
gsave
newpath
translate
0.8 setlinewidth
1 setlinejoin
0 setlinecap
-0 0 m
-3.5 0 l

gsave
0.000 setgray
fill
grestore
stroke
grestore
} bind def
135 560.742 o
grestore
gsave
105.078125 556.179264 translate
0.000000 rotate
0.000000 0 m /six glyphshow
7.634766 0 m /zero glyphshow
15.269531 0 m /zero glyphshow
grestore
gsave
98.578125 334.001563 translate
90.000000 rotate
0.000000 0 m /G glyphshow
9.298828 0 m /F glyphshow
16.201172 0 m /l glyphshow
19.535156 0 m /o glyphshow
26.876953 0 m /p glyphshow
34.494141 0 m /slash glyphshow
38.537109 0 m /s glyphshow
grestore
1.500 setlinewidth
2 setlinecap
0.500 0.000 1.000 setrgbcolor
gsave
837 554.4 135 79.2 clipbox
173.045455 104.531148 m
185.123377 115.226973 l
197.201299 125.395428 l
209.279221 135.922694 l
221.357143 146.263136 l
233.435065 156.650887 l
245.512987 167.02192 l
257.590909 176.854854 l
269.668831 187.103019 l
281.746753 197.441005 l
293.824675 207.296179 l
305.902597 217.316697 l
317.980519 227.139493 l
330.058442 237.183497 l
342.136364 247.019746 l
354.214286 256.34729 l
366.292208 266.110771 l
378.37013 276.240677 l
390.448052 285.024344 l
402.525974 294.429182 l
414.603896 303.789454 l
426.681818 313.105442 l
438.75974 322.647852 l
450.837662 331.15696 l
462.915584 339.98758 l
474.993506 349.303723 l
487.071429 357.029921 l
499.149351 366.740343 l
511.227273 374.68523 l
523.305195 383.156276 l
535.383117 392.134961 l
547.461039 400.02084 l
559.538961 407.479575 l
571.616883 416.547091 l
583.694805 424.906371 l
595.772727 431.533199 l
607.850649 439.694382 l
619.928571 446.799357 l
632.006494 454.239457 l
644.084416 460.512602 l
656.162338 468.416625 l
668.24026 477.27357 l
680.318182 483.359288 l
692.396104 489.888614 l
704.474026 496.516266 l
716.551948 501.187762 l
728.62987 511.860515 l
740.707792 516.532805 l
752.785714 523.892357 l
764.863636 531.055835 l
776.941558 534.619274 l
789.019481 541.483898 l
801.097403 547.228784 l
813.175325 550.876536 l
825.253247 559.087316 l
837.331169 564.915175 l
849.409091 568.672528 l
861.487013 572.271562 l
873.564935 580.778659 l
885.642857 585.673215 l
897.720779 591.873962 l
909.798701 597.808146 l
921.876623 600.311296 l
933.954545 608.4 l
stroke
grestore
1.000 setlinewidth
0 setlinejoin
0 setlinecap
gsave
837 554.4 135 79.2 clipbox
/o {
gsave
newpath
translate
1.0 setlinewidth
0 setlinejoin
0 setlinecap
-0 -3 m
3 3 l
-3 3 l
cl

gsave
0.500 0.000 1.000 setrgbcolor
fill
grestore
stroke
grestore
} bind def
173.045 104.531 o
185.123 115.227 o
197.201 125.395 o
209.279 135.923 o
221.357 146.263 o
233.435 156.651 o
245.513 167.022 o
257.591 176.855 o
269.669 187.103 o
281.747 197.441 o
293.825 207.296 o
305.903 217.317 o
317.981 227.139 o
330.058 237.183 o
342.136 247.02 o
354.214 256.347 o
366.292 266.111 o
378.37 276.241 o
390.448 285.024 o
402.526 294.429 o
414.604 303.789 o
426.682 313.105 o
438.76 322.648 o
450.838 331.157 o
462.916 339.988 o
474.994 349.304 o
487.071 357.03 o
499.149 366.74 o
511.227 374.685 o
523.305 383.156 o
535.383 392.135 o
547.461 400.021 o
559.539 407.48 o
571.617 416.547 o
583.695 424.906 o
595.773 431.533 o
607.851 439.694 o
619.929 446.799 o
632.006 454.239 o
644.084 460.513 o
656.162 468.417 o
668.24 477.274 o
680.318 483.359 o
692.396 489.889 o
704.474 496.516 o
716.552 501.188 o
728.63 511.861 o
740.708 516.533 o
752.786 523.892 o
764.864 531.056 o
776.942 534.619 o
789.019 541.484 o
801.097 547.229 o
813.175 550.877 o
825.253 559.087 o
837.331 564.915 o
849.409 568.673 o
861.487 572.272 o
873.565 580.779 o
885.643 585.673 o
897.721 591.874 o
909.799 597.808 o
921.877 600.311 o
933.955 608.4 o
grestore
1.500 setlinewidth
1 setlinejoin
2 setlinecap
0.167 0.866 0.866 setrgbcolor
gsave
837 554.4 135 79.2 clipbox
173.045455 104.655372 m
185.123377 115.1015 l
197.201299 125.56435 l
209.279221 136.00531 l
221.357143 146.422411 l
233.435065 156.648267 l
245.512987 166.904287 l
257.590909 176.735671 l
269.668831 186.914973 l
281.746753 196.748377 l
293.824675 206.778364 l
305.902597 216.557391 l
317.980519 226.513484 l
330.058442 236.36675 l
342.136364 245.637916 l
354.214286 254.8593 l
366.292208 264.186932 l
378.37013 273.201632 l
390.448052 282.598271 l
402.525974 291.667948 l
414.603896 300.605702 l
426.681818 309.768793 l
438.75974 318.69309 l
450.837662 326.147483 l
462.915584 335.181054 l
474.993506 343.542154 l
487.071429 352.524633 l
499.149351 360.647835 l
511.227273 369.037982 l
523.305195 377.073825 l
535.383117 384.119 l
547.461039 394.461347 l
559.538961 399.138711 l
571.616883 406.511844 l
583.694805 412.674149 l
595.772727 419.01747 l
607.850649 425.496811 l
619.928571 433.152473 l
632.006494 436.971221 l
644.084416 442.848977 l
656.162338 447.19455 l
668.24026 448.591935 l
680.318182 461.030609 l
692.396104 462.715918 l
704.474026 459.491068 l
716.551948 480.831145 l
728.62987 486.426631 l
740.707792 485.250819 l
752.785714 487.324509 l
764.863636 495.190123 l
776.941558 501.793552 l
789.019481 507.663258 l
801.097403 506.234839 l
813.175325 517.16414 l
825.253247 519.639453 l
837.331169 522.980897 l
849.409091 524.380301 l
861.487013 524.875338 l
873.564935 535.125101 l
885.642857 535.559537 l
897.720779 537.971984 l
909.798701 534.844686 l
921.876623 546.251053 l
933.954545 540.381968 l
stroke
grestore
1.000 setlinewidth
0 setlinecap
gsave
837 554.4 135 79.2 clipbox
/o {
gsave
newpath
translate
1.0 setlinewidth
1 setlinejoin
0 setlinecap
0 -1.5 m
0.397805 -1.5 0.77937 -1.341951 1.06066 -1.06066 c
1.341951 -0.77937 1.5 -0.397805 1.5 0 c
1.5 0.397805 1.341951 0.77937 1.06066 1.06066 c
0.77937 1.341951 0.397805 1.5 0 1.5 c
-0.397805 1.5 -0.77937 1.341951 -1.06066 1.06066 c
-1.341951 0.77937 -1.5 0.397805 -1.5 0 c
-1.5 -0.397805 -1.341951 -0.77937 -1.06066 -1.06066 c
-0.77937 -1.341951 -0.397805 -1.5 0 -1.5 c
cl

gsave
0.167 0.866 0.866 setrgbcolor
fill
grestore
stroke
grestore
} bind def
173.045 104.655 o
185.123 115.101 o
197.201 125.564 o
209.279 136.005 o
221.357 146.422 o
233.435 156.648 o
245.513 166.904 o
257.591 176.736 o
269.669 186.915 o
281.747 196.748 o
293.825 206.778 o
305.903 216.557 o
317.981 226.513 o
330.058 236.367 o
342.136 245.638 o
354.214 254.859 o
366.292 264.187 o
378.37 273.202 o
390.448 282.598 o
402.526 291.668 o
414.604 300.606 o
426.682 309.769 o
438.76 318.693 o
450.838 326.147 o
462.916 335.181 o
474.994 343.542 o
487.071 352.525 o
499.149 360.648 o
511.227 369.038 o
523.305 377.074 o
535.383 384.119 o
547.461 394.461 o
559.539 399.139 o
571.617 406.512 o
583.695 412.674 o
595.773 419.017 o
607.851 425.497 o
619.929 433.152 o
632.006 436.971 o
644.084 442.849 o
656.162 447.195 o
668.24 448.592 o
680.318 461.031 o
692.396 462.716 o
704.474 459.491 o
716.552 480.831 o
728.63 486.427 o
740.708 485.251 o
752.786 487.325 o
764.864 495.19 o
776.942 501.794 o
789.019 507.663 o
801.097 506.235 o
813.175 517.164 o
825.253 519.639 o
837.331 522.981 o
849.409 524.38 o
861.487 524.875 o
873.565 535.125 o
885.643 535.56 o
897.721 537.972 o
909.799 534.845 o
921.877 546.251 o
933.955 540.382 o
grestore
1.500 setlinewidth
2 setlinecap
0.833 0.866 0.500 setrgbcolor
gsave
837 554.4 135 79.2 clipbox
173.045455 104.451289 m
185.123377 115.058464 l
197.201299 125.079836 l
209.279221 135.376203 l
221.357143 145.817991 l
233.435065 156.216437 l
245.512987 166.496962 l
257.590909 176.237301 l
269.668831 186.557885 l
281.746753 196.848831 l
293.824675 205.967861 l
305.902597 215.953859 l
317.980519 225.72876 l
330.058442 235.579205 l
342.136364 245.218034 l
354.214286 254.152943 l
366.292208 264.561101 l
378.37013 273.385032 l
390.448052 282.188555 l
402.525974 291.969236 l
414.603896 301.527644 l
426.681818 308.118835 l
438.75974 318.036639 l
450.837662 326.746275 l
462.915584 335.074773 l
474.993506 343.515161 l
487.071429 351.86173 l
499.149351 360.901455 l
511.227273 368.627453 l
523.305195 375.471714 l
535.383117 383.703643 l
547.461039 390.883175 l
559.538961 399.042461 l
571.616883 405.961447 l
583.694805 410.389294 l
595.772727 419.351947 l
607.850649 429.5293 l
619.928571 433.295934 l
632.006494 441.300135 l
644.084416 447.556916 l
656.162338 453.838714 l
668.24026 458.978679 l
680.318182 464.631664 l
692.396104 470.83574 l
704.474026 480.83961 l
716.551948 481.839601 l
728.62987 489.528137 l
740.707792 497.949349 l
752.785714 503.36223 l
764.863636 507.642738 l
776.941558 513.833651 l
789.019481 519.461263 l
801.097403 522.080765 l
813.175325 529.071424 l
825.253247 536.362799 l
837.331169 535.994144 l
849.409091 540.41089 l
861.487013 548.910333 l
873.564935 558.085531 l
885.642857 557.524303 l
897.720779 563.044486 l
909.798701 568.898383 l
921.876623 575.577551 l
933.954545 579.449278 l
stroke
grestore
1.000 setlinewidth
0 setlinecap
gsave
837 554.4 135 79.2 clipbox
/o {
gsave
newpath
translate
1.0 setlinewidth
1 setlinejoin
0 setlinecap
0 -3 m
0.795609 -3 1.55874 -2.683901 2.12132 -2.12132 c
2.683901 -1.55874 3 -0.795609 3 0 c
3 0.795609 2.683901 1.55874 2.12132 2.12132 c
1.55874 2.683901 0.795609 3 0 3 c
-0.795609 3 -1.55874 2.683901 -2.12132 2.12132 c
-2.683901 1.55874 -3 0.795609 -3 0 c
-3 -0.795609 -2.683901 -1.55874 -2.12132 -2.12132 c
-1.55874 -2.683901 -0.795609 -3 0 -3 c
cl

gsave
0.833 0.866 0.500 setrgbcolor
fill
grestore
stroke
grestore
} bind def
173.045 104.451 o
185.123 115.058 o
197.201 125.08 o
209.279 135.376 o
221.357 145.818 o
233.435 156.216 o
245.513 166.497 o
257.591 176.237 o
269.669 186.558 o
281.747 196.849 o
293.825 205.968 o
305.903 215.954 o
317.981 225.729 o
330.058 235.579 o
342.136 245.218 o
354.214 254.153 o
366.292 264.561 o
378.37 273.385 o
390.448 282.189 o
402.526 291.969 o
414.604 301.528 o
426.682 308.119 o
438.76 318.037 o
450.838 326.746 o
462.916 335.075 o
474.994 343.515 o
487.071 351.862 o
499.149 360.901 o
511.227 368.627 o
523.305 375.472 o
535.383 383.704 o
547.461 390.883 o
559.539 399.042 o
571.617 405.961 o
583.695 410.389 o
595.773 419.352 o
607.851 429.529 o
619.929 433.296 o
632.006 441.3 o
644.084 447.557 o
656.162 453.839 o
668.24 458.979 o
680.318 464.632 o
692.396 470.836 o
704.474 480.84 o
716.552 481.84 o
728.63 489.528 o
740.708 497.949 o
752.786 503.362 o
764.864 507.643 o
776.942 513.834 o
789.019 519.461 o
801.097 522.081 o
813.175 529.071 o
825.253 536.363 o
837.331 535.994 o
849.409 540.411 o
861.487 548.91 o
873.565 558.086 o
885.643 557.524 o
897.721 563.044 o
909.799 568.898 o
921.877 575.578 o
933.955 579.449 o
grestore
1.500 setlinewidth
2 setlinecap
1.000 0.000 0.000 setrgbcolor
gsave
837 554.4 135 79.2 clipbox
173.045455 104.4 m
185.123377 114.925431 l
197.201299 124.861136 l
209.279221 135.195324 l
221.357143 145.266862 l
233.435065 155.437444 l
245.512987 165.386375 l
257.590909 173.373185 l
269.668831 184.837364 l
281.746753 195.019507 l
293.824675 204.532107 l
305.902597 213.61619 l
317.980519 221.710405 l
330.058442 230.142945 l
342.136364 239.289308 l
354.214286 244.812367 l
366.292208 255.571776 l
378.37013 265.743844 l
390.448052 272.791369 l
402.525974 280.028833 l
414.603896 289.883133 l
426.681818 297.322941 l
438.75974 307.297573 l
450.837662 310.14868 l
462.915584 318.303318 l
474.993506 317.245859 l
487.071429 335.264809 l
499.149351 336.617694 l
511.227273 347.823076 l
523.305195 352.98344 l
535.383117 358.594145 l
547.461039 361.059313 l
559.538961 373.793226 l
571.616883 380.57257 l
583.694805 392.010281 l
595.772727 393.401277 l
607.850649 399.547243 l
619.928571 403.333508 l
632.006494 411.486123 l
644.084416 412.310415 l
656.162338 421.633077 l
668.24026 432.224051 l
680.318182 433.505566 l
692.396104 437.986619 l
704.474026 441.07813 l
716.551948 437.823249 l
728.62987 443.019668 l
740.707792 445.323701 l
752.785714 451.12818 l
764.863636 457.17681 l
776.941558 458.640197 l
789.019481 460.374228 l
801.097403 466.892183 l
813.175325 480.888831 l
825.253247 483.206451 l
837.331169 469.121814 l
849.409091 483.249632 l
861.487013 482.645972 l
873.564935 491.302501 l
885.642857 476.942119 l
897.720779 497.145995 l
909.798701 507.399046 l
921.876623 512.400989 l
933.954545 492.813683 l
stroke
grestore
1.000 setlinewidth
2 setlinejoin
0 setlinecap
gsave
837 554.4 135 79.2 clipbox
/o {
gsave
newpath
translate
1.0 setlinewidth
2 setlinejoin
0 setlinecap
0 3 m
-0.673542 0.927051 l
-2.85317 0.927051 l
-1.089814 -0.354102 l
-1.763356 -2.427051 l
-0 -1.145898 l
1.763356 -2.427051 l
1.089814 -0.354102 l
2.85317 0.927051 l
0.673542 0.927051 l
cl

gsave
1.000 0.000 0.000 setrgbcolor
fill
grestore
stroke
grestore
} bind def
173.045 104.4 o
185.123 114.925 o
197.201 124.861 o
209.279 135.195 o
221.357 145.267 o
233.435 155.437 o
245.513 165.386 o
257.591 173.373 o
269.669 184.837 o
281.747 195.02 o
293.825 204.532 o
305.903 213.616 o
317.981 221.71 o
330.058 230.143 o
342.136 239.289 o
354.214 244.812 o
366.292 255.572 o
378.37 265.744 o
390.448 272.791 o
402.526 280.029 o
414.604 289.883 o
426.682 297.323 o
438.76 307.298 o
450.838 310.149 o
462.916 318.303 o
474.994 317.246 o
487.071 335.265 o
499.149 336.618 o
511.227 347.823 o
523.305 352.983 o
535.383 358.594 o
547.461 361.059 o
559.539 373.793 o
571.617 380.573 o
583.695 392.01 o
595.773 393.401 o
607.851 399.547 o
619.929 403.334 o
632.006 411.486 o
644.084 412.31 o
656.162 421.633 o
668.24 432.224 o
680.318 433.506 o
692.396 437.987 o
704.474 441.078 o
716.552 437.823 o
728.63 443.02 o
740.708 445.324 o
752.786 451.128 o
764.864 457.177 o
776.942 458.64 o
789.019 460.374 o
801.097 466.892 o
813.175 480.889 o
825.253 483.206 o
837.331 469.122 o
849.409 483.25 o
861.487 482.646 o
873.565 491.303 o
885.643 476.942 o
897.721 497.146 o
909.799 507.399 o
921.877 512.401 o
933.955 492.814 o
grestore
0.800 setlinewidth
0 setlinejoin
2 setlinecap
0.000 setgray
gsave
135 79.2 m
135 633.6 l
stroke
grestore
gsave
972 79.2 m
972 633.6 l
stroke
grestore
gsave
135 79.2 m
972 79.2 l
stroke
grestore
gsave
135 633.6 m
972 633.6 l
stroke
grestore
1.000 setlinewidth
0 setlinecap
0.800 setgray
gsave
143.4 553.5 m
312.909375 553.5 l
314.509375 553.5 315.309375 554.3 315.309375 555.9 c
315.309375 625.2 l
315.309375 626.8 314.509375 627.6 312.909375 627.6 c
143.4 627.6 l
141.8 627.6 141 626.8 141 625.2 c
141 555.9 l
141 554.3 141.8 553.5 143.4 553.5 c
cl
gsave
1.000 setgray
fill
grestore
stroke
grestore
1.500 setlinewidth
1 setlinejoin
2 setlinecap
0.500 0.000 1.000 setrgbcolor
gsave
145.8 617.875 m
169.8 617.875 l
stroke
grestore
1.000 setlinewidth
0 setlinejoin
0 setlinecap
gsave
/o {
gsave
newpath
translate
1.0 setlinewidth
0 setlinejoin
0 setlinecap
-0 -3 m
3 3 l
-3 3 l
cl

gsave
0.500 0.000 1.000 setrgbcolor
fill
grestore
stroke
grestore
} bind def
157.8 617.875 o
grestore
0.000 setgray
gsave
179.400000 613.675000 translate
0.000000 rotate
0.000000 0 m /T glyphshow
5.330078 0 m /a glyphshow
12.683594 0 m /s glyphshow
18.935547 0 m /k glyphshow
25.884766 0 m /hyphen glyphshow
30.214844 0 m /d glyphshow
37.832031 0 m /i glyphshow
41.166016 0 m /e glyphshow
48.548828 0 m /space glyphshow
52.363281 0 m /m glyphshow
64.052734 0 m /o glyphshow
71.394531 0 m /d glyphshow
79.011719 0 m /e glyphshow
86.394531 0 m /l glyphshow
grestore
1.500 setlinewidth
1 setlinejoin
2 setlinecap
0.167 0.866 0.866 setrgbcolor
gsave
145.8 600.25 m
169.8 600.25 l
stroke
grestore
1.000 setlinewidth
0 setlinecap
gsave
/o {
gsave
newpath
translate
1.0 setlinewidth
1 setlinejoin
0 setlinecap
0 -1.5 m
0.397805 -1.5 0.77937 -1.341951 1.06066 -1.06066 c
1.341951 -0.77937 1.5 -0.397805 1.5 0 c
1.5 0.397805 1.341951 0.77937 1.06066 1.06066 c
0.77937 1.341951 0.397805 1.5 0 1.5 c
-0.397805 1.5 -0.77937 1.341951 -1.06066 1.06066 c
-1.341951 0.77937 -1.5 0.397805 -1.5 0 c
-1.5 -0.397805 -1.341951 -0.77937 -1.06066 -1.06066 c
-0.77937 -1.341951 -0.397805 -1.5 0 -1.5 c
cl

gsave
0.167 0.866 0.866 setrgbcolor
fill
grestore
stroke
grestore
} bind def
157.8 600.25 o
grestore
0.000 setgray
gsave
179.400000 596.050000 translate
0.000000 rotate
0.000000 0 m /N glyphshow
8.976562 0 m /a glyphshow
16.330078 0 m /t glyphshow
21.035156 0 m /i glyphshow
24.369141 0 m /v glyphshow
31.470703 0 m /e glyphshow
grestore
1.500 setlinewidth
2 setlinecap
0.833 0.866 0.500 setrgbcolor
gsave
145.8 582.625 m
169.8 582.625 l
stroke
grestore
1.000 setlinewidth
0 setlinecap
gsave
/o {
gsave
newpath
translate
1.0 setlinewidth
1 setlinejoin
0 setlinecap
0 -3 m
0.795609 -3 1.55874 -2.683901 2.12132 -2.12132 c
2.683901 -1.55874 3 -0.795609 3 0 c
3 0.795609 2.683901 1.55874 2.12132 2.12132 c
1.55874 2.683901 0.795609 3 0 3 c
-0.795609 3 -1.55874 2.683901 -2.12132 2.12132 c
-2.683901 1.55874 -3 0.795609 -3 0 c
-3 -0.795609 -2.683901 -1.55874 -2.12132 -2.12132 c
-1.55874 -2.683901 -0.795609 -3 0 -3 c
cl

gsave
0.833 0.866 0.500 setrgbcolor
fill
grestore
stroke
grestore
} bind def
157.8 582.625 o
grestore
0.000 setgray
gsave
179.400000 578.425000 translate
0.000000 rotate
0.000000 0 m /C glyphshow
8.378906 0 m /O glyphshow
17.824219 0 m /M glyphshow
28.177734 0 m /M glyphshow
38.531250 0 m /plus glyphshow
48.585938 0 m /C glyphshow
56.964844 0 m /A glyphshow
64.923828 0 m /C glyphshow
73.302734 0 m /H glyphshow
82.326172 0 m /E glyphshow
89.908203 0 m /space glyphshow
93.722656 0 m /m glyphshow
105.412109 0 m /o glyphshow
112.753906 0 m /d glyphshow
120.371094 0 m /e glyphshow
127.753906 0 m /l glyphshow
grestore
1.500 setlinewidth
2 setlinecap
1.000 0.000 0.000 setrgbcolor
gsave
145.8 565 m
169.8 565 l
stroke
grestore
1.000 setlinewidth
2 setlinejoin
0 setlinecap
gsave
/o {
gsave
newpath
translate
1.0 setlinewidth
2 setlinejoin
0 setlinecap
0 3 m
-0.673542 0.927051 l
-2.85317 0.927051 l
-1.089814 -0.354102 l
-1.763356 -2.427051 l
-0 -1.145898 l
1.763356 -2.427051 l
1.089814 -0.354102 l
2.85317 0.927051 l
0.673542 0.927051 l
cl

gsave
1.000 0.000 0.000 setrgbcolor
fill
grestore
stroke
grestore
} bind def
157.8 565 o
grestore
0.000 setgray
gsave
179.400000 560.800000 translate
0.000000 rotate
0.000000 0 m /C glyphshow
8.378906 0 m /O glyphshow
17.824219 0 m /M glyphshow
28.177734 0 m /M glyphshow
38.531250 0 m /space glyphshow
42.345703 0 m /m glyphshow
54.035156 0 m /o glyphshow
61.376953 0 m /d glyphshow
68.994141 0 m /e glyphshow
76.376953 0 m /l glyphshow
grestore

end
showpage
