%!PS-Adobe-3.0 EPSF-3.0
%%Title: hpdcgflops-diablo04-cholesky-12288-512.eps
%%Creator: matplotlib version 3.3.3, http://matplotlib.org/
%%CreationDate: Sat Jan 23 20:17:08 2021
%%Orientation: portrait
%%BoundingBox: -234.0 36.0 846.0 756.0
%%EndComments
%%BeginProlog
/mpldict 8 dict def
mpldict begin
/m { moveto } bind def
/l { lineto } bind def
/r { rlineto } bind def
/c { curveto } bind def
/cl { closepath } bind def
/box {
      m
      1 index 0 r
      0 exch r
      neg 0 r
      cl
    } bind def
/clipbox {
      box
      clip
      newpath
    } bind def
%!PS-Adobe-3.0 Resource-Font
%%Title: DejaVu Sans
%%Copyright: Copyright (c) 2003 by Bitstream, Inc. All Rights Reserved. Copyright (c) 2006 by Tavmjong Bah. All Rights Reserved. DejaVu changes are in public domain 
%%Creator: Converted from TrueType to type 3 by PPR
25 dict begin
/_d{bind def}bind def
/_m{moveto}_d
/_l{lineto}_d
/_cl{closepath eofill}_d
/_c{curveto}_d
/_sc{7 -1 roll{setcachedevice}{pop pop pop pop pop pop}ifelse}_d
/_e{exec}_d
/FontName /DejaVuSans def
/PaintType 0 def
/FontMatrix[.001 0 0 .001 0 0]def
/FontBBox[-1021 -463 1793 1232]def
/FontType 3 def
/Encoding [ /space /parenleft /parenright /plus /zero /one /two /three /four /five /six /seven /eight /A /C /D /E /F /G /H /M /N /O /P /S /a /b /c /d /e /f /i /l /m /n /o /p /r /s /t /u /v ] def
/FontInfo 10 dict dup begin
/FamilyName (DejaVu Sans) def
/FullName (DejaVu Sans) def
/Notice (Copyright (c) 2003 by Bitstream, Inc. All Rights Reserved. Copyright (c) 2006 by Tavmjong Bah. All Rights Reserved. DejaVu changes are in public domain ) def
/Weight (Book) def
/Version (Version 2.35) def
/ItalicAngle 0.0 def
/isFixedPitch false def
/UnderlinePosition -130 def
/UnderlineThickness 90 def
end readonly def
/CharStrings 43 dict dup begin
/.notdef 0 def
/space{318 0 0 0 0 0 _sc
}_d
/parenleft{390 0 86 -131 310 759 _sc
310 759 _m
266 683 234 609 213 536 _c
191 463 181 389 181 314 _c
181 238 191 164 213 91 _c
234 17 266 -56 310 -131 _c
232 -131 _l
183 -54 146 20 122 94 _c
98 168 86 241 86 314 _c
86 386 98 459 122 533 _c
146 607 182 682 232 759 _c
310 759 _l
_cl}_d
/parenright{390 0 80 -131 304 759 _sc
80 759 _m
158 759 _l
206 682 243 607 267 533 _c
291 459 304 386 304 314 _c
304 241 291 168 267 94 _c
243 20 206 -54 158 -131 _c
80 -131 _l
123 -56 155 17 177 91 _c
198 164 209 238 209 314 _c
209 389 198 463 177 536 _c
155 609 123 683 80 759 _c
_cl}_d
/plus{838 0 106 0 732 627 _sc
460 627 _m
460 355 _l
732 355 _l
732 272 _l
460 272 _l
460 0 _l
378 0 _l
378 272 _l
106 272 _l
106 355 _l
378 355 _l
378 627 _l
460 627 _l
_cl}_d
/zero{636 0 66 -13 570 742 _sc
318 664 _m
267 664 229 639 203 589 _c
177 539 165 464 165 364 _c
165 264 177 189 203 139 _c
229 89 267 64 318 64 _c
369 64 407 89 433 139 _c
458 189 471 264 471 364 _c
471 464 458 539 433 589 _c
407 639 369 664 318 664 _c
318 742 _m
399 742 461 709 505 645 _c
548 580 570 486 570 364 _c
570 241 548 147 505 83 _c
461 19 399 -13 318 -13 _c
236 -13 173 19 130 83 _c
87 147 66 241 66 364 _c
66 486 87 580 130 645 _c
173 709 236 742 318 742 _c
_cl}_d
/one{636 0 110 0 544 729 _sc
124 83 _m
285 83 _l
285 639 _l
110 604 _l
110 694 _l
284 729 _l
383 729 _l
383 83 _l
544 83 _l
544 0 _l
124 0 _l
124 83 _l
_cl}_d
/two{{636 0 73 0 536 742 _sc
192 83 _m
536 83 _l
536 0 _l
73 0 _l
73 83 _l
110 121 161 173 226 239 _c
290 304 331 346 348 365 _c
380 400 402 430 414 455 _c
426 479 433 504 433 528 _c
433 566 419 598 392 622 _c
365 646 330 659 286 659 _c
255 659 222 653 188 643 _c
154 632 117 616 78 594 _c
78 694 _l
118 710 155 722 189 730 _c
223 738 255 742 284 742 _c
}_e{359 742 419 723 464 685 _c
509 647 532 597 532 534 _c
532 504 526 475 515 449 _c
504 422 484 390 454 354 _c
446 344 420 317 376 272 _c
332 227 271 164 192 83 _c
_cl}_e}_d
/three{{636 0 76 -13 556 742 _sc
406 393 _m
453 383 490 362 516 330 _c
542 298 556 258 556 212 _c
556 140 531 84 482 45 _c
432 6 362 -13 271 -13 _c
240 -13 208 -10 176 -4 _c
144 1 110 10 76 22 _c
76 117 _l
103 101 133 89 166 81 _c
198 73 232 69 268 69 _c
330 69 377 81 409 105 _c
441 129 458 165 458 212 _c
458 254 443 288 413 312 _c
383 336 341 349 287 349 _c
}_e{202 349 _l
202 430 _l
291 430 _l
339 430 376 439 402 459 _c
428 478 441 506 441 543 _c
441 580 427 609 401 629 _c
374 649 336 659 287 659 _c
260 659 231 656 200 650 _c
169 644 135 635 98 623 _c
98 711 _l
135 721 170 729 203 734 _c
235 739 266 742 296 742 _c
370 742 429 725 473 691 _c
517 657 539 611 539 553 _c
539 513 527 479 504 451 _c
481 423 448 403 406 393 _c
_cl}_e}_d
/four{636 0 49 0 580 729 _sc
378 643 _m
129 254 _l
378 254 _l
378 643 _l
352 729 _m
476 729 _l
476 254 _l
580 254 _l
580 172 _l
476 172 _l
476 0 _l
378 0 _l
378 172 _l
49 172 _l
49 267 _l
352 729 _l
_cl}_d
/five{{636 0 77 -13 549 729 _sc
108 729 _m
495 729 _l
495 646 _l
198 646 _l
198 467 _l
212 472 227 476 241 478 _c
255 480 270 482 284 482 _c
365 482 429 459 477 415 _c
525 370 549 310 549 234 _c
549 155 524 94 475 51 _c
426 8 357 -13 269 -13 _c
238 -13 207 -10 175 -6 _c
143 -1 111 6 77 17 _c
77 116 _l
106 100 136 88 168 80 _c
199 72 232 69 267 69 _c
}_e{323 69 368 83 401 113 _c
433 143 450 183 450 234 _c
450 284 433 324 401 354 _c
368 384 323 399 267 399 _c
241 399 214 396 188 390 _c
162 384 135 375 108 363 _c
108 729 _l
_cl}_e}_d
/six{{636 0 70 -13 573 742 _sc
330 404 _m
286 404 251 388 225 358 _c
199 328 186 286 186 234 _c
186 181 199 139 225 109 _c
251 79 286 64 330 64 _c
374 64 409 79 435 109 _c
461 139 474 181 474 234 _c
474 286 461 328 435 358 _c
409 388 374 404 330 404 _c
526 713 _m
526 623 _l
501 635 476 644 451 650 _c
425 656 400 659 376 659 _c
310 659 260 637 226 593 _c
}_e{192 549 172 482 168 394 _c
187 422 211 444 240 459 _c
269 474 301 482 336 482 _c
409 482 467 459 509 415 _c
551 371 573 310 573 234 _c
573 159 550 99 506 54 _c
462 9 403 -13 330 -13 _c
246 -13 181 19 137 83 _c
92 147 70 241 70 364 _c
70 479 97 571 152 639 _c
206 707 280 742 372 742 _c
396 742 421 739 447 735 _c
472 730 498 723 526 713 _c
_cl}_e}_d
/seven{636 0 82 0 551 729 _sc
82 729 _m
551 729 _l
551 687 _l
286 0 _l
183 0 _l
432 646 _l
82 646 _l
82 729 _l
_cl}_d
/eight{{636 0 68 -13 568 742 _sc
318 346 _m
271 346 234 333 207 308 _c
180 283 167 249 167 205 _c
167 161 180 126 207 101 _c
234 76 271 64 318 64 _c
364 64 401 76 428 102 _c
455 127 469 161 469 205 _c
469 249 455 283 429 308 _c
402 333 365 346 318 346 _c
219 388 _m
177 398 144 418 120 447 _c
96 476 85 511 85 553 _c
85 611 105 657 147 691 _c
188 725 245 742 318 742 _c
}_e{390 742 447 725 489 691 _c
530 657 551 611 551 553 _c
551 511 539 476 515 447 _c
491 418 459 398 417 388 _c
464 377 501 355 528 323 _c
554 291 568 251 568 205 _c
568 134 546 80 503 43 _c
459 5 398 -13 318 -13 _c
237 -13 175 5 132 43 _c
89 80 68 134 68 205 _c
68 251 81 291 108 323 _c
134 355 171 377 219 388 _c
183 544 _m
183 506 194 476 218 455 _c
}_e{242 434 275 424 318 424 _c
360 424 393 434 417 455 _c
441 476 453 506 453 544 _c
453 582 441 611 417 632 _c
393 653 360 664 318 664 _c
275 664 242 653 218 632 _c
194 611 183 582 183 544 _c
_cl}_e}_d
/A{684 0 8 0 676 729 _sc
342 632 _m
208 269 _l
476 269 _l
342 632 _l
286 729 _m
398 729 _l
676 0 _l
573 0 _l
507 187 _l
178 187 _l
112 0 _l
8 0 _l
286 729 _l
_cl}_d
/C{{698 0 56 -13 644 742 _sc
644 673 _m
644 569 _l
610 599 575 622 537 638 _c
499 653 460 661 418 661 _c
334 661 270 635 226 584 _c
182 533 160 460 160 364 _c
160 268 182 194 226 143 _c
270 92 334 67 418 67 _c
460 67 499 74 537 90 _c
575 105 610 128 644 159 _c
644 56 _l
609 32 572 15 534 4 _c
496 -7 455 -13 412 -13 _c
302 -13 215 20 151 87 _c
}_e{87 154 56 246 56 364 _c
56 481 87 573 151 641 _c
215 708 302 742 412 742 _c
456 742 497 736 535 725 _c
573 713 610 696 644 673 _c
_cl}_e}_d
/D{770 0 98 0 711 729 _sc
197 648 _m
197 81 _l
316 81 _l
416 81 490 103 537 149 _c
583 195 607 267 607 365 _c
607 463 583 534 537 580 _c
490 625 416 648 316 648 _c
197 648 _l
98 729 _m
301 729 _l
442 729 546 699 612 641 _c
678 582 711 490 711 365 _c
711 239 677 147 611 88 _c
545 29 441 0 301 0 _c
98 0 _l
98 729 _l
_cl}_d
/E{632 0 98 0 568 729 _sc
98 729 _m
559 729 _l
559 646 _l
197 646 _l
197 430 _l
544 430 _l
544 347 _l
197 347 _l
197 83 _l
568 83 _l
568 0 _l
98 0 _l
98 729 _l
_cl}_d
/F{575 0 98 0 517 729 _sc
98 729 _m
517 729 _l
517 646 _l
197 646 _l
197 431 _l
486 431 _l
486 348 _l
197 348 _l
197 0 _l
98 0 _l
98 729 _l
_cl}_d
/G{{775 0 56 -13 693 742 _sc
595 104 _m
595 300 _l
434 300 _l
434 381 _l
693 381 _l
693 68 _l
655 40 613 20 567 7 _c
521 -6 472 -13 420 -13 _c
306 -13 216 20 152 86 _c
88 152 56 245 56 364 _c
56 482 88 575 152 642 _c
216 708 306 742 420 742 _c
467 742 512 736 555 724 _c
598 712 638 695 674 673 _c
674 568 _l
637 598 598 621 557 637 _c
516 653 473 661 428 661 _c
}_e{338 661 271 636 227 586 _c
182 536 160 462 160 364 _c
160 265 182 191 227 141 _c
271 91 338 67 428 67 _c
462 67 493 70 521 76 _c
549 82 573 91 595 104 _c
_cl}_e}_d
/H{752 0 98 0 654 729 _sc
98 729 _m
197 729 _l
197 430 _l
555 430 _l
555 729 _l
654 729 _l
654 0 _l
555 0 _l
555 347 _l
197 347 _l
197 0 _l
98 0 _l
98 729 _l
_cl}_d
/M{863 0 98 0 765 729 _sc
98 729 _m
245 729 _l
431 233 _l
618 729 _l
765 729 _l
765 0 _l
669 0 _l
669 640 _l
481 140 _l
382 140 _l
194 640 _l
194 0 _l
98 0 _l
98 729 _l
_cl}_d
/N{748 0 98 0 650 729 _sc
98 729 _m
231 729 _l
554 119 _l
554 729 _l
650 729 _l
650 0 _l
517 0 _l
194 610 _l
194 0 _l
98 0 _l
98 729 _l
_cl}_d
/O{787 0 56 -13 731 742 _sc
394 662 _m
322 662 265 635 223 582 _c
181 528 160 456 160 364 _c
160 272 181 199 223 146 _c
265 92 322 66 394 66 _c
465 66 522 92 564 146 _c
606 199 627 272 627 364 _c
627 456 606 528 564 582 _c
522 635 465 662 394 662 _c
394 742 _m
496 742 577 707 639 639 _c
700 571 731 479 731 364 _c
731 248 700 157 639 89 _c
577 21 496 -13 394 -13 _c
291 -13 209 21 148 89 _c
86 157 56 248 56 364 _c
56 479 86 571 148 639 _c
209 707 291 742 394 742 _c
_cl}_d
/P{603 0 98 0 569 729 _sc
197 648 _m
197 374 _l
321 374 _l
367 374 402 385 427 409 _c
452 433 465 467 465 511 _c
465 555 452 588 427 612 _c
402 636 367 648 321 648 _c
197 648 _l
98 729 _m
321 729 _l
402 729 464 710 506 673 _c
548 636 569 582 569 511 _c
569 439 548 384 506 348 _c
464 311 402 293 321 293 _c
197 293 _l
197 0 _l
98 0 _l
98 729 _l
_cl}_d
/S{{635 0 66 -13 579 742 _sc
535 705 _m
535 609 _l
497 627 462 640 429 649 _c
395 657 363 662 333 662 _c
279 662 237 651 208 631 _c
179 610 165 580 165 542 _c
165 510 174 485 194 469 _c
213 452 250 439 304 429 _c
364 417 _l
437 403 491 378 526 343 _c
561 307 579 260 579 201 _c
579 130 555 77 508 41 _c
460 5 391 -13 300 -13 _c
265 -13 228 -9 189 -2 _c
}_e{150 5 110 16 69 32 _c
69 134 _l
109 111 148 94 186 83 _c
224 71 262 66 300 66 _c
356 66 399 77 430 99 _c
460 121 476 152 476 194 _c
476 230 465 258 443 278 _c
421 298 385 313 335 323 _c
275 335 _l
201 349 148 372 115 404 _c
82 435 66 478 66 534 _c
66 598 88 649 134 686 _c
179 723 242 742 322 742 _c
356 742 390 739 426 733 _c
461 727 497 717 535 705 _c
}_e{_cl}_e}_d
/a{{613 0 60 -13 522 560 _sc
343 275 _m
270 275 220 266 192 250 _c
164 233 150 205 150 165 _c
150 133 160 107 181 89 _c
202 70 231 61 267 61 _c
317 61 357 78 387 114 _c
417 149 432 196 432 255 _c
432 275 _l
343 275 _l
522 312 _m
522 0 _l
432 0 _l
432 83 _l
411 49 385 25 355 10 _c
325 -5 287 -13 243 -13 _c
187 -13 142 2 109 33 _c
76 64 60 106 60 159 _c
}_e{60 220 80 266 122 298 _c
163 329 224 345 306 345 _c
432 345 _l
432 354 _l
432 395 418 427 391 450 _c
364 472 326 484 277 484 _c
245 484 215 480 185 472 _c
155 464 127 453 100 439 _c
100 522 _l
132 534 164 544 195 550 _c
226 556 256 560 286 560 _c
365 560 424 539 463 498 _c
502 457 522 395 522 312 _c
_cl}_e}_d
/b{{635 0 91 -13 580 760 _sc
487 273 _m
487 339 473 390 446 428 _c
418 466 381 485 334 485 _c
286 485 249 466 222 428 _c
194 390 181 339 181 273 _c
181 207 194 155 222 117 _c
249 79 286 61 334 61 _c
381 61 418 79 446 117 _c
473 155 487 207 487 273 _c
181 464 _m
199 496 223 520 252 536 _c
281 552 316 560 356 560 _c
422 560 476 533 518 481 _c
559 428 580 359 580 273 _c
}_e{580 187 559 117 518 65 _c
476 13 422 -13 356 -13 _c
316 -13 281 -5 252 10 _c
223 25 199 49 181 82 _c
181 0 _l
91 0 _l
91 760 _l
181 760 _l
181 464 _l
_cl}_e}_d
/c{{550 0 55 -13 488 560 _sc
488 526 _m
488 442 _l
462 456 437 466 411 473 _c
385 480 360 484 334 484 _c
276 484 230 465 198 428 _c
166 391 150 339 150 273 _c
150 206 166 154 198 117 _c
230 80 276 62 334 62 _c
360 62 385 65 411 72 _c
437 79 462 90 488 104 _c
488 21 _l
462 9 436 0 410 -5 _c
383 -10 354 -13 324 -13 _c
242 -13 176 12 128 64 _c
}_e{79 115 55 185 55 273 _c
55 362 79 432 128 483 _c
177 534 244 560 330 560 _c
358 560 385 557 411 551 _c
437 545 463 537 488 526 _c
_cl}_e}_d
/d{{635 0 55 -13 544 760 _sc
454 464 _m
454 760 _l
544 760 _l
544 0 _l
454 0 _l
454 82 _l
435 49 411 25 382 10 _c
353 -5 319 -13 279 -13 _c
213 -13 159 13 117 65 _c
75 117 55 187 55 273 _c
55 359 75 428 117 481 _c
159 533 213 560 279 560 _c
319 560 353 552 382 536 _c
411 520 435 496 454 464 _c
148 273 _m
148 207 161 155 188 117 _c
215 79 253 61 301 61 _c
}_e{348 61 385 79 413 117 _c
440 155 454 207 454 273 _c
454 339 440 390 413 428 _c
385 466 348 485 301 485 _c
253 485 215 466 188 428 _c
161 390 148 339 148 273 _c
_cl}_e}_d
/e{{615 0 55 -13 562 560 _sc
562 296 _m
562 252 _l
149 252 _l
153 190 171 142 205 110 _c
238 78 284 62 344 62 _c
378 62 412 66 444 74 _c
476 82 509 95 541 113 _c
541 28 _l
509 14 476 3 442 -3 _c
408 -9 373 -13 339 -13 _c
251 -13 182 12 131 62 _c
80 112 55 181 55 268 _c
55 357 79 428 127 481 _c
175 533 241 560 323 560 _c
397 560 455 536 498 489 _c
}_e{540 441 562 377 562 296 _c
472 322 _m
471 371 457 410 431 440 _c
404 469 368 484 324 484 _c
274 484 234 469 204 441 _c
174 413 156 373 152 322 _c
472 322 _l
_cl}_e}_d
/f{352 0 23 0 371 760 _sc
371 760 _m
371 685 _l
285 685 _l
253 685 230 678 218 665 _c
205 652 199 629 199 595 _c
199 547 _l
347 547 _l
347 477 _l
199 477 _l
199 0 _l
109 0 _l
109 477 _l
23 477 _l
23 547 _l
109 547 _l
109 585 _l
109 645 123 690 151 718 _c
179 746 224 760 286 760 _c
371 760 _l
_cl}_d
/i{278 0 94 0 184 760 _sc
94 547 _m
184 547 _l
184 0 _l
94 0 _l
94 547 _l
94 760 _m
184 760 _l
184 646 _l
94 646 _l
94 760 _l
_cl}_d
/l{278 0 94 0 184 760 _sc
94 760 _m
184 760 _l
184 0 _l
94 0 _l
94 760 _l
_cl}_d
/m{{974 0 91 0 889 560 _sc
520 442 _m
542 482 569 511 600 531 _c
631 550 668 560 711 560 _c
767 560 811 540 842 500 _c
873 460 889 403 889 330 _c
889 0 _l
799 0 _l
799 327 _l
799 379 789 418 771 444 _c
752 469 724 482 686 482 _c
639 482 602 466 575 435 _c
548 404 535 362 535 309 _c
535 0 _l
445 0 _l
445 327 _l
445 379 435 418 417 444 _c
398 469 369 482 331 482 _c
}_e{285 482 248 466 221 435 _c
194 404 181 362 181 309 _c
181 0 _l
91 0 _l
91 547 _l
181 547 _l
181 462 _l
201 495 226 520 255 536 _c
283 552 317 560 357 560 _c
397 560 430 550 458 530 _c
486 510 506 480 520 442 _c
_cl}_e}_d
/n{634 0 91 0 549 560 _sc
549 330 _m
549 0 _l
459 0 _l
459 327 _l
459 379 448 417 428 443 _c
408 469 378 482 338 482 _c
289 482 251 466 223 435 _c
195 404 181 362 181 309 _c
181 0 _l
91 0 _l
91 547 _l
181 547 _l
181 462 _l
202 494 227 519 257 535 _c
286 551 320 560 358 560 _c
420 560 468 540 500 501 _c
532 462 549 405 549 330 _c
_cl}_d
/o{612 0 55 -13 557 560 _sc
306 484 _m
258 484 220 465 192 427 _c
164 389 150 338 150 273 _c
150 207 163 156 191 118 _c
219 80 257 62 306 62 _c
354 62 392 80 420 118 _c
448 156 462 207 462 273 _c
462 337 448 389 420 427 _c
392 465 354 484 306 484 _c
306 560 _m
384 560 445 534 490 484 _c
534 433 557 363 557 273 _c
557 183 534 113 490 63 _c
445 12 384 -13 306 -13 _c
227 -13 165 12 121 63 _c
77 113 55 183 55 273 _c
55 363 77 433 121 484 _c
165 534 227 560 306 560 _c
_cl}_d
/p{{635 0 91 -207 580 560 _sc
181 82 _m
181 -207 _l
91 -207 _l
91 547 _l
181 547 _l
181 464 _l
199 496 223 520 252 536 _c
281 552 316 560 356 560 _c
422 560 476 533 518 481 _c
559 428 580 359 580 273 _c
580 187 559 117 518 65 _c
476 13 422 -13 356 -13 _c
316 -13 281 -5 252 10 _c
223 25 199 49 181 82 _c
487 273 _m
487 339 473 390 446 428 _c
418 466 381 485 334 485 _c
}_e{286 485 249 466 222 428 _c
194 390 181 339 181 273 _c
181 207 194 155 222 117 _c
249 79 286 61 334 61 _c
381 61 418 79 446 117 _c
473 155 487 207 487 273 _c
_cl}_e}_d
/r{411 0 91 0 411 560 _sc
411 463 _m
401 469 390 473 378 476 _c
366 478 353 480 339 480 _c
288 480 249 463 222 430 _c
194 397 181 350 181 288 _c
181 0 _l
91 0 _l
91 547 _l
181 547 _l
181 462 _l
199 495 224 520 254 536 _c
284 552 321 560 365 560 _c
371 560 378 559 386 559 _c
393 558 401 557 411 555 _c
411 463 _l
_cl}_d
/s{{521 0 54 -13 472 560 _sc
443 531 _m
443 446 _l
417 458 391 468 364 475 _c
336 481 308 485 279 485 _c
234 485 200 478 178 464 _c
156 450 145 430 145 403 _c
145 382 153 366 169 354 _c
185 342 217 330 265 320 _c
296 313 _l
360 299 405 279 432 255 _c
458 230 472 195 472 151 _c
472 100 452 60 412 31 _c
372 1 316 -13 246 -13 _c
216 -13 186 -10 154 -5 _c
}_e{122 0 89 8 54 20 _c
54 113 _l
87 95 120 82 152 74 _c
184 65 216 61 248 61 _c
290 61 323 68 346 82 _c
368 96 380 117 380 144 _c
380 168 371 187 355 200 _c
339 213 303 226 247 238 _c
216 245 _l
160 257 119 275 95 299 _c
70 323 58 356 58 399 _c
58 450 76 490 112 518 _c
148 546 200 560 268 560 _c
301 560 332 557 362 552 _c
391 547 418 540 443 531 _c
}_e{_cl}_e}_d
/t{392 0 27 0 368 702 _sc
183 702 _m
183 547 _l
368 547 _l
368 477 _l
183 477 _l
183 180 _l
183 135 189 106 201 94 _c
213 81 238 75 276 75 _c
368 75 _l
368 0 _l
276 0 _l
206 0 158 13 132 39 _c
106 65 93 112 93 180 _c
93 477 _l
27 477 _l
27 547 _l
93 547 _l
93 702 _l
183 702 _l
_cl}_d
/u{634 0 85 -13 543 560 _sc
85 216 _m
85 547 _l
175 547 _l
175 219 _l
175 167 185 129 205 103 _c
225 77 255 64 296 64 _c
344 64 383 79 411 110 _c
439 141 453 183 453 237 _c
453 547 _l
543 547 _l
543 0 _l
453 0 _l
453 84 _l
431 50 405 26 377 10 _c
348 -5 315 -13 277 -13 _c
214 -13 166 6 134 45 _c
101 83 85 140 85 216 _c
311 560 _m
311 560 _l
_cl}_d
/v{592 0 30 0 562 547 _sc
30 547 _m
125 547 _l
296 88 _l
467 547 _l
562 547 _l
357 0 _l
235 0 _l
30 547 _l
_cl}_d
end readonly def

/BuildGlyph
 {exch begin
 CharStrings exch
 2 copy known not{pop /.notdef}if
 true 3 1 roll get exec
 end}_d

/BuildChar {
 1 index /Encoding get exch get
 1 index /BuildGlyph get exec
}_d

FontName currentdict end definefont pop
end
%%EndProlog
mpldict begin
-234 36 translate
1080 720 0 0 clipbox
gsave
0 0 m
1080 0 l
1080 720 l
0 720 l
cl
1.000 setgray
fill
grestore
gsave
135 79.2 m
972 79.2 l
972 633.6 l
135 633.6 l
cl
1.000 setgray
fill
grestore
0.800 setlinewidth
1 setlinejoin
0 setlinecap
[] 0 setdash
0.000 setgray
gsave
/o {
gsave
newpath
translate
0.8 setlinewidth
1 setlinejoin
0 setlinecap
0 0 m
0 -3.5 l

gsave
0.000 setgray
fill
grestore
stroke
grestore
} bind def
160.968 79.2 o
grestore
/DejaVuSans findfont
25.000 scalefont
setfont
gsave
153.014407 53.200000 translate
0.000000 rotate
0.000000 0 m /zero glyphshow
grestore
gsave
/o {
gsave
newpath
translate
0.8 setlinewidth
1 setlinejoin
0 setlinecap
0 0 m
0 -3.5 l

gsave
0.000 setgray
fill
grestore
stroke
grestore
} bind def
281.747 79.2 o
grestore
gsave
265.840503 53.200000 translate
0.000000 rotate
0.000000 0 m /one glyphshow
15.905762 0 m /zero glyphshow
grestore
gsave
/o {
gsave
newpath
translate
0.8 setlinewidth
1 setlinejoin
0 setlinecap
0 0 m
0 -3.5 l

gsave
0.000 setgray
fill
grestore
stroke
grestore
} bind def
402.526 79.2 o
grestore
gsave
386.619724 53.200000 translate
0.000000 rotate
0.000000 0 m /two glyphshow
15.905762 0 m /zero glyphshow
grestore
gsave
/o {
gsave
newpath
translate
0.8 setlinewidth
1 setlinejoin
0 setlinecap
0 0 m
0 -3.5 l

gsave
0.000 setgray
fill
grestore
stroke
grestore
} bind def
523.305 79.2 o
grestore
gsave
507.398945 53.200000 translate
0.000000 rotate
0.000000 0 m /three glyphshow
15.905762 0 m /zero glyphshow
grestore
gsave
/o {
gsave
newpath
translate
0.8 setlinewidth
1 setlinejoin
0 setlinecap
0 0 m
0 -3.5 l

gsave
0.000 setgray
fill
grestore
stroke
grestore
} bind def
644.084 79.2 o
grestore
gsave
628.178166 53.200000 translate
0.000000 rotate
0.000000 0 m /four glyphshow
15.905762 0 m /zero glyphshow
grestore
gsave
/o {
gsave
newpath
translate
0.8 setlinewidth
1 setlinejoin
0 setlinecap
0 0 m
0 -3.5 l

gsave
0.000 setgray
fill
grestore
stroke
grestore
} bind def
764.864 79.2 o
grestore
gsave
748.957386 53.200000 translate
0.000000 rotate
0.000000 0 m /five glyphshow
15.905762 0 m /zero glyphshow
grestore
gsave
/o {
gsave
newpath
translate
0.8 setlinewidth
1 setlinejoin
0 setlinecap
0 0 m
0 -3.5 l

gsave
0.000 setgray
fill
grestore
stroke
grestore
} bind def
885.643 79.2 o
grestore
gsave
869.736607 53.200000 translate
0.000000 rotate
0.000000 0 m /six glyphshow
15.905762 0 m /zero glyphshow
grestore
gsave
449.664062 24.996875 translate
0.000000 rotate
0.000000 0 m /N glyphshow
18.701172 0 m /u glyphshow
34.545898 0 m /m glyphshow
58.898926 0 m /b glyphshow
74.768066 0 m /e glyphshow
90.148926 0 m /r glyphshow
100.427246 0 m /space glyphshow
108.374023 0 m /o glyphshow
123.669434 0 m /f glyphshow
132.470703 0 m /space glyphshow
140.417480 0 m /c glyphshow
154.162598 0 m /o glyphshow
169.458008 0 m /r glyphshow
179.236328 0 m /e glyphshow
194.617188 0 m /s glyphshow
grestore
gsave
/o {
gsave
newpath
translate
0.8 setlinewidth
1 setlinejoin
0 setlinecap
-0 0 m
-3.5 0 l

gsave
0.000 setgray
fill
grestore
stroke
grestore
} bind def
135 92.2354 o
grestore
gsave
112.093750 82.735429 translate
0.000000 rotate
0.000000 0 m /zero glyphshow
grestore
gsave
/o {
gsave
newpath
translate
0.8 setlinewidth
1 setlinejoin
0 setlinecap
-0 0 m
-3.5 0 l

gsave
0.000 setgray
fill
grestore
stroke
grestore
} bind def
135 155.525 o
grestore
gsave
80.281250 146.025122 translate
0.000000 rotate
0.000000 0 m /one glyphshow
15.905762 0 m /zero glyphshow
31.811523 0 m /zero glyphshow
grestore
gsave
/o {
gsave
newpath
translate
0.8 setlinewidth
1 setlinejoin
0 setlinecap
-0 0 m
-3.5 0 l

gsave
0.000 setgray
fill
grestore
stroke
grestore
} bind def
135 218.815 o
grestore
gsave
80.281250 209.314816 translate
0.000000 rotate
0.000000 0 m /two glyphshow
15.905762 0 m /zero glyphshow
31.811523 0 m /zero glyphshow
grestore
gsave
/o {
gsave
newpath
translate
0.8 setlinewidth
1 setlinejoin
0 setlinecap
-0 0 m
-3.5 0 l

gsave
0.000 setgray
fill
grestore
stroke
grestore
} bind def
135 282.105 o
grestore
gsave
80.281250 272.604510 translate
0.000000 rotate
0.000000 0 m /three glyphshow
15.905762 0 m /zero glyphshow
31.811523 0 m /zero glyphshow
grestore
gsave
/o {
gsave
newpath
translate
0.8 setlinewidth
1 setlinejoin
0 setlinecap
-0 0 m
-3.5 0 l

gsave
0.000 setgray
fill
grestore
stroke
grestore
} bind def
135 345.394 o
grestore
gsave
80.281250 335.894203 translate
0.000000 rotate
0.000000 0 m /four glyphshow
15.905762 0 m /zero glyphshow
31.811523 0 m /zero glyphshow
grestore
gsave
/o {
gsave
newpath
translate
0.8 setlinewidth
1 setlinejoin
0 setlinecap
-0 0 m
-3.5 0 l

gsave
0.000 setgray
fill
grestore
stroke
grestore
} bind def
135 408.684 o
grestore
gsave
80.281250 399.183897 translate
0.000000 rotate
0.000000 0 m /five glyphshow
15.905762 0 m /zero glyphshow
31.811523 0 m /zero glyphshow
grestore
gsave
/o {
gsave
newpath
translate
0.8 setlinewidth
1 setlinejoin
0 setlinecap
-0 0 m
-3.5 0 l

gsave
0.000 setgray
fill
grestore
stroke
grestore
} bind def
135 471.974 o
grestore
gsave
80.281250 462.473591 translate
0.000000 rotate
0.000000 0 m /six glyphshow
15.905762 0 m /zero glyphshow
31.811523 0 m /zero glyphshow
grestore
gsave
/o {
gsave
newpath
translate
0.8 setlinewidth
1 setlinejoin
0 setlinecap
-0 0 m
-3.5 0 l

gsave
0.000 setgray
fill
grestore
stroke
grestore
} bind def
135 535.263 o
grestore
gsave
80.281250 525.763284 translate
0.000000 rotate
0.000000 0 m /seven glyphshow
15.905762 0 m /zero glyphshow
31.811523 0 m /zero glyphshow
grestore
gsave
/o {
gsave
newpath
translate
0.8 setlinewidth
1 setlinejoin
0 setlinecap
-0 0 m
-3.5 0 l

gsave
0.000 setgray
fill
grestore
stroke
grestore
} bind def
135 598.553 o
grestore
gsave
80.281250 589.052978 translate
0.000000 rotate
0.000000 0 m /eight glyphshow
15.905762 0 m /zero glyphshow
31.811523 0 m /zero glyphshow
grestore
gsave
71.078125 221.025000 translate
90.000000 rotate
0.000000 0 m /P glyphshow
14.200684 0 m /e glyphshow
29.581543 0 m /r glyphshow
39.859863 0 m /f glyphshow
48.661133 0 m /o glyphshow
63.956543 0 m /r glyphshow
73.734863 0 m /m glyphshow
98.087891 0 m /a glyphshow
113.407715 0 m /n glyphshow
129.252441 0 m /c glyphshow
142.997559 0 m /e glyphshow
158.378418 0 m /space glyphshow
166.325195 0 m /parenleft glyphshow
176.078613 0 m /G glyphshow
195.451172 0 m /F glyphshow
209.831055 0 m /l glyphshow
216.776855 0 m /o glyphshow
232.072266 0 m /p glyphshow
247.941406 0 m /s glyphshow
260.966309 0 m /parenright glyphshow
grestore
4.000 setlinewidth
2 setlinecap
0.504 1.000 0.705 setrgbcolor
gsave
837 554.4 135 79.2 clipbox
173.045455 104.4 m
185.123377 116.38508 l
197.201299 128.222709 l
209.279221 140.118378 l
221.357143 151.988116 l
233.435065 163.687304 l
245.512987 175.277773 l
257.590909 186.775876 l
269.668831 198.153336 l
281.746753 209.948496 l
293.824675 220.916301 l
305.902597 232.208981 l
317.980519 242.933819 l
330.058442 252.780192 l
342.136364 264.096703 l
354.214286 274.931918 l
366.292208 284.120201 l
378.37013 294.683886 l
390.448052 304.561241 l
402.525974 314.536733 l
414.603896 324.334142 l
426.681818 330.988181 l
438.75974 341.075321 l
450.837662 347.290888 l
462.915584 359.035776 l
474.993506 366.023351 l
487.071429 372.074475 l
499.149351 384.86089 l
511.227273 392.215373 l
523.305195 393.246367 l
535.383117 405.621829 l
547.461039 412.238393 l
559.538961 417.475583 l
571.616883 421.951378 l
583.694805 431.485711 l
595.772727 437.249905 l
607.850649 445.159214 l
619.928571 447.410094 l
632.006494 455.993688 l
644.084416 464.011265 l
656.162338 474.453815 l
668.24026 473.523182 l
680.318182 480.569218 l
692.396104 486.770145 l
704.474026 488.862209 l
716.551948 487.624841 l
728.62987 501.60411 l
740.707792 503.511395 l
752.785714 508.767143 l
764.863636 509.343173 l
776.941558 514.833927 l
789.019481 519.878029 l
801.097403 523.283673 l
813.175325 528.762861 l
825.253247 527.48793 l
837.331169 536.407761 l
849.409091 536.566054 l
861.487013 546.586552 l
873.564935 543.453476 l
885.642857 550.178211 l
897.720779 548.48216 l
909.798701 561.429777 l
921.876623 561.562521 l
933.954545 567.392028 l
stroke
grestore
1.000 setlinewidth
2 setlinejoin
0 setlinecap
gsave
837 554.4 135 79.2 clipbox
/o {
gsave
newpath
translate
1.0 setlinewidth
2 setlinejoin
0 setlinecap
0 7.5 m
-1.683855 2.317627 l
-7.132924 2.317627 l
-2.724534 -0.885255 l
-4.408389 -6.067627 l
-0 -2.864745 l
4.408389 -6.067627 l
2.724534 -0.885255 l
7.132924 2.317627 l
1.683855 2.317627 l
cl

gsave
0.504 1.000 0.705 setrgbcolor
fill
grestore
stroke
grestore
} bind def
173.045 104.4 o
185.123 116.385 o
197.201 128.223 o
209.279 140.118 o
221.357 151.988 o
233.435 163.687 o
245.513 175.278 o
257.591 186.776 o
269.669 198.153 o
281.747 209.948 o
293.825 220.916 o
305.903 232.209 o
317.981 242.934 o
330.058 252.78 o
342.136 264.097 o
354.214 274.932 o
366.292 284.12 o
378.37 294.684 o
390.448 304.561 o
402.526 314.537 o
414.604 324.334 o
426.682 330.988 o
438.76 341.075 o
450.838 347.291 o
462.916 359.036 o
474.994 366.023 o
487.071 372.074 o
499.149 384.861 o
511.227 392.215 o
523.305 393.246 o
535.383 405.622 o
547.461 412.238 o
559.539 417.476 o
571.617 421.951 o
583.695 431.486 o
595.773 437.25 o
607.851 445.159 o
619.929 447.41 o
632.006 455.994 o
644.084 464.011 o
656.162 474.454 o
668.24 473.523 o
680.318 480.569 o
692.396 486.77 o
704.474 488.862 o
716.552 487.625 o
728.63 501.604 o
740.708 503.511 o
752.786 508.767 o
764.864 509.343 o
776.942 514.834 o
789.019 519.878 o
801.097 523.284 o
813.175 528.763 o
825.253 527.488 o
837.331 536.408 o
849.409 536.566 o
861.487 546.587 o
873.565 543.453 o
885.643 550.178 o
897.721 548.482 o
909.799 561.43 o
921.877 561.563 o
933.955 567.392 o
grestore
4.000 setlinewidth
1 setlinejoin
2 setlinecap
gsave
837 554.4 135 79.2 clipbox
173.045455 104.4 m
185.123377 116.391637 l
197.201299 128.351854 l
209.279221 140.206622 l
221.357143 152.042703 l
233.435065 163.744076 l
245.512987 175.357644 l
257.590909 186.695354 l
269.668831 198.467761 l
281.746753 209.700909 l
293.824675 221.231757 l
305.902597 231.550986 l
317.980519 242.855548 l
330.058442 254.00146 l
342.136364 264.649221 l
354.214286 275.458621 l
366.292208 285.440266 l
378.37013 296.626542 l
390.448052 305.781944 l
402.525974 315.403503 l
414.603896 325.319397 l
426.681818 335.729617 l
438.75974 343.269283 l
450.837662 353.011189 l
462.915584 362.556246 l
474.993506 370.38253 l
487.071429 380.438334 l
499.149351 388.779734 l
511.227273 395.889271 l
523.305195 406.762368 l
535.383117 413.517312 l
547.461039 419.569503 l
559.538961 430.790412 l
571.616883 430.632388 l
583.694805 445.082874 l
595.772727 446.535802 l
607.850649 459.023416 l
619.928571 464.725796 l
632.006494 468.495485 l
644.084416 481.341146 l
656.162338 485.879156 l
668.24026 494.275773 l
680.318182 494.064907 l
692.396104 500.468633 l
704.474026 514.776457 l
716.551948 519.600268 l
728.62987 512.763966 l
740.707792 527.101153 l
752.785714 529.257462 l
764.863636 526.184826 l
776.941558 536.728497 l
789.019481 547.86409 l
801.097403 549.997226 l
813.175325 551.158436 l
825.253247 577.392796 l
837.331169 569.459213 l
849.409091 573.235167 l
861.487013 570.214322 l
873.564935 585.481492 l
885.642857 582.318871 l
897.720779 592.377011 l
909.798701 598.680007 l
921.876623 608.4 l
933.954545 607.686426 l
stroke
grestore
1.000 setlinewidth
0 setlinejoin
0 setlinecap
gsave
837 554.4 135 79.2 clipbox
/o {
gsave
newpath
translate
1.0 setlinewidth
0 setlinejoin
0 setlinecap
-0 -7.5 m
7.5 7.5 l
-7.5 7.5 l
cl

gsave
0.504 1.000 0.705 setrgbcolor
fill
grestore
stroke
grestore
} bind def
173.045 104.4 o
185.123 116.392 o
197.201 128.352 o
209.279 140.207 o
221.357 152.043 o
233.435 163.744 o
245.513 175.358 o
257.591 186.695 o
269.669 198.468 o
281.747 209.701 o
293.825 221.232 o
305.903 231.551 o
317.981 242.856 o
330.058 254.001 o
342.136 264.649 o
354.214 275.459 o
366.292 285.44 o
378.37 296.627 o
390.448 305.782 o
402.526 315.404 o
414.604 325.319 o
426.682 335.73 o
438.76 343.269 o
450.838 353.011 o
462.916 362.556 o
474.994 370.383 o
487.071 380.438 o
499.149 388.78 o
511.227 395.889 o
523.305 406.762 o
535.383 413.517 o
547.461 419.57 o
559.539 430.79 o
571.617 430.632 o
583.695 445.083 o
595.773 446.536 o
607.851 459.023 o
619.929 464.726 o
632.006 468.495 o
644.084 481.341 o
656.162 485.879 o
668.24 494.276 o
680.318 494.065 o
692.396 500.469 o
704.474 514.776 o
716.552 519.6 o
728.63 512.764 o
740.708 527.101 o
752.786 529.257 o
764.864 526.185 o
776.942 536.728 o
789.019 547.864 o
801.097 549.997 o
813.175 551.158 o
825.253 577.393 o
837.331 569.459 o
849.409 573.235 o
861.487 570.214 o
873.565 585.481 o
885.643 582.319 o
897.721 592.377 o
909.799 598.68 o
921.877 608.4 o
933.955 607.686 o
grestore
4.000 setlinewidth
1 setlinejoin
2 setlinecap
0.000 setgray
gsave
837 554.4 135 79.2 clipbox
173.045455 104.431529 m
185.123377 116.372207 l
197.201299 128.421059 l
209.279221 140.235972 l
221.357143 151.94246 l
233.435065 163.71992 l
245.512987 175.279094 l
257.590909 186.306704 l
269.668831 197.686564 l
281.746753 209.017007 l
293.824675 220.250092 l
305.902597 230.984904 l
317.980519 241.198241 l
330.058442 251.339632 l
342.136364 260.702904 l
354.214286 273.308834 l
366.292208 282.560944 l
378.37013 291.122069 l
390.448052 303.07733 l
402.525974 311.63573 l
414.603896 315.413935 l
426.681818 330.434719 l
438.75974 334.710144 l
450.837662 344.030547 l
462.915584 355.897959 l
474.993506 368.081898 l
487.071429 373.815076 l
499.149351 381.762348 l
511.227273 388.155254 l
523.305195 396.277436 l
535.383117 400.287074 l
547.461039 410.710589 l
559.538961 427.919145 l
571.616883 422.59687 l
583.694805 432.009505 l
595.772727 436.937318 l
607.850649 435.250255 l
619.928571 449.220833 l
632.006494 460.844428 l
644.084416 455.196102 l
656.162338 475.347757 l
668.24026 469.528928 l
680.318182 483.3036 l
692.396104 490.690468 l
704.474026 483.928844 l
716.551948 493.986147 l
728.62987 502.340409 l
740.707792 499.789092 l
752.785714 503.459987 l
764.863636 494.935381 l
776.941558 505.905013 l
789.019481 518.407446 l
801.097403 529.541083 l
813.175325 523.456496 l
825.253247 521.381375 l
837.331169 534.514508 l
849.409091 526.689027 l
861.487013 539.167228 l
873.564935 554.975033 l
885.642857 537.359214 l
897.720779 550.792911 l
909.798701 560.822141 l
921.876623 544.70454 l
933.954545 559.656218 l
stroke
grestore
1.000 setlinewidth
0 setlinecap
gsave
837 554.4 135 79.2 clipbox
/o {
gsave
newpath
translate
1.0 setlinewidth
1 setlinejoin
0 setlinecap
0 -7.5 m
1.989023 -7.5 3.896849 -6.709753 5.303301 -5.303301 c
6.709753 -3.896849 7.5 -1.989023 7.5 0 c
7.5 1.989023 6.709753 3.896849 5.303301 5.303301 c
3.896849 6.709753 1.989023 7.5 0 7.5 c
-1.989023 7.5 -3.896849 6.709753 -5.303301 5.303301 c
-6.709753 3.896849 -7.5 1.989023 -7.5 0 c
-7.5 -1.989023 -6.709753 -3.896849 -5.303301 -5.303301 c
-3.896849 -6.709753 -1.989023 -7.5 0 -7.5 c
cl

gsave
0.000 setgray
fill
grestore
stroke
grestore
} bind def
173.045 104.432 o
185.123 116.372 o
197.201 128.421 o
209.279 140.236 o
221.357 151.942 o
233.435 163.72 o
245.513 175.279 o
257.591 186.307 o
269.669 197.687 o
281.747 209.017 o
293.825 220.25 o
305.903 230.985 o
317.981 241.198 o
330.058 251.34 o
342.136 260.703 o
354.214 273.309 o
366.292 282.561 o
378.37 291.122 o
390.448 303.077 o
402.526 311.636 o
414.604 315.414 o
426.682 330.435 o
438.76 334.71 o
450.838 344.031 o
462.916 355.898 o
474.994 368.082 o
487.071 373.815 o
499.149 381.762 o
511.227 388.155 o
523.305 396.277 o
535.383 400.287 o
547.461 410.711 o
559.539 427.919 o
571.617 422.597 o
583.695 432.01 o
595.773 436.937 o
607.851 435.25 o
619.929 449.221 o
632.006 460.844 o
644.084 455.196 o
656.162 475.348 o
668.24 469.529 o
680.318 483.304 o
692.396 490.69 o
704.474 483.929 o
716.552 493.986 o
728.63 502.34 o
740.708 499.789 o
752.786 503.46 o
764.864 494.935 o
776.942 505.905 o
789.019 518.407 o
801.097 529.541 o
813.175 523.456 o
825.253 521.381 o
837.331 534.515 o
849.409 526.689 o
861.487 539.167 o
873.565 554.975 o
885.643 537.359 o
897.721 550.793 o
909.799 560.822 o
921.877 544.705 o
933.955 559.656 o
grestore
0.800 setlinewidth
0 setlinejoin
2 setlinecap
gsave
135 79.2 m
135 633.6 l
stroke
grestore
gsave
972 79.2 m
972 633.6 l
stroke
grestore
gsave
135 79.2 m
972 79.2 l
stroke
grestore
gsave
135 633.6 m
972 633.6 l
stroke
grestore
1.000 setlinewidth
0 setlinecap
0.800 setgray
gsave
152.5 503.490625 m
629.6875 503.490625 l
633.020833 503.490625 634.6875 505.157292 634.6875 508.490625 c
634.6875 616.1 l
634.6875 619.433333 633.020833 621.1 629.6875 621.1 c
152.5 621.1 l
149.166667 621.1 147.5 619.433333 147.5 616.1 c
147.5 508.490625 l
147.5 505.157292 149.166667 503.490625 152.5 503.490625 c
cl
gsave
1.000 setgray
fill
grestore
stroke
grestore
4.000 setlinewidth
1 setlinejoin
2 setlinecap
0.504 1.000 0.705 setrgbcolor
gsave
157.5 600.85 m
207.5 600.85 l
stroke
grestore
1.000 setlinewidth
2 setlinejoin
0 setlinecap
gsave
/o {
gsave
newpath
translate
1.0 setlinewidth
2 setlinejoin
0 setlinecap
0 7.5 m
-1.683855 2.317627 l
-7.132924 2.317627 l
-2.724534 -0.885255 l
-4.408389 -6.067627 l
-0 -2.864745 l
4.408389 -6.067627 l
2.724534 -0.885255 l
7.132924 2.317627 l
1.683855 2.317627 l
cl

gsave
0.504 1.000 0.705 setrgbcolor
fill
grestore
stroke
grestore
} bind def
182.5 600.85 o
grestore
0.000 setgray
gsave
227.500000 592.100000 translate
0.000000 rotate
0.000000 0 m /C glyphshow
17.456055 0 m /O glyphshow
37.133789 0 m /M glyphshow
58.703613 0 m /M glyphshow
80.273438 0 m /plus glyphshow
101.220703 0 m /C glyphshow
118.676758 0 m /A glyphshow
135.278809 0 m /C glyphshow
152.734863 0 m /H glyphshow
171.533691 0 m /E glyphshow
187.329590 0 m /space glyphshow
195.276367 0 m /m glyphshow
219.629395 0 m /o glyphshow
234.924805 0 m /d glyphshow
250.793945 0 m /e glyphshow
266.174805 0 m /l glyphshow
grestore
4.000 setlinewidth
1 setlinejoin
2 setlinecap
0.504 1.000 0.705 setrgbcolor
gsave
157.5 564.146875 m
207.5 564.146875 l
stroke
grestore
1.000 setlinewidth
0 setlinejoin
0 setlinecap
gsave
/o {
gsave
newpath
translate
1.0 setlinewidth
0 setlinejoin
0 setlinecap
-0 -7.5 m
7.5 7.5 l
-7.5 7.5 l
cl

gsave
0.504 1.000 0.705 setrgbcolor
fill
grestore
stroke
grestore
} bind def
182.5 564.147 o
grestore
0.000 setgray
gsave
227.500000 555.396875 translate
0.000000 rotate
0.000000 0 m /C glyphshow
17.456055 0 m /O glyphshow
37.133789 0 m /M glyphshow
58.703613 0 m /M glyphshow
80.273438 0 m /plus glyphshow
101.220703 0 m /C glyphshow
118.676758 0 m /A glyphshow
135.278809 0 m /C glyphshow
152.734863 0 m /H glyphshow
171.533691 0 m /E glyphshow
187.329590 0 m /space glyphshow
195.276367 0 m /m glyphshow
219.629395 0 m /o glyphshow
234.924805 0 m /d glyphshow
250.793945 0 m /e glyphshow
266.174805 0 m /l glyphshow
273.120605 0 m /space glyphshow
281.067383 0 m /plus glyphshow
302.014648 0 m /space glyphshow
309.961426 0 m /S glyphshow
325.830566 0 m /C glyphshow
343.286621 0 m /H glyphshow
362.085449 0 m /E glyphshow
377.881348 0 m /D glyphshow
grestore
4.000 setlinewidth
1 setlinejoin
2 setlinecap
gsave
157.5 527.44375 m
207.5 527.44375 l
stroke
grestore
1.000 setlinewidth
0 setlinecap
gsave
/o {
gsave
newpath
translate
1.0 setlinewidth
1 setlinejoin
0 setlinecap
0 -7.5 m
1.989023 -7.5 3.896849 -6.709753 5.303301 -5.303301 c
6.709753 -3.896849 7.5 -1.989023 7.5 0 c
7.5 1.989023 6.709753 3.896849 5.303301 5.303301 c
3.896849 6.709753 1.989023 7.5 0 7.5 c
-1.989023 7.5 -3.896849 6.709753 -5.303301 5.303301 c
-6.709753 3.896849 -7.5 1.989023 -7.5 0 c
-7.5 -1.989023 -6.709753 -3.896849 -5.303301 -5.303301 c
-3.896849 -6.709753 -1.989023 -7.5 0 -7.5 c
cl

gsave
0.000 setgray
fill
grestore
stroke
grestore
} bind def
182.5 527.444 o
grestore
gsave
227.500000 518.693750 translate
0.000000 rotate
0.000000 0 m /N glyphshow
18.701172 0 m /a glyphshow
34.020996 0 m /t glyphshow
43.823242 0 m /i glyphshow
50.769043 0 m /v glyphshow
65.563965 0 m /e glyphshow
grestore

end
showpage
