1,79.79
2,40.240225
3,28.646406
4,22.484118
5,19.135681
6,17.955573
7,16.048029
8,14.978999
9,13.424158
10,12.848522
11,12.208201
12,11.498537
13,11.456956
14,11.268357
15,11.228222
16,11.195729
17,11.118378
18,11.125428
19,11.021891
20,11.042866
21,10.931507
22,10.938532
23,10.829026
24,10.836073
25,10.836235
26,10.838659
27,10.829158
28,10.846078
29,10.831496
30,10.841171
31,10.835517
32,10.843073
33,10.872379
34,10.890070
35,10.848351
36,10.939369
37,10.972428
38,10.823679
39,10.836486
40,11.126284
41,10.857163
42,10.974176
43,10.946224
44,10.852017
45,10.886608
46,10.864213
47,10.848297
48,11.063201
49,10.856957
50,10.980773
51,10.851651
52,10.904999
53,10.923432
54,10.897663
55,10.871986
56,10.874691
57,10.863088
58,10.854906
59,10.903515
60,10.869654
61,10.864599
62,10.877814
63,11.072634
64,10.867132
