16776, 5.83716, 5.89252, 5.64373, 5.8453
17656, 6.20598, 5.79455, 5.99423, 6.03521
18640, 5.57083, 5.51561, 5.42886, 5.90247
19736, 5.5941, 5.65258, 5.4929, 5.60045
20968, 5.26834, 5.15374, 5.43635, 5.42299
22368, 5.24762, 5.46427, 5.23596, 4.93067
23960, 5.03203, 5.20983, 4.9028, 5.21663
25808, 5.13133, 5.03325, 5.07033, 5.17661
27960, 5.02155, 5.05834, 4.95789, 4.99643
30504, 5.01134, 5.03076, 4.95919, 4.95114
33552, 4.66162, 4.54942, 4.49819, 4.4159
37280, 4.65215, 4.54302, 4.54745, 4.57367
41936, 4.38822, 4.33694, 4.25185, 4.23339
47928, 4.33385, 4.28483, 4.25327, 4.26406
55920, 4.13839, 4.11297, 4.12938, 4.01177
67104, 4.03524, 4.07915, 4.11038, 3.99274
83880, 3.90994, 3.91761, 3.89605, 3.8396
111848, 3.7584, 3.84239, 3.79422, 3.72243
167768, 3.75635, 3.75744, 3.64681, 3.61834
176600, 3.75393, 3.76393, 3.76598, 3.48616
186408, 3.79963, 3.65872, 3.59812, 3.67622
197376, 3.7402, 3.6949, 3.5774, 3.6124
209712, 3.72246, 3.6954, 3.60271, 3.62278
223696, 3.74111, 3.69926, 3.58795, 3.61287
239672, 3.70814, 3.65156, 3.58372, 3.57482
258104, 3.64652, 3.70272, 3.62129, 3.5271
279616, 3.65846, 3.67316, 3.59007, 3.56735
305040, 3.59791, 3.66533, 3.59061, 3.60359
335544, 3.64043, 3.63783, 3.54276, 3.58235
372824, 3.66146, 3.63823, 3.56793, 3.54076
419424, 3.58818, 3.64101, 3.55536, 3.57776
479344, 3.60921, 3.61123, 3.55775, 3.55739
493440, 3.58417, 3.59716, 3.57402, 3.54806
508400, 3.60113, 3.6134, 3.59657, 3.57197
524288, 3.54698, 3.55918, 3.53315, 3.53445
541200, 3.55795, 3.56612, 3.53594, 3.53365
559240, 3.55232, 3.566, 3.54903, 3.53672
578520, 3.55348, 3.56062, 3.53932, 3.54804
599184, 3.5618, 3.5692, 3.54487, 3.55296
621376, 3.57989, 3.56584, 3.55407, 3.56605
645272, 3.57061, 3.56278, 3.53579, 3.54215
671088, 3.55345, 3.54877, 3.54136, 3.54042
699048, 3.57442, 3.55599, 3.54545, 3.53308
729440, 3.58012, 3.57888, 3.56686, 3.56032
762600, 3.54862, 3.55012, 3.53771, 3.53689
798912, 4.85522, 4.8648, 4.86747, 4.83572
838856, 4.82643, 4.8263, 4.79958, 4.81756
883008, 4.74579, 4.74269, 4.7246, 4.73129
932064, 4.82873, 4.83322, 4.81432, 4.82622
986888, 4.80873, 4.80337, 4.78728, 4.79816
1.04858e+06, 4.70749, 4.70183, 4.68579, 4.68726
1.11848e+06, 4.84652, 4.84749, 4.82887, 4.8543
1.19837e+06, 3.54905, 3.54913, 3.53852, 3.55276
1.29055e+06, 3.53522, 3.53572, 3.52508, 3.52712
1.3981e+06, 3.53767, 3.54779, 3.53574, 3.52904
1.5252e+06, 3.5394, 3.53227, 3.52298, 3.52913
1.67772e+06, 3.5306, 3.53012, 3.52166, 3.51998
1.86413e+06, 3.52375, 3.52858, 3.51207, 3.51082
2.09715e+06, 3.50302, 3.50877, 3.49546, 3.49644
2.39674e+06, 3.9178, 3.87645, 3.8447, 3.84566
2.7962e+06, 3.24582, 3.25265, 3.2033, 3.23231
3.35544e+06, 2.66818, 2.65184, 2.64616, 2.6394
4.1943e+06, 2.24033, 2.24032, 2.22625, 2.2268
5.5924e+06, 2.23588, 2.23626, 2.23016, 2.2305
8.38861e+06, 2.40669, 2.39925, 2.38675, 2.38866
1.67772e+07, 2.62931, 2.63473, 2.62727, 2.62767
