16776, 8.22353, 8.20142, 8.21749, 6.99583
17656, 8.74926, 8.56879, 8.72763, 7.01191
18640, 8.82576, 8.58788, 8.68593, 6.87062
19736, 8.77936, 8.47948, 7.79617, 7.39176
20968, 8.77139, 7.98477, 8.6914, 8.0107
22368, 8.96693, 7.70646, 8.31061, 7.28244
23960, 7.89717, 7.80583, 7.84802, 7.28157
25808, 8.39148, 7.83723, 8.49506, 7.65021
27960, 8.97448, 7.80352, 8.27219, 7.47994
30504, 9.09752, 7.61363, 8.7354, 7.73232
33552, 8.6097, 7.533, 8.10239, 7.635
37280, 8.52407, 7.905, 8.42486, 7.61671
41936, 8.14133, 7.61849, 7.96732, 7.61434
47928, 8.57772, 7.71167, 8.39149, 7.82498
55920, 7.99257, 7.83577, 8.11317, 7.76559
67104, 7.51992, 7.01741, 7.22714, 7.15318
83880, 7.23571, 7.10125, 7.29074, 6.99641
111848, 7.29103, 7.01219, 7.22953, 7.0232
167768, 7.02414, 7.01459, 6.95628, 6.91328
176600, 7.11781, 7.04554, 7.17784, 7.03642
186408, 7.18031, 7.03705, 7.11549, 7.07028
197376, 7.15987, 7.06327, 7.17014, 7.14522
209712, 7.16119, 7.08355, 7.11153, 7.16927
223696, 7.15564, 7.04521, 7.12317, 7.07932
239672, 7.10255, 7.08722, 7.0801, 7.1114
258104, 7.04096, 7.05318, 7.03885, 7.05106
279616, 7.04988, 7.03295, 7.0474, 7.04535
305040, 7.00428, 7.02178, 6.97992, 7.04651
335544, 7.00656, 6.9633, 7.06297, 6.92057
372824, 7.04891, 6.96848, 6.99292, 7.02878
419424, 7.02635, 7.00974, 7.05566, 6.99372
479344, 6.99946, 6.98961, 7.03717, 6.94863
493440, 6.98973, 7.04632, 7.00049, 7.01088
508400, 6.99418, 7.00739, 6.97719, 7.00734
524288, 6.98059, 6.95854, 7.00957, 6.95531
541200, 7.03858, 6.96821, 6.97261, 7.0262
559240, 7.00214, 6.96907, 7.00723, 6.97542
578520, 6.98662, 6.97575, 7.05155, 6.92395
599184, 7.00861, 6.95811, 6.99765, 7.00092
621376, 7.02461, 6.97216, 7.01743, 6.98799
645272, 6.99911, 6.97938, 7.02429, 6.98717
671088, 7.02125, 6.97869, 6.99896, 6.99684
699048, 7.04643, 6.99471, 7.03377, 6.98877
729440, 6.98172, 6.9615, 7.02093, 6.93856
762600, 7.04493, 6.98121, 7.0252, 6.97572
798912, 7.00652, 6.96499, 6.99757, 7.00039
838856, 6.98459, 6.97245, 6.98584, 7.02183
883008, 6.99091, 6.97184, 6.99994, 6.96392
932064, 7.02035, 6.98665, 7.00166, 6.98688
986888, 6.97004, 6.96355, 6.95354, 6.97216
1.04858e+06, 6.97699, 7.01459, 6.97064, 6.96974
1.11848e+06, 7.01444, 7.03522, 6.99607, 6.96701
1.19837e+06, 6.98272, 6.97811, 6.98327, 6.96175
1.29055e+06, 7.00055, 6.98024, 6.98041, 7.01366
1.3981e+06, 6.98126, 6.98487, 7.02211, 7.00288
1.5252e+06, 7.01129, 6.98787, 6.98596, 6.98688
1.67772e+06, 6.98982, 6.95695, 6.99595, 6.95242
1.86413e+06, 6.99333, 6.9461, 6.99584, 6.95543
2.09715e+06, 6.98129, 6.95729, 7.00518, 6.94695
2.39674e+06, 6.91956, 7.03426, 6.90721, 7.14493
2.7962e+06, 6.91859, 6.98486, 7.16599, 6.89278
3.35544e+06, 7.05894, 6.83537, 6.94004, 6.94988
4.1943e+06, 6.48154, 6.4623, 6.4682, 6.44725
5.5924e+06, 4.84249, 4.93466, 4.94223, 4.97598
8.38861e+06, 3.27745, 3.30987, 3.89848, 3.90239
1.67772e+07, 3.81207, 3.81899, 4.56404, 4.58117
