16776, 8.31318, 7.63587
17656, 9.02197, 8.49357
18640, 8.89101, 8.18891
19736, 9.30066, 8.36006
20968, 9.56678, 8.00076
22368, 9.78906, 8.00286
23960, 8.64046, 7.61421
25808, 8.60625, 8.01428
27960, 8.8537, 7.77693
30504, 8.84879, 7.90515
33552, 8.2952, 8.09701
37280, 8.11758, 7.89371
41936, 7.71166, 8.13541
47928, 7.89946, 7.47153
55920, 7.65555, 7.38998
67104, 7.58344, 7.4185
83880, 7.62216, 7.53486
111848, 7.66502, 7.38198
167768, 7.30188, 7.37207
176600, 7.18383, 7.24104
186408, 7.33334, 7.29795
197376, 7.37255, 7.3549
209712, 7.28825, 7.22665
223696, 7.30412, 7.24011
239672, 7.32987, 7.34711
258104, 7.29664, 7.40848
279616, 7.36689, 7.43912
305040, 7.32732, 7.32152
335544, 7.31212, 7.29666
372824, 7.32842, 7.422
419424, 7.30166, 7.26725
479344, 7.31692, 7.39321
493440, 7.273, 7.28467
508400, 7.26917, 7.26852
524288, 7.24467, 7.3026
541200, 7.2869, 7.30359
559240, 7.25753, 7.15731
578520, 7.26802, 7.21248
599184, 7.29092, 7.25029
621376, 7.27666, 7.15838
645272, 7.22126, 7.15683
671088, 7.22074, 7.35638
699048, 7.32999, 7.25417
729440, 7.13724, 7.20999
762600, 7.12835, 7.24423
798912, 7.25425, 7.14237
838856, 7.36761, 7.17561
883008, 7.19773, 7.34275
932064, 7.31264, 7.25907
986888, 7.30109, 7.10532
1.04858e+06, 7.27464, 7.09815
1.11848e+06, 7.28171, 7.06886
1.19837e+06, 7.14401, 7.40861
1.29055e+06, 7.52081, 7.21388
1.3981e+06, 7.42234, 7.25662
1.5252e+06, 7.45119, 7.33775
1.67772e+06, 7.28678, 7.02776
1.86413e+06, 7.20453, 7.39168
2.09715e+06, 7.38913, 7.38
2.39674e+06, 7.19821, 7.31198
2.7962e+06, 7.26741, 7.21638
3.35544e+06, 6.84439, 6.91873
4.1943e+06, 5.92597, 5.92765
5.5924e+06, 4.73477, 4.69076
8.38861e+06, 4.71404, 4.62831
1.67772e+07, 6.27696, 6.26309
