16776, 8.29468
17656, 8.76663
18640, 8.60374
19736, 9.30724
20968, 9.29433
22368, 8.91688
23960, 8.77977
25808, 8.46303
27960, 8.58327
30504, 7.75394
33552, 8.24779
37280, 7.90417
41936, 8.15558
47928, 7.77673
55920, 8.00286
67104, 8.07023
83880, 8.00878
111848, 8.0472
167768, 7.6949
176600, 7.86917
186408, 7.76021
197376, 7.78788
209712, 7.82201
223696, 7.82291
239672, 7.74234
258104, 7.80478
279616, 7.78084
305040, 7.80423
335544, 7.80889
372824, 7.779
419424, 7.86115
479344, 7.82634
493440, 7.81415
508400, 7.78757
524288, 7.86057
541200, 7.83825
559240, 7.82866
578520, 7.86059
599184, 7.9969
621376, 8.02076
645272, 7.8745
671088, 7.892
699048, 7.84068
729440, 7.88435
762600, 7.90956
798912, 7.87222
838856, 7.89125
883008, 7.88597
932064, 7.82649
986888, 7.84639
1.04858e+06, 7.79144
1.11848e+06, 7.80356
1.19837e+06, 7.93337
1.29055e+06, 7.94193
1.3981e+06, 7.93043
1.5252e+06, 7.9538
1.67772e+06, 7.94174
1.86413e+06, 8.02117
2.09715e+06, 7.94842
2.39674e+06, 7.86198
2.7962e+06, 7.86791
3.35544e+06, 8.08271
4.1943e+06, 8.12479
5.5924e+06, 8.24595
8.38861e+06, 7.74159
1.67772e+07, 7.22899
