16776, 12.4267
17656, 13.9078
18640, 12.2753
19736, 10.8708
20968, 10.3674
22368, 11.0269
23960, 11.7884
25808, 12.4526
27960, 12.2497
30504, 11.2999
33552, 10.9558
37280, 10.1886
41936, 10.338
47928, 9.7217
55920, 9.84247
67104, 9.99092
83880, 10.0335
111848, 10.7603
167768, 10.1144
176600, 10.2208
186408, 10.1306
197376, 10.2413
209712, 10.3393
223696, 10.1752
239672, 10.091
258104, 10.1112
279616, 10.0964
305040, 10.0983
335544, 10.0878
372824, 10.0461
419424, 10.2087
479344, 10.1234
493440, 10.2119
508400, 10.2585
524288, 10.1842
541200, 10.1314
559240, 10.2003
578520, 10.2307
599184, 10.2135
621376, 10.1554
645272, 10.2382
671088, 10.2386
699048, 10.2788
729440, 10.226
762600, 10.2569
798912, 10.2459
838856, 10.265
883008, 10.2224
932064, 10.305
986888, 10.2624
1.04858e+06, 10.2951
1.11848e+06, 10.3093
1.19837e+06, 10.2913
1.29055e+06, 10.2635
1.3981e+06, 10.2948
1.5252e+06, 10.2744
1.67772e+06, 10.2736
1.86413e+06, 10.2976
2.09715e+06, 10.3146
2.39674e+06, 10.2894
2.7962e+06, 10.4669
3.35544e+06, 10.707
4.1943e+06, 10.4635
5.5924e+06, 10.4084
8.38861e+06, 9.67523
1.67772e+07, 8.86167
