16776, 11.6784
17656, 15.1619
18640, 12.0413
19736, 10.4811
20968, 10.5076
22368, 11.1145
23960, 11.7595
25808, 12.4918
27960, 12.1592
30504, 10.9707
33552, 10.8953
37280, 10.1222
41936, 10.3265
47928, 9.4041
55920, 9.78649
67104, 9.96126
83880, 9.76087
111848, 10.5239
167768, 9.90805
176600, 9.43275
186408, 10.1273
197376, 9.98968
209712, 9.99795
223696, 9.91341
239672, 9.96868
258104, 10.1023
279616, 10.1566
305040, 9.94766
335544, 9.95886
372824, 9.99475
419424, 9.93437
479344, 9.96681
493440, 10.0708
508400, 10.0444
524288, 10.0483
541200, 10.1081
559240, 10.1417
578520, 10.1562
599184, 10.1044
621376, 10.1476
645272, 10.1407
671088, 10.207
699048, 10.1116
729440, 10.1173
762600, 10.1416
798912, 10.2478
838856, 10.1812
883008, 10.1672
932064, 10.2053
986888, 10.1123
1.04858e+06, 10.2324
1.11848e+06, 10.2102
1.19837e+06, 10.2295
1.29055e+06, 10.2443
1.3981e+06, 10.216
1.5252e+06, 10.2399
1.67772e+06, 10.2451
1.86413e+06, 10.0881
2.09715e+06, 10.2495
2.39674e+06, 10.2162
2.7962e+06, 10.3329
3.35544e+06, 10.1902
4.1943e+06, 10.1689
5.5924e+06, 11.0437
8.38861e+06, 9.64845
1.67772e+07, 8.57705
