16776, 7.28916
17656, 8.76663
18640, 7.68343
19736, 8.63153
20968, 8.26977
22368, 8.46792
23960, 8.34262
25808, 8.26782
27960, 8.46503
30504, 7.1791
33552, 7.83376
37280, 7.81306
41936, 7.58062
47928, 7.6276
55920, 7.71151
67104, 7.91367
83880, 7.81406
111848, 7.92293
167768, 7.55729
176600, 7.66526
186408, 7.59222
197376, 7.69392
209712, 7.71213
223696, 7.64733
239672, 7.68586
258104, 7.67402
279616, 7.64114
305040, 7.70196
335544, 7.70082
372824, 7.66331
419424, 7.67389
479344, 7.70879
493440, 7.68478
508400, 7.70875
524288, 7.71926
541200, 7.69127
559240, 7.75677
578520, 7.71185
599184, 7.7448
621376, 7.74252
645272, 7.8833
671088, 7.82286
699048, 7.69368
729440, 7.69703
762600, 7.75903
798912, 7.68004
838856, 7.73984
883008, 7.7353
932064, 7.79696
986888, 7.80531
1.04858e+06, 7.78548
1.11848e+06, 7.79187
1.19837e+06, 7.80963
1.29055e+06, 7.80757
1.3981e+06, 7.7947
1.5252e+06, 7.82413
1.67772e+06, 7.81724
1.86413e+06, 7.78511
2.09715e+06, 7.78847
2.39674e+06, 7.75255
2.7962e+06, 8.00435
3.35544e+06, 7.88079
4.1943e+06, 8.01199
5.5924e+06, 8.26835
8.38861e+06, 7.6639
1.67772e+07, 7.4228
