16776, 11.0806
17656, 12.7711
18640, 12.0608
19736, 9.92008
20968, 10.352
22368, 10.9728
23960, 11.8292
25808, 12.0626
27960, 9.77281
30504, 9.80678
33552, 10.7109
37280, 9.84161
41936, 9.60733
47928, 9.52559
55920, 9.83468
67104, 9.63238
83880, 10.3186
111848, 9.57644
167768, 9.70571
176600, 9.84639
186408, 9.6607
197376, 9.75082
209712, 9.68155
223696, 9.8369
239672, 9.46665
258104, 9.72033
279616, 9.71547
305040, 9.74351
335544, 9.6194
372824, 9.77399
419424, 9.79482
479344, 9.87809
493440, 9.72037
508400, 9.81221
524288, 9.71425
541200, 9.80453
559240, 9.83158
578520, 9.86537
599184, 9.89765
621376, 9.95811
645272, 9.88196
671088, 9.96212
699048, 9.91382
729440, 9.93152
762600, 9.92975
798912, 9.91132
838856, 9.94158
883008, 9.59864
932064, 9.90277
986888, 9.97875
1.04858e+06, 9.97172
1.11848e+06, 9.96761
1.19837e+06, 9.95827
1.29055e+06, 9.99959
1.3981e+06, 10.0035
1.5252e+06, 10.0276
1.67772e+06, 10.0303
1.86413e+06, 10.0306
2.09715e+06, 9.95387
2.39674e+06, 10.1947
2.7962e+06, 10.1028
3.35544e+06, 10.157
4.1943e+06, 9.99601
5.5924e+06, 10.0889
8.38861e+06, 9.52707
1.67772e+07, 8.74214
