16776, 12.8947
17656, 16.7594
18640, 12.1552
19736, 10.9889
20968, 11.8934
22368, 11.0323
23960, 11.7855
25808, 12.7415
27960, 10.4523
30504, 11.7413
33552, 11.0532
37280, 10.5564
41936, 10.3892
47928, 11.1448
55920, 10.9971
67104, 10.7384
83880, 10.5543
111848, 10.7505
167768, 10.2476
176600, 10.2665
186408, 10.5509
197376, 10.6408
209712, 10.7437
223696, 10.6206
239672, 10.5269
258104, 10.5241
279616, 10.5905
305040, 10.343
335544, 10.41
372824, 10.4758
419424, 10.4598
479344, 10.5108
493440, 10.4908
508400, 10.5091
524288, 10.3802
541200, 10.5197
559240, 10.5152
578520, 10.5178
599184, 10.5341
621376, 10.5736
645272, 10.5121
671088, 10.5625
699048, 10.5532
729440, 10.5368
762600, 10.5568
798912, 10.5523
838856, 10.3965
883008, 10.3681
932064, 10.386
986888, 10.3317
1.04858e+06, 10.382
1.11848e+06, 10.4109
1.19837e+06, 10.3871
1.29055e+06, 10.3642
1.3981e+06, 10.4163
1.5252e+06, 10.4125
1.67772e+06, 10.4243
1.86413e+06, 10.3513
2.09715e+06, 10.3742
2.39674e+06, 10.3318
2.7962e+06, 10.3419
3.35544e+06, 10.4646
4.1943e+06, 10.4818
5.5924e+06, 10.4143
8.38861e+06, 8.29665
1.67772e+07, 7.56795
