25952, 15.0033, 9.69896
27312, 19.5575, 10.6865
28832, 19.2566, 10.4237
30528, 17.2377, 10.4664
32440, 21.8011, 10.365
34600, 23.1981, 10.5818
37072, 26.5131, 10.2978
39920, 25.4551, 10.4592
43248, 24.9844, 10.6241
47184, 23.6897, 10.683
51904, 20.3625, 10.7965
57664, 23.3812, 11.48
64880, 20.2861, 11.4806
74144, 26.6609, 11.9404
86504, 22.8062, 11.5845
103808, 22.9765, 11.5722
129760, 22.831, 12.6066
173008, 23.7306, 12.1755
259520, 19.055, 10.643
273176, 16.2457, 9.873
288352, 15.9984, 9.56265
305320, 15.3769, 9.42557
324400, 13.8665, 9.50894
346024, 14.4558, 9.38867
370744, 12.9262, 9.411
399264, 12.2418, 8.75022
432536, 12.6918, 8.90858
471856, 12.618, 8.51161
519040, 12.9438, 8.51398
576712, 12.8668, 8.73356
648800, 12.8923, 8.10415
741488, 12.5365, 8.03622
763296, 12.4512, 7.95543
786432, 12.456, 7.88205
811008, 12.4097, 7.84397
837168, 12.3504, 7.81755
865072, 12.3251, 7.97417
894904, 12.3429, 7.77745
926864, 12.2844, 8.13212
961192, 12.3543, 7.69383
998160, 12.3301, 7.64925
1.03809e+06, 9.16589, 7.56825
1.08134e+06, 9.53789, 7.73502
1.12835e+06, 9.15107, 7.61858
1.17965e+06, 12.257, 8.29753
1.23582e+06, 12.3419, 8.23861
1.29761e+06, 12.2772, 8.10668
1.3659e+06, 12.2822, 8.10857
1.44179e+06, 12.2676, 8.10033
1.5266e+06, 12.2896, 8.44858
1.62202e+06, 12.2483, 8.34649
1.73014e+06, 12.1855, 8.3746
1.85373e+06, 12.2493, 8.34832
1.99632e+06, 12.1999, 8.31259
2.16269e+06, 12.0064, 7.91807
2.3593e+06, 12.0503, 8.27528
2.59522e+06, 11.6797, 8.09811
2.88358e+06, 11.4907, 8.07338
3.24403e+06, 11.2279, 7.6508
3.70746e+06, 10.656, 7.44884
4.32538e+06, 9.97175, 6.77378
5.19045e+06, 9.11683, 5.99241
6.48806e+06, 7.70331, 5.467
8.65075e+06, 7.28374, 5.05801
1.29761e+07, 6.6793, 4.76836
2.59523e+07, 6.29186, 4.46266
