2,1.796254
3,1.793609
4,1.796835
5,1.795719
6,1.777829
7,1.772346
8,1.774499
9,1.774743
10,1.759526
11,1.758614
12,1.761205
13,1.770087
14,1.762275
15,1.763237
16,1.763526
17,1.766690
18,1.764250
19,1.762523
20,1.764947
21,1.769829
22,1.765028
23,1.766109
24,1.766969
25,1.768135
26,1.765687
27,1.765140
28,1.769390
29,1.773134
30,1.786599
31,1.778634
