2,1.798343
3,1.795982
4,1.795490
5,1.797212
6,1.782508
7,1.779447
8,1.780100
9,1.767607
10,1.763641
11,1.763194
12,1.761480
13,1.766092
14,1.765914
15,1.762836
16,1.762634
17,1.766529
18,1.765285
19,1.764723
20,1.765341
21,1.764365
22,1.763568
23,1.766429
24,1.765889
25,1.768385
26,1.766819
27,1.770391
28,1.758284
29,1.759665
30,1.764510
31,1.775353
