2,1.793950
3,1.797293
4,1.797620
5,1.799434
6,1.793178
7,1.789127
8,1.788550
9,1.784631
10,1.779712
11,1.783928
12,1.773182
13,1.781628
14,1.777355
15,1.773615
16,1.770002
17,1.775141
18,1.775270
19,1.774206
20,1.770869
21,1.774535
22,1.774489
23,1.773292
24,1.771037
25,1.771240
26,1.770898
27,1.772229
28,1.771702
29,1.773374
30,1.772622
31,1.770138
