16776, 8.37857, 8.39115
17656, 8.9613, 8.67084
18640, 9.2186, 9.20494
19736, 9.76667, 8.8413
20968, 10.1589, 8.83235
22368, 10.3844, 8.25464
23960, 11.1624, 8.55867
25808, 10.6337, 8.51679
27960, 10.1012, 9.22316
30504, 10.0524, 9.65469
33552, 10.839, 9.44395
37280, 10.6996, 9.25981
41936, 9.8528, 9.00784
47928, 9.74939, 9.31545
55920, 9.72268, 9.14996
67104, 9.6556, 9.26051
83880, 9.49648, 9.32622
111848, 9.68004, 9.49151
167768, 9.5343, 9.61862
176600, 9.49845, 9.43893
186408, 9.47749, 9.38492
197376, 9.54729, 9.52483
209712, 9.50181, 9.42219
223696, 9.42185, 9.38332
239672, 9.5333, 9.44874
258104, 9.38381, 9.35812
279616, 9.54736, 9.49662
305040, 9.45457, 9.43163
335544, 9.47149, 9.49843
372824, 9.47823, 9.47583
419424, 9.5183, 9.46098
479344, 9.56961, 9.52019
493440, 9.51622, 9.50948
508400, 9.52154, 9.54231
524288, 9.51923, 9.55836
541200, 9.50449, 9.52071
559240, 9.52092, 9.48648
578520, 9.59741, 9.54551
599184, 9.50761, 9.52526
621376, 9.69521, 9.55074
645272, 9.49048, 9.52962
671088, 9.52553, 9.53433
699048, 9.50116, 9.55653
729440, 9.58995, 9.55944
762600, 9.55558, 9.49943
798912, 9.51335, 9.55482
838856, 9.57025, 9.62924
883008, 9.51748, 9.47312
932064, 9.47564, 9.45526
986888, 9.54174, 9.58034
1.04858e+06, 9.56817, 9.57643
1.11848e+06, 9.505, 9.45711
1.19837e+06, 9.59566, 9.58988
1.29055e+06, 9.56561, 9.54377
1.3981e+06, 9.52922, 9.50181
1.5252e+06, 9.50197, 9.48112
1.67772e+06, 9.52971, 9.50073
1.86413e+06, 9.65071, 9.64028
2.09715e+06, 9.54939, 9.52649
2.39674e+06, 9.47261, 9.66739
2.7962e+06, 9.61631, 9.36191
3.35544e+06, 8.92375, 8.96112
4.1943e+06, 7.41347, 7.42214
5.5924e+06, 5.78048, 5.83096
8.38861e+06, 5.79226, 5.7899
1.67772e+07, 6.61708, 6.65811
