25952, 6.09739, 6.11355, 5.94275
27312, 6.71428, 6.83569, 6.02249
28832, 6.5849, 6.62158, 6.00479
30528, 6.30288, 6.53005, 6.18759
32440, 6.9209, 6.94052, 6.28226
34600, 6.29034, 6.48821, 6.1093
37072, 6.38045, 6.61468, 6.23085
39920, 6.70981, 6.74666, 6.33827
43248, 6.66893, 6.7612, 6.387
47184, 6.42156, 6.48132, 6.29561
51904, 6.52122, 6.76714, 6.34504
57664, 6.63911, 6.70707, 6.42818
64880, 6.73361, 6.80512, 6.5085
74144, 6.73485, 6.71655, 6.54116
86504, 6.59757, 6.66672, 6.55892
103808, 6.67211, 6.55954, 6.57283
129760, 6.60894, 6.60852, 6.5188
173008, 6.49856, 6.57506, 6.59832
259520, 6.52241, 6.59107, 6.61138
273176, 6.55236, 6.56555, 6.62687
288352, 6.48018, 6.54769, 6.58274
305320, 6.53308, 6.60055, 6.61815
324400, 6.54666, 6.59015, 6.58036
346024, 6.48723, 6.58241, 6.53033
370744, 6.52827, 6.54195, 6.55888
399264, 6.44252, 6.49503, 6.65484
432536, 6.39993, 6.46573, 6.53521
471856, 6.39382, 6.39369, 6.43891
519040, 6.1831, 6.27601, 6.37631
576712, 6.15522, 6.20394, 6.32446
648800, 6.04508, 6.03445, 6.20781
741488, 5.90714, 6.04655, 6.10697
763296, 5.90828, 6.01238, 6.10572
786432, 5.89167, 5.97073, 6.06591
811008, 5.91103, 5.97366, 6.06393
837168, 5.91277, 5.93713, 6.04043
865072, 5.86426, 5.91777, 6.08145
894904, 5.82072, 5.8688, 6.03405
926864, 5.80126, 5.86577, 5.99255
961192, 5.7869, 5.85347, 5.93882
998160, 5.87763, 5.9554, 6.05511
1.03809e+06, 5.8974, 5.94613, 6.07416
1.08134e+06, 5.7987, 5.87126, 5.96478
1.12835e+06, 5.72455, 5.77847, 5.83108
1.17965e+06, 5.92156, 5.98629, 6.10713
1.23582e+06, 5.96262, 6.02897, 6.10021
1.29761e+06, 6.02025, 6.0609, 6.18196
1.3659e+06, 5.84553, 5.96235, 6.00529
1.44179e+06, 5.61861, 5.61413, 5.70627
1.5266e+06, 5.70095, 5.69395, 5.76808
1.62202e+06, 5.73686, 5.70934, 5.76101
1.73014e+06, 5.4736, 5.60607, 5.56641
1.85373e+06, 5.59923, 5.72955, 5.73284
1.99632e+06, 5.65999, 5.64843, 5.7237
2.16269e+06, 5.85037, 5.66374, 5.64501
2.3593e+06, 5.76025, 5.93474, 5.6988
2.59522e+06, 5.78615, 5.72535, 5.77525
2.88358e+06, 5.64992, 5.54407, 5.72752
3.24403e+06, 5.49544, 5.50733, 5.54392
3.70746e+06, 5.60124, 5.51029, 5.55074
4.32538e+06, 5.75232, 5.53252, 5.57476
5.19045e+06, 5.74061, 5.68437, 5.54857
6.48806e+06, 5.58259, 5.55884, 5.62414
8.65075e+06, 5.26989, 5.23957, 5.21683
1.29761e+07, 5.2149, 5.16419, 5.19387
2.59523e+07, 5.09826, 5.06003, 5.12394
