16776, 8.06248
17656, 8.14203
18640, 7.36468
19736, 7.95887
20968, 7.8407
22368, 7.43061
23960, 8.26136
25808, 8.06059
27960, 8.50106
30504, 7.4907
33552, 7.91741
37280, 7.48294
41936, 8.04643
47928, 7.82913
55920, 7.93614
67104, 7.99238
83880, 8.50322
111848, 7.85546
167768, 7.77333
176600, 7.73577
186408, 8.16979
197376, 7.89662
209712, 7.96544
223696, 7.99321
239672, 8.18559
258104, 8.05989
279616, 8.02819
305040, 8.2402
335544, 8.02343
372824, 8.20579
419424, 8.23332
479344, 8.28033
493440, 8.26654
508400, 8.32566
524288, 8.28678
541200, 8.27836
559240, 7.95092
578520, 7.91274
599184, 8.35175
621376, 8.33474
645272, 7.96881
671088, 7.97945
699048, 8.39841
729440, 8.41384
762600, 8.35792
798912, 8.39672
838856, 8.43207
883008, 8.36982
932064, 8.36403
986888, 8.36275
1.04858e+06, 8.3668
1.11848e+06, 8.39553
1.19837e+06, 8.37178
1.29055e+06, 8.38105
1.3981e+06, 8.42981
1.5252e+06, 8.39364
1.67772e+06, 8.3552
1.86413e+06, 8.30109
2.09715e+06, 8.44434
2.39674e+06, 8.86335
2.7962e+06, 8.3644
3.35544e+06, 8.62159
4.1943e+06, 9.02849
5.5924e+06, 8.80844
8.38861e+06, 8.47902
1.67772e+07, 7.5345
