16776, 1198.29
17656, 3210.18
18640, 1553.33
19736, 626.54
20968, 1950.51
22368, 677.818
23960, 27.0658
25808, 25.5525
27960, 27.5197
30504, 30.12
33552, 32.878
37280, 25.0285
41936, 20.8481
47928, 23.6681
55920, 20.7572
67104, 22.152
83880, 19.9988
111848, 20.5075
167768, 23.8646
176600, 32.5575
186408, 46.2407
197376, 39.7855
209712, 41.7691
223696, 44.1389
239672, 39.7647
258104, 42.6301
279616, 39.8002
305040, 39.0314
335544, 41.3155
372824, 41.2108
419424, 40.4508
479344, 39.972
493440, 40.9027
508400, 39.6568
524288, 40.1715
541200, 41.035
559240, 39.7258
578520, 40.2309
599184, 39.7713
621376, 40.577
645272, 40.1039
671088, 39.3237
699048, 39.9793
729440, 40.2983
762600, 39.9345
798912, 39.7172
838856, 39.7411
883008, 39.7349
932064, 39.5688
986888, 39.3484
1.04858e+06, 39.6283
1.11848e+06, 39.7745
1.19837e+06, 39.7911
1.29055e+06, 39.5553
1.3981e+06, 39.6126
1.5252e+06, 39.4933
1.67772e+06, 39.8381
1.86413e+06, 39.6134
2.09715e+06, 39.5949
2.39674e+06, 40.0537
2.7962e+06, 40.2606
3.35544e+06, 39.8492
4.1943e+06, 38.9108
5.5924e+06, 19.7915
8.38861e+06, 8.99767
1.67772e+07, 8.51057
