16776, 8.36083
17656, 8.76337
18640, 8.96585
19736, 9.2289
20968, 9.62829
22368, 8.59977
23960, 8.23651
25808, 8.21584
27960, 8.75391
30504, 8.27003
33552, 7.99619
37280, 7.83728
41936, 8.1173
47928, 8.45105
55920, 8.32453
67104, 8.26048
83880, 8.19241
111848, 8.08034
167768, 8.14428
176600, 8.12169
186408, 8.15665
197376, 8.15721
209712, 8.15611
223696, 8.12819
239672, 8.1231
258104, 8.13515
279616, 8.16558
305040, 8.18378
335544, 8.16354
372824, 8.2006
419424, 8.18824
479344, 8.15776
493440, 8.18682
508400, 8.16176
524288, 8.11576
541200, 8.18992
559240, 8.20894
578520, 8.15647
599184, 8.19316
621376, 8.16705
645272, 8.22382
671088, 8.21317
699048, 8.22593
729440, 8.57799
762600, 8.37691
798912, 8.37959
838856, 8.52706
883008, 8.7448
932064, 8.36724
986888, 8.40386
1.04858e+06, 8.49903
1.11848e+06, 8.73944
1.19837e+06, 8.93511
1.29055e+06, 8.55916
1.3981e+06, 8.99574
1.5252e+06, 8.99096
1.67772e+06, 8.90733
1.86413e+06, 8.94216
2.09715e+06, 9.12273
2.39674e+06, 9.03241
2.7962e+06, 9.02475
3.35544e+06, 9.10799
4.1943e+06, 9.08577
5.5924e+06, 9.12891
8.38861e+06, 8.06739
1.67772e+07, 7.969
