16776, 16.7008
17656, 17.1044
18640, 10.8863
19736, 11.6043
20968, 10.3802
22368, 11.1367
23960, 11.9041
25808, 12.6867
27960, 13.1638
30504, 10.5359
33552, 11.1136
37280, 12.2531
41936, 10.8103
47928, 11.3205
55920, 10.7683
67104, 10.619
83880, 10.9311
111848, 10.7959
167768, 10.5465
176600, 10.6195
186408, 10.6709
197376, 10.557
209712, 10.6437
223696, 10.6168
239672, 10.5627
258104, 10.5979
279616, 10.6627
305040, 10.5696
335544, 10.6461
372824, 10.6242
419424, 10.5711
479344, 10.6449
493440, 10.6452
508400, 10.5965
524288, 10.6755
541200, 10.6235
559240, 10.6941
578520, 10.6575
599184, 10.7056
621376, 10.7183
645272, 10.7079
671088, 10.6512
699048, 10.0889
729440, 10.6958
762600, 10.7006
798912, 10.745
838856, 10.7438
883008, 10.1331
932064, 10.7156
986888, 10.5844
1.04858e+06, 9.56544
1.11848e+06, 9.18979
1.19837e+06, 9.68766
1.29055e+06, 10.2704
1.3981e+06, 9.30168
1.5252e+06, 10.8561
1.67772e+06, 10.6708
1.86413e+06, 11.0837
2.09715e+06, 11.22
2.39674e+06, 10.9461
2.7962e+06, 10.8128
3.35544e+06, 11.2509
4.1943e+06, 10.9933
5.5924e+06, 11.1491
8.38861e+06, 10.4435
1.67772e+07, 9.29916
