16776, 16.6387
17656, 16.9159
18640, 11.6957
19736, 10.8903
20968, 10.437
22368, 11.1464
23960, 11.9382
25808, 12.781
27960, 13.1221
30504, 11.0093
33552, 11.1109
37280, 11.2391
41936, 10.4254
47928, 10.8367
55920, 10.659
67104, 10.6371
83880, 11.0448
111848, 11.5385
167768, 11.1502
176600, 11.1437
186408, 11.1647
197376, 11.012
209712, 11.0922
223696, 10.6135
239672, 10.6031
258104, 10.6383
279616, 10.5257
305040, 10.6593
335544, 10.6778
372824, 10.6558
419424, 10.645
479344, 10.6285
493440, 10.5869
508400, 10.5916
524288, 10.6477
541200, 10.6023
559240, 10.6128
578520, 10.6427
599184, 10.711
621376, 10.6993
645272, 10.6564
671088, 10.6612
699048, 10.6893
729440, 9.83451
762600, 9.96322
798912, 10.9009
838856, 10.8021
883008, 10.9526
932064, 10.5376
986888, 10.8881
1.04858e+06, 9.53416
1.11848e+06, 10.0662
1.19837e+06, 10.3365
1.29055e+06, 10.8364
1.3981e+06, 10.6866
1.5252e+06, 10.2762
1.67772e+06, 10.0492
1.86413e+06, 10.6642
2.09715e+06, 10.4312
2.39674e+06, 10.9223
2.7962e+06, 11.2084
3.35544e+06, 11.0026
4.1943e+06, 10.8165
5.5924e+06, 11.1267
8.38861e+06, 10.6621
1.67772e+07, 9.19418
