16776, 11.7912
17656, 12.5845
18640, 10.947
19736, 10.1081
20968, 10.4279
22368, 11.1118
23960, 11.8453
25808, 12.6727
27960, 11.4414
30504, 10.0873
33552, 11.0287
37280, 10.282
41936, 10.3706
47928, 9.90095
55920, 10.0652
67104, 9.93545
83880, 10.4847
111848, 10.9448
167768, 10.7616
176600, 10.923
186408, 10.8002
197376, 10.7754
209712, 10.1606
223696, 10.1902
239672, 10.1497
258104, 10.1062
279616, 10.2205
305040, 10.0993
335544, 10.1973
372824, 10.127
419424, 10.1206
479344, 10.2358
493440, 10.252
508400, 10.2691
524288, 10.1446
541200, 10.2012
559240, 10.2415
578520, 10.1845
599184, 10.2079
621376, 10.2197
645272, 10.2319
671088, 10.2439
699048, 10.2254
729440, 9.19585
762600, 10.2543
798912, 10.2293
838856, 10.3394
883008, 9.54299
932064, 10.57
986888, 10.1885
1.04858e+06, 10.3227
1.11848e+06, 8.7264
1.19837e+06, 10.2038
1.29055e+06, 8.99296
1.3981e+06, 9.28508
1.5252e+06, 10.1357
1.67772e+06, 9.81489
1.86413e+06, 10.2101
2.09715e+06, 10.7381
2.39674e+06, 10.613
2.7962e+06, 10.5297
3.35544e+06, 10.6892
4.1943e+06, 10.8196
5.5924e+06, 10.9267
8.38861e+06, 10.2934
1.67772e+07, 9.00791
