16776, 8.70576
17656, 8.93748
18640, 9.27825
19736, 9.77998
20968, 9.69955
22368, 10.2289
23960, 8.66155
25808, 8.73885
27960, 8.99614
30504, 8.8565
33552, 8.47219
37280, 8.43773
41936, 8.40443
47928, 8.61317
55920, 8.21447
67104, 8.17494
83880, 8.11729
111848, 8.12834
167768, 8.01117
176600, 8.05703
186408, 8.06778
197376, 8.07124
209712, 8.03679
223696, 8.11662
239672, 8.12661
258104, 8.13919
279616, 8.13813
305040, 8.11789
335544, 8.10733
372824, 8.13369
419424, 8.13602
479344, 8.15214
493440, 8.17444
508400, 8.17199
524288, 8.16225
541200, 8.15847
559240, 8.19585
578520, 8.13248
599184, 8.19652
621376, 8.16885
645272, 8.1819
671088, 8.17729
699048, 8.19198
729440, 8.20224
762600, 8.1695
798912, 8.38902
838856, 8.1855
883008, 8.4043
932064, 8.14871
986888, 8.31358
1.04858e+06, 8.52854
1.11848e+06, 8.72912
1.19837e+06, 8.98928
1.29055e+06, 8.91137
1.3981e+06, 8.94524
1.5252e+06, 8.9136
1.67772e+06, 8.61605
1.86413e+06, 8.85104
2.09715e+06, 8.82804
2.39674e+06, 9.00737
2.7962e+06, 8.96304
3.35544e+06, 9.02678
4.1943e+06, 8.7904
5.5924e+06, 9.07783
8.38861e+06, 8.58427
1.67772e+07, 7.714
