16776, 8.33797
17656, 8.69005
18640, 9.15296
19736, 9.24186
20968, 8.52444
22368, 8.39955
23960, 8.22449
25808, 8.40104
27960, 8.23322
30504, 8.26947
33552, 8.20242
37280, 8.16872
41936, 8.54616
47928, 8.13407
55920, 8.47337
67104, 8.34886
83880, 8.38297
111848, 8.36231
167768, 8.23795
176600, 8.22313
186408, 8.23448
197376, 8.25634
209712, 8.27225
223696, 8.1835
239672, 8.26583
258104, 8.30617
279616, 8.28038
305040, 8.32567
335544, 8.30642
372824, 8.35306
419424, 8.30983
479344, 8.309
493440, 8.20506
508400, 8.18363
524288, 8.16228
541200, 8.15641
559240, 8.16862
578520, 8.17815
599184, 8.16491
621376, 8.16574
645272, 8.17284
671088, 8.18715
699048, 8.38257
729440, 8.17875
762600, 8.65364
798912, 8.31046
838856, 8.16606
883008, 8.22857
932064, 8.5337
986888, 8.15831
1.04858e+06, 8.94417
1.11848e+06, 8.38991
1.19837e+06, 8.47724
1.29055e+06, 8.99748
1.3981e+06, 8.79419
1.5252e+06, 9.02328
1.67772e+06, 8.86974
1.86413e+06, 8.93586
2.09715e+06, 8.95773
2.39674e+06, 8.99838
2.7962e+06, 9.15705
3.35544e+06, 9.21298
4.1943e+06, 9.041
5.5924e+06, 9.01453
8.38861e+06, 8.32014
1.67772e+07, 7.94524
