16776, 7.90575
17656, 8.58025
18640, 8.97556
19736, 8.94246
20968, 9.92333
22368, 9.36389
23960, 8.34625
25808, 8.81797
27960, 8.54393
30504, 8.47157
33552, 8.36239
37280, 7.91213
41936, 7.97641
47928, 8.19527
55920, 8.29274
67104, 8.20392
83880, 8.22071
111848, 8.09598
167768, 7.96383
176600, 8.12851
186408, 8.13751
197376, 8.08918
209712, 8.0796
223696, 8.08041
239672, 8.11011
258104, 8.08806
279616, 8.07293
305040, 8.12303
335544, 8.0763
372824, 8.11656
419424, 8.14495
479344, 8.15603
493440, 8.18655
508400, 8.13938
524288, 8.16565
541200, 8.14619
559240, 8.16719
578520, 8.18274
599184, 8.1548
621376, 8.11132
645272, 8.15837
671088, 8.30313
699048, 8.15086
729440, 8.46586
762600, 8.62645
798912, 8.22489
838856, 8.1822
883008, 8.17483
932064, 8.14914
986888, 8.38588
1.04858e+06, 8.3854
1.11848e+06, 8.84599
1.19837e+06, 8.93048
1.29055e+06, 8.55487
1.3981e+06, 8.86411
1.5252e+06, 9.00734
1.67772e+06, 8.57444
1.86413e+06, 8.81215
2.09715e+06, 8.809
2.39674e+06, 8.97261
2.7962e+06, 9.01665
3.35544e+06, 8.95882
4.1943e+06, 8.84414
5.5924e+06, 9.00272
8.38861e+06, 8.40247
1.67772e+07, 7.73005
