16776, 16.1308
17656, 15.3597
18640, 14.444
19736, 11.6454
20968, 10.6898
22368, 11.1492
23960, 11.8629
25808, 12.7196
27960, 11.7925
30504, 10.3141
33552, 11.0359
37280, 11.327
41936, 10.4807
47928, 10.774
55920, 10.8011
67104, 10.2641
83880, 10.51
111848, 10.8225
167768, 10.7149
176600, 10.8602
186408, 10.8278
197376, 10.8624
209712, 10.7521
223696, 10.8162
239672, 10.1779
258104, 10.1772
279616, 10.1966
305040, 10.2112
335544, 10.2416
372824, 10.1701
419424, 10.1954
479344, 10.1621
493440, 10.2224
508400, 10.1708
524288, 10.2549
541200, 10.2324
559240, 10.2172
578520, 10.2556
599184, 10.519
621376, 10.5139
645272, 10.4912
671088, 9.92297
699048, 9.45647
729440, 10.5714
762600, 10.5633
798912, 9.74084
838856, 10.4924
883008, 10.5717
932064, 10.5046
986888, 10.0397
1.04858e+06, 10.2752
1.11848e+06, 9.65016
1.19837e+06, 9.90252
1.29055e+06, 9.66847
1.3981e+06, 9.69007
1.5252e+06, 9.31727
1.67772e+06, 9.85844
1.86413e+06, 10.35
2.09715e+06, 10.8736
2.39674e+06, 10.791
2.7962e+06, 10.9529
3.35544e+06, 11.0181
4.1943e+06, 10.7048
5.5924e+06, 10.9716
8.38861e+06, 10.1962
1.67772e+07, 9.13678
