16776, 8.29879
17656, 8.70826
18640, 8.09203
19736, 9.29628
20968, 8.03834
22368, 8.04749
23960, 8.38789
25808, 7.58613
27960, 8.31401
30504, 7.55143
33552, 8.01337
37280, 7.84182
41936, 8.19543
47928, 8.1069
55920, 8.16708
67104, 7.92536
83880, 8.09809
111848, 8.14773
167768, 7.82683
176600, 7.9785
186408, 7.76457
197376, 7.92611
209712, 7.92712
223696, 7.83277
239672, 7.85488
258104, 7.92022
279616, 7.87462
305040, 7.95048
335544, 7.84
372824, 7.93707
419424, 8.0123
479344, 7.93294
493440, 7.93605
508400, 7.96584
524288, 7.96119
541200, 7.99769
559240, 7.97462
578520, 8.00614
599184, 7.98805
621376, 8.02454
645272, 7.98846
671088, 7.98349
699048, 8.00353
729440, 8.00984
762600, 7.98074
798912, 7.99728
838856, 8.01406
883008, 8.00192
932064, 7.99684
986888, 8.00169
1.04858e+06, 8.02771
1.11848e+06, 8.05633
1.19837e+06, 8.07871
1.29055e+06, 8.05249
1.3981e+06, 8.05306
1.5252e+06, 8.04505
1.67772e+06, 8.06214
1.86413e+06, 8.0436
2.09715e+06, 8.02019
2.39674e+06, 8.01906
2.7962e+06, 8.22049
3.35544e+06, 8.15927
4.1943e+06, 8.27965
5.5924e+06, 8.34505
8.38861e+06, 7.99688
1.67772e+07, 7.6553
