16776, 8.37544
17656, 8.74709
18640, 8.37753
19736, 9.42502
20968, 8.57236
22368, 8.83761
23960, 8.85767
25808, 8.1119
27960, 8.64831
30504, 7.68363
33552, 7.97244
37280, 7.82536
41936, 7.86349
47928, 8.36951
55920, 8.06926
67104, 8.15755
83880, 8.13461
111848, 8.15635
167768, 7.94149
176600, 7.8669
186408, 7.95307
197376, 7.8922
209712, 7.96672
223696, 7.93797
239672, 7.89096
258104, 7.92618
279616, 7.90758
305040, 7.92271
335544, 7.97813
372824, 7.97962
419424, 7.95524
479344, 7.92068
493440, 7.99838
508400, 7.99195
524288, 7.99274
541200, 8.03468
559240, 7.97115
578520, 8.09957
599184, 8.01831
621376, 8.03278
645272, 8.0591
671088, 8.0314
699048, 8.03513
729440, 8.06452
762600, 8.06191
798912, 8.07737
838856, 8.06786
883008, 8.06245
932064, 8.10131
986888, 8.08054
1.04858e+06, 8.10243
1.11848e+06, 8.11451
1.19837e+06, 8.10738
1.29055e+06, 8.09377
1.3981e+06, 8.12901
1.5252e+06, 8.13757
1.67772e+06, 8.10381
1.86413e+06, 8.10471
2.09715e+06, 8.12074
2.39674e+06, 8.00198
2.7962e+06, 8.35602
3.35544e+06, 8.23557
4.1943e+06, 8.37641
5.5924e+06, 8.31647
8.38861e+06, 8.10459
1.67772e+07, 7.11004
