16776, 10.8337
17656, 11.0041
18640, 10.4309
19736, 9.80427
20968, 10.2709
22368, 11.016
23960, 11.6057
25808, 10.6271
27960, 10.3479
30504, 10.4376
33552, 10.4118
37280, 10.0743
41936, 10.0687
47928, 9.94151
55920, 9.36605
67104, 9.611
83880, 9.78192
111848, 10.3794
167768, 9.88004
176600, 10.2066
186408, 9.98222
197376, 10.2336
209712, 10.1612
223696, 10.0637
239672, 10.0118
258104, 10.0722
279616, 10.039
305040, 10.1787
335544, 10.0747
372824, 10.0782
419424, 10.1495
479344, 10.2064
493440, 10.1613
508400, 10.138
524288, 10.2072
541200, 10.1789
559240, 10.1989
578520, 10.2853
599184, 10.2518
621376, 10.2294
645272, 10.2534
671088, 10.3031
699048, 10.3045
729440, 10.2765
762600, 10.2904
798912, 10.2877
838856, 10.3153
883008, 10.3543
932064, 10.3396
986888, 10.3642
1.04858e+06, 10.3495
1.11848e+06, 10.3458
1.19837e+06, 10.3685
1.29055e+06, 10.3948
1.3981e+06, 10.3283
1.5252e+06, 10.3905
1.67772e+06, 10.3869
1.86413e+06, 10.3833
2.09715e+06, 10.4124
2.39674e+06, 10.3758
2.7962e+06, 10.4757
3.35544e+06, 10.4517
4.1943e+06, 10.4631
5.5924e+06, 10.577
8.38861e+06, 9.99921
1.67772e+07, 8.79551
