16776, 4194
17656, 2207
18640, 1202.58
19736, 1973.6
20968, 46.6993
22368, 22.1575
23960, 37.8216
25808, 25.302
27960, 27.093
30504, 27.6931
33552, 28.6769
37280, 21.5118
41936, 20.653
47928, 23.351
55920, 19.5524
67104, 20.4804
83880, 17.8868
111848, 18.3583
167768, 16.3868
176600, 15.3332
186408, 16.0344
197376, 20.6008
209712, 22.9193
223696, 24.3399
239672, 24.1532
258104, 25.3914
279616, 24.7043
305040, 23.984
335544, 24.4005
372824, 23.8867
419424, 24.7265
479344, 24.6101
493440, 25.0821
508400, 24.9197
524288, 25.0257
541200, 25.3229
559240, 25.1961
578520, 25.0745
599184, 25.6709
621376, 25.4433
645272, 25.6687
671088, 25.5818
699048, 25.543
729440, 25.7425
762600, 25.8032
798912, 25.6436
838856, 25.8225
883008, 25.7298
932064, 25.6802
986888, 25.7764
1.04858e+06, 25.8086
1.11848e+06, 26.3873
1.19837e+06, 25.944
1.29055e+06, 26.1076
1.3981e+06, 26.0732
1.5252e+06, 26.0215
1.67772e+06, 26.1939
1.86413e+06, 26.1304
2.09715e+06, 26.4371
2.39674e+06, 26.561
2.7962e+06, 26.3607
3.35544e+06, 25.5149
4.1943e+06, 24.1024
5.5924e+06, 16.2997
8.38861e+06, 9.04045
1.67772e+07, 8.26656
