16776, 36.709, 29.692, 28.195, 22.2789, 20.2364, 19.9004, 18.1362, 16.5607
17656, 27.3736, 26.9146, 23.2929, 21.8786, 21.6904, 21.7438, 21.2979, 17.2086
18640, 22.2434, 22.1641, 19.9786, 19.1572, 16.7325, 16.4374, 15.5463, 15.405
20968, 15.1942, 17.4733, 13.2124, 14.6425, 11.8396, 13.5452, 11.3096, 10.2583
22368, 19.6728, 18.3344, 17.407, 17.2859, 16.1153, 14.7644, 14.6579, 14.459
23960, 20.0502, 19.4323, 18.6314, 18.445, 16.9329, 16.9929, 16.9209, 16.6852
25808, inf, 19.837, 17.701, 18.715, 20.8465, 20.6299, 19.1454
27960, 22.0853, 20.4237, 20.305, 18.8919, 18.9047, 17.7186
30504, 22.0883, 20.1347, 20.3496, 19.9112, 19.8853, 17.5512, 17.4508, 17.1564
33552, 22.4729, 22.1905, 22.1612, 20.8398, 20.4088, 20.2731, 20.2609, 19.4956
37280, 17.2593, 15.8706, 15.3542, 15.173, 15.0081, 16.1595, 13.586, 13.3286
41936, 17.2576, 16.9029, 16.6083, 16.2858, 15.6653, 15.5664, 15.2828, 15.3443
55920, 21.1498, 20.9438, 19.6486, 19.6142, 19.4167, 20.574, 21.1898, 19.2761
67104, 22.7086, 21.3299, 21.3299, 20.5023, 20.3222, 20.1999, 19.0258, 18.7389
83880, 22.7379, 21.4417, 19.4392, 19.068, 18.4311, 18, 17.5775, 17.5444
111848, 22.0043, 21.841, 21.1513, 20.3138, 19.8207, 19.7891, 19.1193, 18.6693
167768, 20.5472, 20.2765, 20.1911, 20.1668, 20.0751, 19.8542, 19.8331, 19.6059
176600, 20.4635, 20.4706, 20.2476, 20.2106, 20.1644, 19.9638, 19.5744, 19.5397
186408, 20.3858, 20.2992, 20.286, 20.2397, 20.2222, 20.1413, 19.988, 19.755
197376, 20.4768, 20.4069, 20.3627, 19.9915, 19.6982, 19.7376, 19.5732, 19.4077
209712, 19.1082, 19.8365, 18.7729, 19.7599, 18.7276, 18.726, 18.3926, 18.3732
223696, 26.9806, 19.7124, 19.5334, 19.4349, 19.3442, 17.8971, 17.7283, 17.6667
239672, 26.7252, 25.7989, 25.5759, 17.6191, 17.6048, 17.5186, 17.4905, 17.1993
258104, 26.364, 26.2675, 26.2168, 25.3864, 25.0222, 17.9065, 17.6096, 17.3597
279616, 22.3425, 21.9824, 21.9479, 20.2738, 20.0989, 19.9001, 19.3452, 19.1925
305040, 23.2288, 22.9405, 22.7557, 22.326, 16.3938, 16.7356, 16.07, 15.8545
335544, 24.1781, 23.5403, 23.463, 22.9919, 22.2303, 21.7293, 19.0293, 18.9734
419424, 23.5764, 23.5552, 23.509, 22.7244, 22.5679, 21.9032, 21.5587, 20.9179
479344, 22.839, 21.3336, 21.2947, 21.0008, 20.1685, 19.7172, 17.3745, 17.004
493440, 21.4773, 21.2086, 20.6124, 20.1841, 20.1857, 19.5654, 19.5515, 19.34
508400, 25.1459, 22.9796, 21.5735, 21.0448, 21.0413, 20.4596, 20.3915, 20.2179
524288, 23.1545, 22.7704, 22.6651, 20.6983, 20.6714, 20.4784, 20.413, 20.326
541200, 22.0385, 21.9225, 21.7612, 21.1538, 21.106, 21.0912, 20.9995, 20.773
559240, 22.979, 22.4423, 22.2991, 22.2947, 20.9077, 20.7842, 20.7195, 20.7164
578520, 22.5509, 22.4886, 22.2209, 22.1808, 22.1265, 22.0062, 22.0011, 21.9402
599184, 21.5899, 21.5449, 21.541, 21.4607, 21.4431, 21.4392, 21.2862, 21.2801
621376, 22.4194, 22.3011, 22.0167, 22.0112, 21.9746, 21.963, 21.9033, 21.8918
645272, 22.1949, 22.1834, 22.1659, 22.1082, 21.9167, 21.738, 21.7161, 20.2795
671088, 22.0238, 21.9964, 21.9856, 21.9654, 21.9561, 21.7773, 21.7801, 20.2801
699048, 21.6129, 21.5171, 21.4596, 21.4333, 21.3046, 21.2457, 21.1858, 19.568
729440, 21.7115, 21.567, 21.4933, 21.4289, 21.3693, 21.2894, 21.201, 21.1936
762600, 21.5649, 21.5314, 21.4877, 21.2886, 21.2702, 21.2423, 21.2045, 20.9655
798912, 21.7155, 21.7107, 21.6027, 21.4906, 21.3556, 21.2099, 21.2082, 21.1436
838856, 21.7253, 21.5994, 21.5794, 21.5655, 21.4552, 21.407, 21.3325, 21.3308
883008, 22.0713, 22.0609, 22.0174, 21.9829, 21.6961, 21.6424, 21.5821, 21.5604
932064, 22.124, 22.0169, 21.9402, 21.9098, 21.6382, 21.6336, 21.6271, 21.59
986888, 22.0406, 21.9211, 21.8377, 21.8256, 21.7233, 21.7175, 21.6879, 21.6851
1.04858e+06, 21.9744, 21.934, 21.8636, 21.8158, 21.8004, 21.724, 21.6594, 21.4341
1.11848e+06, 21.9177, 21.6299, 21.5233, 21.4952, 21.4906, 21.4396, 21.426, 21.4153
1.19837e+06, 21.8924, 21.695, 21.6734, 21.6222, 21.5332, 21.4581, 21.2541, 21.1999
1.29055e+06, 21.0355, 20.9298, 20.9061, 20.6594, 20.6538, 20.4353, 20.4301, 19.8165
1.3981e+06, 21.1298, 21.0954, 21.0186, 20.9647, 20.8696, 20.8282, 20.7043, 19.9258
1.5252e+06, 21.0876, 19.2052, 18.9289, 18.8814, 18.7033, 18.4528, 18.3474, 18.1147
1.67772e+06, 17.0374, 17.0323, 16.9227, 16.3017, 16.1434, 16.1019, 16.096, 15.9775
1.86413e+06, 20.5253, 15.2821, 15.1161, 14.7525, 14.0132, 13.27, 13.2572, 13.2484
2.09715e+06, 7.42236, 7.39186, 7.32581, 7.2642, 7.25164, 7.25131, 7.23066, 7.2221
2.39674e+06, 4.22109, 4.21243, 4.21166, 4.20993, 4.07512, 4.06481, 4.05776, 4.05707
2.7962e+06, 2.63977, 2.63682, 2.63547, 2.63358, 2.62172, 2.61809, 2.61626, 2.61593
3.35544e+06, 1.9961, 1.99086, 1.99005, 1.98996, 1.97209, 1.97028, 1.96986, 1.96967
4.1943e+06, 1.77539, 1.77451, 1.77368, 1.7735, 1.77325, 1.77277, 1.77262, 1.77251
5.5924e+06, 1.76012, 1.75993, 1.75968, 1.75668, 1.75651, 1.75629, 1.75545, 1.7552
8.38861e+06, 1.75995, 1.75988, 1.75964, 1.75883, 1.75849, 1.75831, 1.75813, 1.75812
1.67772e+07, 1.76022, 1.75899, 1.75889, 1.75876, 1.75766, 1.75744, 1.75732, 1.75723
