16776, 8.35874
17656, 8.73627
18640, 9.23229
19736, 9.67214
20968, 10.4292
22368, 11.109
23960, 10.3544
25808, 12.8143
27960, 13.7802
30504, 9.47035
33552, 8.35874
37280, 9.23572
41936, 9.4685
47928, 9.09881
55920, 9.25675
67104, 9.39635
83880, 9.44701
111848, 9.20446
167768, 9.14541
176600, 9.17379
186408, 9.14684
197376, 9.20103
209712, 9.22034
223696, 9.3675
239672, 9.6716
258104, 9.78445
279616, 9.83075
305040, 10.0522
335544, 9.99923
372824, 9.9071
419424, 10.0516
479344, 10.0386
493440, 9.92677
508400, 9.95594
524288, 9.96755
541200, 10.0583
559240, 9.93339
578520, 10.0246
599184, 10.0395
621376, 10.0334
645272, 10.0295
671088, 10.0903
699048, 10.0358
729440, 10.0299
762600, 9.99869
798912, 9.99127
838856, 10.0456
883008, 10.0673
932064, 10.0662
986888, 9.99051
1.04858e+06, 10.0632
1.11848e+06, 10.0858
1.19837e+06, 10.063
1.29055e+06, 10.0421
1.3981e+06, 10.0849
1.5252e+06, 10.1412
1.67772e+06, 10.2092
1.86413e+06, 10.1654
2.09715e+06, 10.1649
2.39674e+06, 10.1177
2.7962e+06, 9.86159
3.35544e+06, 10.1523
4.1943e+06, 10.2334
5.5924e+06, 9.94057
8.38861e+06, 10.7593
1.67772e+07, 9.57596
