%!PS-Adobe-3.0 EPSF-3.0
%%Title: amd-multicross4-die5.eps
%%Creator: matplotlib version 3.3.3, http://matplotlib.org/
%%CreationDate: Tue Jan 12 18:07:21 2021
%%Orientation: portrait
%%BoundingBox: -234.0 36.0 846.0 756.0
%%EndComments
%%BeginProlog
/mpldict 8 dict def
mpldict begin
/m { moveto } bind def
/l { lineto } bind def
/r { rlineto } bind def
/c { curveto } bind def
/cl { closepath } bind def
/box {
      m
      1 index 0 r
      0 exch r
      neg 0 r
      cl
    } bind def
/clipbox {
      box
      clip
      newpath
    } bind def
%!PS-Adobe-3.0 Resource-Font
%%Title: DejaVu Sans
%%Copyright: Copyright (c) 2003 by Bitstream, Inc. All Rights Reserved. Copyright (c) 2006 by Tavmjong Bah. All Rights Reserved. DejaVu changes are in public domain 
%%Creator: Converted from TrueType to type 3 by PPR
25 dict begin
/_d{bind def}bind def
/_m{moveto}_d
/_l{lineto}_d
/_cl{closepath eofill}_d
/_c{curveto}_d
/_sc{7 -1 roll{setcachedevice}{pop pop pop pop pop pop}ifelse}_d
/_e{exec}_d
/FontName /DejaVuSans def
/PaintType 0 def
/FontMatrix[.001 0 0 .001 0 0]def
/FontBBox[-1021 -463 1793 1232]def
/FontType 3 def
/Encoding [ /space /parenleft /parenright /hyphen /zero /one /two /three /four /five /six /seven /colon /A /B /C /D /E /G /I /M /P /R /S /U /W /Y /a /d /e /f /h /i /m /n /o /p /r /s /t /u /w ] def
/FontInfo 10 dict dup begin
/FamilyName (DejaVu Sans) def
/FullName (DejaVu Sans) def
/Notice (Copyright (c) 2003 by Bitstream, Inc. All Rights Reserved. Copyright (c) 2006 by Tavmjong Bah. All Rights Reserved. DejaVu changes are in public domain ) def
/Weight (Book) def
/Version (Version 2.35) def
/ItalicAngle 0.0 def
/isFixedPitch false def
/UnderlinePosition -130 def
/UnderlineThickness 90 def
end readonly def
/CharStrings 43 dict dup begin
/.notdef 0 def
/space{318 0 0 0 0 0 _sc
}_d
/parenleft{390 0 86 -131 310 759 _sc
310 759 _m
266 683 234 609 213 536 _c
191 463 181 389 181 314 _c
181 238 191 164 213 91 _c
234 17 266 -56 310 -131 _c
232 -131 _l
183 -54 146 20 122 94 _c
98 168 86 241 86 314 _c
86 386 98 459 122 533 _c
146 607 182 682 232 759 _c
310 759 _l
_cl}_d
/parenright{390 0 80 -131 304 759 _sc
80 759 _m
158 759 _l
206 682 243 607 267 533 _c
291 459 304 386 304 314 _c
304 241 291 168 267 94 _c
243 20 206 -54 158 -131 _c
80 -131 _l
123 -56 155 17 177 91 _c
198 164 209 238 209 314 _c
209 389 198 463 177 536 _c
155 609 123 683 80 759 _c
_cl}_d
/hyphen{361 0 49 234 312 314 _sc
49 314 _m
312 314 _l
312 234 _l
49 234 _l
49 314 _l
_cl}_d
/zero{636 0 66 -13 570 742 _sc
318 664 _m
267 664 229 639 203 589 _c
177 539 165 464 165 364 _c
165 264 177 189 203 139 _c
229 89 267 64 318 64 _c
369 64 407 89 433 139 _c
458 189 471 264 471 364 _c
471 464 458 539 433 589 _c
407 639 369 664 318 664 _c
318 742 _m
399 742 461 709 505 645 _c
548 580 570 486 570 364 _c
570 241 548 147 505 83 _c
461 19 399 -13 318 -13 _c
236 -13 173 19 130 83 _c
87 147 66 241 66 364 _c
66 486 87 580 130 645 _c
173 709 236 742 318 742 _c
_cl}_d
/one{636 0 110 0 544 729 _sc
124 83 _m
285 83 _l
285 639 _l
110 604 _l
110 694 _l
284 729 _l
383 729 _l
383 83 _l
544 83 _l
544 0 _l
124 0 _l
124 83 _l
_cl}_d
/two{{636 0 73 0 536 742 _sc
192 83 _m
536 83 _l
536 0 _l
73 0 _l
73 83 _l
110 121 161 173 226 239 _c
290 304 331 346 348 365 _c
380 400 402 430 414 455 _c
426 479 433 504 433 528 _c
433 566 419 598 392 622 _c
365 646 330 659 286 659 _c
255 659 222 653 188 643 _c
154 632 117 616 78 594 _c
78 694 _l
118 710 155 722 189 730 _c
223 738 255 742 284 742 _c
}_e{359 742 419 723 464 685 _c
509 647 532 597 532 534 _c
532 504 526 475 515 449 _c
504 422 484 390 454 354 _c
446 344 420 317 376 272 _c
332 227 271 164 192 83 _c
_cl}_e}_d
/three{{636 0 76 -13 556 742 _sc
406 393 _m
453 383 490 362 516 330 _c
542 298 556 258 556 212 _c
556 140 531 84 482 45 _c
432 6 362 -13 271 -13 _c
240 -13 208 -10 176 -4 _c
144 1 110 10 76 22 _c
76 117 _l
103 101 133 89 166 81 _c
198 73 232 69 268 69 _c
330 69 377 81 409 105 _c
441 129 458 165 458 212 _c
458 254 443 288 413 312 _c
383 336 341 349 287 349 _c
}_e{202 349 _l
202 430 _l
291 430 _l
339 430 376 439 402 459 _c
428 478 441 506 441 543 _c
441 580 427 609 401 629 _c
374 649 336 659 287 659 _c
260 659 231 656 200 650 _c
169 644 135 635 98 623 _c
98 711 _l
135 721 170 729 203 734 _c
235 739 266 742 296 742 _c
370 742 429 725 473 691 _c
517 657 539 611 539 553 _c
539 513 527 479 504 451 _c
481 423 448 403 406 393 _c
_cl}_e}_d
/four{636 0 49 0 580 729 _sc
378 643 _m
129 254 _l
378 254 _l
378 643 _l
352 729 _m
476 729 _l
476 254 _l
580 254 _l
580 172 _l
476 172 _l
476 0 _l
378 0 _l
378 172 _l
49 172 _l
49 267 _l
352 729 _l
_cl}_d
/five{{636 0 77 -13 549 729 _sc
108 729 _m
495 729 _l
495 646 _l
198 646 _l
198 467 _l
212 472 227 476 241 478 _c
255 480 270 482 284 482 _c
365 482 429 459 477 415 _c
525 370 549 310 549 234 _c
549 155 524 94 475 51 _c
426 8 357 -13 269 -13 _c
238 -13 207 -10 175 -6 _c
143 -1 111 6 77 17 _c
77 116 _l
106 100 136 88 168 80 _c
199 72 232 69 267 69 _c
}_e{323 69 368 83 401 113 _c
433 143 450 183 450 234 _c
450 284 433 324 401 354 _c
368 384 323 399 267 399 _c
241 399 214 396 188 390 _c
162 384 135 375 108 363 _c
108 729 _l
_cl}_e}_d
/six{{636 0 70 -13 573 742 _sc
330 404 _m
286 404 251 388 225 358 _c
199 328 186 286 186 234 _c
186 181 199 139 225 109 _c
251 79 286 64 330 64 _c
374 64 409 79 435 109 _c
461 139 474 181 474 234 _c
474 286 461 328 435 358 _c
409 388 374 404 330 404 _c
526 713 _m
526 623 _l
501 635 476 644 451 650 _c
425 656 400 659 376 659 _c
310 659 260 637 226 593 _c
}_e{192 549 172 482 168 394 _c
187 422 211 444 240 459 _c
269 474 301 482 336 482 _c
409 482 467 459 509 415 _c
551 371 573 310 573 234 _c
573 159 550 99 506 54 _c
462 9 403 -13 330 -13 _c
246 -13 181 19 137 83 _c
92 147 70 241 70 364 _c
70 479 97 571 152 639 _c
206 707 280 742 372 742 _c
396 742 421 739 447 735 _c
472 730 498 723 526 713 _c
_cl}_e}_d
/seven{636 0 82 0 551 729 _sc
82 729 _m
551 729 _l
551 687 _l
286 0 _l
183 0 _l
432 646 _l
82 646 _l
82 729 _l
_cl}_d
/colon{337 0 117 0 220 517 _sc
117 124 _m
220 124 _l
220 0 _l
117 0 _l
117 124 _l
117 517 _m
220 517 _l
220 393 _l
117 393 _l
117 517 _l
_cl}_d
/A{684 0 8 0 676 729 _sc
342 632 _m
208 269 _l
476 269 _l
342 632 _l
286 729 _m
398 729 _l
676 0 _l
573 0 _l
507 187 _l
178 187 _l
112 0 _l
8 0 _l
286 729 _l
_cl}_d
/B{{686 0 98 0 615 729 _sc
197 348 _m
197 81 _l
355 81 _l
408 81 447 92 473 114 _c
498 136 511 169 511 215 _c
511 260 498 293 473 315 _c
447 337 408 348 355 348 _c
197 348 _l
197 648 _m
197 428 _l
343 428 _l
391 428 426 437 450 455 _c
474 473 486 500 486 538 _c
486 574 474 602 450 620 _c
426 638 391 648 343 648 _c
197 648 _l
98 729 _m
350 729 _l
}_e{425 729 483 713 524 682 _c
564 650 585 606 585 549 _c
585 504 574 468 553 442 _c
532 416 502 399 462 393 _c
510 382 548 360 575 327 _c
601 294 615 253 615 204 _c
615 138 592 88 548 53 _c
504 17 441 0 360 0 _c
98 0 _l
98 729 _l
_cl}_e}_d
/C{{698 0 56 -13 644 742 _sc
644 673 _m
644 569 _l
610 599 575 622 537 638 _c
499 653 460 661 418 661 _c
334 661 270 635 226 584 _c
182 533 160 460 160 364 _c
160 268 182 194 226 143 _c
270 92 334 67 418 67 _c
460 67 499 74 537 90 _c
575 105 610 128 644 159 _c
644 56 _l
609 32 572 15 534 4 _c
496 -7 455 -13 412 -13 _c
302 -13 215 20 151 87 _c
}_e{87 154 56 246 56 364 _c
56 481 87 573 151 641 _c
215 708 302 742 412 742 _c
456 742 497 736 535 725 _c
573 713 610 696 644 673 _c
_cl}_e}_d
/D{770 0 98 0 711 729 _sc
197 648 _m
197 81 _l
316 81 _l
416 81 490 103 537 149 _c
583 195 607 267 607 365 _c
607 463 583 534 537 580 _c
490 625 416 648 316 648 _c
197 648 _l
98 729 _m
301 729 _l
442 729 546 699 612 641 _c
678 582 711 490 711 365 _c
711 239 677 147 611 88 _c
545 29 441 0 301 0 _c
98 0 _l
98 729 _l
_cl}_d
/E{632 0 98 0 568 729 _sc
98 729 _m
559 729 _l
559 646 _l
197 646 _l
197 430 _l
544 430 _l
544 347 _l
197 347 _l
197 83 _l
568 83 _l
568 0 _l
98 0 _l
98 729 _l
_cl}_d
/G{{775 0 56 -13 693 742 _sc
595 104 _m
595 300 _l
434 300 _l
434 381 _l
693 381 _l
693 68 _l
655 40 613 20 567 7 _c
521 -6 472 -13 420 -13 _c
306 -13 216 20 152 86 _c
88 152 56 245 56 364 _c
56 482 88 575 152 642 _c
216 708 306 742 420 742 _c
467 742 512 736 555 724 _c
598 712 638 695 674 673 _c
674 568 _l
637 598 598 621 557 637 _c
516 653 473 661 428 661 _c
}_e{338 661 271 636 227 586 _c
182 536 160 462 160 364 _c
160 265 182 191 227 141 _c
271 91 338 67 428 67 _c
462 67 493 70 521 76 _c
549 82 573 91 595 104 _c
_cl}_e}_d
/I{295 0 98 0 197 729 _sc
98 729 _m
197 729 _l
197 0 _l
98 0 _l
98 729 _l
_cl}_d
/M{863 0 98 0 765 729 _sc
98 729 _m
245 729 _l
431 233 _l
618 729 _l
765 729 _l
765 0 _l
669 0 _l
669 640 _l
481 140 _l
382 140 _l
194 640 _l
194 0 _l
98 0 _l
98 729 _l
_cl}_d
/P{603 0 98 0 569 729 _sc
197 648 _m
197 374 _l
321 374 _l
367 374 402 385 427 409 _c
452 433 465 467 465 511 _c
465 555 452 588 427 612 _c
402 636 367 648 321 648 _c
197 648 _l
98 729 _m
321 729 _l
402 729 464 710 506 673 _c
548 636 569 582 569 511 _c
569 439 548 384 506 348 _c
464 311 402 293 321 293 _c
197 293 _l
197 0 _l
98 0 _l
98 729 _l
_cl}_d
/R{{695 0 98 0 666 729 _sc
444 342 _m
465 334 486 319 506 296 _c
526 272 546 240 566 199 _c
666 0 _l
560 0 _l
467 187 _l
443 235 419 268 397 284 _c
374 300 343 308 304 308 _c
197 308 _l
197 0 _l
98 0 _l
98 729 _l
321 729 _l
404 729 466 711 507 677 _c
548 642 569 589 569 519 _c
569 473 558 434 537 404 _c
515 374 484 353 444 342 _c
197 648 _m
197 389 _l
321 389 _l
}_e{368 389 404 400 428 422 _c
452 444 465 476 465 519 _c
465 561 452 593 428 615 _c
404 637 368 648 321 648 _c
197 648 _l
_cl}_e}_d
/S{{635 0 66 -13 579 742 _sc
535 705 _m
535 609 _l
497 627 462 640 429 649 _c
395 657 363 662 333 662 _c
279 662 237 651 208 631 _c
179 610 165 580 165 542 _c
165 510 174 485 194 469 _c
213 452 250 439 304 429 _c
364 417 _l
437 403 491 378 526 343 _c
561 307 579 260 579 201 _c
579 130 555 77 508 41 _c
460 5 391 -13 300 -13 _c
265 -13 228 -9 189 -2 _c
}_e{150 5 110 16 69 32 _c
69 134 _l
109 111 148 94 186 83 _c
224 71 262 66 300 66 _c
356 66 399 77 430 99 _c
460 121 476 152 476 194 _c
476 230 465 258 443 278 _c
421 298 385 313 335 323 _c
275 335 _l
201 349 148 372 115 404 _c
82 435 66 478 66 534 _c
66 598 88 649 134 686 _c
179 723 242 742 322 742 _c
356 742 390 739 426 733 _c
461 727 497 717 535 705 _c
}_e{_cl}_e}_d
/U{732 0 87 -13 645 729 _sc
87 729 _m
186 729 _l
186 286 _l
186 208 200 151 228 117 _c
256 83 302 66 366 66 _c
429 66 475 83 503 117 _c
531 151 546 208 546 286 _c
546 729 _l
645 729 _l
645 274 _l
645 178 621 107 574 59 _c
527 11 458 -13 366 -13 _c
274 -13 204 11 157 59 _c
110 107 87 178 87 274 _c
87 729 _l
_cl}_d
/W{989 0 33 0 956 729 _sc
33 729 _m
133 729 _l
286 113 _l
439 729 _l
550 729 _l
703 113 _l
856 729 _l
956 729 _l
773 0 _l
649 0 _l
495 633 _l
340 0 _l
216 0 _l
33 729 _l
_cl}_d
/Y{611 0 -1 0 613 729 _sc
-1 729 _m
104 729 _l
306 429 _l
507 729 _l
613 729 _l
355 347 _l
355 0 _l
256 0 _l
256 347 _l
-1 729 _l
_cl}_d
/a{{613 0 60 -13 522 560 _sc
343 275 _m
270 275 220 266 192 250 _c
164 233 150 205 150 165 _c
150 133 160 107 181 89 _c
202 70 231 61 267 61 _c
317 61 357 78 387 114 _c
417 149 432 196 432 255 _c
432 275 _l
343 275 _l
522 312 _m
522 0 _l
432 0 _l
432 83 _l
411 49 385 25 355 10 _c
325 -5 287 -13 243 -13 _c
187 -13 142 2 109 33 _c
76 64 60 106 60 159 _c
}_e{60 220 80 266 122 298 _c
163 329 224 345 306 345 _c
432 345 _l
432 354 _l
432 395 418 427 391 450 _c
364 472 326 484 277 484 _c
245 484 215 480 185 472 _c
155 464 127 453 100 439 _c
100 522 _l
132 534 164 544 195 550 _c
226 556 256 560 286 560 _c
365 560 424 539 463 498 _c
502 457 522 395 522 312 _c
_cl}_e}_d
/d{{635 0 55 -13 544 760 _sc
454 464 _m
454 760 _l
544 760 _l
544 0 _l
454 0 _l
454 82 _l
435 49 411 25 382 10 _c
353 -5 319 -13 279 -13 _c
213 -13 159 13 117 65 _c
75 117 55 187 55 273 _c
55 359 75 428 117 481 _c
159 533 213 560 279 560 _c
319 560 353 552 382 536 _c
411 520 435 496 454 464 _c
148 273 _m
148 207 161 155 188 117 _c
215 79 253 61 301 61 _c
}_e{348 61 385 79 413 117 _c
440 155 454 207 454 273 _c
454 339 440 390 413 428 _c
385 466 348 485 301 485 _c
253 485 215 466 188 428 _c
161 390 148 339 148 273 _c
_cl}_e}_d
/e{{615 0 55 -13 562 560 _sc
562 296 _m
562 252 _l
149 252 _l
153 190 171 142 205 110 _c
238 78 284 62 344 62 _c
378 62 412 66 444 74 _c
476 82 509 95 541 113 _c
541 28 _l
509 14 476 3 442 -3 _c
408 -9 373 -13 339 -13 _c
251 -13 182 12 131 62 _c
80 112 55 181 55 268 _c
55 357 79 428 127 481 _c
175 533 241 560 323 560 _c
397 560 455 536 498 489 _c
}_e{540 441 562 377 562 296 _c
472 322 _m
471 371 457 410 431 440 _c
404 469 368 484 324 484 _c
274 484 234 469 204 441 _c
174 413 156 373 152 322 _c
472 322 _l
_cl}_e}_d
/f{352 0 23 0 371 760 _sc
371 760 _m
371 685 _l
285 685 _l
253 685 230 678 218 665 _c
205 652 199 629 199 595 _c
199 547 _l
347 547 _l
347 477 _l
199 477 _l
199 0 _l
109 0 _l
109 477 _l
23 477 _l
23 547 _l
109 547 _l
109 585 _l
109 645 123 690 151 718 _c
179 746 224 760 286 760 _c
371 760 _l
_cl}_d
/h{634 0 91 0 549 760 _sc
549 330 _m
549 0 _l
459 0 _l
459 327 _l
459 379 448 417 428 443 _c
408 469 378 482 338 482 _c
289 482 251 466 223 435 _c
195 404 181 362 181 309 _c
181 0 _l
91 0 _l
91 760 _l
181 760 _l
181 462 _l
202 494 227 519 257 535 _c
286 551 320 560 358 560 _c
420 560 468 540 500 501 _c
532 462 549 405 549 330 _c
_cl}_d
/i{278 0 94 0 184 760 _sc
94 547 _m
184 547 _l
184 0 _l
94 0 _l
94 547 _l
94 760 _m
184 760 _l
184 646 _l
94 646 _l
94 760 _l
_cl}_d
/m{{974 0 91 0 889 560 _sc
520 442 _m
542 482 569 511 600 531 _c
631 550 668 560 711 560 _c
767 560 811 540 842 500 _c
873 460 889 403 889 330 _c
889 0 _l
799 0 _l
799 327 _l
799 379 789 418 771 444 _c
752 469 724 482 686 482 _c
639 482 602 466 575 435 _c
548 404 535 362 535 309 _c
535 0 _l
445 0 _l
445 327 _l
445 379 435 418 417 444 _c
398 469 369 482 331 482 _c
}_e{285 482 248 466 221 435 _c
194 404 181 362 181 309 _c
181 0 _l
91 0 _l
91 547 _l
181 547 _l
181 462 _l
201 495 226 520 255 536 _c
283 552 317 560 357 560 _c
397 560 430 550 458 530 _c
486 510 506 480 520 442 _c
_cl}_e}_d
/n{634 0 91 0 549 560 _sc
549 330 _m
549 0 _l
459 0 _l
459 327 _l
459 379 448 417 428 443 _c
408 469 378 482 338 482 _c
289 482 251 466 223 435 _c
195 404 181 362 181 309 _c
181 0 _l
91 0 _l
91 547 _l
181 547 _l
181 462 _l
202 494 227 519 257 535 _c
286 551 320 560 358 560 _c
420 560 468 540 500 501 _c
532 462 549 405 549 330 _c
_cl}_d
/o{612 0 55 -13 557 560 _sc
306 484 _m
258 484 220 465 192 427 _c
164 389 150 338 150 273 _c
150 207 163 156 191 118 _c
219 80 257 62 306 62 _c
354 62 392 80 420 118 _c
448 156 462 207 462 273 _c
462 337 448 389 420 427 _c
392 465 354 484 306 484 _c
306 560 _m
384 560 445 534 490 484 _c
534 433 557 363 557 273 _c
557 183 534 113 490 63 _c
445 12 384 -13 306 -13 _c
227 -13 165 12 121 63 _c
77 113 55 183 55 273 _c
55 363 77 433 121 484 _c
165 534 227 560 306 560 _c
_cl}_d
/p{{635 0 91 -207 580 560 _sc
181 82 _m
181 -207 _l
91 -207 _l
91 547 _l
181 547 _l
181 464 _l
199 496 223 520 252 536 _c
281 552 316 560 356 560 _c
422 560 476 533 518 481 _c
559 428 580 359 580 273 _c
580 187 559 117 518 65 _c
476 13 422 -13 356 -13 _c
316 -13 281 -5 252 10 _c
223 25 199 49 181 82 _c
487 273 _m
487 339 473 390 446 428 _c
418 466 381 485 334 485 _c
}_e{286 485 249 466 222 428 _c
194 390 181 339 181 273 _c
181 207 194 155 222 117 _c
249 79 286 61 334 61 _c
381 61 418 79 446 117 _c
473 155 487 207 487 273 _c
_cl}_e}_d
/r{411 0 91 0 411 560 _sc
411 463 _m
401 469 390 473 378 476 _c
366 478 353 480 339 480 _c
288 480 249 463 222 430 _c
194 397 181 350 181 288 _c
181 0 _l
91 0 _l
91 547 _l
181 547 _l
181 462 _l
199 495 224 520 254 536 _c
284 552 321 560 365 560 _c
371 560 378 559 386 559 _c
393 558 401 557 411 555 _c
411 463 _l
_cl}_d
/s{{521 0 54 -13 472 560 _sc
443 531 _m
443 446 _l
417 458 391 468 364 475 _c
336 481 308 485 279 485 _c
234 485 200 478 178 464 _c
156 450 145 430 145 403 _c
145 382 153 366 169 354 _c
185 342 217 330 265 320 _c
296 313 _l
360 299 405 279 432 255 _c
458 230 472 195 472 151 _c
472 100 452 60 412 31 _c
372 1 316 -13 246 -13 _c
216 -13 186 -10 154 -5 _c
}_e{122 0 89 8 54 20 _c
54 113 _l
87 95 120 82 152 74 _c
184 65 216 61 248 61 _c
290 61 323 68 346 82 _c
368 96 380 117 380 144 _c
380 168 371 187 355 200 _c
339 213 303 226 247 238 _c
216 245 _l
160 257 119 275 95 299 _c
70 323 58 356 58 399 _c
58 450 76 490 112 518 _c
148 546 200 560 268 560 _c
301 560 332 557 362 552 _c
391 547 418 540 443 531 _c
}_e{_cl}_e}_d
/t{392 0 27 0 368 702 _sc
183 702 _m
183 547 _l
368 547 _l
368 477 _l
183 477 _l
183 180 _l
183 135 189 106 201 94 _c
213 81 238 75 276 75 _c
368 75 _l
368 0 _l
276 0 _l
206 0 158 13 132 39 _c
106 65 93 112 93 180 _c
93 477 _l
27 477 _l
27 547 _l
93 547 _l
93 702 _l
183 702 _l
_cl}_d
/u{634 0 85 -13 543 560 _sc
85 216 _m
85 547 _l
175 547 _l
175 219 _l
175 167 185 129 205 103 _c
225 77 255 64 296 64 _c
344 64 383 79 411 110 _c
439 141 453 183 453 237 _c
453 547 _l
543 547 _l
543 0 _l
453 0 _l
453 84 _l
431 50 405 26 377 10 _c
348 -5 315 -13 277 -13 _c
214 -13 166 6 134 45 _c
101 83 85 140 85 216 _c
311 560 _m
311 560 _l
_cl}_d
/w{818 0 42 0 776 547 _sc
42 547 _m
132 547 _l
244 120 _l
356 547 _l
462 547 _l
574 120 _l
686 547 _l
776 547 _l
633 0 _l
527 0 _l
409 448 _l
291 0 _l
185 0 _l
42 547 _l
_cl}_d
end readonly def

/BuildGlyph
 {exch begin
 CharStrings exch
 2 copy known not{pop /.notdef}if
 true 3 1 roll get exec
 end}_d

/BuildChar {
 1 index /Encoding get exch get
 1 index /BuildGlyph get exec
}_d

FontName currentdict end definefont pop
end
%%EndProlog
mpldict begin
-234 36 translate
1080 720 0 0 clipbox
gsave
0 0 m
1080 0 l
1080 720 l
0 720 l
cl
1.000 setgray
fill
grestore
gsave
135 79.2 m
972 79.2 l
972 633.6 l
135 633.6 l
cl
1.000 setgray
fill
grestore
0.800 setlinewidth
1 setlinejoin
0 setlinecap
[] 0 setdash
0.000 setgray
gsave
/o {
gsave
newpath
translate
0.8 setlinewidth
1 setlinejoin
0 setlinecap
0 0 m
0 -3.5 l

gsave
0.000 setgray
fill
grestore
stroke
grestore
} bind def
216.988 79.2 o
grestore
gsave
205.987903 62.700000 translate
0.000000 rotate
/DejaVuSans findfont
12.0 scalefont
setfont
0.000000 0.281250 moveto
/one glyphshow
7.634766 0.281250 moveto
/zero glyphshow
/DejaVuSans findfont
8.399999999999999 scalefont
setfont
15.384375 4.875000 moveto
/five glyphshow

grestore
gsave
/o {
gsave
newpath
translate
0.8 setlinewidth
1 setlinejoin
0 setlinecap
0 0 m
0 -3.5 l

gsave
0.000 setgray
fill
grestore
stroke
grestore
} bind def
470.622 79.2 o
grestore
gsave
459.621640 62.700000 translate
0.000000 rotate
/DejaVuSans findfont
12.0 scalefont
setfont
0.000000 0.171875 moveto
/one glyphshow
7.634766 0.171875 moveto
/zero glyphshow
/DejaVuSans findfont
8.399999999999999 scalefont
setfont
15.384375 4.765625 moveto
/six glyphshow

grestore
gsave
/o {
gsave
newpath
translate
0.8 setlinewidth
1 setlinejoin
0 setlinecap
0 0 m
0 -3.5 l

gsave
0.000 setgray
fill
grestore
stroke
grestore
} bind def
724.255 79.2 o
grestore
gsave
713.255378 62.700000 translate
0.000000 rotate
/DejaVuSans findfont
12.0 scalefont
setfont
0.000000 0.281250 moveto
/one glyphshow
7.634766 0.281250 moveto
/zero glyphshow
/DejaVuSans findfont
8.399999999999999 scalefont
setfont
15.384375 4.875000 moveto
/seven glyphshow

grestore
0.600 setlinewidth
gsave
/o {
gsave
newpath
translate
0.6 setlinewidth
1 setlinejoin
0 setlinecap
0 0 m
0 -2 l

gsave
0.000 setgray
fill
grestore
stroke
grestore
} bind def
140.637 79.2 o
grestore
gsave
/o {
gsave
newpath
translate
0.6 setlinewidth
1 setlinejoin
0 setlinecap
0 0 m
0 -2 l

gsave
0.000 setgray
fill
grestore
stroke
grestore
} bind def
160.72 79.2 o
grestore
gsave
/o {
gsave
newpath
translate
0.6 setlinewidth
1 setlinejoin
0 setlinecap
0 0 m
0 -2 l

gsave
0.000 setgray
fill
grestore
stroke
grestore
} bind def
177.7 79.2 o
grestore
gsave
/o {
gsave
newpath
translate
0.6 setlinewidth
1 setlinejoin
0 setlinecap
0 0 m
0 -2 l

gsave
0.000 setgray
fill
grestore
stroke
grestore
} bind def
192.408 79.2 o
grestore
gsave
/o {
gsave
newpath
translate
0.6 setlinewidth
1 setlinejoin
0 setlinecap
0 0 m
0 -2 l

gsave
0.000 setgray
fill
grestore
stroke
grestore
} bind def
205.382 79.2 o
grestore
gsave
/o {
gsave
newpath
translate
0.6 setlinewidth
1 setlinejoin
0 setlinecap
0 0 m
0 -2 l

gsave
0.000 setgray
fill
grestore
stroke
grestore
} bind def
293.339 79.2 o
grestore
gsave
/o {
gsave
newpath
translate
0.6 setlinewidth
1 setlinejoin
0 setlinecap
0 0 m
0 -2 l

gsave
0.000 setgray
fill
grestore
stroke
grestore
} bind def
338.002 79.2 o
grestore
gsave
/o {
gsave
newpath
translate
0.6 setlinewidth
1 setlinejoin
0 setlinecap
0 0 m
0 -2 l

gsave
0.000 setgray
fill
grestore
stroke
grestore
} bind def
369.691 79.2 o
grestore
gsave
/o {
gsave
newpath
translate
0.6 setlinewidth
1 setlinejoin
0 setlinecap
0 0 m
0 -2 l

gsave
0.000 setgray
fill
grestore
stroke
grestore
} bind def
394.27 79.2 o
grestore
gsave
/o {
gsave
newpath
translate
0.6 setlinewidth
1 setlinejoin
0 setlinecap
0 0 m
0 -2 l

gsave
0.000 setgray
fill
grestore
stroke
grestore
} bind def
414.353 79.2 o
grestore
gsave
/o {
gsave
newpath
translate
0.6 setlinewidth
1 setlinejoin
0 setlinecap
0 0 m
0 -2 l

gsave
0.000 setgray
fill
grestore
stroke
grestore
} bind def
431.333 79.2 o
grestore
gsave
/o {
gsave
newpath
translate
0.6 setlinewidth
1 setlinejoin
0 setlinecap
0 0 m
0 -2 l

gsave
0.000 setgray
fill
grestore
stroke
grestore
} bind def
446.042 79.2 o
grestore
gsave
/o {
gsave
newpath
translate
0.6 setlinewidth
1 setlinejoin
0 setlinecap
0 0 m
0 -2 l

gsave
0.000 setgray
fill
grestore
stroke
grestore
} bind def
459.016 79.2 o
grestore
gsave
/o {
gsave
newpath
translate
0.6 setlinewidth
1 setlinejoin
0 setlinecap
0 0 m
0 -2 l

gsave
0.000 setgray
fill
grestore
stroke
grestore
} bind def
546.973 79.2 o
grestore
gsave
/o {
gsave
newpath
translate
0.6 setlinewidth
1 setlinejoin
0 setlinecap
0 0 m
0 -2 l

gsave
0.000 setgray
fill
grestore
stroke
grestore
} bind def
591.636 79.2 o
grestore
gsave
/o {
gsave
newpath
translate
0.6 setlinewidth
1 setlinejoin
0 setlinecap
0 0 m
0 -2 l

gsave
0.000 setgray
fill
grestore
stroke
grestore
} bind def
623.324 79.2 o
grestore
gsave
/o {
gsave
newpath
translate
0.6 setlinewidth
1 setlinejoin
0 setlinecap
0 0 m
0 -2 l

gsave
0.000 setgray
fill
grestore
stroke
grestore
} bind def
647.904 79.2 o
grestore
gsave
/o {
gsave
newpath
translate
0.6 setlinewidth
1 setlinejoin
0 setlinecap
0 0 m
0 -2 l

gsave
0.000 setgray
fill
grestore
stroke
grestore
} bind def
667.987 79.2 o
grestore
gsave
/o {
gsave
newpath
translate
0.6 setlinewidth
1 setlinejoin
0 setlinecap
0 0 m
0 -2 l

gsave
0.000 setgray
fill
grestore
stroke
grestore
} bind def
684.967 79.2 o
grestore
gsave
/o {
gsave
newpath
translate
0.6 setlinewidth
1 setlinejoin
0 setlinecap
0 0 m
0 -2 l

gsave
0.000 setgray
fill
grestore
stroke
grestore
} bind def
699.676 79.2 o
grestore
gsave
/o {
gsave
newpath
translate
0.6 setlinewidth
1 setlinejoin
0 setlinecap
0 0 m
0 -2 l

gsave
0.000 setgray
fill
grestore
stroke
grestore
} bind def
712.65 79.2 o
grestore
gsave
/o {
gsave
newpath
translate
0.6 setlinewidth
1 setlinejoin
0 setlinecap
0 0 m
0 -2 l

gsave
0.000 setgray
fill
grestore
stroke
grestore
} bind def
800.607 79.2 o
grestore
gsave
/o {
gsave
newpath
translate
0.6 setlinewidth
1 setlinejoin
0 setlinecap
0 0 m
0 -2 l

gsave
0.000 setgray
fill
grestore
stroke
grestore
} bind def
845.269 79.2 o
grestore
gsave
/o {
gsave
newpath
translate
0.6 setlinewidth
1 setlinejoin
0 setlinecap
0 0 m
0 -2 l

gsave
0.000 setgray
fill
grestore
stroke
grestore
} bind def
876.958 79.2 o
grestore
gsave
/o {
gsave
newpath
translate
0.6 setlinewidth
1 setlinejoin
0 setlinecap
0 0 m
0 -2 l

gsave
0.000 setgray
fill
grestore
stroke
grestore
} bind def
901.538 79.2 o
grestore
gsave
/o {
gsave
newpath
translate
0.6 setlinewidth
1 setlinejoin
0 setlinecap
0 0 m
0 -2 l

gsave
0.000 setgray
fill
grestore
stroke
grestore
} bind def
921.621 79.2 o
grestore
gsave
/o {
gsave
newpath
translate
0.6 setlinewidth
1 setlinejoin
0 setlinecap
0 0 m
0 -2 l

gsave
0.000 setgray
fill
grestore
stroke
grestore
} bind def
938.601 79.2 o
grestore
gsave
/o {
gsave
newpath
translate
0.6 setlinewidth
1 setlinejoin
0 setlinecap
0 0 m
0 -2 l

gsave
0.000 setgray
fill
grestore
stroke
grestore
} bind def
953.309 79.2 o
grestore
gsave
/o {
gsave
newpath
translate
0.6 setlinewidth
1 setlinejoin
0 setlinecap
0 0 m
0 -2 l

gsave
0.000 setgray
fill
grestore
stroke
grestore
} bind def
966.283 79.2 o
grestore
/DejaVuSans findfont
12.000 scalefont
setfont
gsave
528.460938 47.075000 translate
0.000000 rotate
0.000000 0 m /D glyphshow
9.240234 0 m /a glyphshow
16.593750 0 m /t glyphshow
21.298828 0 m /a glyphshow
28.652344 0 m /space glyphshow
32.466797 0 m /parenleft glyphshow
37.148438 0 m /B glyphshow
45.380859 0 m /parenright glyphshow
grestore
0.800 setlinewidth
gsave
/o {
gsave
newpath
translate
0.8 setlinewidth
1 setlinejoin
0 setlinecap
-0 0 m
-3.5 0 l

gsave
0.000 setgray
fill
grestore
stroke
grestore
} bind def
135 79.2 o
grestore
gsave
120.359375 74.637500 translate
0.000000 rotate
0.000000 0 m /zero glyphshow
grestore
gsave
/o {
gsave
newpath
translate
0.8 setlinewidth
1 setlinejoin
0 setlinecap
-0 0 m
-3.5 0 l

gsave
0.000 setgray
fill
grestore
stroke
grestore
} bind def
135 113.85 o
grestore
gsave
120.359375 109.287500 translate
0.000000 rotate
0.000000 0 m /five glyphshow
grestore
gsave
/o {
gsave
newpath
translate
0.8 setlinewidth
1 setlinejoin
0 setlinecap
-0 0 m
-3.5 0 l

gsave
0.000 setgray
fill
grestore
stroke
grestore
} bind def
135 148.5 o
grestore
gsave
112.718750 143.937500 translate
0.000000 rotate
0.000000 0 m /one glyphshow
7.634766 0 m /zero glyphshow
grestore
gsave
/o {
gsave
newpath
translate
0.8 setlinewidth
1 setlinejoin
0 setlinecap
-0 0 m
-3.5 0 l

gsave
0.000 setgray
fill
grestore
stroke
grestore
} bind def
135 183.15 o
grestore
gsave
112.718750 178.587500 translate
0.000000 rotate
0.000000 0 m /one glyphshow
7.634766 0 m /five glyphshow
grestore
gsave
/o {
gsave
newpath
translate
0.8 setlinewidth
1 setlinejoin
0 setlinecap
-0 0 m
-3.5 0 l

gsave
0.000 setgray
fill
grestore
stroke
grestore
} bind def
135 217.8 o
grestore
gsave
112.718750 213.237500 translate
0.000000 rotate
0.000000 0 m /two glyphshow
7.634766 0 m /zero glyphshow
grestore
gsave
/o {
gsave
newpath
translate
0.8 setlinewidth
1 setlinejoin
0 setlinecap
-0 0 m
-3.5 0 l

gsave
0.000 setgray
fill
grestore
stroke
grestore
} bind def
135 252.45 o
grestore
gsave
112.718750 247.887500 translate
0.000000 rotate
0.000000 0 m /two glyphshow
7.634766 0 m /five glyphshow
grestore
gsave
/o {
gsave
newpath
translate
0.8 setlinewidth
1 setlinejoin
0 setlinecap
-0 0 m
-3.5 0 l

gsave
0.000 setgray
fill
grestore
stroke
grestore
} bind def
135 287.1 o
grestore
gsave
112.718750 282.537500 translate
0.000000 rotate
0.000000 0 m /three glyphshow
7.634766 0 m /zero glyphshow
grestore
gsave
/o {
gsave
newpath
translate
0.8 setlinewidth
1 setlinejoin
0 setlinecap
-0 0 m
-3.5 0 l

gsave
0.000 setgray
fill
grestore
stroke
grestore
} bind def
135 321.75 o
grestore
gsave
112.718750 317.187500 translate
0.000000 rotate
0.000000 0 m /three glyphshow
7.634766 0 m /five glyphshow
grestore
gsave
/o {
gsave
newpath
translate
0.8 setlinewidth
1 setlinejoin
0 setlinecap
-0 0 m
-3.5 0 l

gsave
0.000 setgray
fill
grestore
stroke
grestore
} bind def
135 356.4 o
grestore
gsave
112.718750 351.837500 translate
0.000000 rotate
0.000000 0 m /four glyphshow
7.634766 0 m /zero glyphshow
grestore
gsave
/o {
gsave
newpath
translate
0.8 setlinewidth
1 setlinejoin
0 setlinecap
-0 0 m
-3.5 0 l

gsave
0.000 setgray
fill
grestore
stroke
grestore
} bind def
135 391.05 o
grestore
gsave
112.718750 386.487500 translate
0.000000 rotate
0.000000 0 m /four glyphshow
7.634766 0 m /five glyphshow
grestore
gsave
/o {
gsave
newpath
translate
0.8 setlinewidth
1 setlinejoin
0 setlinecap
-0 0 m
-3.5 0 l

gsave
0.000 setgray
fill
grestore
stroke
grestore
} bind def
135 425.7 o
grestore
gsave
112.718750 421.137500 translate
0.000000 rotate
0.000000 0 m /five glyphshow
7.634766 0 m /zero glyphshow
grestore
gsave
/o {
gsave
newpath
translate
0.8 setlinewidth
1 setlinejoin
0 setlinecap
-0 0 m
-3.5 0 l

gsave
0.000 setgray
fill
grestore
stroke
grestore
} bind def
135 460.35 o
grestore
gsave
112.718750 455.787500 translate
0.000000 rotate
0.000000 0 m /five glyphshow
7.634766 0 m /five glyphshow
grestore
gsave
/o {
gsave
newpath
translate
0.8 setlinewidth
1 setlinejoin
0 setlinecap
-0 0 m
-3.5 0 l

gsave
0.000 setgray
fill
grestore
stroke
grestore
} bind def
135 495 o
grestore
gsave
112.718750 490.437500 translate
0.000000 rotate
0.000000 0 m /six glyphshow
7.634766 0 m /zero glyphshow
grestore
gsave
/o {
gsave
newpath
translate
0.8 setlinewidth
1 setlinejoin
0 setlinecap
-0 0 m
-3.5 0 l

gsave
0.000 setgray
fill
grestore
stroke
grestore
} bind def
135 529.65 o
grestore
gsave
112.718750 525.087500 translate
0.000000 rotate
0.000000 0 m /six glyphshow
7.634766 0 m /five glyphshow
grestore
gsave
/o {
gsave
newpath
translate
0.8 setlinewidth
1 setlinejoin
0 setlinecap
-0 0 m
-3.5 0 l

gsave
0.000 setgray
fill
grestore
stroke
grestore
} bind def
135 564.3 o
grestore
gsave
112.718750 559.737500 translate
0.000000 rotate
0.000000 0 m /seven glyphshow
7.634766 0 m /zero glyphshow
grestore
gsave
/o {
gsave
newpath
translate
0.8 setlinewidth
1 setlinejoin
0 setlinecap
-0 0 m
-3.5 0 l

gsave
0.000 setgray
fill
grestore
stroke
grestore
} bind def
135 598.95 o
grestore
gsave
112.718750 594.387500 translate
0.000000 rotate
0.000000 0 m /seven glyphshow
7.634766 0 m /five glyphshow
grestore
gsave
106.218750 302.150000 translate
90.000000 rotate
0.000000 0 m /B glyphshow
8.232422 0 m /a glyphshow
15.585938 0 m /n glyphshow
23.191406 0 m /d glyphshow
30.808594 0 m /w glyphshow
40.623047 0 m /i glyphshow
43.957031 0 m /d glyphshow
51.574219 0 m /t glyphshow
56.279297 0 m /h glyphshow
63.884766 0 m /space glyphshow
67.699219 0 m /parenleft glyphshow
72.380859 0 m /G glyphshow
81.679688 0 m /B glyphshow
89.912109 0 m /p glyphshow
97.529297 0 m /s glyphshow
103.781250 0 m /parenright glyphshow
grestore
1.500 setlinewidth
2 setlinecap
0.500 0.000 1.000 setrgbcolor
gsave
837 554.4 135 79.2 clipbox
173.045455 132.140626 m
178.677113 132.156565 l
184.651098 131.413115 l
190.94457 130.656151 l
197.614597 129.575556 l
204.734133 137.153165 l
212.30755 134.774511 l
220.491686 130.351023 l
229.313782 131.928152 l
238.906115 130.790662 l
249.396817 128.119702 l
261.002461 124.945969 l
273.96596 125.771263 l
288.677301 121.383326 l
305.665145 121.613956 l
325.74818 119.391089 l
350.327829 118.677646 l
382.024387 117.529414 l
426.684445 116.492825 l
432.335803 117.152561 l
438.289563 117.396289 l
444.587237 117.431978 l
451.265144 117.977023 l
458.37575 117.245769 l
465.974383 117.00121 l
474.135666 116.734335 l
482.953823 116.44577 l
492.539852 116.600378 l
503.038434 116.584439 l
514.643289 116.352631 l
527.616507 116.260046 l
542.325746 116.077025 l
545.518248 115.97356 l
548.80818 115.979242 l
552.197836 115.804191 l
555.694905 115.774253 l
559.306761 115.827129 l
563.040288 115.924842 l
566.90613 115.770788 l
570.912089 115.867392 l
575.068727 115.917496 l
579.389797 115.801419 l
583.886095 115.819021 l
588.5739 115.698231 l
593.470864 115.746187 l
598.594809 115.949929 l
603.96892 115.70627 l
609.619175 115.810636 l
615.574773 115.761433 l
621.870504 115.7676 l
628.549619 115.765313 l
635.658124 115.729832 l
643.257677 115.720268 l
651.420602 115.742583 l
660.237773 115.487698 l
669.822227 115.535584 l
680.320808 115.220823 l
691.926255 109.162964 l
704.900457 109.203781 l
719.60904 104.055484 l
736.589136 100.404345 l
756.672171 98.209475 l
781.25182 99.150153 l
812.940498 101.00275 l
857.603314 101.799492 l
933.954545 102.101432 l
stroke
grestore
1.000 setlinewidth
0 setlinecap
gsave
837 554.4 135 79.2 clipbox
/o {
gsave
newpath
translate
1.0 setlinewidth
1 setlinejoin
0 setlinecap
0 -1.5 m
0.397805 -1.5 0.77937 -1.341951 1.06066 -1.06066 c
1.341951 -0.77937 1.5 -0.397805 1.5 0 c
1.5 0.397805 1.341951 0.77937 1.06066 1.06066 c
0.77937 1.341951 0.397805 1.5 0 1.5 c
-0.397805 1.5 -0.77937 1.341951 -1.06066 1.06066 c
-1.341951 0.77937 -1.5 0.397805 -1.5 0 c
-1.5 -0.397805 -1.341951 -0.77937 -1.06066 -1.06066 c
-0.77937 -1.341951 -0.397805 -1.5 0 -1.5 c
cl

gsave
0.500 0.000 1.000 setrgbcolor
fill
grestore
stroke
grestore
} bind def
173.045 132.141 o
178.677 132.157 o
184.651 131.413 o
190.945 130.656 o
197.615 129.576 o
204.734 137.153 o
212.308 134.775 o
220.492 130.351 o
229.314 131.928 o
238.906 130.791 o
249.397 128.12 o
261.002 124.946 o
273.966 125.771 o
288.677 121.383 o
305.665 121.614 o
325.748 119.391 o
350.328 118.678 o
382.024 117.529 o
426.684 116.493 o
432.336 117.153 o
438.29 117.396 o
444.587 117.432 o
451.265 117.977 o
458.376 117.246 o
465.974 117.001 o
474.136 116.734 o
482.954 116.446 o
492.54 116.6 o
503.038 116.584 o
514.643 116.353 o
527.617 116.26 o
542.326 116.077 o
545.518 115.974 o
548.808 115.979 o
552.198 115.804 o
555.695 115.774 o
559.307 115.827 o
563.04 115.925 o
566.906 115.771 o
570.912 115.867 o
575.069 115.917 o
579.39 115.801 o
583.886 115.819 o
588.574 115.698 o
593.471 115.746 o
598.595 115.95 o
603.969 115.706 o
609.619 115.811 o
615.575 115.761 o
621.871 115.768 o
628.55 115.765 o
635.658 115.73 o
643.258 115.72 o
651.421 115.743 o
660.238 115.488 o
669.822 115.536 o
680.321 115.221 o
691.926 109.163 o
704.9 109.204 o
719.609 104.055 o
736.589 100.404 o
756.672 98.2095 o
781.252 99.1502 o
812.94 101.003 o
857.603 101.799 o
933.955 102.101 o
grestore
1.500 setlinewidth
2 setlinecap
0.002 0.709 0.923 setrgbcolor
gsave
837 554.4 135 79.2 clipbox
173.045455 127.51991 m
178.677113 131.52247 l
184.651098 129.981377 l
190.94457 127.231761 l
197.614597 126.698012 l
204.734133 133.281166 l
212.30755 131.055943 l
220.491686 128.503762 l
229.313782 131.596621 l
238.906115 125.157404 l
249.396817 126.946868 l
261.002461 123.02532 l
273.96596 121.431559 l
288.677301 120.449508 l
305.665145 120.035164 l
325.74818 118.334957 l
350.327829 118.216593 l
382.024387 117.318257 l
426.684445 116.915971 l
432.335803 116.204398 l
438.289563 117.328375 l
444.587237 116.831355 l
451.265144 116.556858 l
458.37575 117.787487 l
465.974383 117.042928 l
474.135666 117.20807 l
482.953823 116.536207 l
492.539852 116.625881 l
503.038434 116.438632 l
514.643289 116.197607 l
527.616507 116.321099 l
542.325746 115.983193 l
545.518248 116.057829 l
548.80818 115.933227 l
552.197836 115.860878 l
555.694905 115.739326 l
559.306761 115.871273 l
563.040288 115.863304 l
566.90613 115.786796 l
570.912089 115.820615 l
575.068727 115.875085 l
579.389797 115.78049 l
583.886095 115.831148 l
588.5739 115.709943 l
593.470864 115.778342 l
598.594809 115.848404 l
603.96892 115.828238 l
609.619175 115.792756 l
615.574773 115.771343 l
621.870504 115.808002 l
628.549619 115.786173 l
635.658124 115.739326 l
643.257677 115.738079 l
651.420602 115.718744 l
660.237773 115.484302 l
669.822227 115.499964 l
680.320808 115.255889 l
691.926255 109.120552 l
704.900457 109.163657 l
719.60904 104.174057 l
736.589136 100.378981 l
756.672171 98.17434 l
781.25182 99.127977 l
812.940498 100.975862 l
857.603314 101.794364 l
933.954545 102.10261 l
stroke
grestore
1.000 setlinewidth
0 setlinecap
gsave
837 554.4 135 79.2 clipbox
/o {
gsave
newpath
translate
1.0 setlinewidth
1 setlinejoin
0 setlinecap
0 -3 m
0.795609 -3 1.55874 -2.683901 2.12132 -2.12132 c
2.683901 -1.55874 3 -0.795609 3 0 c
3 0.795609 2.683901 1.55874 2.12132 2.12132 c
1.55874 2.683901 0.795609 3 0 3 c
-0.795609 3 -1.55874 2.683901 -2.12132 2.12132 c
-2.683901 1.55874 -3 0.795609 -3 0 c
-3 -0.795609 -2.683901 -1.55874 -2.12132 -2.12132 c
-1.55874 -2.683901 -0.795609 -3 0 -3 c
cl

gsave
0.002 0.709 0.923 setrgbcolor
fill
grestore
stroke
grestore
} bind def
173.045 127.52 o
178.677 131.522 o
184.651 129.981 o
190.945 127.232 o
197.615 126.698 o
204.734 133.281 o
212.308 131.056 o
220.492 128.504 o
229.314 131.597 o
238.906 125.157 o
249.397 126.947 o
261.002 123.025 o
273.966 121.432 o
288.677 120.45 o
305.665 120.035 o
325.748 118.335 o
350.328 118.217 o
382.024 117.318 o
426.684 116.916 o
432.336 116.204 o
438.29 117.328 o
444.587 116.831 o
451.265 116.557 o
458.376 117.787 o
465.974 117.043 o
474.136 117.208 o
482.954 116.536 o
492.54 116.626 o
503.038 116.439 o
514.643 116.198 o
527.617 116.321 o
542.326 115.983 o
545.518 116.058 o
548.808 115.933 o
552.198 115.861 o
555.695 115.739 o
559.307 115.871 o
563.04 115.863 o
566.906 115.787 o
570.912 115.821 o
575.069 115.875 o
579.39 115.78 o
583.886 115.831 o
588.574 115.71 o
593.471 115.778 o
598.595 115.848 o
603.969 115.828 o
609.619 115.793 o
615.575 115.771 o
621.871 115.808 o
628.55 115.786 o
635.658 115.739 o
643.258 115.738 o
651.421 115.719 o
660.238 115.484 o
669.822 115.5 o
680.321 115.256 o
691.926 109.121 o
704.9 109.164 o
719.609 104.174 o
736.589 100.379 o
756.672 98.1743 o
781.252 99.128 o
812.94 100.976 o
857.603 101.794 o
933.955 102.103 o
grestore
1.500 setlinewidth
2 setlinecap
0.504 1.000 0.705 setrgbcolor
gsave
837 554.4 135 79.2 clipbox
173.045455 126.919911 m
178.677113 129.95435 l
184.651098 127.899397 l
190.94457 128.029126 l
197.614597 128.249223 l
204.734133 134.61526 l
212.30755 130.082624 l
220.491686 127.378192 l
229.313782 129.472507 l
238.906115 127.720742 l
249.396817 126.040355 l
261.002461 123.477918 l
273.96596 120.979237 l
288.677301 120.354983 l
305.665145 119.942856 l
325.74818 118.414999 l
350.327829 117.566975 l
382.024387 116.941057 l
426.684445 116.560254 l
432.335803 116.243345 l
438.289563 115.929624 l
444.587237 116.462541 l
451.265144 115.30828 l
458.37575 115.835099 l
465.974383 115.904537 l
474.135666 115.786173 l
482.953823 115.485549 l
492.539852 115.663373 l
503.038434 115.610359 l
514.643289 115.539049 l
527.616507 115.299756 l
542.325746 115.692964 l
545.518248 115.631564 l
548.80818 115.555196 l
552.197836 115.544593 l
555.694905 115.466215 l
559.306761 115.314448 l
563.040288 115.539811 l
566.90613 115.478966 l
570.912089 115.961502 l
575.068727 115.48742 l
579.389797 115.4746 l
583.886095 115.53496 l
588.5739 115.407933 l
593.470864 115.44494 l
598.594809 115.503706 l
603.96892 115.639465 l
609.619175 115.522694 l
615.574773 115.482084 l
621.870504 115.5053 l
628.549619 115.557829 l
635.658124 115.459215 l
643.257677 115.393935 l
651.420602 115.483332 l
660.237773 115.249375 l
669.822227 115.26074 l
680.320808 114.917289 l
691.926255 109.214384 l
704.900457 109.266221 l
719.60904 103.950564 l
736.589136 100.266923 l
756.672171 98.078567 l
781.25182 99.068864 l
812.940498 100.877872 l
857.603314 101.744676 l
933.954545 102.070871 l
stroke
grestore
1.000 setlinewidth
2 setlinejoin
0 setlinecap
gsave
837 554.4 135 79.2 clipbox
/o {
gsave
newpath
translate
1.0 setlinewidth
2 setlinejoin
0 setlinecap
0 3 m
-0.673542 0.927051 l
-2.85317 0.927051 l
-1.089814 -0.354102 l
-1.763356 -2.427051 l
-0 -1.145898 l
1.763356 -2.427051 l
1.089814 -0.354102 l
2.85317 0.927051 l
0.673542 0.927051 l
cl

gsave
0.504 1.000 0.705 setrgbcolor
fill
grestore
stroke
grestore
} bind def
173.045 126.92 o
178.677 129.954 o
184.651 127.899 o
190.945 128.029 o
197.615 128.249 o
204.734 134.615 o
212.308 130.083 o
220.492 127.378 o
229.314 129.473 o
238.906 127.721 o
249.397 126.04 o
261.002 123.478 o
273.966 120.979 o
288.677 120.355 o
305.665 119.943 o
325.748 118.415 o
350.328 117.567 o
382.024 116.941 o
426.684 116.56 o
432.336 116.243 o
438.29 115.93 o
444.587 116.463 o
451.265 115.308 o
458.376 115.835 o
465.974 115.905 o
474.136 115.786 o
482.954 115.486 o
492.54 115.663 o
503.038 115.61 o
514.643 115.539 o
527.617 115.3 o
542.326 115.693 o
545.518 115.632 o
548.808 115.555 o
552.198 115.545 o
555.695 115.466 o
559.307 115.314 o
563.04 115.54 o
566.906 115.479 o
570.912 115.962 o
575.069 115.487 o
579.39 115.475 o
583.886 115.535 o
588.574 115.408 o
593.471 115.445 o
598.595 115.504 o
603.969 115.639 o
609.619 115.523 o
615.575 115.482 o
621.871 115.505 o
628.55 115.558 o
635.658 115.459 o
643.258 115.394 o
651.421 115.483 o
660.238 115.249 o
669.822 115.261 o
680.321 114.917 o
691.926 109.214 o
704.9 109.266 o
719.609 103.951 o
736.589 100.267 o
756.672 98.0786 o
781.252 99.0689 o
812.94 100.878 o
857.603 101.745 o
933.955 102.071 o
grestore
1.500 setlinewidth
1 setlinejoin
2 setlinecap
1.000 0.701 0.378 setrgbcolor
gsave
837 554.4 135 79.2 clipbox
173.045455 125.903903 m
178.677113 128.457678 l
184.651098 127.202655 l
190.94457 127.34167 l
197.614597 123.917142 l
204.734133 129.503484 l
212.30755 128.23079 l
220.491686 126.108269 l
229.313782 130.497315 l
238.906115 124.342852 l
249.396817 124.842713 l
261.002461 124.110974 l
273.96596 121.32747 l
288.677301 122.673969 l
305.665145 119.886169 l
325.74818 119.212988 l
350.327829 117.81098 l
382.024387 116.109388 l
426.684445 116.216803 l
432.335803 116.32006 l
438.289563 116.470857 l
444.587237 115.960324 l
451.265144 116.20918 l
458.37575 115.405161 l
465.974383 115.957344 l
474.135666 115.634336 l
482.953823 115.833851 l
492.539852 115.858314 l
503.038434 115.658314 l
514.643289 115.906755 l
527.616507 115.551661 l
542.325746 115.683331 l
545.518248 116.191093 l
548.80818 115.477441 l
552.197836 115.656443 l
555.694905 115.651731 l
559.306761 115.622833 l
563.040288 115.579936 l
566.90613 115.73399 l
570.912089 115.511814 l
575.068727 115.791578 l
579.389797 115.625674 l
583.886095 115.682638 l
588.5739 115.458869 l
593.470864 115.626298 l
598.594809 115.718328 l
603.96892 115.569541 l
609.619175 115.547781 l
615.574773 115.516041 l
621.870504 115.538702 l
628.549619 115.499409 l
635.658124 115.492133 l
643.257677 115.429139 l
651.420602 115.443969 l
660.237773 115.281669 l
669.822227 115.210844 l
680.320808 115.097746 l
691.926255 109.130601 l
704.900457 109.702118 l
719.60904 104.038021 l
736.589136 100.297553 l
756.672171 98.081963 l
781.25182 99.060133 l
812.940498 100.881059 l
857.603314 101.804274 l
933.954545 102.068723 l
stroke
grestore
1.000 setlinewidth
0 setlinejoin
0 setlinecap
gsave
837 554.4 135 79.2 clipbox
/o {
gsave
newpath
translate
1.0 setlinewidth
0 setlinejoin
0 setlinecap
3 -0 m
-3 3 l
-3 -3 l
cl

gsave
1.000 0.701 0.378 setrgbcolor
fill
grestore
stroke
grestore
} bind def
173.045 125.904 o
178.677 128.458 o
184.651 127.203 o
190.945 127.342 o
197.615 123.917 o
204.734 129.503 o
212.308 128.231 o
220.492 126.108 o
229.314 130.497 o
238.906 124.343 o
249.397 124.843 o
261.002 124.111 o
273.966 121.327 o
288.677 122.674 o
305.665 119.886 o
325.748 119.213 o
350.328 117.811 o
382.024 116.109 o
426.684 116.217 o
432.336 116.32 o
438.29 116.471 o
444.587 115.96 o
451.265 116.209 o
458.376 115.405 o
465.974 115.957 o
474.136 115.634 o
482.954 115.834 o
492.54 115.858 o
503.038 115.658 o
514.643 115.907 o
527.617 115.552 o
542.326 115.683 o
545.518 116.191 o
548.808 115.477 o
552.198 115.656 o
555.695 115.652 o
559.307 115.623 o
563.04 115.58 o
566.906 115.734 o
570.912 115.512 o
575.069 115.792 o
579.39 115.626 o
583.886 115.683 o
588.574 115.459 o
593.471 115.626 o
598.595 115.718 o
603.969 115.57 o
609.619 115.548 o
615.575 115.516 o
621.871 115.539 o
628.55 115.499 o
635.658 115.492 o
643.258 115.429 o
651.421 115.444 o
660.238 115.282 o
669.822 115.211 o
680.321 115.098 o
691.926 109.131 o
704.9 109.702 o
719.609 104.038 o
736.589 100.298 o
756.672 98.082 o
781.252 99.0601 o
812.94 100.881 o
857.603 101.804 o
933.955 102.069 o
grestore
1.500 setlinewidth
1 setlinejoin
2 setlinecap
1.000 0.000 0.000 setrgbcolor
gsave
837 554.4 135 79.2 clipbox
173.045455 274.88435 m
178.677113 284.491063 l
184.651098 278.896543 l
190.94457 275.658709 l
197.614597 270.839933 l
204.734133 296.953074 l
212.30755 286.543868 l
220.491686 274.741246 l
229.313782 285.894596 l
238.906115 270.411659 l
249.396817 268.349638 l
261.002461 257.960182 l
273.96596 251.909529 l
288.677301 247.261786 l
305.665145 243.878144 l
325.74818 237.754034 l
350.327829 234.672194 l
382.024387 230.298116 l
426.684445 228.585852 l
432.335803 228.320364 l
438.289563 229.525144 l
444.587237 229.086198 l
451.265144 228.451341 l
458.37575 228.673517 l
465.974383 228.306019 l
474.135666 227.762915 l
482.953823 226.701377 l
492.539852 227.147946 l
503.038434 226.691744 l
514.643289 226.396041 l
527.616507 225.832563 l
542.325746 225.836513 l
545.518248 226.254046 l
548.80818 225.345107 l
552.197836 225.266105 l
555.694905 225.031524 l
559.306761 225.035682 l
563.040288 225.307893 l
566.90613 225.17054 l
570.912089 225.561323 l
575.068727 225.471579 l
579.389797 225.082183 l
583.886095 225.267768 l
588.5739 224.674976 l
593.470864 224.995766 l
598.594809 225.420367 l
603.96892 225.143513 l
609.619175 225.073867 l
615.574773 224.930901 l
621.870504 225.019605 l
628.549619 225.008725 l
635.658124 224.820506 l
643.257677 224.681421 l
651.420602 224.788628 l
660.237773 223.903043 l
669.822227 223.907132 l
680.320808 222.891748 l
691.926255 199.028501 l
704.900457 199.735777 l
719.60904 178.618127 l
736.589136 163.747802 l
756.672171 154.944346 l
781.25182 158.807128 l
812.940498 166.137543 l
857.603314 169.542806 l
933.954545 170.743637 l
stroke
grestore
1.000 setlinewidth
2 setlinejoin
0 setlinecap
gsave
837 554.4 135 79.2 clipbox
/o {
gsave
newpath
translate
1.0 setlinewidth
2 setlinejoin
0 setlinecap
0 3 m
-0.673542 0.927051 l
-2.85317 0.927051 l
-1.089814 -0.354102 l
-1.763356 -2.427051 l
-0 -1.145898 l
1.763356 -2.427051 l
1.089814 -0.354102 l
2.85317 0.927051 l
0.673542 0.927051 l
cl

gsave
1.000 0.000 0.000 setrgbcolor
fill
grestore
stroke
grestore
} bind def
173.045 274.884 o
178.677 284.491 o
184.651 278.897 o
190.945 275.659 o
197.615 270.84 o
204.734 296.953 o
212.308 286.544 o
220.492 274.741 o
229.314 285.895 o
238.906 270.412 o
249.397 268.35 o
261.002 257.96 o
273.966 251.91 o
288.677 247.262 o
305.665 243.878 o
325.748 237.754 o
350.328 234.672 o
382.024 230.298 o
426.684 228.586 o
432.336 228.32 o
438.29 229.525 o
444.587 229.086 o
451.265 228.451 o
458.376 228.674 o
465.974 228.306 o
474.136 227.763 o
482.954 226.701 o
492.54 227.148 o
503.038 226.692 o
514.643 226.396 o
527.617 225.833 o
542.326 225.837 o
545.518 226.254 o
548.808 225.345 o
552.198 225.266 o
555.695 225.032 o
559.307 225.036 o
563.04 225.308 o
566.906 225.171 o
570.912 225.561 o
575.069 225.472 o
579.39 225.082 o
583.886 225.268 o
588.574 224.675 o
593.471 224.996 o
598.595 225.42 o
603.969 225.144 o
609.619 225.074 o
615.575 224.931 o
621.871 225.02 o
628.55 225.009 o
635.658 224.821 o
643.258 224.681 o
651.421 224.789 o
660.238 223.903 o
669.822 223.907 o
680.321 222.892 o
691.926 199.029 o
704.9 199.736 o
719.609 178.618 o
736.589 163.748 o
756.672 154.944 o
781.252 158.807 o
812.94 166.138 o
857.603 169.543 o
933.955 170.744 o
grestore
0.200 setlinewidth
1 setlinejoin
2 setlinecap
0.000 setgray
gsave
837 554.4 135 79.2 clipbox
135 79.2 m
1081 79.2 l
stroke
grestore
gsave
837 554.4 135 79.2 clipbox
135 113.85 m
1081 113.85 l
stroke
grestore
gsave
837 554.4 135 79.2 clipbox
135 148.5 m
1081 148.5 l
stroke
grestore
gsave
837 554.4 135 79.2 clipbox
135 183.15 m
1081 183.15 l
stroke
grestore
gsave
837 554.4 135 79.2 clipbox
135 217.8 m
1081 217.8 l
stroke
grestore
gsave
837 554.4 135 79.2 clipbox
135 252.45 m
1081 252.45 l
stroke
grestore
gsave
837 554.4 135 79.2 clipbox
135 287.1 m
1081 287.1 l
stroke
grestore
gsave
837 554.4 135 79.2 clipbox
135 321.75 m
1081 321.75 l
stroke
grestore
gsave
837 554.4 135 79.2 clipbox
135 356.4 m
1081 356.4 l
stroke
grestore
gsave
837 554.4 135 79.2 clipbox
135 391.05 m
1081 391.05 l
stroke
grestore
gsave
837 554.4 135 79.2 clipbox
135 425.7 m
1081 425.7 l
stroke
grestore
gsave
837 554.4 135 79.2 clipbox
135 460.35 m
1081 460.35 l
stroke
grestore
gsave
837 554.4 135 79.2 clipbox
135 495 m
1081 495 l
stroke
grestore
gsave
837 554.4 135 79.2 clipbox
135 529.65 m
1081 529.65 l
stroke
grestore
gsave
837 554.4 135 79.2 clipbox
135 564.3 m
1081 564.3 l
stroke
grestore
gsave
837 554.4 135 79.2 clipbox
135 598.95 m
1081 598.95 l
stroke
grestore
0.800 setlinewidth
0 setlinejoin
gsave
135 79.2 m
135 633.6 l
stroke
grestore
gsave
972 79.2 m
972 633.6 l
stroke
grestore
gsave
135 79.2 m
972 79.2 l
stroke
grestore
gsave
135 633.6 m
972 633.6 l
stroke
grestore
/DejaVuSans findfont
14.400 scalefont
setfont
gsave
407.125000 655.275000 translate
0.000000 rotate
0.000000 0 m /B glyphshow
9.861755 0 m /a glyphshow
18.670654 0 m /n glyphshow
27.781372 0 m /d glyphshow
36.906128 0 m /w glyphshow
48.663025 0 m /i glyphshow
52.656860 0 m /d glyphshow
61.781616 0 m /t glyphshow
67.417908 0 m /h glyphshow
76.528625 0 m /space glyphshow
81.098022 0 m /m glyphshow
95.101013 0 m /e glyphshow
103.945007 0 m /a glyphshow
112.753906 0 m /s glyphshow
120.243225 0 m /u glyphshow
129.353943 0 m /r glyphshow
134.888977 0 m /e glyphshow
143.732971 0 m /s glyphshow
151.222290 0 m /space glyphshow
155.791687 0 m /o glyphshow
164.586548 0 m /n glyphshow
173.697266 0 m /space glyphshow
178.266663 0 m /A glyphshow
188.100342 0 m /M glyphshow
200.502991 0 m /D glyphshow
211.572021 0 m /space glyphshow
216.141418 0 m /E glyphshow
225.224060 0 m /P glyphshow
233.517578 0 m /Y glyphshow
241.548401 0 m /C glyphshow
251.585632 0 m /space glyphshow
256.155029 0 m /seven glyphshow
265.300842 0 m /four glyphshow
274.446655 0 m /five glyphshow
283.592468 0 m /two glyphshow
grestore
gsave
465.765625 639.600000 translate
0.000000 rotate
0.000000 0 m /C glyphshow
10.037231 0 m /r glyphshow
15.572266 0 m /o glyphshow
24.367126 0 m /s glyphshow
31.856445 0 m /s glyphshow
39.345764 0 m /space glyphshow
43.915161 0 m /m glyphshow
57.918152 0 m /o glyphshow
66.713013 0 m /d glyphshow
75.837769 0 m /e glyphshow
84.681763 0 m /colon glyphshow
89.524902 0 m /space glyphshow
94.094299 0 m /D glyphshow
105.163330 0 m /I glyphshow
109.402832 0 m /E glyphshow
118.485474 0 m /zero glyphshow
127.631287 0 m /space glyphshow
132.200684 0 m /hyphen glyphshow
137.387756 0 m /space glyphshow
141.957153 0 m /D glyphshow
153.026184 0 m /I glyphshow
157.265686 0 m /E glyphshow
166.348328 0 m /five glyphshow
grestore
1.000 setlinewidth
0 setlinecap
0.800 setgray
gsave
814.371875 535.875 m
963.6 535.875 l
965.2 535.875 966 536.675 966 538.275 c
966 625.2 l
966 626.8 965.2 627.6 963.6 627.6 c
814.371875 627.6 l
812.771875 627.6 811.971875 626.8 811.971875 625.2 c
811.971875 538.275 l
811.971875 536.675 812.771875 535.875 814.371875 535.875 c
cl
gsave
1.000 setgray
fill
grestore
stroke
grestore
1.500 setlinewidth
1 setlinejoin
2 setlinecap
0.500 0.000 1.000 setrgbcolor
gsave
816.771875 617.875 m
840.771875 617.875 l
stroke
grestore
1.000 setlinewidth
0 setlinecap
gsave
/o {
gsave
newpath
translate
1.0 setlinewidth
1 setlinejoin
0 setlinecap
0 -1.5 m
0.397805 -1.5 0.77937 -1.341951 1.06066 -1.06066 c
1.341951 -0.77937 1.5 -0.397805 1.5 0 c
1.5 0.397805 1.341951 0.77937 1.06066 1.06066 c
0.77937 1.341951 0.397805 1.5 0 1.5 c
-0.397805 1.5 -0.77937 1.341951 -1.06066 1.06066 c
-1.341951 0.77937 -1.5 0.397805 -1.5 0 c
-1.5 -0.397805 -1.341951 -0.77937 -1.06066 -1.06066 c
-0.77937 -1.341951 -0.397805 -1.5 0 -1.5 c
cl

gsave
0.500 0.000 1.000 setrgbcolor
fill
grestore
stroke
grestore
} bind def
828.772 617.875 o
grestore
0.000 setgray
/DejaVuSans findfont
12.000 scalefont
setfont
gsave
850.371875 613.675000 translate
0.000000 rotate
0.000000 0 m /R glyphshow
7.962891 0 m /colon glyphshow
12.005859 0 m /C glyphshow
20.384766 0 m /P glyphshow
27.621094 0 m /U glyphshow
36.404297 0 m /zero glyphshow
44.039062 0 m /space glyphshow
47.853516 0 m /hyphen glyphshow
52.183594 0 m /space glyphshow
55.998047 0 m /W glyphshow
67.113281 0 m /colon glyphshow
71.156250 0 m /C glyphshow
79.535156 0 m /P glyphshow
86.771484 0 m /U glyphshow
95.554688 0 m /two glyphshow
103.189453 0 m /zero glyphshow
grestore
1.500 setlinewidth
2 setlinecap
0.002 0.709 0.923 setrgbcolor
gsave
816.771875 600.25 m
840.771875 600.25 l
stroke
grestore
1.000 setlinewidth
0 setlinecap
gsave
/o {
gsave
newpath
translate
1.0 setlinewidth
1 setlinejoin
0 setlinecap
0 -3 m
0.795609 -3 1.55874 -2.683901 2.12132 -2.12132 c
2.683901 -1.55874 3 -0.795609 3 0 c
3 0.795609 2.683901 1.55874 2.12132 2.12132 c
1.55874 2.683901 0.795609 3 0 3 c
-0.795609 3 -1.55874 2.683901 -2.12132 2.12132 c
-2.683901 1.55874 -3 0.795609 -3 0 c
-3 -0.795609 -2.683901 -1.55874 -2.12132 -2.12132 c
-1.55874 -2.683901 -0.795609 -3 0 -3 c
cl

gsave
0.002 0.709 0.923 setrgbcolor
fill
grestore
stroke
grestore
} bind def
828.772 600.25 o
grestore
0.000 setgray
gsave
850.371875 596.050000 translate
0.000000 rotate
0.000000 0 m /R glyphshow
7.962891 0 m /colon glyphshow
12.005859 0 m /C glyphshow
20.384766 0 m /P glyphshow
27.621094 0 m /U glyphshow
36.404297 0 m /one glyphshow
44.039062 0 m /space glyphshow
47.853516 0 m /hyphen glyphshow
52.183594 0 m /space glyphshow
55.998047 0 m /W glyphshow
67.113281 0 m /colon glyphshow
71.156250 0 m /C glyphshow
79.535156 0 m /P glyphshow
86.771484 0 m /U glyphshow
95.554688 0 m /two glyphshow
103.189453 0 m /one glyphshow
grestore
1.500 setlinewidth
2 setlinecap
0.504 1.000 0.705 setrgbcolor
gsave
816.771875 582.625 m
840.771875 582.625 l
stroke
grestore
1.000 setlinewidth
2 setlinejoin
0 setlinecap
gsave
/o {
gsave
newpath
translate
1.0 setlinewidth
2 setlinejoin
0 setlinecap
0 3 m
-0.673542 0.927051 l
-2.85317 0.927051 l
-1.089814 -0.354102 l
-1.763356 -2.427051 l
-0 -1.145898 l
1.763356 -2.427051 l
1.089814 -0.354102 l
2.85317 0.927051 l
0.673542 0.927051 l
cl

gsave
0.504 1.000 0.705 setrgbcolor
fill
grestore
stroke
grestore
} bind def
828.772 582.625 o
grestore
0.000 setgray
gsave
850.371875 578.425000 translate
0.000000 rotate
0.000000 0 m /R glyphshow
7.962891 0 m /colon glyphshow
12.005859 0 m /C glyphshow
20.384766 0 m /P glyphshow
27.621094 0 m /U glyphshow
36.404297 0 m /two glyphshow
44.039062 0 m /space glyphshow
47.853516 0 m /hyphen glyphshow
52.183594 0 m /space glyphshow
55.998047 0 m /W glyphshow
67.113281 0 m /colon glyphshow
71.156250 0 m /C glyphshow
79.535156 0 m /P glyphshow
86.771484 0 m /U glyphshow
95.554688 0 m /two glyphshow
103.189453 0 m /two glyphshow
grestore
1.500 setlinewidth
1 setlinejoin
2 setlinecap
1.000 0.701 0.378 setrgbcolor
gsave
816.771875 565 m
840.771875 565 l
stroke
grestore
1.000 setlinewidth
0 setlinejoin
0 setlinecap
gsave
/o {
gsave
newpath
translate
1.0 setlinewidth
0 setlinejoin
0 setlinecap
3 -0 m
-3 3 l
-3 -3 l
cl

gsave
1.000 0.701 0.378 setrgbcolor
fill
grestore
stroke
grestore
} bind def
828.772 565 o
grestore
0.000 setgray
gsave
850.371875 560.800000 translate
0.000000 rotate
0.000000 0 m /R glyphshow
7.962891 0 m /colon glyphshow
12.005859 0 m /C glyphshow
20.384766 0 m /P glyphshow
27.621094 0 m /U glyphshow
36.404297 0 m /three glyphshow
44.039062 0 m /space glyphshow
47.853516 0 m /hyphen glyphshow
52.183594 0 m /space glyphshow
55.998047 0 m /W glyphshow
67.113281 0 m /colon glyphshow
71.156250 0 m /C glyphshow
79.535156 0 m /P glyphshow
86.771484 0 m /U glyphshow
95.554688 0 m /two glyphshow
103.189453 0 m /three glyphshow
grestore
1.500 setlinewidth
1 setlinejoin
2 setlinecap
1.000 0.000 0.000 setrgbcolor
gsave
816.771875 547.375 m
840.771875 547.375 l
stroke
grestore
1.000 setlinewidth
2 setlinejoin
0 setlinecap
gsave
/o {
gsave
newpath
translate
1.0 setlinewidth
2 setlinejoin
0 setlinecap
0 3 m
-0.673542 0.927051 l
-2.85317 0.927051 l
-1.089814 -0.354102 l
-1.763356 -2.427051 l
-0 -1.145898 l
1.763356 -2.427051 l
1.089814 -0.354102 l
2.85317 0.927051 l
0.673542 0.927051 l
cl

gsave
1.000 0.000 0.000 setrgbcolor
fill
grestore
stroke
grestore
} bind def
828.772 547.375 o
grestore
0.000 setgray
gsave
850.371875 543.175000 translate
0.000000 rotate
0.000000 0 m /S glyphshow
7.617188 0 m /u glyphshow
15.222656 0 m /m glyphshow
26.912109 0 m /space glyphshow
30.726562 0 m /o glyphshow
38.068359 0 m /f glyphshow
42.292969 0 m /space glyphshow
46.107422 0 m /B glyphshow
53.964844 0 m /W glyphshow
65.830078 0 m /s glyphshow
grestore

end
showpage
