%!PS-Adobe-3.0 EPSF-3.0
%%Title: amd-multicross4-die0.eps
%%Creator: matplotlib version 3.3.3, http://matplotlib.org/
%%CreationDate: Tue Jan 12 18:07:04 2021
%%Orientation: portrait
%%BoundingBox: -234.0 36.0 846.0 756.0
%%EndComments
%%BeginProlog
/mpldict 8 dict def
mpldict begin
/m { moveto } bind def
/l { lineto } bind def
/r { rlineto } bind def
/c { curveto } bind def
/cl { closepath } bind def
/box {
      m
      1 index 0 r
      0 exch r
      neg 0 r
      cl
    } bind def
/clipbox {
      box
      clip
      newpath
    } bind def
%!PS-Adobe-3.0 Resource-Font
%%Title: DejaVu Sans
%%Copyright: Copyright (c) 2003 by Bitstream, Inc. All Rights Reserved. Copyright (c) 2006 by Tavmjong Bah. All Rights Reserved. DejaVu changes are in public domain 
%%Creator: Converted from TrueType to type 3 by PPR
25 dict begin
/_d{bind def}bind def
/_m{moveto}_d
/_l{lineto}_d
/_cl{closepath eofill}_d
/_c{curveto}_d
/_sc{7 -1 roll{setcachedevice}{pop pop pop pop pop pop}ifelse}_d
/_e{exec}_d
/FontName /DejaVuSans def
/PaintType 0 def
/FontMatrix[.001 0 0 .001 0 0]def
/FontBBox[-1021 -463 1793 1232]def
/FontType 3 def
/Encoding [ /space /parenleft /parenright /hyphen /zero /one /two /three /four /five /six /seven /colon /A /B /C /D /E /G /I /M /P /R /S /U /W /Y /a /d /e /f /h /i /m /n /o /p /r /s /t /u /w ] def
/FontInfo 10 dict dup begin
/FamilyName (DejaVu Sans) def
/FullName (DejaVu Sans) def
/Notice (Copyright (c) 2003 by Bitstream, Inc. All Rights Reserved. Copyright (c) 2006 by Tavmjong Bah. All Rights Reserved. DejaVu changes are in public domain ) def
/Weight (Book) def
/Version (Version 2.35) def
/ItalicAngle 0.0 def
/isFixedPitch false def
/UnderlinePosition -130 def
/UnderlineThickness 90 def
end readonly def
/CharStrings 43 dict dup begin
/.notdef 0 def
/space{318 0 0 0 0 0 _sc
}_d
/parenleft{390 0 86 -131 310 759 _sc
310 759 _m
266 683 234 609 213 536 _c
191 463 181 389 181 314 _c
181 238 191 164 213 91 _c
234 17 266 -56 310 -131 _c
232 -131 _l
183 -54 146 20 122 94 _c
98 168 86 241 86 314 _c
86 386 98 459 122 533 _c
146 607 182 682 232 759 _c
310 759 _l
_cl}_d
/parenright{390 0 80 -131 304 759 _sc
80 759 _m
158 759 _l
206 682 243 607 267 533 _c
291 459 304 386 304 314 _c
304 241 291 168 267 94 _c
243 20 206 -54 158 -131 _c
80 -131 _l
123 -56 155 17 177 91 _c
198 164 209 238 209 314 _c
209 389 198 463 177 536 _c
155 609 123 683 80 759 _c
_cl}_d
/hyphen{361 0 49 234 312 314 _sc
49 314 _m
312 314 _l
312 234 _l
49 234 _l
49 314 _l
_cl}_d
/zero{636 0 66 -13 570 742 _sc
318 664 _m
267 664 229 639 203 589 _c
177 539 165 464 165 364 _c
165 264 177 189 203 139 _c
229 89 267 64 318 64 _c
369 64 407 89 433 139 _c
458 189 471 264 471 364 _c
471 464 458 539 433 589 _c
407 639 369 664 318 664 _c
318 742 _m
399 742 461 709 505 645 _c
548 580 570 486 570 364 _c
570 241 548 147 505 83 _c
461 19 399 -13 318 -13 _c
236 -13 173 19 130 83 _c
87 147 66 241 66 364 _c
66 486 87 580 130 645 _c
173 709 236 742 318 742 _c
_cl}_d
/one{636 0 110 0 544 729 _sc
124 83 _m
285 83 _l
285 639 _l
110 604 _l
110 694 _l
284 729 _l
383 729 _l
383 83 _l
544 83 _l
544 0 _l
124 0 _l
124 83 _l
_cl}_d
/two{{636 0 73 0 536 742 _sc
192 83 _m
536 83 _l
536 0 _l
73 0 _l
73 83 _l
110 121 161 173 226 239 _c
290 304 331 346 348 365 _c
380 400 402 430 414 455 _c
426 479 433 504 433 528 _c
433 566 419 598 392 622 _c
365 646 330 659 286 659 _c
255 659 222 653 188 643 _c
154 632 117 616 78 594 _c
78 694 _l
118 710 155 722 189 730 _c
223 738 255 742 284 742 _c
}_e{359 742 419 723 464 685 _c
509 647 532 597 532 534 _c
532 504 526 475 515 449 _c
504 422 484 390 454 354 _c
446 344 420 317 376 272 _c
332 227 271 164 192 83 _c
_cl}_e}_d
/three{{636 0 76 -13 556 742 _sc
406 393 _m
453 383 490 362 516 330 _c
542 298 556 258 556 212 _c
556 140 531 84 482 45 _c
432 6 362 -13 271 -13 _c
240 -13 208 -10 176 -4 _c
144 1 110 10 76 22 _c
76 117 _l
103 101 133 89 166 81 _c
198 73 232 69 268 69 _c
330 69 377 81 409 105 _c
441 129 458 165 458 212 _c
458 254 443 288 413 312 _c
383 336 341 349 287 349 _c
}_e{202 349 _l
202 430 _l
291 430 _l
339 430 376 439 402 459 _c
428 478 441 506 441 543 _c
441 580 427 609 401 629 _c
374 649 336 659 287 659 _c
260 659 231 656 200 650 _c
169 644 135 635 98 623 _c
98 711 _l
135 721 170 729 203 734 _c
235 739 266 742 296 742 _c
370 742 429 725 473 691 _c
517 657 539 611 539 553 _c
539 513 527 479 504 451 _c
481 423 448 403 406 393 _c
_cl}_e}_d
/four{636 0 49 0 580 729 _sc
378 643 _m
129 254 _l
378 254 _l
378 643 _l
352 729 _m
476 729 _l
476 254 _l
580 254 _l
580 172 _l
476 172 _l
476 0 _l
378 0 _l
378 172 _l
49 172 _l
49 267 _l
352 729 _l
_cl}_d
/five{{636 0 77 -13 549 729 _sc
108 729 _m
495 729 _l
495 646 _l
198 646 _l
198 467 _l
212 472 227 476 241 478 _c
255 480 270 482 284 482 _c
365 482 429 459 477 415 _c
525 370 549 310 549 234 _c
549 155 524 94 475 51 _c
426 8 357 -13 269 -13 _c
238 -13 207 -10 175 -6 _c
143 -1 111 6 77 17 _c
77 116 _l
106 100 136 88 168 80 _c
199 72 232 69 267 69 _c
}_e{323 69 368 83 401 113 _c
433 143 450 183 450 234 _c
450 284 433 324 401 354 _c
368 384 323 399 267 399 _c
241 399 214 396 188 390 _c
162 384 135 375 108 363 _c
108 729 _l
_cl}_e}_d
/six{{636 0 70 -13 573 742 _sc
330 404 _m
286 404 251 388 225 358 _c
199 328 186 286 186 234 _c
186 181 199 139 225 109 _c
251 79 286 64 330 64 _c
374 64 409 79 435 109 _c
461 139 474 181 474 234 _c
474 286 461 328 435 358 _c
409 388 374 404 330 404 _c
526 713 _m
526 623 _l
501 635 476 644 451 650 _c
425 656 400 659 376 659 _c
310 659 260 637 226 593 _c
}_e{192 549 172 482 168 394 _c
187 422 211 444 240 459 _c
269 474 301 482 336 482 _c
409 482 467 459 509 415 _c
551 371 573 310 573 234 _c
573 159 550 99 506 54 _c
462 9 403 -13 330 -13 _c
246 -13 181 19 137 83 _c
92 147 70 241 70 364 _c
70 479 97 571 152 639 _c
206 707 280 742 372 742 _c
396 742 421 739 447 735 _c
472 730 498 723 526 713 _c
_cl}_e}_d
/seven{636 0 82 0 551 729 _sc
82 729 _m
551 729 _l
551 687 _l
286 0 _l
183 0 _l
432 646 _l
82 646 _l
82 729 _l
_cl}_d
/colon{337 0 117 0 220 517 _sc
117 124 _m
220 124 _l
220 0 _l
117 0 _l
117 124 _l
117 517 _m
220 517 _l
220 393 _l
117 393 _l
117 517 _l
_cl}_d
/A{684 0 8 0 676 729 _sc
342 632 _m
208 269 _l
476 269 _l
342 632 _l
286 729 _m
398 729 _l
676 0 _l
573 0 _l
507 187 _l
178 187 _l
112 0 _l
8 0 _l
286 729 _l
_cl}_d
/B{{686 0 98 0 615 729 _sc
197 348 _m
197 81 _l
355 81 _l
408 81 447 92 473 114 _c
498 136 511 169 511 215 _c
511 260 498 293 473 315 _c
447 337 408 348 355 348 _c
197 348 _l
197 648 _m
197 428 _l
343 428 _l
391 428 426 437 450 455 _c
474 473 486 500 486 538 _c
486 574 474 602 450 620 _c
426 638 391 648 343 648 _c
197 648 _l
98 729 _m
350 729 _l
}_e{425 729 483 713 524 682 _c
564 650 585 606 585 549 _c
585 504 574 468 553 442 _c
532 416 502 399 462 393 _c
510 382 548 360 575 327 _c
601 294 615 253 615 204 _c
615 138 592 88 548 53 _c
504 17 441 0 360 0 _c
98 0 _l
98 729 _l
_cl}_e}_d
/C{{698 0 56 -13 644 742 _sc
644 673 _m
644 569 _l
610 599 575 622 537 638 _c
499 653 460 661 418 661 _c
334 661 270 635 226 584 _c
182 533 160 460 160 364 _c
160 268 182 194 226 143 _c
270 92 334 67 418 67 _c
460 67 499 74 537 90 _c
575 105 610 128 644 159 _c
644 56 _l
609 32 572 15 534 4 _c
496 -7 455 -13 412 -13 _c
302 -13 215 20 151 87 _c
}_e{87 154 56 246 56 364 _c
56 481 87 573 151 641 _c
215 708 302 742 412 742 _c
456 742 497 736 535 725 _c
573 713 610 696 644 673 _c
_cl}_e}_d
/D{770 0 98 0 711 729 _sc
197 648 _m
197 81 _l
316 81 _l
416 81 490 103 537 149 _c
583 195 607 267 607 365 _c
607 463 583 534 537 580 _c
490 625 416 648 316 648 _c
197 648 _l
98 729 _m
301 729 _l
442 729 546 699 612 641 _c
678 582 711 490 711 365 _c
711 239 677 147 611 88 _c
545 29 441 0 301 0 _c
98 0 _l
98 729 _l
_cl}_d
/E{632 0 98 0 568 729 _sc
98 729 _m
559 729 _l
559 646 _l
197 646 _l
197 430 _l
544 430 _l
544 347 _l
197 347 _l
197 83 _l
568 83 _l
568 0 _l
98 0 _l
98 729 _l
_cl}_d
/G{{775 0 56 -13 693 742 _sc
595 104 _m
595 300 _l
434 300 _l
434 381 _l
693 381 _l
693 68 _l
655 40 613 20 567 7 _c
521 -6 472 -13 420 -13 _c
306 -13 216 20 152 86 _c
88 152 56 245 56 364 _c
56 482 88 575 152 642 _c
216 708 306 742 420 742 _c
467 742 512 736 555 724 _c
598 712 638 695 674 673 _c
674 568 _l
637 598 598 621 557 637 _c
516 653 473 661 428 661 _c
}_e{338 661 271 636 227 586 _c
182 536 160 462 160 364 _c
160 265 182 191 227 141 _c
271 91 338 67 428 67 _c
462 67 493 70 521 76 _c
549 82 573 91 595 104 _c
_cl}_e}_d
/I{295 0 98 0 197 729 _sc
98 729 _m
197 729 _l
197 0 _l
98 0 _l
98 729 _l
_cl}_d
/M{863 0 98 0 765 729 _sc
98 729 _m
245 729 _l
431 233 _l
618 729 _l
765 729 _l
765 0 _l
669 0 _l
669 640 _l
481 140 _l
382 140 _l
194 640 _l
194 0 _l
98 0 _l
98 729 _l
_cl}_d
/P{603 0 98 0 569 729 _sc
197 648 _m
197 374 _l
321 374 _l
367 374 402 385 427 409 _c
452 433 465 467 465 511 _c
465 555 452 588 427 612 _c
402 636 367 648 321 648 _c
197 648 _l
98 729 _m
321 729 _l
402 729 464 710 506 673 _c
548 636 569 582 569 511 _c
569 439 548 384 506 348 _c
464 311 402 293 321 293 _c
197 293 _l
197 0 _l
98 0 _l
98 729 _l
_cl}_d
/R{{695 0 98 0 666 729 _sc
444 342 _m
465 334 486 319 506 296 _c
526 272 546 240 566 199 _c
666 0 _l
560 0 _l
467 187 _l
443 235 419 268 397 284 _c
374 300 343 308 304 308 _c
197 308 _l
197 0 _l
98 0 _l
98 729 _l
321 729 _l
404 729 466 711 507 677 _c
548 642 569 589 569 519 _c
569 473 558 434 537 404 _c
515 374 484 353 444 342 _c
197 648 _m
197 389 _l
321 389 _l
}_e{368 389 404 400 428 422 _c
452 444 465 476 465 519 _c
465 561 452 593 428 615 _c
404 637 368 648 321 648 _c
197 648 _l
_cl}_e}_d
/S{{635 0 66 -13 579 742 _sc
535 705 _m
535 609 _l
497 627 462 640 429 649 _c
395 657 363 662 333 662 _c
279 662 237 651 208 631 _c
179 610 165 580 165 542 _c
165 510 174 485 194 469 _c
213 452 250 439 304 429 _c
364 417 _l
437 403 491 378 526 343 _c
561 307 579 260 579 201 _c
579 130 555 77 508 41 _c
460 5 391 -13 300 -13 _c
265 -13 228 -9 189 -2 _c
}_e{150 5 110 16 69 32 _c
69 134 _l
109 111 148 94 186 83 _c
224 71 262 66 300 66 _c
356 66 399 77 430 99 _c
460 121 476 152 476 194 _c
476 230 465 258 443 278 _c
421 298 385 313 335 323 _c
275 335 _l
201 349 148 372 115 404 _c
82 435 66 478 66 534 _c
66 598 88 649 134 686 _c
179 723 242 742 322 742 _c
356 742 390 739 426 733 _c
461 727 497 717 535 705 _c
}_e{_cl}_e}_d
/U{732 0 87 -13 645 729 _sc
87 729 _m
186 729 _l
186 286 _l
186 208 200 151 228 117 _c
256 83 302 66 366 66 _c
429 66 475 83 503 117 _c
531 151 546 208 546 286 _c
546 729 _l
645 729 _l
645 274 _l
645 178 621 107 574 59 _c
527 11 458 -13 366 -13 _c
274 -13 204 11 157 59 _c
110 107 87 178 87 274 _c
87 729 _l
_cl}_d
/W{989 0 33 0 956 729 _sc
33 729 _m
133 729 _l
286 113 _l
439 729 _l
550 729 _l
703 113 _l
856 729 _l
956 729 _l
773 0 _l
649 0 _l
495 633 _l
340 0 _l
216 0 _l
33 729 _l
_cl}_d
/Y{611 0 -1 0 613 729 _sc
-1 729 _m
104 729 _l
306 429 _l
507 729 _l
613 729 _l
355 347 _l
355 0 _l
256 0 _l
256 347 _l
-1 729 _l
_cl}_d
/a{{613 0 60 -13 522 560 _sc
343 275 _m
270 275 220 266 192 250 _c
164 233 150 205 150 165 _c
150 133 160 107 181 89 _c
202 70 231 61 267 61 _c
317 61 357 78 387 114 _c
417 149 432 196 432 255 _c
432 275 _l
343 275 _l
522 312 _m
522 0 _l
432 0 _l
432 83 _l
411 49 385 25 355 10 _c
325 -5 287 -13 243 -13 _c
187 -13 142 2 109 33 _c
76 64 60 106 60 159 _c
}_e{60 220 80 266 122 298 _c
163 329 224 345 306 345 _c
432 345 _l
432 354 _l
432 395 418 427 391 450 _c
364 472 326 484 277 484 _c
245 484 215 480 185 472 _c
155 464 127 453 100 439 _c
100 522 _l
132 534 164 544 195 550 _c
226 556 256 560 286 560 _c
365 560 424 539 463 498 _c
502 457 522 395 522 312 _c
_cl}_e}_d
/d{{635 0 55 -13 544 760 _sc
454 464 _m
454 760 _l
544 760 _l
544 0 _l
454 0 _l
454 82 _l
435 49 411 25 382 10 _c
353 -5 319 -13 279 -13 _c
213 -13 159 13 117 65 _c
75 117 55 187 55 273 _c
55 359 75 428 117 481 _c
159 533 213 560 279 560 _c
319 560 353 552 382 536 _c
411 520 435 496 454 464 _c
148 273 _m
148 207 161 155 188 117 _c
215 79 253 61 301 61 _c
}_e{348 61 385 79 413 117 _c
440 155 454 207 454 273 _c
454 339 440 390 413 428 _c
385 466 348 485 301 485 _c
253 485 215 466 188 428 _c
161 390 148 339 148 273 _c
_cl}_e}_d
/e{{615 0 55 -13 562 560 _sc
562 296 _m
562 252 _l
149 252 _l
153 190 171 142 205 110 _c
238 78 284 62 344 62 _c
378 62 412 66 444 74 _c
476 82 509 95 541 113 _c
541 28 _l
509 14 476 3 442 -3 _c
408 -9 373 -13 339 -13 _c
251 -13 182 12 131 62 _c
80 112 55 181 55 268 _c
55 357 79 428 127 481 _c
175 533 241 560 323 560 _c
397 560 455 536 498 489 _c
}_e{540 441 562 377 562 296 _c
472 322 _m
471 371 457 410 431 440 _c
404 469 368 484 324 484 _c
274 484 234 469 204 441 _c
174 413 156 373 152 322 _c
472 322 _l
_cl}_e}_d
/f{352 0 23 0 371 760 _sc
371 760 _m
371 685 _l
285 685 _l
253 685 230 678 218 665 _c
205 652 199 629 199 595 _c
199 547 _l
347 547 _l
347 477 _l
199 477 _l
199 0 _l
109 0 _l
109 477 _l
23 477 _l
23 547 _l
109 547 _l
109 585 _l
109 645 123 690 151 718 _c
179 746 224 760 286 760 _c
371 760 _l
_cl}_d
/h{634 0 91 0 549 760 _sc
549 330 _m
549 0 _l
459 0 _l
459 327 _l
459 379 448 417 428 443 _c
408 469 378 482 338 482 _c
289 482 251 466 223 435 _c
195 404 181 362 181 309 _c
181 0 _l
91 0 _l
91 760 _l
181 760 _l
181 462 _l
202 494 227 519 257 535 _c
286 551 320 560 358 560 _c
420 560 468 540 500 501 _c
532 462 549 405 549 330 _c
_cl}_d
/i{278 0 94 0 184 760 _sc
94 547 _m
184 547 _l
184 0 _l
94 0 _l
94 547 _l
94 760 _m
184 760 _l
184 646 _l
94 646 _l
94 760 _l
_cl}_d
/m{{974 0 91 0 889 560 _sc
520 442 _m
542 482 569 511 600 531 _c
631 550 668 560 711 560 _c
767 560 811 540 842 500 _c
873 460 889 403 889 330 _c
889 0 _l
799 0 _l
799 327 _l
799 379 789 418 771 444 _c
752 469 724 482 686 482 _c
639 482 602 466 575 435 _c
548 404 535 362 535 309 _c
535 0 _l
445 0 _l
445 327 _l
445 379 435 418 417 444 _c
398 469 369 482 331 482 _c
}_e{285 482 248 466 221 435 _c
194 404 181 362 181 309 _c
181 0 _l
91 0 _l
91 547 _l
181 547 _l
181 462 _l
201 495 226 520 255 536 _c
283 552 317 560 357 560 _c
397 560 430 550 458 530 _c
486 510 506 480 520 442 _c
_cl}_e}_d
/n{634 0 91 0 549 560 _sc
549 330 _m
549 0 _l
459 0 _l
459 327 _l
459 379 448 417 428 443 _c
408 469 378 482 338 482 _c
289 482 251 466 223 435 _c
195 404 181 362 181 309 _c
181 0 _l
91 0 _l
91 547 _l
181 547 _l
181 462 _l
202 494 227 519 257 535 _c
286 551 320 560 358 560 _c
420 560 468 540 500 501 _c
532 462 549 405 549 330 _c
_cl}_d
/o{612 0 55 -13 557 560 _sc
306 484 _m
258 484 220 465 192 427 _c
164 389 150 338 150 273 _c
150 207 163 156 191 118 _c
219 80 257 62 306 62 _c
354 62 392 80 420 118 _c
448 156 462 207 462 273 _c
462 337 448 389 420 427 _c
392 465 354 484 306 484 _c
306 560 _m
384 560 445 534 490 484 _c
534 433 557 363 557 273 _c
557 183 534 113 490 63 _c
445 12 384 -13 306 -13 _c
227 -13 165 12 121 63 _c
77 113 55 183 55 273 _c
55 363 77 433 121 484 _c
165 534 227 560 306 560 _c
_cl}_d
/p{{635 0 91 -207 580 560 _sc
181 82 _m
181 -207 _l
91 -207 _l
91 547 _l
181 547 _l
181 464 _l
199 496 223 520 252 536 _c
281 552 316 560 356 560 _c
422 560 476 533 518 481 _c
559 428 580 359 580 273 _c
580 187 559 117 518 65 _c
476 13 422 -13 356 -13 _c
316 -13 281 -5 252 10 _c
223 25 199 49 181 82 _c
487 273 _m
487 339 473 390 446 428 _c
418 466 381 485 334 485 _c
}_e{286 485 249 466 222 428 _c
194 390 181 339 181 273 _c
181 207 194 155 222 117 _c
249 79 286 61 334 61 _c
381 61 418 79 446 117 _c
473 155 487 207 487 273 _c
_cl}_e}_d
/r{411 0 91 0 411 560 _sc
411 463 _m
401 469 390 473 378 476 _c
366 478 353 480 339 480 _c
288 480 249 463 222 430 _c
194 397 181 350 181 288 _c
181 0 _l
91 0 _l
91 547 _l
181 547 _l
181 462 _l
199 495 224 520 254 536 _c
284 552 321 560 365 560 _c
371 560 378 559 386 559 _c
393 558 401 557 411 555 _c
411 463 _l
_cl}_d
/s{{521 0 54 -13 472 560 _sc
443 531 _m
443 446 _l
417 458 391 468 364 475 _c
336 481 308 485 279 485 _c
234 485 200 478 178 464 _c
156 450 145 430 145 403 _c
145 382 153 366 169 354 _c
185 342 217 330 265 320 _c
296 313 _l
360 299 405 279 432 255 _c
458 230 472 195 472 151 _c
472 100 452 60 412 31 _c
372 1 316 -13 246 -13 _c
216 -13 186 -10 154 -5 _c
}_e{122 0 89 8 54 20 _c
54 113 _l
87 95 120 82 152 74 _c
184 65 216 61 248 61 _c
290 61 323 68 346 82 _c
368 96 380 117 380 144 _c
380 168 371 187 355 200 _c
339 213 303 226 247 238 _c
216 245 _l
160 257 119 275 95 299 _c
70 323 58 356 58 399 _c
58 450 76 490 112 518 _c
148 546 200 560 268 560 _c
301 560 332 557 362 552 _c
391 547 418 540 443 531 _c
}_e{_cl}_e}_d
/t{392 0 27 0 368 702 _sc
183 702 _m
183 547 _l
368 547 _l
368 477 _l
183 477 _l
183 180 _l
183 135 189 106 201 94 _c
213 81 238 75 276 75 _c
368 75 _l
368 0 _l
276 0 _l
206 0 158 13 132 39 _c
106 65 93 112 93 180 _c
93 477 _l
27 477 _l
27 547 _l
93 547 _l
93 702 _l
183 702 _l
_cl}_d
/u{634 0 85 -13 543 560 _sc
85 216 _m
85 547 _l
175 547 _l
175 219 _l
175 167 185 129 205 103 _c
225 77 255 64 296 64 _c
344 64 383 79 411 110 _c
439 141 453 183 453 237 _c
453 547 _l
543 547 _l
543 0 _l
453 0 _l
453 84 _l
431 50 405 26 377 10 _c
348 -5 315 -13 277 -13 _c
214 -13 166 6 134 45 _c
101 83 85 140 85 216 _c
311 560 _m
311 560 _l
_cl}_d
/w{818 0 42 0 776 547 _sc
42 547 _m
132 547 _l
244 120 _l
356 547 _l
462 547 _l
574 120 _l
686 547 _l
776 547 _l
633 0 _l
527 0 _l
409 448 _l
291 0 _l
185 0 _l
42 547 _l
_cl}_d
end readonly def

/BuildGlyph
 {exch begin
 CharStrings exch
 2 copy known not{pop /.notdef}if
 true 3 1 roll get exec
 end}_d

/BuildChar {
 1 index /Encoding get exch get
 1 index /BuildGlyph get exec
}_d

FontName currentdict end definefont pop
end
%%EndProlog
mpldict begin
-234 36 translate
1080 720 0 0 clipbox
gsave
0 0 m
1080 0 l
1080 720 l
0 720 l
cl
1.000 setgray
fill
grestore
gsave
135 79.2 m
972 79.2 l
972 633.6 l
135 633.6 l
cl
1.000 setgray
fill
grestore
0.800 setlinewidth
1 setlinejoin
0 setlinecap
[] 0 setdash
0.000 setgray
gsave
/o {
gsave
newpath
translate
0.8 setlinewidth
1 setlinejoin
0 setlinecap
0 0 m
0 -3.5 l

gsave
0.000 setgray
fill
grestore
stroke
grestore
} bind def
216.988 79.2 o
grestore
gsave
205.987903 62.700000 translate
0.000000 rotate
/DejaVuSans findfont
12.0 scalefont
setfont
0.000000 0.281250 moveto
/one glyphshow
7.634766 0.281250 moveto
/zero glyphshow
/DejaVuSans findfont
8.399999999999999 scalefont
setfont
15.384375 4.875000 moveto
/five glyphshow

grestore
gsave
/o {
gsave
newpath
translate
0.8 setlinewidth
1 setlinejoin
0 setlinecap
0 0 m
0 -3.5 l

gsave
0.000 setgray
fill
grestore
stroke
grestore
} bind def
470.622 79.2 o
grestore
gsave
459.621640 62.700000 translate
0.000000 rotate
/DejaVuSans findfont
12.0 scalefont
setfont
0.000000 0.171875 moveto
/one glyphshow
7.634766 0.171875 moveto
/zero glyphshow
/DejaVuSans findfont
8.399999999999999 scalefont
setfont
15.384375 4.765625 moveto
/six glyphshow

grestore
gsave
/o {
gsave
newpath
translate
0.8 setlinewidth
1 setlinejoin
0 setlinecap
0 0 m
0 -3.5 l

gsave
0.000 setgray
fill
grestore
stroke
grestore
} bind def
724.255 79.2 o
grestore
gsave
713.255378 62.700000 translate
0.000000 rotate
/DejaVuSans findfont
12.0 scalefont
setfont
0.000000 0.281250 moveto
/one glyphshow
7.634766 0.281250 moveto
/zero glyphshow
/DejaVuSans findfont
8.399999999999999 scalefont
setfont
15.384375 4.875000 moveto
/seven glyphshow

grestore
0.600 setlinewidth
gsave
/o {
gsave
newpath
translate
0.6 setlinewidth
1 setlinejoin
0 setlinecap
0 0 m
0 -2 l

gsave
0.000 setgray
fill
grestore
stroke
grestore
} bind def
140.637 79.2 o
grestore
gsave
/o {
gsave
newpath
translate
0.6 setlinewidth
1 setlinejoin
0 setlinecap
0 0 m
0 -2 l

gsave
0.000 setgray
fill
grestore
stroke
grestore
} bind def
160.72 79.2 o
grestore
gsave
/o {
gsave
newpath
translate
0.6 setlinewidth
1 setlinejoin
0 setlinecap
0 0 m
0 -2 l

gsave
0.000 setgray
fill
grestore
stroke
grestore
} bind def
177.7 79.2 o
grestore
gsave
/o {
gsave
newpath
translate
0.6 setlinewidth
1 setlinejoin
0 setlinecap
0 0 m
0 -2 l

gsave
0.000 setgray
fill
grestore
stroke
grestore
} bind def
192.408 79.2 o
grestore
gsave
/o {
gsave
newpath
translate
0.6 setlinewidth
1 setlinejoin
0 setlinecap
0 0 m
0 -2 l

gsave
0.000 setgray
fill
grestore
stroke
grestore
} bind def
205.382 79.2 o
grestore
gsave
/o {
gsave
newpath
translate
0.6 setlinewidth
1 setlinejoin
0 setlinecap
0 0 m
0 -2 l

gsave
0.000 setgray
fill
grestore
stroke
grestore
} bind def
293.339 79.2 o
grestore
gsave
/o {
gsave
newpath
translate
0.6 setlinewidth
1 setlinejoin
0 setlinecap
0 0 m
0 -2 l

gsave
0.000 setgray
fill
grestore
stroke
grestore
} bind def
338.002 79.2 o
grestore
gsave
/o {
gsave
newpath
translate
0.6 setlinewidth
1 setlinejoin
0 setlinecap
0 0 m
0 -2 l

gsave
0.000 setgray
fill
grestore
stroke
grestore
} bind def
369.691 79.2 o
grestore
gsave
/o {
gsave
newpath
translate
0.6 setlinewidth
1 setlinejoin
0 setlinecap
0 0 m
0 -2 l

gsave
0.000 setgray
fill
grestore
stroke
grestore
} bind def
394.27 79.2 o
grestore
gsave
/o {
gsave
newpath
translate
0.6 setlinewidth
1 setlinejoin
0 setlinecap
0 0 m
0 -2 l

gsave
0.000 setgray
fill
grestore
stroke
grestore
} bind def
414.353 79.2 o
grestore
gsave
/o {
gsave
newpath
translate
0.6 setlinewidth
1 setlinejoin
0 setlinecap
0 0 m
0 -2 l

gsave
0.000 setgray
fill
grestore
stroke
grestore
} bind def
431.333 79.2 o
grestore
gsave
/o {
gsave
newpath
translate
0.6 setlinewidth
1 setlinejoin
0 setlinecap
0 0 m
0 -2 l

gsave
0.000 setgray
fill
grestore
stroke
grestore
} bind def
446.042 79.2 o
grestore
gsave
/o {
gsave
newpath
translate
0.6 setlinewidth
1 setlinejoin
0 setlinecap
0 0 m
0 -2 l

gsave
0.000 setgray
fill
grestore
stroke
grestore
} bind def
459.016 79.2 o
grestore
gsave
/o {
gsave
newpath
translate
0.6 setlinewidth
1 setlinejoin
0 setlinecap
0 0 m
0 -2 l

gsave
0.000 setgray
fill
grestore
stroke
grestore
} bind def
546.973 79.2 o
grestore
gsave
/o {
gsave
newpath
translate
0.6 setlinewidth
1 setlinejoin
0 setlinecap
0 0 m
0 -2 l

gsave
0.000 setgray
fill
grestore
stroke
grestore
} bind def
591.636 79.2 o
grestore
gsave
/o {
gsave
newpath
translate
0.6 setlinewidth
1 setlinejoin
0 setlinecap
0 0 m
0 -2 l

gsave
0.000 setgray
fill
grestore
stroke
grestore
} bind def
623.324 79.2 o
grestore
gsave
/o {
gsave
newpath
translate
0.6 setlinewidth
1 setlinejoin
0 setlinecap
0 0 m
0 -2 l

gsave
0.000 setgray
fill
grestore
stroke
grestore
} bind def
647.904 79.2 o
grestore
gsave
/o {
gsave
newpath
translate
0.6 setlinewidth
1 setlinejoin
0 setlinecap
0 0 m
0 -2 l

gsave
0.000 setgray
fill
grestore
stroke
grestore
} bind def
667.987 79.2 o
grestore
gsave
/o {
gsave
newpath
translate
0.6 setlinewidth
1 setlinejoin
0 setlinecap
0 0 m
0 -2 l

gsave
0.000 setgray
fill
grestore
stroke
grestore
} bind def
684.967 79.2 o
grestore
gsave
/o {
gsave
newpath
translate
0.6 setlinewidth
1 setlinejoin
0 setlinecap
0 0 m
0 -2 l

gsave
0.000 setgray
fill
grestore
stroke
grestore
} bind def
699.676 79.2 o
grestore
gsave
/o {
gsave
newpath
translate
0.6 setlinewidth
1 setlinejoin
0 setlinecap
0 0 m
0 -2 l

gsave
0.000 setgray
fill
grestore
stroke
grestore
} bind def
712.65 79.2 o
grestore
gsave
/o {
gsave
newpath
translate
0.6 setlinewidth
1 setlinejoin
0 setlinecap
0 0 m
0 -2 l

gsave
0.000 setgray
fill
grestore
stroke
grestore
} bind def
800.607 79.2 o
grestore
gsave
/o {
gsave
newpath
translate
0.6 setlinewidth
1 setlinejoin
0 setlinecap
0 0 m
0 -2 l

gsave
0.000 setgray
fill
grestore
stroke
grestore
} bind def
845.269 79.2 o
grestore
gsave
/o {
gsave
newpath
translate
0.6 setlinewidth
1 setlinejoin
0 setlinecap
0 0 m
0 -2 l

gsave
0.000 setgray
fill
grestore
stroke
grestore
} bind def
876.958 79.2 o
grestore
gsave
/o {
gsave
newpath
translate
0.6 setlinewidth
1 setlinejoin
0 setlinecap
0 0 m
0 -2 l

gsave
0.000 setgray
fill
grestore
stroke
grestore
} bind def
901.538 79.2 o
grestore
gsave
/o {
gsave
newpath
translate
0.6 setlinewidth
1 setlinejoin
0 setlinecap
0 0 m
0 -2 l

gsave
0.000 setgray
fill
grestore
stroke
grestore
} bind def
921.621 79.2 o
grestore
gsave
/o {
gsave
newpath
translate
0.6 setlinewidth
1 setlinejoin
0 setlinecap
0 0 m
0 -2 l

gsave
0.000 setgray
fill
grestore
stroke
grestore
} bind def
938.601 79.2 o
grestore
gsave
/o {
gsave
newpath
translate
0.6 setlinewidth
1 setlinejoin
0 setlinecap
0 0 m
0 -2 l

gsave
0.000 setgray
fill
grestore
stroke
grestore
} bind def
953.309 79.2 o
grestore
gsave
/o {
gsave
newpath
translate
0.6 setlinewidth
1 setlinejoin
0 setlinecap
0 0 m
0 -2 l

gsave
0.000 setgray
fill
grestore
stroke
grestore
} bind def
966.283 79.2 o
grestore
/DejaVuSans findfont
12.000 scalefont
setfont
gsave
528.460938 47.075000 translate
0.000000 rotate
0.000000 0 m /D glyphshow
9.240234 0 m /a glyphshow
16.593750 0 m /t glyphshow
21.298828 0 m /a glyphshow
28.652344 0 m /space glyphshow
32.466797 0 m /parenleft glyphshow
37.148438 0 m /B glyphshow
45.380859 0 m /parenright glyphshow
grestore
0.800 setlinewidth
gsave
/o {
gsave
newpath
translate
0.8 setlinewidth
1 setlinejoin
0 setlinecap
-0 0 m
-3.5 0 l

gsave
0.000 setgray
fill
grestore
stroke
grestore
} bind def
135 79.2 o
grestore
gsave
120.359375 74.637500 translate
0.000000 rotate
0.000000 0 m /zero glyphshow
grestore
gsave
/o {
gsave
newpath
translate
0.8 setlinewidth
1 setlinejoin
0 setlinecap
-0 0 m
-3.5 0 l

gsave
0.000 setgray
fill
grestore
stroke
grestore
} bind def
135 113.85 o
grestore
gsave
120.359375 109.287500 translate
0.000000 rotate
0.000000 0 m /five glyphshow
grestore
gsave
/o {
gsave
newpath
translate
0.8 setlinewidth
1 setlinejoin
0 setlinecap
-0 0 m
-3.5 0 l

gsave
0.000 setgray
fill
grestore
stroke
grestore
} bind def
135 148.5 o
grestore
gsave
112.718750 143.937500 translate
0.000000 rotate
0.000000 0 m /one glyphshow
7.634766 0 m /zero glyphshow
grestore
gsave
/o {
gsave
newpath
translate
0.8 setlinewidth
1 setlinejoin
0 setlinecap
-0 0 m
-3.5 0 l

gsave
0.000 setgray
fill
grestore
stroke
grestore
} bind def
135 183.15 o
grestore
gsave
112.718750 178.587500 translate
0.000000 rotate
0.000000 0 m /one glyphshow
7.634766 0 m /five glyphshow
grestore
gsave
/o {
gsave
newpath
translate
0.8 setlinewidth
1 setlinejoin
0 setlinecap
-0 0 m
-3.5 0 l

gsave
0.000 setgray
fill
grestore
stroke
grestore
} bind def
135 217.8 o
grestore
gsave
112.718750 213.237500 translate
0.000000 rotate
0.000000 0 m /two glyphshow
7.634766 0 m /zero glyphshow
grestore
gsave
/o {
gsave
newpath
translate
0.8 setlinewidth
1 setlinejoin
0 setlinecap
-0 0 m
-3.5 0 l

gsave
0.000 setgray
fill
grestore
stroke
grestore
} bind def
135 252.45 o
grestore
gsave
112.718750 247.887500 translate
0.000000 rotate
0.000000 0 m /two glyphshow
7.634766 0 m /five glyphshow
grestore
gsave
/o {
gsave
newpath
translate
0.8 setlinewidth
1 setlinejoin
0 setlinecap
-0 0 m
-3.5 0 l

gsave
0.000 setgray
fill
grestore
stroke
grestore
} bind def
135 287.1 o
grestore
gsave
112.718750 282.537500 translate
0.000000 rotate
0.000000 0 m /three glyphshow
7.634766 0 m /zero glyphshow
grestore
gsave
/o {
gsave
newpath
translate
0.8 setlinewidth
1 setlinejoin
0 setlinecap
-0 0 m
-3.5 0 l

gsave
0.000 setgray
fill
grestore
stroke
grestore
} bind def
135 321.75 o
grestore
gsave
112.718750 317.187500 translate
0.000000 rotate
0.000000 0 m /three glyphshow
7.634766 0 m /five glyphshow
grestore
gsave
/o {
gsave
newpath
translate
0.8 setlinewidth
1 setlinejoin
0 setlinecap
-0 0 m
-3.5 0 l

gsave
0.000 setgray
fill
grestore
stroke
grestore
} bind def
135 356.4 o
grestore
gsave
112.718750 351.837500 translate
0.000000 rotate
0.000000 0 m /four glyphshow
7.634766 0 m /zero glyphshow
grestore
gsave
/o {
gsave
newpath
translate
0.8 setlinewidth
1 setlinejoin
0 setlinecap
-0 0 m
-3.5 0 l

gsave
0.000 setgray
fill
grestore
stroke
grestore
} bind def
135 391.05 o
grestore
gsave
112.718750 386.487500 translate
0.000000 rotate
0.000000 0 m /four glyphshow
7.634766 0 m /five glyphshow
grestore
gsave
/o {
gsave
newpath
translate
0.8 setlinewidth
1 setlinejoin
0 setlinecap
-0 0 m
-3.5 0 l

gsave
0.000 setgray
fill
grestore
stroke
grestore
} bind def
135 425.7 o
grestore
gsave
112.718750 421.137500 translate
0.000000 rotate
0.000000 0 m /five glyphshow
7.634766 0 m /zero glyphshow
grestore
gsave
/o {
gsave
newpath
translate
0.8 setlinewidth
1 setlinejoin
0 setlinecap
-0 0 m
-3.5 0 l

gsave
0.000 setgray
fill
grestore
stroke
grestore
} bind def
135 460.35 o
grestore
gsave
112.718750 455.787500 translate
0.000000 rotate
0.000000 0 m /five glyphshow
7.634766 0 m /five glyphshow
grestore
gsave
/o {
gsave
newpath
translate
0.8 setlinewidth
1 setlinejoin
0 setlinecap
-0 0 m
-3.5 0 l

gsave
0.000 setgray
fill
grestore
stroke
grestore
} bind def
135 495 o
grestore
gsave
112.718750 490.437500 translate
0.000000 rotate
0.000000 0 m /six glyphshow
7.634766 0 m /zero glyphshow
grestore
gsave
/o {
gsave
newpath
translate
0.8 setlinewidth
1 setlinejoin
0 setlinecap
-0 0 m
-3.5 0 l

gsave
0.000 setgray
fill
grestore
stroke
grestore
} bind def
135 529.65 o
grestore
gsave
112.718750 525.087500 translate
0.000000 rotate
0.000000 0 m /six glyphshow
7.634766 0 m /five glyphshow
grestore
gsave
/o {
gsave
newpath
translate
0.8 setlinewidth
1 setlinejoin
0 setlinecap
-0 0 m
-3.5 0 l

gsave
0.000 setgray
fill
grestore
stroke
grestore
} bind def
135 564.3 o
grestore
gsave
112.718750 559.737500 translate
0.000000 rotate
0.000000 0 m /seven glyphshow
7.634766 0 m /zero glyphshow
grestore
gsave
/o {
gsave
newpath
translate
0.8 setlinewidth
1 setlinejoin
0 setlinecap
-0 0 m
-3.5 0 l

gsave
0.000 setgray
fill
grestore
stroke
grestore
} bind def
135 598.95 o
grestore
gsave
112.718750 594.387500 translate
0.000000 rotate
0.000000 0 m /seven glyphshow
7.634766 0 m /five glyphshow
grestore
gsave
106.218750 302.150000 translate
90.000000 rotate
0.000000 0 m /B glyphshow
8.232422 0 m /a glyphshow
15.585938 0 m /n glyphshow
23.191406 0 m /d glyphshow
30.808594 0 m /w glyphshow
40.623047 0 m /i glyphshow
43.957031 0 m /d glyphshow
51.574219 0 m /t glyphshow
56.279297 0 m /h glyphshow
63.884766 0 m /space glyphshow
67.699219 0 m /parenleft glyphshow
72.380859 0 m /G glyphshow
81.679688 0 m /B glyphshow
89.912109 0 m /p glyphshow
97.529297 0 m /s glyphshow
103.781250 0 m /parenright glyphshow
grestore
1.500 setlinewidth
2 setlinecap
0.500 0.000 1.000 setrgbcolor
gsave
837 554.4 135 79.2 clipbox
178.635901 721 m
178.677113 297.206712 l
180.628738 721 l
194.965043 721 m
197.614597 346.310613 l
204.734133 335.309238 l
210.392964 721 l
214.10717 721 m
220.491686 258.04944 l
229.313782 272.431269 l
238.906115 289.22751 l
249.396817 309.69873 l
261.002461 334.739592 l
273.96596 221.502006 l
288.677301 305.300259 l
305.665145 262.492263 l
325.74818 309.555972 l
350.327829 245.175579 l
382.024387 271.093779 l
426.684445 260.797185 l
432.335803 287.450658 l
438.289563 293.057721 l
444.587237 249.204681 l
451.265144 285.1596 l
458.37575 268.048737 l
465.974383 281.253159 l
474.135666 275.745195 l
482.953823 268.640559 l
492.539852 256.908069 l
503.038434 253.192203 l
514.643289 250.425747 l
527.616507 246.210228 l
542.325746 243.030051 l
545.518248 243.793044 l
548.80818 242.517924 l
552.197836 239.882445 l
555.694905 241.938576 l
559.306761 243.1638 l
563.040288 240.831162 l
566.90613 239.488128 l
570.912089 239.813838 l
575.068727 239.6988 l
579.389797 239.547726 l
583.886095 238.400811 l
588.5739 237.798594 l
593.470864 237.904623 l
598.594809 235.001646 l
603.96892 235.610793 l
609.619175 211.693977 l
615.574773 229.693959 l
621.870504 213.856137 l
628.549619 186.222069 l
635.658124 185.080698 l
643.257677 165.528396 l
651.420602 162.78273 l
660.237773 141.329044 l
669.822227 126.065164 l
680.320808 117.677716 l
691.926255 107.986319 l
704.900457 102.435528 l
719.60904 99.192288 l
736.589136 97.752649 l
756.672171 97.713426 l
781.25182 98.172815 l
812.940498 99.058816 l
857.603314 100.223541 l
933.954545 101.859229 l
stroke
grestore
1.000 setlinewidth
0 setlinecap
gsave
837 554.4 135 79.2 clipbox
/o {
gsave
newpath
translate
1.0 setlinewidth
1 setlinejoin
0 setlinecap
0 -1.5 m
0.397805 -1.5 0.77937 -1.341951 1.06066 -1.06066 c
1.341951 -0.77937 1.5 -0.397805 1.5 0 c
1.5 0.397805 1.341951 0.77937 1.06066 1.06066 c
0.77937 1.341951 0.397805 1.5 0 1.5 c
-0.397805 1.5 -0.77937 1.341951 -1.06066 1.06066 c
-1.341951 0.77937 -1.5 0.397805 -1.5 0 c
-1.5 -0.397805 -1.341951 -0.77937 -1.06066 -1.06066 c
-0.77937 -1.341951 -0.397805 -1.5 0 -1.5 c
cl

gsave
0.500 0.000 1.000 setrgbcolor
fill
grestore
stroke
grestore
} bind def
178.636 721 o
178.677 297.207 o
180.629 721 o
194.965 721 o
197.615 346.311 o
204.734 335.309 o
210.393 721 o
214.107 721 o
220.492 258.049 o
229.314 272.431 o
238.906 289.228 o
249.397 309.699 o
261.002 334.74 o
273.966 221.502 o
288.677 305.3 o
305.665 262.492 o
325.748 309.556 o
350.328 245.176 o
382.024 271.094 o
426.684 260.797 o
432.336 287.451 o
438.29 293.058 o
444.587 249.205 o
451.265 285.16 o
458.376 268.049 o
465.974 281.253 o
474.136 275.745 o
482.954 268.641 o
492.54 256.908 o
503.038 253.192 o
514.643 250.426 o
527.617 246.21 o
542.326 243.03 o
545.518 243.793 o
548.808 242.518 o
552.198 239.882 o
555.695 241.939 o
559.307 243.164 o
563.04 240.831 o
566.906 239.488 o
570.912 239.814 o
575.069 239.699 o
579.39 239.548 o
583.886 238.401 o
588.574 237.799 o
593.471 237.905 o
598.595 235.002 o
603.969 235.611 o
609.619 211.694 o
615.575 229.694 o
621.871 213.856 o
628.55 186.222 o
635.658 185.081 o
643.258 165.528 o
651.421 162.783 o
660.238 141.329 o
669.822 126.065 o
680.321 117.678 o
691.926 107.986 o
704.9 102.436 o
719.609 99.1923 o
736.589 97.7526 o
756.672 97.7134 o
781.252 98.1728 o
812.94 99.0588 o
857.603 100.224 o
933.955 101.859 o
grestore
1.500 setlinewidth
2 setlinecap
0.002 0.709 0.923 setrgbcolor
gsave
837 554.4 135 79.2 clipbox
173.045455 333.732663 m
178.677113 293.390361 l
180.364489 721 l
189.115851 721 m
190.94457 276.062589 l
197.614597 357.036174 l
204.734133 311.86089 l
212.30755 245.867886 l
220.491686 256.806198 l
229.313782 272.624616 l
238.906115 290.487384 l
249.396817 310.099284 l
261.002461 332.54694 l
273.96596 221.519331 l
288.677301 308.737539 l
305.665145 271.95102 l
325.74818 310.558743 l
350.327829 356.004297 l
382.024387 316.908009 l
426.684445 262.558791 l
432.335803 252.517221 l
438.289563 293.296806 l
444.587237 250.89075 l
451.265144 240.320421 l
458.37575 268.648875 l
465.974383 270.253863 l
474.135666 276.113178 l
482.953823 269.341875 l
492.539852 256.867182 l
503.038434 255.732048 l
514.643289 250.593453 l
527.616507 245.305863 l
542.325746 242.227557 l
545.518248 243.472878 l
548.80818 241.848486 l
552.197836 240.359922 l
555.694905 240.73137 l
559.306761 242.740377 l
563.040288 240.629499 l
566.90613 239.505453 l
570.912089 239.702958 l
575.068727 239.840172 l
579.389797 239.811759 l
583.886095 237.918483 l
588.5739 238.210236 l
593.470864 238.498524 l
598.594809 235.106289 l
603.96892 231.562287 l
609.619175 224.799993 l
615.574773 231.048081 l
621.870504 210.762585 l
628.549619 191.736963 l
635.658124 187.596981 l
643.257677 169.173576 l
651.420602 160.383564 l
660.237773 142.382196 l
669.822227 125.977846 l
680.320808 117.676053 l
691.926255 108.04661 l
704.900457 102.473712 l
719.60904 99.209197 l
736.589136 97.752164 l
756.672171 97.69818 l
781.25182 98.171914 l
812.940498 99.062835 l
857.603314 100.275239 l
933.954545 101.865604 l
stroke
grestore
1.000 setlinewidth
0 setlinecap
gsave
837 554.4 135 79.2 clipbox
/o {
gsave
newpath
translate
1.0 setlinewidth
1 setlinejoin
0 setlinecap
0 -3 m
0.795609 -3 1.55874 -2.683901 2.12132 -2.12132 c
2.683901 -1.55874 3 -0.795609 3 0 c
3 0.795609 2.683901 1.55874 2.12132 2.12132 c
1.55874 2.683901 0.795609 3 0 3 c
-0.795609 3 -1.55874 2.683901 -2.12132 2.12132 c
-2.683901 1.55874 -3 0.795609 -3 0 c
-3 -0.795609 -2.683901 -1.55874 -2.12132 -2.12132 c
-1.55874 -2.683901 -0.795609 -3 0 -3 c
cl

gsave
0.002 0.709 0.923 setrgbcolor
fill
grestore
stroke
grestore
} bind def
173.045 333.733 o
178.677 293.39 o
180.364 721 o
189.116 721 o
190.945 276.063 o
197.615 357.036 o
204.734 311.861 o
212.308 245.868 o
220.492 256.806 o
229.314 272.625 o
238.906 290.487 o
249.397 310.099 o
261.002 332.547 o
273.966 221.519 o
288.677 308.738 o
305.665 271.951 o
325.748 310.559 o
350.328 356.004 o
382.024 316.908 o
426.684 262.559 o
432.336 252.517 o
438.29 293.297 o
444.587 250.891 o
451.265 240.32 o
458.376 268.649 o
465.974 270.254 o
474.136 276.113 o
482.954 269.342 o
492.54 256.867 o
503.038 255.732 o
514.643 250.593 o
527.617 245.306 o
542.326 242.228 o
545.518 243.473 o
548.808 241.848 o
552.198 240.36 o
555.695 240.731 o
559.307 242.74 o
563.04 240.629 o
566.906 239.505 o
570.912 239.703 o
575.069 239.84 o
579.39 239.812 o
583.886 237.918 o
588.574 238.21 o
593.471 238.499 o
598.595 235.106 o
603.969 231.562 o
609.619 224.8 o
615.575 231.048 o
621.871 210.763 o
628.55 191.737 o
635.658 187.597 o
643.258 169.174 o
651.421 160.384 o
660.238 142.382 o
669.822 125.978 o
680.321 117.676 o
691.926 108.047 o
704.9 102.474 o
719.609 99.2092 o
736.589 97.7522 o
756.672 97.6982 o
781.252 98.1719 o
812.94 99.0628 o
857.603 100.275 o
933.955 101.866 o
grestore
1.500 setlinewidth
2 setlinecap
0.504 1.000 0.705 setrgbcolor
gsave
837 554.4 135 79.2 clipbox
178.544829 721 m
178.677113 203.767443 l
180.877713 721 l
188.658104 721 m
190.94457 214.918506 l
197.614597 327.908691 l
204.734133 232.372404 l
210.34307 721 l
214.504856 721 m
220.491686 254.714724 l
229.313782 270.429192 l
238.906115 255.765312 l
249.396817 225.551205 l
261.002461 216.147195 l
273.96596 187.06545 l
288.677301 225.260145 l
305.665145 252.183195 l
325.74818 273.936465 l
350.327829 222.11046 l
382.024387 243.941346 l
426.684445 265.773618 l
432.335803 252.892827 l
438.289563 246.581676 l
444.587237 297.309276 l
451.265144 285.138117 l
458.37575 269.661348 l
465.974383 274.862313 l
474.135666 268.350885 l
482.953823 263.347425 l
492.539852 255.089637 l
503.038434 255.661362 l
514.643289 252.049446 l
527.616507 248.198445 l
542.325746 244.88244 l
545.518248 243.885906 l
548.80818 242.965602 l
552.197836 240.97392 l
555.694905 242.736912 l
559.306761 243.617715 l
563.040288 239.301711 l
566.90613 239.905314 l
570.912089 239.944122 l
575.068727 239.973921 l
579.389797 240.431301 l
583.886095 239.410512 l
588.5739 237.887298 l
593.470864 240.233796 l
598.594809 236.027979 l
603.96892 233.89146 l
609.619175 226.714059 l
615.574773 222.698817 l
621.870504 209.354409 l
628.549619 196.414713 l
635.658124 183.967047 l
643.257677 169.276833 l
651.420602 160.685019 l
660.237773 142.110124 l
669.822227 126.028366 l
680.320808 117.491576 l
691.926255 107.684725 l
704.900457 102.245091 l
719.60904 99.062558 l
736.589136 97.681617 l
756.672171 97.648284 l
781.25182 98.157985 l
812.940498 98.970943 l
857.603314 100.223402 l
933.954545 101.837746 l
stroke
grestore
1.000 setlinewidth
2 setlinejoin
0 setlinecap
gsave
837 554.4 135 79.2 clipbox
/o {
gsave
newpath
translate
1.0 setlinewidth
2 setlinejoin
0 setlinecap
0 3 m
-0.673542 0.927051 l
-2.85317 0.927051 l
-1.089814 -0.354102 l
-1.763356 -2.427051 l
-0 -1.145898 l
1.763356 -2.427051 l
1.089814 -0.354102 l
2.85317 0.927051 l
0.673542 0.927051 l
cl

gsave
0.504 1.000 0.705 setrgbcolor
fill
grestore
stroke
grestore
} bind def
178.545 721 o
178.677 203.767 o
180.878 721 o
188.658 721 o
190.945 214.919 o
197.615 327.909 o
204.734 232.372 o
210.343 721 o
214.505 721 o
220.492 254.715 o
229.314 270.429 o
238.906 255.765 o
249.397 225.551 o
261.002 216.147 o
273.966 187.065 o
288.677 225.26 o
305.665 252.183 o
325.748 273.936 o
350.328 222.11 o
382.024 243.941 o
426.684 265.774 o
432.336 252.893 o
438.29 246.582 o
444.587 297.309 o
451.265 285.138 o
458.376 269.661 o
465.974 274.862 o
474.136 268.351 o
482.954 263.347 o
492.54 255.09 o
503.038 255.661 o
514.643 252.049 o
527.617 248.198 o
542.326 244.882 o
545.518 243.886 o
548.808 242.966 o
552.198 240.974 o
555.695 242.737 o
559.307 243.618 o
563.04 239.302 o
566.906 239.905 o
570.912 239.944 o
575.069 239.974 o
579.39 240.431 o
583.886 239.411 o
588.574 237.887 o
593.471 240.234 o
598.595 236.028 o
603.969 233.891 o
609.619 226.714 o
615.575 222.699 o
621.871 209.354 o
628.55 196.415 o
635.658 183.967 o
643.258 169.277 o
651.421 160.685 o
660.238 142.11 o
669.822 126.028 o
680.321 117.492 o
691.926 107.685 o
704.9 102.245 o
719.609 99.0626 o
736.589 97.6816 o
756.672 97.6483 o
781.252 98.158 o
812.94 98.9709 o
857.603 100.223 o
933.955 101.838 o
grestore
1.500 setlinewidth
1 setlinejoin
2 setlinecap
1.000 0.701 0.378 setrgbcolor
gsave
837 554.4 135 79.2 clipbox
173.045455 195.370362 m
178.677113 544.87521 l
184.651098 207.956628 l
190.94457 214.448652 l
197.614597 246.220623 l
204.734133 232.334289 l
212.30755 248.587911 l
220.491686 254.800656 l
229.313782 270.476316 l
238.906115 281.489472 l
249.396817 270.689067 l
261.002461 208.585179 l
273.96596 185.274045 l
288.677301 243.01827 l
305.665145 230.71059 l
325.74818 232.94205 l
350.327829 207.441729 l
382.024387 266.051511 l
426.684445 210.875544 l
432.335803 212.927517 l
438.289563 205.285113 l
444.587237 215.13195 l
451.265144 208.973952 l
458.37575 210.257388 l
465.974383 209.701602 l
474.135666 213.425784 l
482.953823 208.402227 l
492.539852 210.182544 l
503.038434 209.889405 l
514.643289 213.725853 l
527.616507 212.298966 l
542.325746 213.623982 l
545.518248 214.27263 l
548.80818 211.040478 l
552.197836 215.660016 l
555.694905 214.704369 l
559.306761 215.604576 l
563.040288 217.689813 l
566.90613 218.495079 l
570.912089 214.596261 l
575.068727 217.02384 l
579.389797 217.414692 l
583.886095 219.249063 l
588.5739 217.206792 l
593.470864 221.455575 l
598.594809 219.328065 l
603.96892 220.951071 l
609.619175 213.091758 l
615.574773 213.243525 l
621.870504 205.856145 l
628.549619 189.734886 l
635.658124 183.402252 l
643.257677 169.38009 l
651.420602 163.249119 l
660.237773 141.551705 l
669.822227 126.369946 l
680.320808 117.52879 l
691.926255 107.70704 l
704.900457 102.252922 l
719.60904 99.085011 l
736.589136 97.655491 l
756.672171 97.636433 l
781.25182 98.154382 l
812.940498 98.964776 l
857.603314 100.22063 l
933.954545 101.831925 l
stroke
grestore
1.000 setlinewidth
0 setlinejoin
0 setlinecap
gsave
837 554.4 135 79.2 clipbox
/o {
gsave
newpath
translate
1.0 setlinewidth
0 setlinejoin
0 setlinecap
3 -0 m
-3 3 l
-3 -3 l
cl

gsave
1.000 0.701 0.378 setrgbcolor
fill
grestore
stroke
grestore
} bind def
173.045 195.37 o
178.677 544.875 o
184.651 207.957 o
190.945 214.449 o
197.615 246.221 o
204.734 232.334 o
212.308 248.588 o
220.492 254.801 o
229.314 270.476 o
238.906 281.489 o
249.397 270.689 o
261.002 208.585 o
273.966 185.274 o
288.677 243.018 o
305.665 230.711 o
325.748 232.942 o
350.328 207.442 o
382.024 266.052 o
426.684 210.876 o
432.336 212.928 o
438.29 205.285 o
444.587 215.132 o
451.265 208.974 o
458.376 210.257 o
465.974 209.702 o
474.136 213.426 o
482.954 208.402 o
492.54 210.183 o
503.038 209.889 o
514.643 213.726 o
527.617 212.299 o
542.326 213.624 o
545.518 214.273 o
548.808 211.04 o
552.198 215.66 o
555.695 214.704 o
559.307 215.605 o
563.04 217.69 o
566.906 218.495 o
570.912 214.596 o
575.069 217.024 o
579.39 217.415 o
583.886 219.249 o
588.574 217.207 o
593.471 221.456 o
598.595 219.328 o
603.969 220.951 o
609.619 213.092 o
615.575 213.244 o
621.871 205.856 o
628.55 189.735 o
635.658 183.402 o
643.258 169.38 o
651.421 163.249 o
660.238 141.552 o
669.822 126.37 o
680.321 117.529 o
691.926 107.707 o
704.9 102.253 o
719.609 99.085 o
736.589 97.6555 o
756.672 97.6364 o
781.252 98.1544 o
812.94 98.9648 o
857.603 100.221 o
933.955 101.832 o
grestore
1.500 setlinewidth
1 setlinejoin
2 setlinecap
1.000 0.000 0.000 setrgbcolor
gsave
837 554.4 135 79.2 clipbox
267.254134 721 m
273.96596 577.760832 l
281.859565 721 l
521.835566 721 m
527.616507 714.413502 l
542.325746 706.16403 l
545.518248 707.824458 l
548.80818 700.77249 l
552.197836 699.276303 l
555.694905 702.511227 l
559.306761 707.526468 l
563.040288 700.852185 l
566.90613 699.793974 l
570.912089 696.457179 l
575.068727 698.936733 l
579.389797 699.605478 l
583.886095 697.378869 l
588.5739 693.50292 l
593.470864 700.492518 l
598.594809 687.863979 l
603.96892 684.415611 l
609.619175 638.699787 l
615.574773 659.084382 l
621.870504 602.229276 l
628.549619 526.508631 l
635.658124 502.446978 l
643.257677 435.758895 l
651.420602 409.500432 l
660.237773 329.773069 l
669.822227 266.841323 l
680.320808 232.774136 l
691.926255 193.824695 l
704.900457 171.807253 l
719.60904 158.949054 l
736.589136 153.241922 l
756.672171 153.096323 l
781.25182 155.057097 l
812.940498 158.457371 l
857.603314 163.342813 l
933.954545 169.794504 l
stroke
grestore
1.000 setlinewidth
2 setlinejoin
0 setlinecap
gsave
837 554.4 135 79.2 clipbox
/o {
gsave
newpath
translate
1.0 setlinewidth
2 setlinejoin
0 setlinecap
0 3 m
-0.673542 0.927051 l
-2.85317 0.927051 l
-1.089814 -0.354102 l
-1.763356 -2.427051 l
-0 -1.145898 l
1.763356 -2.427051 l
1.089814 -0.354102 l
2.85317 0.927051 l
0.673542 0.927051 l
cl

gsave
1.000 0.000 0.000 setrgbcolor
fill
grestore
stroke
grestore
} bind def
267.254 721 o
273.966 577.761 o
281.86 721 o
521.836 721 o
527.617 714.414 o
542.326 706.164 o
545.518 707.824 o
548.808 700.772 o
552.198 699.276 o
555.695 702.511 o
559.307 707.526 o
563.04 700.852 o
566.906 699.794 o
570.912 696.457 o
575.069 698.937 o
579.39 699.605 o
583.886 697.379 o
588.574 693.503 o
593.471 700.493 o
598.595 687.864 o
603.969 684.416 o
609.619 638.7 o
615.575 659.084 o
621.871 602.229 o
628.55 526.509 o
635.658 502.447 o
643.258 435.759 o
651.421 409.5 o
660.238 329.773 o
669.822 266.841 o
680.321 232.774 o
691.926 193.825 o
704.9 171.807 o
719.609 158.949 o
736.589 153.242 o
756.672 153.096 o
781.252 155.057 o
812.94 158.457 o
857.603 163.343 o
933.955 169.795 o
grestore
0.200 setlinewidth
1 setlinejoin
2 setlinecap
0.000 setgray
gsave
837 554.4 135 79.2 clipbox
135 79.2 m
1081 79.2 l
stroke
grestore
gsave
837 554.4 135 79.2 clipbox
135 113.85 m
1081 113.85 l
stroke
grestore
gsave
837 554.4 135 79.2 clipbox
135 148.5 m
1081 148.5 l
stroke
grestore
gsave
837 554.4 135 79.2 clipbox
135 183.15 m
1081 183.15 l
stroke
grestore
gsave
837 554.4 135 79.2 clipbox
135 217.8 m
1081 217.8 l
stroke
grestore
gsave
837 554.4 135 79.2 clipbox
135 252.45 m
1081 252.45 l
stroke
grestore
gsave
837 554.4 135 79.2 clipbox
135 287.1 m
1081 287.1 l
stroke
grestore
gsave
837 554.4 135 79.2 clipbox
135 321.75 m
1081 321.75 l
stroke
grestore
gsave
837 554.4 135 79.2 clipbox
135 356.4 m
1081 356.4 l
stroke
grestore
gsave
837 554.4 135 79.2 clipbox
135 391.05 m
1081 391.05 l
stroke
grestore
gsave
837 554.4 135 79.2 clipbox
135 425.7 m
1081 425.7 l
stroke
grestore
gsave
837 554.4 135 79.2 clipbox
135 460.35 m
1081 460.35 l
stroke
grestore
gsave
837 554.4 135 79.2 clipbox
135 495 m
1081 495 l
stroke
grestore
gsave
837 554.4 135 79.2 clipbox
135 529.65 m
1081 529.65 l
stroke
grestore
gsave
837 554.4 135 79.2 clipbox
135 564.3 m
1081 564.3 l
stroke
grestore
gsave
837 554.4 135 79.2 clipbox
135 598.95 m
1081 598.95 l
stroke
grestore
0.800 setlinewidth
0 setlinejoin
gsave
135 79.2 m
135 633.6 l
stroke
grestore
gsave
972 79.2 m
972 633.6 l
stroke
grestore
gsave
135 79.2 m
972 79.2 l
stroke
grestore
gsave
135 633.6 m
972 633.6 l
stroke
grestore
/DejaVuSans findfont
14.400 scalefont
setfont
gsave
407.125000 655.275000 translate
0.000000 rotate
0.000000 0 m /B glyphshow
9.861755 0 m /a glyphshow
18.670654 0 m /n glyphshow
27.781372 0 m /d glyphshow
36.906128 0 m /w glyphshow
48.663025 0 m /i glyphshow
52.656860 0 m /d glyphshow
61.781616 0 m /t glyphshow
67.417908 0 m /h glyphshow
76.528625 0 m /space glyphshow
81.098022 0 m /m glyphshow
95.101013 0 m /e glyphshow
103.945007 0 m /a glyphshow
112.753906 0 m /s glyphshow
120.243225 0 m /u glyphshow
129.353943 0 m /r glyphshow
134.888977 0 m /e glyphshow
143.732971 0 m /s glyphshow
151.222290 0 m /space glyphshow
155.791687 0 m /o glyphshow
164.586548 0 m /n glyphshow
173.697266 0 m /space glyphshow
178.266663 0 m /A glyphshow
188.100342 0 m /M glyphshow
200.502991 0 m /D glyphshow
211.572021 0 m /space glyphshow
216.141418 0 m /E glyphshow
225.224060 0 m /P glyphshow
233.517578 0 m /Y glyphshow
241.548401 0 m /C glyphshow
251.585632 0 m /space glyphshow
256.155029 0 m /seven glyphshow
265.300842 0 m /four glyphshow
274.446655 0 m /five glyphshow
283.592468 0 m /two glyphshow
grestore
gsave
465.765625 639.600000 translate
0.000000 rotate
0.000000 0 m /C glyphshow
10.037231 0 m /r glyphshow
15.572266 0 m /o glyphshow
24.367126 0 m /s glyphshow
31.856445 0 m /s glyphshow
39.345764 0 m /space glyphshow
43.915161 0 m /m glyphshow
57.918152 0 m /o glyphshow
66.713013 0 m /d glyphshow
75.837769 0 m /e glyphshow
84.681763 0 m /colon glyphshow
89.524902 0 m /space glyphshow
94.094299 0 m /D glyphshow
105.163330 0 m /I glyphshow
109.402832 0 m /E glyphshow
118.485474 0 m /zero glyphshow
127.631287 0 m /space glyphshow
132.200684 0 m /hyphen glyphshow
137.387756 0 m /space glyphshow
141.957153 0 m /D glyphshow
153.026184 0 m /I glyphshow
157.265686 0 m /E glyphshow
166.348328 0 m /zero glyphshow
grestore
1.000 setlinewidth
0 setlinecap
0.800 setgray
gsave
822.0125 535.875 m
963.6 535.875 l
965.2 535.875 966 536.675 966 538.275 c
966 625.2 l
966 626.8 965.2 627.6 963.6 627.6 c
822.0125 627.6 l
820.4125 627.6 819.6125 626.8 819.6125 625.2 c
819.6125 538.275 l
819.6125 536.675 820.4125 535.875 822.0125 535.875 c
cl
gsave
1.000 setgray
fill
grestore
stroke
grestore
1.500 setlinewidth
1 setlinejoin
2 setlinecap
0.500 0.000 1.000 setrgbcolor
gsave
824.4125 617.875 m
848.4125 617.875 l
stroke
grestore
1.000 setlinewidth
0 setlinecap
gsave
/o {
gsave
newpath
translate
1.0 setlinewidth
1 setlinejoin
0 setlinecap
0 -1.5 m
0.397805 -1.5 0.77937 -1.341951 1.06066 -1.06066 c
1.341951 -0.77937 1.5 -0.397805 1.5 0 c
1.5 0.397805 1.341951 0.77937 1.06066 1.06066 c
0.77937 1.341951 0.397805 1.5 0 1.5 c
-0.397805 1.5 -0.77937 1.341951 -1.06066 1.06066 c
-1.341951 0.77937 -1.5 0.397805 -1.5 0 c
-1.5 -0.397805 -1.341951 -0.77937 -1.06066 -1.06066 c
-0.77937 -1.341951 -0.397805 -1.5 0 -1.5 c
cl

gsave
0.500 0.000 1.000 setrgbcolor
fill
grestore
stroke
grestore
} bind def
836.412 617.875 o
grestore
0.000 setgray
/DejaVuSans findfont
12.000 scalefont
setfont
gsave
858.012500 613.675000 translate
0.000000 rotate
0.000000 0 m /R glyphshow
7.962891 0 m /colon glyphshow
12.005859 0 m /C glyphshow
20.384766 0 m /P glyphshow
27.621094 0 m /U glyphshow
36.404297 0 m /zero glyphshow
44.039062 0 m /space glyphshow
47.853516 0 m /hyphen glyphshow
52.183594 0 m /space glyphshow
55.998047 0 m /W glyphshow
67.113281 0 m /colon glyphshow
71.156250 0 m /C glyphshow
79.535156 0 m /P glyphshow
86.771484 0 m /U glyphshow
95.554688 0 m /zero glyphshow
grestore
1.500 setlinewidth
2 setlinecap
0.002 0.709 0.923 setrgbcolor
gsave
824.4125 600.25 m
848.4125 600.25 l
stroke
grestore
1.000 setlinewidth
0 setlinecap
gsave
/o {
gsave
newpath
translate
1.0 setlinewidth
1 setlinejoin
0 setlinecap
0 -3 m
0.795609 -3 1.55874 -2.683901 2.12132 -2.12132 c
2.683901 -1.55874 3 -0.795609 3 0 c
3 0.795609 2.683901 1.55874 2.12132 2.12132 c
1.55874 2.683901 0.795609 3 0 3 c
-0.795609 3 -1.55874 2.683901 -2.12132 2.12132 c
-2.683901 1.55874 -3 0.795609 -3 0 c
-3 -0.795609 -2.683901 -1.55874 -2.12132 -2.12132 c
-1.55874 -2.683901 -0.795609 -3 0 -3 c
cl

gsave
0.002 0.709 0.923 setrgbcolor
fill
grestore
stroke
grestore
} bind def
836.412 600.25 o
grestore
0.000 setgray
gsave
858.012500 596.050000 translate
0.000000 rotate
0.000000 0 m /R glyphshow
7.962891 0 m /colon glyphshow
12.005859 0 m /C glyphshow
20.384766 0 m /P glyphshow
27.621094 0 m /U glyphshow
36.404297 0 m /one glyphshow
44.039062 0 m /space glyphshow
47.853516 0 m /hyphen glyphshow
52.183594 0 m /space glyphshow
55.998047 0 m /W glyphshow
67.113281 0 m /colon glyphshow
71.156250 0 m /C glyphshow
79.535156 0 m /P glyphshow
86.771484 0 m /U glyphshow
95.554688 0 m /one glyphshow
grestore
1.500 setlinewidth
2 setlinecap
0.504 1.000 0.705 setrgbcolor
gsave
824.4125 582.625 m
848.4125 582.625 l
stroke
grestore
1.000 setlinewidth
2 setlinejoin
0 setlinecap
gsave
/o {
gsave
newpath
translate
1.0 setlinewidth
2 setlinejoin
0 setlinecap
0 3 m
-0.673542 0.927051 l
-2.85317 0.927051 l
-1.089814 -0.354102 l
-1.763356 -2.427051 l
-0 -1.145898 l
1.763356 -2.427051 l
1.089814 -0.354102 l
2.85317 0.927051 l
0.673542 0.927051 l
cl

gsave
0.504 1.000 0.705 setrgbcolor
fill
grestore
stroke
grestore
} bind def
836.412 582.625 o
grestore
0.000 setgray
gsave
858.012500 578.425000 translate
0.000000 rotate
0.000000 0 m /R glyphshow
7.962891 0 m /colon glyphshow
12.005859 0 m /C glyphshow
20.384766 0 m /P glyphshow
27.621094 0 m /U glyphshow
36.404297 0 m /two glyphshow
44.039062 0 m /space glyphshow
47.853516 0 m /hyphen glyphshow
52.183594 0 m /space glyphshow
55.998047 0 m /W glyphshow
67.113281 0 m /colon glyphshow
71.156250 0 m /C glyphshow
79.535156 0 m /P glyphshow
86.771484 0 m /U glyphshow
95.554688 0 m /two glyphshow
grestore
1.500 setlinewidth
1 setlinejoin
2 setlinecap
1.000 0.701 0.378 setrgbcolor
gsave
824.4125 565 m
848.4125 565 l
stroke
grestore
1.000 setlinewidth
0 setlinejoin
0 setlinecap
gsave
/o {
gsave
newpath
translate
1.0 setlinewidth
0 setlinejoin
0 setlinecap
3 -0 m
-3 3 l
-3 -3 l
cl

gsave
1.000 0.701 0.378 setrgbcolor
fill
grestore
stroke
grestore
} bind def
836.412 565 o
grestore
0.000 setgray
gsave
858.012500 560.800000 translate
0.000000 rotate
0.000000 0 m /R glyphshow
7.962891 0 m /colon glyphshow
12.005859 0 m /C glyphshow
20.384766 0 m /P glyphshow
27.621094 0 m /U glyphshow
36.404297 0 m /three glyphshow
44.039062 0 m /space glyphshow
47.853516 0 m /hyphen glyphshow
52.183594 0 m /space glyphshow
55.998047 0 m /W glyphshow
67.113281 0 m /colon glyphshow
71.156250 0 m /C glyphshow
79.535156 0 m /P glyphshow
86.771484 0 m /U glyphshow
95.554688 0 m /three glyphshow
grestore
1.500 setlinewidth
1 setlinejoin
2 setlinecap
1.000 0.000 0.000 setrgbcolor
gsave
824.4125 547.375 m
848.4125 547.375 l
stroke
grestore
1.000 setlinewidth
2 setlinejoin
0 setlinecap
gsave
/o {
gsave
newpath
translate
1.0 setlinewidth
2 setlinejoin
0 setlinecap
0 3 m
-0.673542 0.927051 l
-2.85317 0.927051 l
-1.089814 -0.354102 l
-1.763356 -2.427051 l
-0 -1.145898 l
1.763356 -2.427051 l
1.089814 -0.354102 l
2.85317 0.927051 l
0.673542 0.927051 l
cl

gsave
1.000 0.000 0.000 setrgbcolor
fill
grestore
stroke
grestore
} bind def
836.412 547.375 o
grestore
0.000 setgray
gsave
858.012500 543.175000 translate
0.000000 rotate
0.000000 0 m /S glyphshow
7.617188 0 m /u glyphshow
15.222656 0 m /m glyphshow
26.912109 0 m /space glyphshow
30.726562 0 m /o glyphshow
38.068359 0 m /f glyphshow
42.292969 0 m /space glyphshow
46.107422 0 m /B glyphshow
53.964844 0 m /W glyphshow
65.830078 0 m /s glyphshow
grestore

end
showpage
