%!PS-Adobe-3.0 EPSF-3.0
%%Title: amd-multicross4-die3.eps
%%Creator: matplotlib version 3.3.3, http://matplotlib.org/
%%CreationDate: Tue Jan 12 18:07:14 2021
%%Orientation: portrait
%%BoundingBox: -234.0 36.0 846.0 756.0
%%EndComments
%%BeginProlog
/mpldict 8 dict def
mpldict begin
/m { moveto } bind def
/l { lineto } bind def
/r { rlineto } bind def
/c { curveto } bind def
/cl { closepath } bind def
/box {
      m
      1 index 0 r
      0 exch r
      neg 0 r
      cl
    } bind def
/clipbox {
      box
      clip
      newpath
    } bind def
%!PS-Adobe-3.0 Resource-Font
%%Title: DejaVu Sans
%%Copyright: Copyright (c) 2003 by Bitstream, Inc. All Rights Reserved. Copyright (c) 2006 by Tavmjong Bah. All Rights Reserved. DejaVu changes are in public domain 
%%Creator: Converted from TrueType to type 3 by PPR
25 dict begin
/_d{bind def}bind def
/_m{moveto}_d
/_l{lineto}_d
/_cl{closepath eofill}_d
/_c{curveto}_d
/_sc{7 -1 roll{setcachedevice}{pop pop pop pop pop pop}ifelse}_d
/_e{exec}_d
/FontName /DejaVuSans def
/PaintType 0 def
/FontMatrix[.001 0 0 .001 0 0]def
/FontBBox[-1021 -463 1793 1232]def
/FontType 3 def
/Encoding [ /space /parenleft /parenright /hyphen /zero /one /two /three /four /five /six /seven /colon /A /B /C /D /E /G /I /M /P /R /S /U /W /Y /a /d /e /f /h /i /m /n /o /p /r /s /t /u /w ] def
/FontInfo 10 dict dup begin
/FamilyName (DejaVu Sans) def
/FullName (DejaVu Sans) def
/Notice (Copyright (c) 2003 by Bitstream, Inc. All Rights Reserved. Copyright (c) 2006 by Tavmjong Bah. All Rights Reserved. DejaVu changes are in public domain ) def
/Weight (Book) def
/Version (Version 2.35) def
/ItalicAngle 0.0 def
/isFixedPitch false def
/UnderlinePosition -130 def
/UnderlineThickness 90 def
end readonly def
/CharStrings 43 dict dup begin
/.notdef 0 def
/space{318 0 0 0 0 0 _sc
}_d
/parenleft{390 0 86 -131 310 759 _sc
310 759 _m
266 683 234 609 213 536 _c
191 463 181 389 181 314 _c
181 238 191 164 213 91 _c
234 17 266 -56 310 -131 _c
232 -131 _l
183 -54 146 20 122 94 _c
98 168 86 241 86 314 _c
86 386 98 459 122 533 _c
146 607 182 682 232 759 _c
310 759 _l
_cl}_d
/parenright{390 0 80 -131 304 759 _sc
80 759 _m
158 759 _l
206 682 243 607 267 533 _c
291 459 304 386 304 314 _c
304 241 291 168 267 94 _c
243 20 206 -54 158 -131 _c
80 -131 _l
123 -56 155 17 177 91 _c
198 164 209 238 209 314 _c
209 389 198 463 177 536 _c
155 609 123 683 80 759 _c
_cl}_d
/hyphen{361 0 49 234 312 314 _sc
49 314 _m
312 314 _l
312 234 _l
49 234 _l
49 314 _l
_cl}_d
/zero{636 0 66 -13 570 742 _sc
318 664 _m
267 664 229 639 203 589 _c
177 539 165 464 165 364 _c
165 264 177 189 203 139 _c
229 89 267 64 318 64 _c
369 64 407 89 433 139 _c
458 189 471 264 471 364 _c
471 464 458 539 433 589 _c
407 639 369 664 318 664 _c
318 742 _m
399 742 461 709 505 645 _c
548 580 570 486 570 364 _c
570 241 548 147 505 83 _c
461 19 399 -13 318 -13 _c
236 -13 173 19 130 83 _c
87 147 66 241 66 364 _c
66 486 87 580 130 645 _c
173 709 236 742 318 742 _c
_cl}_d
/one{636 0 110 0 544 729 _sc
124 83 _m
285 83 _l
285 639 _l
110 604 _l
110 694 _l
284 729 _l
383 729 _l
383 83 _l
544 83 _l
544 0 _l
124 0 _l
124 83 _l
_cl}_d
/two{{636 0 73 0 536 742 _sc
192 83 _m
536 83 _l
536 0 _l
73 0 _l
73 83 _l
110 121 161 173 226 239 _c
290 304 331 346 348 365 _c
380 400 402 430 414 455 _c
426 479 433 504 433 528 _c
433 566 419 598 392 622 _c
365 646 330 659 286 659 _c
255 659 222 653 188 643 _c
154 632 117 616 78 594 _c
78 694 _l
118 710 155 722 189 730 _c
223 738 255 742 284 742 _c
}_e{359 742 419 723 464 685 _c
509 647 532 597 532 534 _c
532 504 526 475 515 449 _c
504 422 484 390 454 354 _c
446 344 420 317 376 272 _c
332 227 271 164 192 83 _c
_cl}_e}_d
/three{{636 0 76 -13 556 742 _sc
406 393 _m
453 383 490 362 516 330 _c
542 298 556 258 556 212 _c
556 140 531 84 482 45 _c
432 6 362 -13 271 -13 _c
240 -13 208 -10 176 -4 _c
144 1 110 10 76 22 _c
76 117 _l
103 101 133 89 166 81 _c
198 73 232 69 268 69 _c
330 69 377 81 409 105 _c
441 129 458 165 458 212 _c
458 254 443 288 413 312 _c
383 336 341 349 287 349 _c
}_e{202 349 _l
202 430 _l
291 430 _l
339 430 376 439 402 459 _c
428 478 441 506 441 543 _c
441 580 427 609 401 629 _c
374 649 336 659 287 659 _c
260 659 231 656 200 650 _c
169 644 135 635 98 623 _c
98 711 _l
135 721 170 729 203 734 _c
235 739 266 742 296 742 _c
370 742 429 725 473 691 _c
517 657 539 611 539 553 _c
539 513 527 479 504 451 _c
481 423 448 403 406 393 _c
_cl}_e}_d
/four{636 0 49 0 580 729 _sc
378 643 _m
129 254 _l
378 254 _l
378 643 _l
352 729 _m
476 729 _l
476 254 _l
580 254 _l
580 172 _l
476 172 _l
476 0 _l
378 0 _l
378 172 _l
49 172 _l
49 267 _l
352 729 _l
_cl}_d
/five{{636 0 77 -13 549 729 _sc
108 729 _m
495 729 _l
495 646 _l
198 646 _l
198 467 _l
212 472 227 476 241 478 _c
255 480 270 482 284 482 _c
365 482 429 459 477 415 _c
525 370 549 310 549 234 _c
549 155 524 94 475 51 _c
426 8 357 -13 269 -13 _c
238 -13 207 -10 175 -6 _c
143 -1 111 6 77 17 _c
77 116 _l
106 100 136 88 168 80 _c
199 72 232 69 267 69 _c
}_e{323 69 368 83 401 113 _c
433 143 450 183 450 234 _c
450 284 433 324 401 354 _c
368 384 323 399 267 399 _c
241 399 214 396 188 390 _c
162 384 135 375 108 363 _c
108 729 _l
_cl}_e}_d
/six{{636 0 70 -13 573 742 _sc
330 404 _m
286 404 251 388 225 358 _c
199 328 186 286 186 234 _c
186 181 199 139 225 109 _c
251 79 286 64 330 64 _c
374 64 409 79 435 109 _c
461 139 474 181 474 234 _c
474 286 461 328 435 358 _c
409 388 374 404 330 404 _c
526 713 _m
526 623 _l
501 635 476 644 451 650 _c
425 656 400 659 376 659 _c
310 659 260 637 226 593 _c
}_e{192 549 172 482 168 394 _c
187 422 211 444 240 459 _c
269 474 301 482 336 482 _c
409 482 467 459 509 415 _c
551 371 573 310 573 234 _c
573 159 550 99 506 54 _c
462 9 403 -13 330 -13 _c
246 -13 181 19 137 83 _c
92 147 70 241 70 364 _c
70 479 97 571 152 639 _c
206 707 280 742 372 742 _c
396 742 421 739 447 735 _c
472 730 498 723 526 713 _c
_cl}_e}_d
/seven{636 0 82 0 551 729 _sc
82 729 _m
551 729 _l
551 687 _l
286 0 _l
183 0 _l
432 646 _l
82 646 _l
82 729 _l
_cl}_d
/colon{337 0 117 0 220 517 _sc
117 124 _m
220 124 _l
220 0 _l
117 0 _l
117 124 _l
117 517 _m
220 517 _l
220 393 _l
117 393 _l
117 517 _l
_cl}_d
/A{684 0 8 0 676 729 _sc
342 632 _m
208 269 _l
476 269 _l
342 632 _l
286 729 _m
398 729 _l
676 0 _l
573 0 _l
507 187 _l
178 187 _l
112 0 _l
8 0 _l
286 729 _l
_cl}_d
/B{{686 0 98 0 615 729 _sc
197 348 _m
197 81 _l
355 81 _l
408 81 447 92 473 114 _c
498 136 511 169 511 215 _c
511 260 498 293 473 315 _c
447 337 408 348 355 348 _c
197 348 _l
197 648 _m
197 428 _l
343 428 _l
391 428 426 437 450 455 _c
474 473 486 500 486 538 _c
486 574 474 602 450 620 _c
426 638 391 648 343 648 _c
197 648 _l
98 729 _m
350 729 _l
}_e{425 729 483 713 524 682 _c
564 650 585 606 585 549 _c
585 504 574 468 553 442 _c
532 416 502 399 462 393 _c
510 382 548 360 575 327 _c
601 294 615 253 615 204 _c
615 138 592 88 548 53 _c
504 17 441 0 360 0 _c
98 0 _l
98 729 _l
_cl}_e}_d
/C{{698 0 56 -13 644 742 _sc
644 673 _m
644 569 _l
610 599 575 622 537 638 _c
499 653 460 661 418 661 _c
334 661 270 635 226 584 _c
182 533 160 460 160 364 _c
160 268 182 194 226 143 _c
270 92 334 67 418 67 _c
460 67 499 74 537 90 _c
575 105 610 128 644 159 _c
644 56 _l
609 32 572 15 534 4 _c
496 -7 455 -13 412 -13 _c
302 -13 215 20 151 87 _c
}_e{87 154 56 246 56 364 _c
56 481 87 573 151 641 _c
215 708 302 742 412 742 _c
456 742 497 736 535 725 _c
573 713 610 696 644 673 _c
_cl}_e}_d
/D{770 0 98 0 711 729 _sc
197 648 _m
197 81 _l
316 81 _l
416 81 490 103 537 149 _c
583 195 607 267 607 365 _c
607 463 583 534 537 580 _c
490 625 416 648 316 648 _c
197 648 _l
98 729 _m
301 729 _l
442 729 546 699 612 641 _c
678 582 711 490 711 365 _c
711 239 677 147 611 88 _c
545 29 441 0 301 0 _c
98 0 _l
98 729 _l
_cl}_d
/E{632 0 98 0 568 729 _sc
98 729 _m
559 729 _l
559 646 _l
197 646 _l
197 430 _l
544 430 _l
544 347 _l
197 347 _l
197 83 _l
568 83 _l
568 0 _l
98 0 _l
98 729 _l
_cl}_d
/G{{775 0 56 -13 693 742 _sc
595 104 _m
595 300 _l
434 300 _l
434 381 _l
693 381 _l
693 68 _l
655 40 613 20 567 7 _c
521 -6 472 -13 420 -13 _c
306 -13 216 20 152 86 _c
88 152 56 245 56 364 _c
56 482 88 575 152 642 _c
216 708 306 742 420 742 _c
467 742 512 736 555 724 _c
598 712 638 695 674 673 _c
674 568 _l
637 598 598 621 557 637 _c
516 653 473 661 428 661 _c
}_e{338 661 271 636 227 586 _c
182 536 160 462 160 364 _c
160 265 182 191 227 141 _c
271 91 338 67 428 67 _c
462 67 493 70 521 76 _c
549 82 573 91 595 104 _c
_cl}_e}_d
/I{295 0 98 0 197 729 _sc
98 729 _m
197 729 _l
197 0 _l
98 0 _l
98 729 _l
_cl}_d
/M{863 0 98 0 765 729 _sc
98 729 _m
245 729 _l
431 233 _l
618 729 _l
765 729 _l
765 0 _l
669 0 _l
669 640 _l
481 140 _l
382 140 _l
194 640 _l
194 0 _l
98 0 _l
98 729 _l
_cl}_d
/P{603 0 98 0 569 729 _sc
197 648 _m
197 374 _l
321 374 _l
367 374 402 385 427 409 _c
452 433 465 467 465 511 _c
465 555 452 588 427 612 _c
402 636 367 648 321 648 _c
197 648 _l
98 729 _m
321 729 _l
402 729 464 710 506 673 _c
548 636 569 582 569 511 _c
569 439 548 384 506 348 _c
464 311 402 293 321 293 _c
197 293 _l
197 0 _l
98 0 _l
98 729 _l
_cl}_d
/R{{695 0 98 0 666 729 _sc
444 342 _m
465 334 486 319 506 296 _c
526 272 546 240 566 199 _c
666 0 _l
560 0 _l
467 187 _l
443 235 419 268 397 284 _c
374 300 343 308 304 308 _c
197 308 _l
197 0 _l
98 0 _l
98 729 _l
321 729 _l
404 729 466 711 507 677 _c
548 642 569 589 569 519 _c
569 473 558 434 537 404 _c
515 374 484 353 444 342 _c
197 648 _m
197 389 _l
321 389 _l
}_e{368 389 404 400 428 422 _c
452 444 465 476 465 519 _c
465 561 452 593 428 615 _c
404 637 368 648 321 648 _c
197 648 _l
_cl}_e}_d
/S{{635 0 66 -13 579 742 _sc
535 705 _m
535 609 _l
497 627 462 640 429 649 _c
395 657 363 662 333 662 _c
279 662 237 651 208 631 _c
179 610 165 580 165 542 _c
165 510 174 485 194 469 _c
213 452 250 439 304 429 _c
364 417 _l
437 403 491 378 526 343 _c
561 307 579 260 579 201 _c
579 130 555 77 508 41 _c
460 5 391 -13 300 -13 _c
265 -13 228 -9 189 -2 _c
}_e{150 5 110 16 69 32 _c
69 134 _l
109 111 148 94 186 83 _c
224 71 262 66 300 66 _c
356 66 399 77 430 99 _c
460 121 476 152 476 194 _c
476 230 465 258 443 278 _c
421 298 385 313 335 323 _c
275 335 _l
201 349 148 372 115 404 _c
82 435 66 478 66 534 _c
66 598 88 649 134 686 _c
179 723 242 742 322 742 _c
356 742 390 739 426 733 _c
461 727 497 717 535 705 _c
}_e{_cl}_e}_d
/U{732 0 87 -13 645 729 _sc
87 729 _m
186 729 _l
186 286 _l
186 208 200 151 228 117 _c
256 83 302 66 366 66 _c
429 66 475 83 503 117 _c
531 151 546 208 546 286 _c
546 729 _l
645 729 _l
645 274 _l
645 178 621 107 574 59 _c
527 11 458 -13 366 -13 _c
274 -13 204 11 157 59 _c
110 107 87 178 87 274 _c
87 729 _l
_cl}_d
/W{989 0 33 0 956 729 _sc
33 729 _m
133 729 _l
286 113 _l
439 729 _l
550 729 _l
703 113 _l
856 729 _l
956 729 _l
773 0 _l
649 0 _l
495 633 _l
340 0 _l
216 0 _l
33 729 _l
_cl}_d
/Y{611 0 -1 0 613 729 _sc
-1 729 _m
104 729 _l
306 429 _l
507 729 _l
613 729 _l
355 347 _l
355 0 _l
256 0 _l
256 347 _l
-1 729 _l
_cl}_d
/a{{613 0 60 -13 522 560 _sc
343 275 _m
270 275 220 266 192 250 _c
164 233 150 205 150 165 _c
150 133 160 107 181 89 _c
202 70 231 61 267 61 _c
317 61 357 78 387 114 _c
417 149 432 196 432 255 _c
432 275 _l
343 275 _l
522 312 _m
522 0 _l
432 0 _l
432 83 _l
411 49 385 25 355 10 _c
325 -5 287 -13 243 -13 _c
187 -13 142 2 109 33 _c
76 64 60 106 60 159 _c
}_e{60 220 80 266 122 298 _c
163 329 224 345 306 345 _c
432 345 _l
432 354 _l
432 395 418 427 391 450 _c
364 472 326 484 277 484 _c
245 484 215 480 185 472 _c
155 464 127 453 100 439 _c
100 522 _l
132 534 164 544 195 550 _c
226 556 256 560 286 560 _c
365 560 424 539 463 498 _c
502 457 522 395 522 312 _c
_cl}_e}_d
/d{{635 0 55 -13 544 760 _sc
454 464 _m
454 760 _l
544 760 _l
544 0 _l
454 0 _l
454 82 _l
435 49 411 25 382 10 _c
353 -5 319 -13 279 -13 _c
213 -13 159 13 117 65 _c
75 117 55 187 55 273 _c
55 359 75 428 117 481 _c
159 533 213 560 279 560 _c
319 560 353 552 382 536 _c
411 520 435 496 454 464 _c
148 273 _m
148 207 161 155 188 117 _c
215 79 253 61 301 61 _c
}_e{348 61 385 79 413 117 _c
440 155 454 207 454 273 _c
454 339 440 390 413 428 _c
385 466 348 485 301 485 _c
253 485 215 466 188 428 _c
161 390 148 339 148 273 _c
_cl}_e}_d
/e{{615 0 55 -13 562 560 _sc
562 296 _m
562 252 _l
149 252 _l
153 190 171 142 205 110 _c
238 78 284 62 344 62 _c
378 62 412 66 444 74 _c
476 82 509 95 541 113 _c
541 28 _l
509 14 476 3 442 -3 _c
408 -9 373 -13 339 -13 _c
251 -13 182 12 131 62 _c
80 112 55 181 55 268 _c
55 357 79 428 127 481 _c
175 533 241 560 323 560 _c
397 560 455 536 498 489 _c
}_e{540 441 562 377 562 296 _c
472 322 _m
471 371 457 410 431 440 _c
404 469 368 484 324 484 _c
274 484 234 469 204 441 _c
174 413 156 373 152 322 _c
472 322 _l
_cl}_e}_d
/f{352 0 23 0 371 760 _sc
371 760 _m
371 685 _l
285 685 _l
253 685 230 678 218 665 _c
205 652 199 629 199 595 _c
199 547 _l
347 547 _l
347 477 _l
199 477 _l
199 0 _l
109 0 _l
109 477 _l
23 477 _l
23 547 _l
109 547 _l
109 585 _l
109 645 123 690 151 718 _c
179 746 224 760 286 760 _c
371 760 _l
_cl}_d
/h{634 0 91 0 549 760 _sc
549 330 _m
549 0 _l
459 0 _l
459 327 _l
459 379 448 417 428 443 _c
408 469 378 482 338 482 _c
289 482 251 466 223 435 _c
195 404 181 362 181 309 _c
181 0 _l
91 0 _l
91 760 _l
181 760 _l
181 462 _l
202 494 227 519 257 535 _c
286 551 320 560 358 560 _c
420 560 468 540 500 501 _c
532 462 549 405 549 330 _c
_cl}_d
/i{278 0 94 0 184 760 _sc
94 547 _m
184 547 _l
184 0 _l
94 0 _l
94 547 _l
94 760 _m
184 760 _l
184 646 _l
94 646 _l
94 760 _l
_cl}_d
/m{{974 0 91 0 889 560 _sc
520 442 _m
542 482 569 511 600 531 _c
631 550 668 560 711 560 _c
767 560 811 540 842 500 _c
873 460 889 403 889 330 _c
889 0 _l
799 0 _l
799 327 _l
799 379 789 418 771 444 _c
752 469 724 482 686 482 _c
639 482 602 466 575 435 _c
548 404 535 362 535 309 _c
535 0 _l
445 0 _l
445 327 _l
445 379 435 418 417 444 _c
398 469 369 482 331 482 _c
}_e{285 482 248 466 221 435 _c
194 404 181 362 181 309 _c
181 0 _l
91 0 _l
91 547 _l
181 547 _l
181 462 _l
201 495 226 520 255 536 _c
283 552 317 560 357 560 _c
397 560 430 550 458 530 _c
486 510 506 480 520 442 _c
_cl}_e}_d
/n{634 0 91 0 549 560 _sc
549 330 _m
549 0 _l
459 0 _l
459 327 _l
459 379 448 417 428 443 _c
408 469 378 482 338 482 _c
289 482 251 466 223 435 _c
195 404 181 362 181 309 _c
181 0 _l
91 0 _l
91 547 _l
181 547 _l
181 462 _l
202 494 227 519 257 535 _c
286 551 320 560 358 560 _c
420 560 468 540 500 501 _c
532 462 549 405 549 330 _c
_cl}_d
/o{612 0 55 -13 557 560 _sc
306 484 _m
258 484 220 465 192 427 _c
164 389 150 338 150 273 _c
150 207 163 156 191 118 _c
219 80 257 62 306 62 _c
354 62 392 80 420 118 _c
448 156 462 207 462 273 _c
462 337 448 389 420 427 _c
392 465 354 484 306 484 _c
306 560 _m
384 560 445 534 490 484 _c
534 433 557 363 557 273 _c
557 183 534 113 490 63 _c
445 12 384 -13 306 -13 _c
227 -13 165 12 121 63 _c
77 113 55 183 55 273 _c
55 363 77 433 121 484 _c
165 534 227 560 306 560 _c
_cl}_d
/p{{635 0 91 -207 580 560 _sc
181 82 _m
181 -207 _l
91 -207 _l
91 547 _l
181 547 _l
181 464 _l
199 496 223 520 252 536 _c
281 552 316 560 356 560 _c
422 560 476 533 518 481 _c
559 428 580 359 580 273 _c
580 187 559 117 518 65 _c
476 13 422 -13 356 -13 _c
316 -13 281 -5 252 10 _c
223 25 199 49 181 82 _c
487 273 _m
487 339 473 390 446 428 _c
418 466 381 485 334 485 _c
}_e{286 485 249 466 222 428 _c
194 390 181 339 181 273 _c
181 207 194 155 222 117 _c
249 79 286 61 334 61 _c
381 61 418 79 446 117 _c
473 155 487 207 487 273 _c
_cl}_e}_d
/r{411 0 91 0 411 560 _sc
411 463 _m
401 469 390 473 378 476 _c
366 478 353 480 339 480 _c
288 480 249 463 222 430 _c
194 397 181 350 181 288 _c
181 0 _l
91 0 _l
91 547 _l
181 547 _l
181 462 _l
199 495 224 520 254 536 _c
284 552 321 560 365 560 _c
371 560 378 559 386 559 _c
393 558 401 557 411 555 _c
411 463 _l
_cl}_d
/s{{521 0 54 -13 472 560 _sc
443 531 _m
443 446 _l
417 458 391 468 364 475 _c
336 481 308 485 279 485 _c
234 485 200 478 178 464 _c
156 450 145 430 145 403 _c
145 382 153 366 169 354 _c
185 342 217 330 265 320 _c
296 313 _l
360 299 405 279 432 255 _c
458 230 472 195 472 151 _c
472 100 452 60 412 31 _c
372 1 316 -13 246 -13 _c
216 -13 186 -10 154 -5 _c
}_e{122 0 89 8 54 20 _c
54 113 _l
87 95 120 82 152 74 _c
184 65 216 61 248 61 _c
290 61 323 68 346 82 _c
368 96 380 117 380 144 _c
380 168 371 187 355 200 _c
339 213 303 226 247 238 _c
216 245 _l
160 257 119 275 95 299 _c
70 323 58 356 58 399 _c
58 450 76 490 112 518 _c
148 546 200 560 268 560 _c
301 560 332 557 362 552 _c
391 547 418 540 443 531 _c
}_e{_cl}_e}_d
/t{392 0 27 0 368 702 _sc
183 702 _m
183 547 _l
368 547 _l
368 477 _l
183 477 _l
183 180 _l
183 135 189 106 201 94 _c
213 81 238 75 276 75 _c
368 75 _l
368 0 _l
276 0 _l
206 0 158 13 132 39 _c
106 65 93 112 93 180 _c
93 477 _l
27 477 _l
27 547 _l
93 547 _l
93 702 _l
183 702 _l
_cl}_d
/u{634 0 85 -13 543 560 _sc
85 216 _m
85 547 _l
175 547 _l
175 219 _l
175 167 185 129 205 103 _c
225 77 255 64 296 64 _c
344 64 383 79 411 110 _c
439 141 453 183 453 237 _c
453 547 _l
543 547 _l
543 0 _l
453 0 _l
453 84 _l
431 50 405 26 377 10 _c
348 -5 315 -13 277 -13 _c
214 -13 166 6 134 45 _c
101 83 85 140 85 216 _c
311 560 _m
311 560 _l
_cl}_d
/w{818 0 42 0 776 547 _sc
42 547 _m
132 547 _l
244 120 _l
356 547 _l
462 547 _l
574 120 _l
686 547 _l
776 547 _l
633 0 _l
527 0 _l
409 448 _l
291 0 _l
185 0 _l
42 547 _l
_cl}_d
end readonly def

/BuildGlyph
 {exch begin
 CharStrings exch
 2 copy known not{pop /.notdef}if
 true 3 1 roll get exec
 end}_d

/BuildChar {
 1 index /Encoding get exch get
 1 index /BuildGlyph get exec
}_d

FontName currentdict end definefont pop
end
%%EndProlog
mpldict begin
-234 36 translate
1080 720 0 0 clipbox
gsave
0 0 m
1080 0 l
1080 720 l
0 720 l
cl
1.000 setgray
fill
grestore
gsave
135 79.2 m
972 79.2 l
972 633.6 l
135 633.6 l
cl
1.000 setgray
fill
grestore
0.800 setlinewidth
1 setlinejoin
0 setlinecap
[] 0 setdash
0.000 setgray
gsave
/o {
gsave
newpath
translate
0.8 setlinewidth
1 setlinejoin
0 setlinecap
0 0 m
0 -3.5 l

gsave
0.000 setgray
fill
grestore
stroke
grestore
} bind def
216.988 79.2 o
grestore
gsave
205.987903 62.700000 translate
0.000000 rotate
/DejaVuSans findfont
12.0 scalefont
setfont
0.000000 0.281250 moveto
/one glyphshow
7.634766 0.281250 moveto
/zero glyphshow
/DejaVuSans findfont
8.399999999999999 scalefont
setfont
15.384375 4.875000 moveto
/five glyphshow

grestore
gsave
/o {
gsave
newpath
translate
0.8 setlinewidth
1 setlinejoin
0 setlinecap
0 0 m
0 -3.5 l

gsave
0.000 setgray
fill
grestore
stroke
grestore
} bind def
470.622 79.2 o
grestore
gsave
459.621640 62.700000 translate
0.000000 rotate
/DejaVuSans findfont
12.0 scalefont
setfont
0.000000 0.171875 moveto
/one glyphshow
7.634766 0.171875 moveto
/zero glyphshow
/DejaVuSans findfont
8.399999999999999 scalefont
setfont
15.384375 4.765625 moveto
/six glyphshow

grestore
gsave
/o {
gsave
newpath
translate
0.8 setlinewidth
1 setlinejoin
0 setlinecap
0 0 m
0 -3.5 l

gsave
0.000 setgray
fill
grestore
stroke
grestore
} bind def
724.255 79.2 o
grestore
gsave
713.255378 62.700000 translate
0.000000 rotate
/DejaVuSans findfont
12.0 scalefont
setfont
0.000000 0.281250 moveto
/one glyphshow
7.634766 0.281250 moveto
/zero glyphshow
/DejaVuSans findfont
8.399999999999999 scalefont
setfont
15.384375 4.875000 moveto
/seven glyphshow

grestore
0.600 setlinewidth
gsave
/o {
gsave
newpath
translate
0.6 setlinewidth
1 setlinejoin
0 setlinecap
0 0 m
0 -2 l

gsave
0.000 setgray
fill
grestore
stroke
grestore
} bind def
140.637 79.2 o
grestore
gsave
/o {
gsave
newpath
translate
0.6 setlinewidth
1 setlinejoin
0 setlinecap
0 0 m
0 -2 l

gsave
0.000 setgray
fill
grestore
stroke
grestore
} bind def
160.72 79.2 o
grestore
gsave
/o {
gsave
newpath
translate
0.6 setlinewidth
1 setlinejoin
0 setlinecap
0 0 m
0 -2 l

gsave
0.000 setgray
fill
grestore
stroke
grestore
} bind def
177.7 79.2 o
grestore
gsave
/o {
gsave
newpath
translate
0.6 setlinewidth
1 setlinejoin
0 setlinecap
0 0 m
0 -2 l

gsave
0.000 setgray
fill
grestore
stroke
grestore
} bind def
192.408 79.2 o
grestore
gsave
/o {
gsave
newpath
translate
0.6 setlinewidth
1 setlinejoin
0 setlinecap
0 0 m
0 -2 l

gsave
0.000 setgray
fill
grestore
stroke
grestore
} bind def
205.382 79.2 o
grestore
gsave
/o {
gsave
newpath
translate
0.6 setlinewidth
1 setlinejoin
0 setlinecap
0 0 m
0 -2 l

gsave
0.000 setgray
fill
grestore
stroke
grestore
} bind def
293.339 79.2 o
grestore
gsave
/o {
gsave
newpath
translate
0.6 setlinewidth
1 setlinejoin
0 setlinecap
0 0 m
0 -2 l

gsave
0.000 setgray
fill
grestore
stroke
grestore
} bind def
338.002 79.2 o
grestore
gsave
/o {
gsave
newpath
translate
0.6 setlinewidth
1 setlinejoin
0 setlinecap
0 0 m
0 -2 l

gsave
0.000 setgray
fill
grestore
stroke
grestore
} bind def
369.691 79.2 o
grestore
gsave
/o {
gsave
newpath
translate
0.6 setlinewidth
1 setlinejoin
0 setlinecap
0 0 m
0 -2 l

gsave
0.000 setgray
fill
grestore
stroke
grestore
} bind def
394.27 79.2 o
grestore
gsave
/o {
gsave
newpath
translate
0.6 setlinewidth
1 setlinejoin
0 setlinecap
0 0 m
0 -2 l

gsave
0.000 setgray
fill
grestore
stroke
grestore
} bind def
414.353 79.2 o
grestore
gsave
/o {
gsave
newpath
translate
0.6 setlinewidth
1 setlinejoin
0 setlinecap
0 0 m
0 -2 l

gsave
0.000 setgray
fill
grestore
stroke
grestore
} bind def
431.333 79.2 o
grestore
gsave
/o {
gsave
newpath
translate
0.6 setlinewidth
1 setlinejoin
0 setlinecap
0 0 m
0 -2 l

gsave
0.000 setgray
fill
grestore
stroke
grestore
} bind def
446.042 79.2 o
grestore
gsave
/o {
gsave
newpath
translate
0.6 setlinewidth
1 setlinejoin
0 setlinecap
0 0 m
0 -2 l

gsave
0.000 setgray
fill
grestore
stroke
grestore
} bind def
459.016 79.2 o
grestore
gsave
/o {
gsave
newpath
translate
0.6 setlinewidth
1 setlinejoin
0 setlinecap
0 0 m
0 -2 l

gsave
0.000 setgray
fill
grestore
stroke
grestore
} bind def
546.973 79.2 o
grestore
gsave
/o {
gsave
newpath
translate
0.6 setlinewidth
1 setlinejoin
0 setlinecap
0 0 m
0 -2 l

gsave
0.000 setgray
fill
grestore
stroke
grestore
} bind def
591.636 79.2 o
grestore
gsave
/o {
gsave
newpath
translate
0.6 setlinewidth
1 setlinejoin
0 setlinecap
0 0 m
0 -2 l

gsave
0.000 setgray
fill
grestore
stroke
grestore
} bind def
623.324 79.2 o
grestore
gsave
/o {
gsave
newpath
translate
0.6 setlinewidth
1 setlinejoin
0 setlinecap
0 0 m
0 -2 l

gsave
0.000 setgray
fill
grestore
stroke
grestore
} bind def
647.904 79.2 o
grestore
gsave
/o {
gsave
newpath
translate
0.6 setlinewidth
1 setlinejoin
0 setlinecap
0 0 m
0 -2 l

gsave
0.000 setgray
fill
grestore
stroke
grestore
} bind def
667.987 79.2 o
grestore
gsave
/o {
gsave
newpath
translate
0.6 setlinewidth
1 setlinejoin
0 setlinecap
0 0 m
0 -2 l

gsave
0.000 setgray
fill
grestore
stroke
grestore
} bind def
684.967 79.2 o
grestore
gsave
/o {
gsave
newpath
translate
0.6 setlinewidth
1 setlinejoin
0 setlinecap
0 0 m
0 -2 l

gsave
0.000 setgray
fill
grestore
stroke
grestore
} bind def
699.676 79.2 o
grestore
gsave
/o {
gsave
newpath
translate
0.6 setlinewidth
1 setlinejoin
0 setlinecap
0 0 m
0 -2 l

gsave
0.000 setgray
fill
grestore
stroke
grestore
} bind def
712.65 79.2 o
grestore
gsave
/o {
gsave
newpath
translate
0.6 setlinewidth
1 setlinejoin
0 setlinecap
0 0 m
0 -2 l

gsave
0.000 setgray
fill
grestore
stroke
grestore
} bind def
800.607 79.2 o
grestore
gsave
/o {
gsave
newpath
translate
0.6 setlinewidth
1 setlinejoin
0 setlinecap
0 0 m
0 -2 l

gsave
0.000 setgray
fill
grestore
stroke
grestore
} bind def
845.269 79.2 o
grestore
gsave
/o {
gsave
newpath
translate
0.6 setlinewidth
1 setlinejoin
0 setlinecap
0 0 m
0 -2 l

gsave
0.000 setgray
fill
grestore
stroke
grestore
} bind def
876.958 79.2 o
grestore
gsave
/o {
gsave
newpath
translate
0.6 setlinewidth
1 setlinejoin
0 setlinecap
0 0 m
0 -2 l

gsave
0.000 setgray
fill
grestore
stroke
grestore
} bind def
901.538 79.2 o
grestore
gsave
/o {
gsave
newpath
translate
0.6 setlinewidth
1 setlinejoin
0 setlinecap
0 0 m
0 -2 l

gsave
0.000 setgray
fill
grestore
stroke
grestore
} bind def
921.621 79.2 o
grestore
gsave
/o {
gsave
newpath
translate
0.6 setlinewidth
1 setlinejoin
0 setlinecap
0 0 m
0 -2 l

gsave
0.000 setgray
fill
grestore
stroke
grestore
} bind def
938.601 79.2 o
grestore
gsave
/o {
gsave
newpath
translate
0.6 setlinewidth
1 setlinejoin
0 setlinecap
0 0 m
0 -2 l

gsave
0.000 setgray
fill
grestore
stroke
grestore
} bind def
953.309 79.2 o
grestore
gsave
/o {
gsave
newpath
translate
0.6 setlinewidth
1 setlinejoin
0 setlinecap
0 0 m
0 -2 l

gsave
0.000 setgray
fill
grestore
stroke
grestore
} bind def
966.283 79.2 o
grestore
/DejaVuSans findfont
12.000 scalefont
setfont
gsave
528.460938 47.075000 translate
0.000000 rotate
0.000000 0 m /D glyphshow
9.240234 0 m /a glyphshow
16.593750 0 m /t glyphshow
21.298828 0 m /a glyphshow
28.652344 0 m /space glyphshow
32.466797 0 m /parenleft glyphshow
37.148438 0 m /B glyphshow
45.380859 0 m /parenright glyphshow
grestore
0.800 setlinewidth
gsave
/o {
gsave
newpath
translate
0.8 setlinewidth
1 setlinejoin
0 setlinecap
-0 0 m
-3.5 0 l

gsave
0.000 setgray
fill
grestore
stroke
grestore
} bind def
135 79.2 o
grestore
gsave
120.359375 74.637500 translate
0.000000 rotate
0.000000 0 m /zero glyphshow
grestore
gsave
/o {
gsave
newpath
translate
0.8 setlinewidth
1 setlinejoin
0 setlinecap
-0 0 m
-3.5 0 l

gsave
0.000 setgray
fill
grestore
stroke
grestore
} bind def
135 113.85 o
grestore
gsave
120.359375 109.287500 translate
0.000000 rotate
0.000000 0 m /five glyphshow
grestore
gsave
/o {
gsave
newpath
translate
0.8 setlinewidth
1 setlinejoin
0 setlinecap
-0 0 m
-3.5 0 l

gsave
0.000 setgray
fill
grestore
stroke
grestore
} bind def
135 148.5 o
grestore
gsave
112.718750 143.937500 translate
0.000000 rotate
0.000000 0 m /one glyphshow
7.634766 0 m /zero glyphshow
grestore
gsave
/o {
gsave
newpath
translate
0.8 setlinewidth
1 setlinejoin
0 setlinecap
-0 0 m
-3.5 0 l

gsave
0.000 setgray
fill
grestore
stroke
grestore
} bind def
135 183.15 o
grestore
gsave
112.718750 178.587500 translate
0.000000 rotate
0.000000 0 m /one glyphshow
7.634766 0 m /five glyphshow
grestore
gsave
/o {
gsave
newpath
translate
0.8 setlinewidth
1 setlinejoin
0 setlinecap
-0 0 m
-3.5 0 l

gsave
0.000 setgray
fill
grestore
stroke
grestore
} bind def
135 217.8 o
grestore
gsave
112.718750 213.237500 translate
0.000000 rotate
0.000000 0 m /two glyphshow
7.634766 0 m /zero glyphshow
grestore
gsave
/o {
gsave
newpath
translate
0.8 setlinewidth
1 setlinejoin
0 setlinecap
-0 0 m
-3.5 0 l

gsave
0.000 setgray
fill
grestore
stroke
grestore
} bind def
135 252.45 o
grestore
gsave
112.718750 247.887500 translate
0.000000 rotate
0.000000 0 m /two glyphshow
7.634766 0 m /five glyphshow
grestore
gsave
/o {
gsave
newpath
translate
0.8 setlinewidth
1 setlinejoin
0 setlinecap
-0 0 m
-3.5 0 l

gsave
0.000 setgray
fill
grestore
stroke
grestore
} bind def
135 287.1 o
grestore
gsave
112.718750 282.537500 translate
0.000000 rotate
0.000000 0 m /three glyphshow
7.634766 0 m /zero glyphshow
grestore
gsave
/o {
gsave
newpath
translate
0.8 setlinewidth
1 setlinejoin
0 setlinecap
-0 0 m
-3.5 0 l

gsave
0.000 setgray
fill
grestore
stroke
grestore
} bind def
135 321.75 o
grestore
gsave
112.718750 317.187500 translate
0.000000 rotate
0.000000 0 m /three glyphshow
7.634766 0 m /five glyphshow
grestore
gsave
/o {
gsave
newpath
translate
0.8 setlinewidth
1 setlinejoin
0 setlinecap
-0 0 m
-3.5 0 l

gsave
0.000 setgray
fill
grestore
stroke
grestore
} bind def
135 356.4 o
grestore
gsave
112.718750 351.837500 translate
0.000000 rotate
0.000000 0 m /four glyphshow
7.634766 0 m /zero glyphshow
grestore
gsave
/o {
gsave
newpath
translate
0.8 setlinewidth
1 setlinejoin
0 setlinecap
-0 0 m
-3.5 0 l

gsave
0.000 setgray
fill
grestore
stroke
grestore
} bind def
135 391.05 o
grestore
gsave
112.718750 386.487500 translate
0.000000 rotate
0.000000 0 m /four glyphshow
7.634766 0 m /five glyphshow
grestore
gsave
/o {
gsave
newpath
translate
0.8 setlinewidth
1 setlinejoin
0 setlinecap
-0 0 m
-3.5 0 l

gsave
0.000 setgray
fill
grestore
stroke
grestore
} bind def
135 425.7 o
grestore
gsave
112.718750 421.137500 translate
0.000000 rotate
0.000000 0 m /five glyphshow
7.634766 0 m /zero glyphshow
grestore
gsave
/o {
gsave
newpath
translate
0.8 setlinewidth
1 setlinejoin
0 setlinecap
-0 0 m
-3.5 0 l

gsave
0.000 setgray
fill
grestore
stroke
grestore
} bind def
135 460.35 o
grestore
gsave
112.718750 455.787500 translate
0.000000 rotate
0.000000 0 m /five glyphshow
7.634766 0 m /five glyphshow
grestore
gsave
/o {
gsave
newpath
translate
0.8 setlinewidth
1 setlinejoin
0 setlinecap
-0 0 m
-3.5 0 l

gsave
0.000 setgray
fill
grestore
stroke
grestore
} bind def
135 495 o
grestore
gsave
112.718750 490.437500 translate
0.000000 rotate
0.000000 0 m /six glyphshow
7.634766 0 m /zero glyphshow
grestore
gsave
/o {
gsave
newpath
translate
0.8 setlinewidth
1 setlinejoin
0 setlinecap
-0 0 m
-3.5 0 l

gsave
0.000 setgray
fill
grestore
stroke
grestore
} bind def
135 529.65 o
grestore
gsave
112.718750 525.087500 translate
0.000000 rotate
0.000000 0 m /six glyphshow
7.634766 0 m /five glyphshow
grestore
gsave
/o {
gsave
newpath
translate
0.8 setlinewidth
1 setlinejoin
0 setlinecap
-0 0 m
-3.5 0 l

gsave
0.000 setgray
fill
grestore
stroke
grestore
} bind def
135 564.3 o
grestore
gsave
112.718750 559.737500 translate
0.000000 rotate
0.000000 0 m /seven glyphshow
7.634766 0 m /zero glyphshow
grestore
gsave
/o {
gsave
newpath
translate
0.8 setlinewidth
1 setlinejoin
0 setlinecap
-0 0 m
-3.5 0 l

gsave
0.000 setgray
fill
grestore
stroke
grestore
} bind def
135 598.95 o
grestore
gsave
112.718750 594.387500 translate
0.000000 rotate
0.000000 0 m /seven glyphshow
7.634766 0 m /five glyphshow
grestore
gsave
106.218750 302.150000 translate
90.000000 rotate
0.000000 0 m /B glyphshow
8.232422 0 m /a glyphshow
15.585938 0 m /n glyphshow
23.191406 0 m /d glyphshow
30.808594 0 m /w glyphshow
40.623047 0 m /i glyphshow
43.957031 0 m /d glyphshow
51.574219 0 m /t glyphshow
56.279297 0 m /h glyphshow
63.884766 0 m /space glyphshow
67.699219 0 m /parenleft glyphshow
72.380859 0 m /G glyphshow
81.679688 0 m /B glyphshow
89.912109 0 m /p glyphshow
97.529297 0 m /s glyphshow
103.781250 0 m /parenright glyphshow
grestore
1.500 setlinewidth
2 setlinecap
0.500 0.000 1.000 setrgbcolor
gsave
837 554.4 135 79.2 clipbox
173.045455 131.90064 m
178.677113 130.593919 l
184.651098 131.255319 l
190.94457 133.115608 l
197.614597 131.100433 l
204.734133 136.733692 l
212.30755 137.089963 l
220.491686 131.395928 l
229.313782 133.712004 l
238.906115 133.281928 l
249.396817 128.12483 l
261.002461 126.815614 l
273.96596 125.110973 l
288.677301 122.964682 l
305.665145 121.069743 l
325.74818 121.895661 l
350.327829 120.688732 l
382.024387 117.900654 l
426.684445 117.597605 l
432.335803 118.073003 l
438.289563 117.106823 l
444.587237 117.340017 l
451.265144 116.76254 l
458.37575 116.676886 l
465.974383 116.878964 l
474.135666 116.472728 l
482.953823 116.716941 l
492.539852 116.476123 l
503.038434 116.620822 l
514.643289 116.095736 l
527.616507 116.214585 l
542.325746 115.973144 l
545.518248 115.93101 l
548.80818 115.912922 l
552.197836 115.985618 l
555.694905 115.740019 l
559.306761 115.894281 l
563.040288 115.652562 l
566.90613 115.90329 l
570.912089 115.892479 l
575.068727 116.109942 l
579.389797 115.806339 l
583.886095 115.78548 l
588.5739 115.94785 l
593.470864 115.896498 l
598.594809 115.870857 l
603.96892 115.960601 l
609.619175 115.921931 l
615.574773 115.667947 l
621.870504 115.822278 l
628.549619 115.845563 l
635.658124 115.847711 l
643.257677 115.722417 l
651.420602 115.636277 l
660.237773 115.690955 l
669.822227 115.477303 l
680.320808 115.211745 l
691.926255 107.551184 l
704.900457 108.86137 l
719.60904 104.011133 l
736.589136 100.133104 l
756.672171 98.333453 l
781.25182 99.125482 l
812.940498 101.509472 l
857.603314 102.320559 l
933.954545 102.323677 l
stroke
grestore
1.000 setlinewidth
0 setlinecap
gsave
837 554.4 135 79.2 clipbox
/o {
gsave
newpath
translate
1.0 setlinewidth
1 setlinejoin
0 setlinecap
0 -1.5 m
0.397805 -1.5 0.77937 -1.341951 1.06066 -1.06066 c
1.341951 -0.77937 1.5 -0.397805 1.5 0 c
1.5 0.397805 1.341951 0.77937 1.06066 1.06066 c
0.77937 1.341951 0.397805 1.5 0 1.5 c
-0.397805 1.5 -0.77937 1.341951 -1.06066 1.06066 c
-1.341951 0.77937 -1.5 0.397805 -1.5 0 c
-1.5 -0.397805 -1.341951 -0.77937 -1.06066 -1.06066 c
-0.77937 -1.341951 -0.397805 -1.5 0 -1.5 c
cl

gsave
0.500 0.000 1.000 setrgbcolor
fill
grestore
stroke
grestore
} bind def
173.045 131.901 o
178.677 130.594 o
184.651 131.255 o
190.945 133.116 o
197.615 131.1 o
204.734 136.734 o
212.308 137.09 o
220.492 131.396 o
229.314 133.712 o
238.906 133.282 o
249.397 128.125 o
261.002 126.816 o
273.966 125.111 o
288.677 122.965 o
305.665 121.07 o
325.748 121.896 o
350.328 120.689 o
382.024 117.901 o
426.684 117.598 o
432.336 118.073 o
438.29 117.107 o
444.587 117.34 o
451.265 116.763 o
458.376 116.677 o
465.974 116.879 o
474.136 116.473 o
482.954 116.717 o
492.54 116.476 o
503.038 116.621 o
514.643 116.096 o
527.617 116.215 o
542.326 115.973 o
545.518 115.931 o
548.808 115.913 o
552.198 115.986 o
555.695 115.74 o
559.307 115.894 o
563.04 115.653 o
566.906 115.903 o
570.912 115.892 o
575.069 116.11 o
579.39 115.806 o
583.886 115.785 o
588.574 115.948 o
593.471 115.896 o
598.595 115.871 o
603.969 115.961 o
609.619 115.922 o
615.575 115.668 o
621.871 115.822 o
628.55 115.846 o
635.658 115.848 o
643.258 115.722 o
651.421 115.636 o
660.238 115.691 o
669.822 115.477 o
680.321 115.212 o
691.926 107.551 o
704.9 108.861 o
719.609 104.011 o
736.589 100.133 o
756.672 98.3335 o
781.252 99.1255 o
812.94 101.509 o
857.603 102.321 o
933.955 102.324 o
grestore
1.500 setlinewidth
2 setlinecap
0.002 0.709 0.923 setrgbcolor
gsave
837 554.4 135 79.2 clipbox
173.045455 129.604385 m
178.677113 129.870289 l
184.651098 131.030787 l
190.94457 130.348251 l
197.614597 129.742015 l
204.734133 132.281167 l
212.30755 134.249425 l
220.491686 129.361142 l
229.313782 133.101609 l
238.906115 127.85754 l
249.396817 126.56752 l
261.002461 123.965097 l
273.96596 122.661564 l
288.677301 121.236548 l
305.665145 120.126778 l
325.74818 119.860181 l
350.327829 119.319988 l
382.024387 118.11001 l
426.684445 118.048956 l
432.335803 117.893516 l
438.289563 117.771202 l
444.587237 117.654709 l
451.265144 116.589568 l
458.37575 117.456095 l
465.974383 117.572311 l
474.135666 116.890122 l
482.953823 117.294418 l
492.539852 116.704606 l
503.038434 116.513615 l
514.643289 116.149859 l
527.616507 116.20814 l
542.325746 115.866976 l
545.518248 116.111813 l
548.80818 115.998369 l
552.197836 115.836346 l
555.694905 115.893518 l
559.306761 115.925396 l
563.040288 115.649998 l
566.90613 115.818189 l
570.912089 115.901904 l
575.068727 116.379311 l
579.389797 115.858037 l
583.886095 116.087836 l
588.5739 116.287073 l
593.470864 115.880767 l
598.594809 116.112714 l
603.96892 116.227475 l
609.619175 115.924981 l
615.574773 115.69636 l
621.870504 116.194973 l
628.549619 115.855195 l
635.658124 115.82706 l
643.257677 115.712091 l
651.420602 115.646672 l
660.237773 115.966561 l
669.822227 115.517497 l
680.320808 115.180491 l
691.926255 107.556035 l
704.900457 108.933719 l
719.60904 104.046614 l
736.589136 100.146549 l
756.672171 98.355421 l
781.25182 99.18411 l
812.940498 101.510927 l
857.603314 102.331924 l
933.954545 102.325549 l
stroke
grestore
1.000 setlinewidth
0 setlinecap
gsave
837 554.4 135 79.2 clipbox
/o {
gsave
newpath
translate
1.0 setlinewidth
1 setlinejoin
0 setlinecap
0 -3 m
0.795609 -3 1.55874 -2.683901 2.12132 -2.12132 c
2.683901 -1.55874 3 -0.795609 3 0 c
3 0.795609 2.683901 1.55874 2.12132 2.12132 c
1.55874 2.683901 0.795609 3 0 3 c
-0.795609 3 -1.55874 2.683901 -2.12132 2.12132 c
-2.683901 1.55874 -3 0.795609 -3 0 c
-3 -0.795609 -2.683901 -1.55874 -2.12132 -2.12132 c
-1.55874 -2.683901 -0.795609 -3 0 -3 c
cl

gsave
0.002 0.709 0.923 setrgbcolor
fill
grestore
stroke
grestore
} bind def
173.045 129.604 o
178.677 129.87 o
184.651 131.031 o
190.945 130.348 o
197.615 129.742 o
204.734 132.281 o
212.308 134.249 o
220.492 129.361 o
229.314 133.102 o
238.906 127.858 o
249.397 126.568 o
261.002 123.965 o
273.966 122.662 o
288.677 121.237 o
305.665 120.127 o
325.748 119.86 o
350.328 119.32 o
382.024 118.11 o
426.684 118.049 o
432.336 117.894 o
438.29 117.771 o
444.587 117.655 o
451.265 116.59 o
458.376 117.456 o
465.974 117.572 o
474.136 116.89 o
482.954 117.294 o
492.54 116.705 o
503.038 116.514 o
514.643 116.15 o
527.617 116.208 o
542.326 115.867 o
545.518 116.112 o
548.808 115.998 o
552.198 115.836 o
555.695 115.894 o
559.307 115.925 o
563.04 115.65 o
566.906 115.818 o
570.912 115.902 o
575.069 116.379 o
579.39 115.858 o
583.886 116.088 o
588.574 116.287 o
593.471 115.881 o
598.595 116.113 o
603.969 116.227 o
609.619 115.925 o
615.575 115.696 o
621.871 116.195 o
628.55 115.855 o
635.658 115.827 o
643.258 115.712 o
651.421 115.647 o
660.238 115.967 o
669.822 115.517 o
680.321 115.18 o
691.926 107.556 o
704.9 108.934 o
719.609 104.047 o
736.589 100.147 o
756.672 98.3554 o
781.252 99.1841 o
812.94 101.511 o
857.603 102.332 o
933.955 102.326 o
grestore
1.500 setlinewidth
2 setlinecap
0.504 1.000 0.705 setrgbcolor
gsave
837 554.4 135 79.2 clipbox
173.045455 127.290042 m
178.677113 128.452757 l
184.651098 131.166268 l
190.94457 129.71076 l
197.614597 130.837578 l
204.734133 135.695785 l
212.30755 133.158158 l
220.491686 129.224344 l
229.313782 131.557744 l
238.906115 128.05151 l
249.396817 127.069737 l
261.002461 124.146109 l
273.96596 122.898432 l
288.677301 122.109521 l
305.665145 120.718739 l
325.74818 119.513889 l
350.327829 118.80003 l
382.024387 117.815831 l
426.684445 115.85672 l
432.335803 115.482569 l
438.289563 115.606894 l
444.587237 115.943068 l
451.265144 116.708001 l
458.37575 116.03794 l
465.974383 116.128792 l
474.135666 115.811051 l
482.953823 116.040573 l
492.539852 115.721446 l
503.038434 115.804814 l
514.643289 115.225813 l
527.616507 115.823318 l
542.325746 115.658938 l
545.518248 115.397677 l
548.80818 115.44889 l
552.197836 115.325466 l
555.694905 115.317705 l
559.306761 115.502389 l
563.040288 115.328585 l
566.90613 115.474392 l
570.912089 115.621862 l
575.068727 115.69532 l
579.389797 115.468779 l
583.886095 115.466284 l
588.5739 115.586104 l
593.470864 115.602112 l
598.594809 115.384371 l
603.96892 115.71223 l
609.619175 115.608072 l
615.574773 115.35187 l
621.870504 115.539049 l
628.549619 115.474739 l
635.658124 115.576887 l
643.257677 115.367601 l
651.420602 115.292133 l
660.237773 115.381322 l
669.822227 115.105162 l
680.320808 114.766354 l
691.926255 107.680567 l
704.900457 109.042798 l
719.60904 104.079254 l
736.589136 100.037886 l
756.672171 98.229919 l
781.25182 99.085011 l
812.940498 101.383762 l
857.603314 102.28286 l
933.954545 102.284731 l
stroke
grestore
1.000 setlinewidth
2 setlinejoin
0 setlinecap
gsave
837 554.4 135 79.2 clipbox
/o {
gsave
newpath
translate
1.0 setlinewidth
2 setlinejoin
0 setlinecap
0 3 m
-0.673542 0.927051 l
-2.85317 0.927051 l
-1.089814 -0.354102 l
-1.763356 -2.427051 l
-0 -1.145898 l
1.763356 -2.427051 l
1.089814 -0.354102 l
2.85317 0.927051 l
0.673542 0.927051 l
cl

gsave
0.504 1.000 0.705 setrgbcolor
fill
grestore
stroke
grestore
} bind def
173.045 127.29 o
178.677 128.453 o
184.651 131.166 o
190.945 129.711 o
197.615 130.838 o
204.734 135.696 o
212.308 133.158 o
220.492 129.224 o
229.314 131.558 o
238.906 128.052 o
249.397 127.07 o
261.002 124.146 o
273.966 122.898 o
288.677 122.11 o
305.665 120.719 o
325.748 119.514 o
350.328 118.8 o
382.024 117.816 o
426.684 115.857 o
432.336 115.483 o
438.29 115.607 o
444.587 115.943 o
451.265 116.708 o
458.376 116.038 o
465.974 116.129 o
474.136 115.811 o
482.954 116.041 o
492.54 115.721 o
503.038 115.805 o
514.643 115.226 o
527.617 115.823 o
542.326 115.659 o
545.518 115.398 o
548.808 115.449 o
552.198 115.325 o
555.695 115.318 o
559.307 115.502 o
563.04 115.329 o
566.906 115.474 o
570.912 115.622 o
575.069 115.695 o
579.39 115.469 o
583.886 115.466 o
588.574 115.586 o
593.471 115.602 o
598.595 115.384 o
603.969 115.712 o
609.619 115.608 o
615.575 115.352 o
621.871 115.539 o
628.55 115.475 o
635.658 115.577 o
643.258 115.368 o
651.421 115.292 o
660.238 115.381 o
669.822 115.105 o
680.321 114.766 o
691.926 107.681 o
704.9 109.043 o
719.609 104.079 o
736.589 100.038 o
756.672 98.2299 o
781.252 99.085 o
812.94 101.384 o
857.603 102.283 o
933.955 102.285 o
grestore
1.500 setlinewidth
1 setlinejoin
2 setlinecap
1.000 0.701 0.378 setrgbcolor
gsave
837 554.4 135 79.2 clipbox
173.045455 125.366066 m
178.677113 126.437167 l
184.651098 126.228366 l
190.94457 128.687269 l
197.614597 125.791845 l
204.734133 128.906672 l
212.30755 131.538132 l
220.491686 128.277151 l
229.313782 133.585739 l
238.906115 125.751998 l
249.396817 124.535644 l
261.002461 124.25193 l
273.96596 124.272512 l
288.677301 121.493443 l
305.665145 119.754152 l
325.74818 119.688525 l
350.327829 117.960322 l
382.024387 114.258038 l
426.684445 117.294418 l
432.335803 116.518396 l
438.289563 116.380212 l
444.587237 118.05457 l
451.265144 116.235583 l
458.37575 115.824911 l
465.974383 115.439673 l
474.135666 116.303566 l
482.953823 115.877025 l
492.539852 115.976124 l
503.038434 115.616942 l
514.643289 116.212922 l
527.616507 115.817912 l
542.325746 115.9369 l
545.518248 115.756374 l
548.80818 115.876471 l
552.197836 115.811121 l
555.694905 115.63101 l
559.306761 115.599825 l
563.040288 115.610081 l
566.90613 115.775708 l
570.912089 115.778203 l
575.068727 116.138563 l
579.389797 115.605022 l
583.886095 115.716873 l
588.5739 115.560463 l
593.470864 115.54591 l
598.594809 115.751453 l
603.96892 115.566561 l
609.619175 115.884232 l
615.574773 115.408626 l
621.870504 115.563512 l
628.549619 115.568086 l
635.658124 115.469541 l
643.257677 115.33004 l
651.420602 115.329832 l
660.237773 115.271482 l
669.822227 115.254988 l
680.320808 115.106894 l
691.926255 107.697407 l
704.900457 109.239055 l
719.60904 103.93511 l
736.589136 100.027422 l
756.672171 98.236363 l
781.25182 99.042115 l
812.940498 101.382237 l
857.603314 102.240448 l
933.954545 102.285285 l
stroke
grestore
1.000 setlinewidth
0 setlinejoin
0 setlinecap
gsave
837 554.4 135 79.2 clipbox
/o {
gsave
newpath
translate
1.0 setlinewidth
0 setlinejoin
0 setlinecap
3 -0 m
-3 3 l
-3 -3 l
cl

gsave
1.000 0.701 0.378 setrgbcolor
fill
grestore
stroke
grestore
} bind def
173.045 125.366 o
178.677 126.437 o
184.651 126.228 o
190.945 128.687 o
197.615 125.792 o
204.734 128.907 o
212.308 131.538 o
220.492 128.277 o
229.314 133.586 o
238.906 125.752 o
249.397 124.536 o
261.002 124.252 o
273.966 124.273 o
288.677 121.493 o
305.665 119.754 o
325.748 119.689 o
350.328 117.96 o
382.024 114.258 o
426.684 117.294 o
432.336 116.518 o
438.29 116.38 o
444.587 118.055 o
451.265 116.236 o
458.376 115.825 o
465.974 115.44 o
474.136 116.304 o
482.954 115.877 o
492.54 115.976 o
503.038 115.617 o
514.643 116.213 o
527.617 115.818 o
542.326 115.937 o
545.518 115.756 o
548.808 115.876 o
552.198 115.811 o
555.695 115.631 o
559.307 115.6 o
563.04 115.61 o
566.906 115.776 o
570.912 115.778 o
575.069 116.139 o
579.39 115.605 o
583.886 115.717 o
588.574 115.56 o
593.471 115.546 o
598.595 115.751 o
603.969 115.567 o
609.619 115.884 o
615.575 115.409 o
621.871 115.564 o
628.55 115.568 o
635.658 115.47 o
643.258 115.33 o
651.421 115.33 o
660.238 115.271 o
669.822 115.255 o
680.321 115.107 o
691.926 107.697 o
704.9 109.239 o
719.609 103.935 o
736.589 100.027 o
756.672 98.2364 o
781.252 99.0421 o
812.94 101.382 o
857.603 102.24 o
933.955 102.285 o
grestore
1.500 setlinewidth
1 setlinejoin
2 setlinecap
1.000 0.000 0.000 setrgbcolor
gsave
837 554.4 135 79.2 clipbox
173.045455 276.561133 m
178.677113 277.754133 l
184.651098 282.08074 l
190.94457 284.261888 l
197.614597 279.871871 l
204.734133 296.017316 l
212.30755 298.435678 l
220.491686 280.658565 l
229.313782 294.357096 l
238.906115 277.342976 l
249.396817 268.697732 l
261.002461 261.57875 l
273.96596 257.343481 l
288.677301 250.204195 l
305.665145 244.069412 l
325.74818 243.358256 l
350.327829 239.169071 l
382.024387 230.484533 l
426.684445 231.1977 l
432.335803 230.367486 l
438.289563 229.265131 l
444.587237 231.392363 l
451.265144 228.695693 l
458.37575 228.395831 l
465.974383 228.41974 l
474.135666 227.877467 l
482.953823 228.328957 l
492.539852 227.2783 l
503.038434 226.956193 l
514.643289 226.08433 l
527.616507 226.463955 l
542.325746 225.835959 l
545.518248 225.596874 l
548.80818 225.636652 l
552.197836 225.358551 l
555.694905 224.982252 l
559.306761 225.321891 l
563.040288 224.641227 l
566.90613 225.371579 l
570.912089 225.594448 l
575.068727 226.723137 l
579.389797 225.138177 l
583.886095 225.456472 l
588.5739 225.781489 l
593.470864 225.325287 l
598.594809 225.519396 l
603.96892 225.866867 l
609.619175 225.739216 l
615.574773 224.524803 l
621.870504 225.519812 l
628.549619 225.143582 l
635.658124 225.121199 l
643.257677 224.532149 l
651.420602 224.304914 l
660.237773 224.710319 l
669.822227 223.754949 l
680.320808 222.665484 l
691.926255 192.885195 l
704.900457 198.476942 l
719.60904 178.472111 l
736.589136 162.744961 l
756.672171 155.555156 l
781.25182 158.836719 l
812.940498 168.186397 l
857.603314 171.575791 l
933.954545 171.619242 l
stroke
grestore
1.000 setlinewidth
2 setlinejoin
0 setlinecap
gsave
837 554.4 135 79.2 clipbox
/o {
gsave
newpath
translate
1.0 setlinewidth
2 setlinejoin
0 setlinecap
0 3 m
-0.673542 0.927051 l
-2.85317 0.927051 l
-1.089814 -0.354102 l
-1.763356 -2.427051 l
-0 -1.145898 l
1.763356 -2.427051 l
1.089814 -0.354102 l
2.85317 0.927051 l
0.673542 0.927051 l
cl

gsave
1.000 0.000 0.000 setrgbcolor
fill
grestore
stroke
grestore
} bind def
173.045 276.561 o
178.677 277.754 o
184.651 282.081 o
190.945 284.262 o
197.615 279.872 o
204.734 296.017 o
212.308 298.436 o
220.492 280.659 o
229.314 294.357 o
238.906 277.343 o
249.397 268.698 o
261.002 261.579 o
273.966 257.343 o
288.677 250.204 o
305.665 244.069 o
325.748 243.358 o
350.328 239.169 o
382.024 230.485 o
426.684 231.198 o
432.336 230.367 o
438.29 229.265 o
444.587 231.392 o
451.265 228.696 o
458.376 228.396 o
465.974 228.42 o
474.136 227.877 o
482.954 228.329 o
492.54 227.278 o
503.038 226.956 o
514.643 226.084 o
527.617 226.464 o
542.326 225.836 o
545.518 225.597 o
548.808 225.637 o
552.198 225.359 o
555.695 224.982 o
559.307 225.322 o
563.04 224.641 o
566.906 225.372 o
570.912 225.594 o
575.069 226.723 o
579.39 225.138 o
583.886 225.456 o
588.574 225.781 o
593.471 225.325 o
598.595 225.519 o
603.969 225.867 o
609.619 225.739 o
615.575 224.525 o
621.871 225.52 o
628.55 225.144 o
635.658 225.121 o
643.258 224.532 o
651.421 224.305 o
660.238 224.71 o
669.822 223.755 o
680.321 222.665 o
691.926 192.885 o
704.9 198.477 o
719.609 178.472 o
736.589 162.745 o
756.672 155.555 o
781.252 158.837 o
812.94 168.186 o
857.603 171.576 o
933.955 171.619 o
grestore
0.200 setlinewidth
1 setlinejoin
2 setlinecap
0.000 setgray
gsave
837 554.4 135 79.2 clipbox
135 79.2 m
1081 79.2 l
stroke
grestore
gsave
837 554.4 135 79.2 clipbox
135 113.85 m
1081 113.85 l
stroke
grestore
gsave
837 554.4 135 79.2 clipbox
135 148.5 m
1081 148.5 l
stroke
grestore
gsave
837 554.4 135 79.2 clipbox
135 183.15 m
1081 183.15 l
stroke
grestore
gsave
837 554.4 135 79.2 clipbox
135 217.8 m
1081 217.8 l
stroke
grestore
gsave
837 554.4 135 79.2 clipbox
135 252.45 m
1081 252.45 l
stroke
grestore
gsave
837 554.4 135 79.2 clipbox
135 287.1 m
1081 287.1 l
stroke
grestore
gsave
837 554.4 135 79.2 clipbox
135 321.75 m
1081 321.75 l
stroke
grestore
gsave
837 554.4 135 79.2 clipbox
135 356.4 m
1081 356.4 l
stroke
grestore
gsave
837 554.4 135 79.2 clipbox
135 391.05 m
1081 391.05 l
stroke
grestore
gsave
837 554.4 135 79.2 clipbox
135 425.7 m
1081 425.7 l
stroke
grestore
gsave
837 554.4 135 79.2 clipbox
135 460.35 m
1081 460.35 l
stroke
grestore
gsave
837 554.4 135 79.2 clipbox
135 495 m
1081 495 l
stroke
grestore
gsave
837 554.4 135 79.2 clipbox
135 529.65 m
1081 529.65 l
stroke
grestore
gsave
837 554.4 135 79.2 clipbox
135 564.3 m
1081 564.3 l
stroke
grestore
gsave
837 554.4 135 79.2 clipbox
135 598.95 m
1081 598.95 l
stroke
grestore
0.800 setlinewidth
0 setlinejoin
gsave
135 79.2 m
135 633.6 l
stroke
grestore
gsave
972 79.2 m
972 633.6 l
stroke
grestore
gsave
135 79.2 m
972 79.2 l
stroke
grestore
gsave
135 633.6 m
972 633.6 l
stroke
grestore
/DejaVuSans findfont
14.400 scalefont
setfont
gsave
407.125000 655.275000 translate
0.000000 rotate
0.000000 0 m /B glyphshow
9.861755 0 m /a glyphshow
18.670654 0 m /n glyphshow
27.781372 0 m /d glyphshow
36.906128 0 m /w glyphshow
48.663025 0 m /i glyphshow
52.656860 0 m /d glyphshow
61.781616 0 m /t glyphshow
67.417908 0 m /h glyphshow
76.528625 0 m /space glyphshow
81.098022 0 m /m glyphshow
95.101013 0 m /e glyphshow
103.945007 0 m /a glyphshow
112.753906 0 m /s glyphshow
120.243225 0 m /u glyphshow
129.353943 0 m /r glyphshow
134.888977 0 m /e glyphshow
143.732971 0 m /s glyphshow
151.222290 0 m /space glyphshow
155.791687 0 m /o glyphshow
164.586548 0 m /n glyphshow
173.697266 0 m /space glyphshow
178.266663 0 m /A glyphshow
188.100342 0 m /M glyphshow
200.502991 0 m /D glyphshow
211.572021 0 m /space glyphshow
216.141418 0 m /E glyphshow
225.224060 0 m /P glyphshow
233.517578 0 m /Y glyphshow
241.548401 0 m /C glyphshow
251.585632 0 m /space glyphshow
256.155029 0 m /seven glyphshow
265.300842 0 m /four glyphshow
274.446655 0 m /five glyphshow
283.592468 0 m /two glyphshow
grestore
gsave
465.765625 639.600000 translate
0.000000 rotate
0.000000 0 m /C glyphshow
10.037231 0 m /r glyphshow
15.572266 0 m /o glyphshow
24.367126 0 m /s glyphshow
31.856445 0 m /s glyphshow
39.345764 0 m /space glyphshow
43.915161 0 m /m glyphshow
57.918152 0 m /o glyphshow
66.713013 0 m /d glyphshow
75.837769 0 m /e glyphshow
84.681763 0 m /colon glyphshow
89.524902 0 m /space glyphshow
94.094299 0 m /D glyphshow
105.163330 0 m /I glyphshow
109.402832 0 m /E glyphshow
118.485474 0 m /zero glyphshow
127.631287 0 m /space glyphshow
132.200684 0 m /hyphen glyphshow
137.387756 0 m /space glyphshow
141.957153 0 m /D glyphshow
153.026184 0 m /I glyphshow
157.265686 0 m /E glyphshow
166.348328 0 m /three glyphshow
grestore
1.000 setlinewidth
0 setlinecap
0.800 setgray
gsave
814.371875 535.875 m
963.6 535.875 l
965.2 535.875 966 536.675 966 538.275 c
966 625.2 l
966 626.8 965.2 627.6 963.6 627.6 c
814.371875 627.6 l
812.771875 627.6 811.971875 626.8 811.971875 625.2 c
811.971875 538.275 l
811.971875 536.675 812.771875 535.875 814.371875 535.875 c
cl
gsave
1.000 setgray
fill
grestore
stroke
grestore
1.500 setlinewidth
1 setlinejoin
2 setlinecap
0.500 0.000 1.000 setrgbcolor
gsave
816.771875 617.875 m
840.771875 617.875 l
stroke
grestore
1.000 setlinewidth
0 setlinecap
gsave
/o {
gsave
newpath
translate
1.0 setlinewidth
1 setlinejoin
0 setlinecap
0 -1.5 m
0.397805 -1.5 0.77937 -1.341951 1.06066 -1.06066 c
1.341951 -0.77937 1.5 -0.397805 1.5 0 c
1.5 0.397805 1.341951 0.77937 1.06066 1.06066 c
0.77937 1.341951 0.397805 1.5 0 1.5 c
-0.397805 1.5 -0.77937 1.341951 -1.06066 1.06066 c
-1.341951 0.77937 -1.5 0.397805 -1.5 0 c
-1.5 -0.397805 -1.341951 -0.77937 -1.06066 -1.06066 c
-0.77937 -1.341951 -0.397805 -1.5 0 -1.5 c
cl

gsave
0.500 0.000 1.000 setrgbcolor
fill
grestore
stroke
grestore
} bind def
828.772 617.875 o
grestore
0.000 setgray
/DejaVuSans findfont
12.000 scalefont
setfont
gsave
850.371875 613.675000 translate
0.000000 rotate
0.000000 0 m /R glyphshow
7.962891 0 m /colon glyphshow
12.005859 0 m /C glyphshow
20.384766 0 m /P glyphshow
27.621094 0 m /U glyphshow
36.404297 0 m /zero glyphshow
44.039062 0 m /space glyphshow
47.853516 0 m /hyphen glyphshow
52.183594 0 m /space glyphshow
55.998047 0 m /W glyphshow
67.113281 0 m /colon glyphshow
71.156250 0 m /C glyphshow
79.535156 0 m /P glyphshow
86.771484 0 m /U glyphshow
95.554688 0 m /one glyphshow
103.189453 0 m /two glyphshow
grestore
1.500 setlinewidth
2 setlinecap
0.002 0.709 0.923 setrgbcolor
gsave
816.771875 600.25 m
840.771875 600.25 l
stroke
grestore
1.000 setlinewidth
0 setlinecap
gsave
/o {
gsave
newpath
translate
1.0 setlinewidth
1 setlinejoin
0 setlinecap
0 -3 m
0.795609 -3 1.55874 -2.683901 2.12132 -2.12132 c
2.683901 -1.55874 3 -0.795609 3 0 c
3 0.795609 2.683901 1.55874 2.12132 2.12132 c
1.55874 2.683901 0.795609 3 0 3 c
-0.795609 3 -1.55874 2.683901 -2.12132 2.12132 c
-2.683901 1.55874 -3 0.795609 -3 0 c
-3 -0.795609 -2.683901 -1.55874 -2.12132 -2.12132 c
-1.55874 -2.683901 -0.795609 -3 0 -3 c
cl

gsave
0.002 0.709 0.923 setrgbcolor
fill
grestore
stroke
grestore
} bind def
828.772 600.25 o
grestore
0.000 setgray
gsave
850.371875 596.050000 translate
0.000000 rotate
0.000000 0 m /R glyphshow
7.962891 0 m /colon glyphshow
12.005859 0 m /C glyphshow
20.384766 0 m /P glyphshow
27.621094 0 m /U glyphshow
36.404297 0 m /one glyphshow
44.039062 0 m /space glyphshow
47.853516 0 m /hyphen glyphshow
52.183594 0 m /space glyphshow
55.998047 0 m /W glyphshow
67.113281 0 m /colon glyphshow
71.156250 0 m /C glyphshow
79.535156 0 m /P glyphshow
86.771484 0 m /U glyphshow
95.554688 0 m /one glyphshow
103.189453 0 m /three glyphshow
grestore
1.500 setlinewidth
2 setlinecap
0.504 1.000 0.705 setrgbcolor
gsave
816.771875 582.625 m
840.771875 582.625 l
stroke
grestore
1.000 setlinewidth
2 setlinejoin
0 setlinecap
gsave
/o {
gsave
newpath
translate
1.0 setlinewidth
2 setlinejoin
0 setlinecap
0 3 m
-0.673542 0.927051 l
-2.85317 0.927051 l
-1.089814 -0.354102 l
-1.763356 -2.427051 l
-0 -1.145898 l
1.763356 -2.427051 l
1.089814 -0.354102 l
2.85317 0.927051 l
0.673542 0.927051 l
cl

gsave
0.504 1.000 0.705 setrgbcolor
fill
grestore
stroke
grestore
} bind def
828.772 582.625 o
grestore
0.000 setgray
gsave
850.371875 578.425000 translate
0.000000 rotate
0.000000 0 m /R glyphshow
7.962891 0 m /colon glyphshow
12.005859 0 m /C glyphshow
20.384766 0 m /P glyphshow
27.621094 0 m /U glyphshow
36.404297 0 m /two glyphshow
44.039062 0 m /space glyphshow
47.853516 0 m /hyphen glyphshow
52.183594 0 m /space glyphshow
55.998047 0 m /W glyphshow
67.113281 0 m /colon glyphshow
71.156250 0 m /C glyphshow
79.535156 0 m /P glyphshow
86.771484 0 m /U glyphshow
95.554688 0 m /one glyphshow
103.189453 0 m /four glyphshow
grestore
1.500 setlinewidth
1 setlinejoin
2 setlinecap
1.000 0.701 0.378 setrgbcolor
gsave
816.771875 565 m
840.771875 565 l
stroke
grestore
1.000 setlinewidth
0 setlinejoin
0 setlinecap
gsave
/o {
gsave
newpath
translate
1.0 setlinewidth
0 setlinejoin
0 setlinecap
3 -0 m
-3 3 l
-3 -3 l
cl

gsave
1.000 0.701 0.378 setrgbcolor
fill
grestore
stroke
grestore
} bind def
828.772 565 o
grestore
0.000 setgray
gsave
850.371875 560.800000 translate
0.000000 rotate
0.000000 0 m /R glyphshow
7.962891 0 m /colon glyphshow
12.005859 0 m /C glyphshow
20.384766 0 m /P glyphshow
27.621094 0 m /U glyphshow
36.404297 0 m /three glyphshow
44.039062 0 m /space glyphshow
47.853516 0 m /hyphen glyphshow
52.183594 0 m /space glyphshow
55.998047 0 m /W glyphshow
67.113281 0 m /colon glyphshow
71.156250 0 m /C glyphshow
79.535156 0 m /P glyphshow
86.771484 0 m /U glyphshow
95.554688 0 m /one glyphshow
103.189453 0 m /five glyphshow
grestore
1.500 setlinewidth
1 setlinejoin
2 setlinecap
1.000 0.000 0.000 setrgbcolor
gsave
816.771875 547.375 m
840.771875 547.375 l
stroke
grestore
1.000 setlinewidth
2 setlinejoin
0 setlinecap
gsave
/o {
gsave
newpath
translate
1.0 setlinewidth
2 setlinejoin
0 setlinecap
0 3 m
-0.673542 0.927051 l
-2.85317 0.927051 l
-1.089814 -0.354102 l
-1.763356 -2.427051 l
-0 -1.145898 l
1.763356 -2.427051 l
1.089814 -0.354102 l
2.85317 0.927051 l
0.673542 0.927051 l
cl

gsave
1.000 0.000 0.000 setrgbcolor
fill
grestore
stroke
grestore
} bind def
828.772 547.375 o
grestore
0.000 setgray
gsave
850.371875 543.175000 translate
0.000000 rotate
0.000000 0 m /S glyphshow
7.617188 0 m /u glyphshow
15.222656 0 m /m glyphshow
26.912109 0 m /space glyphshow
30.726562 0 m /o glyphshow
38.068359 0 m /f glyphshow
42.292969 0 m /space glyphshow
46.107422 0 m /B glyphshow
53.964844 0 m /W glyphshow
65.830078 0 m /s glyphshow
grestore

end
showpage
