%!PS-Adobe-3.0 EPSF-3.0
%%Title: intel-multicross7-die1.eps
%%Creator: matplotlib version 3.3.3, http://matplotlib.org/
%%CreationDate: Wed Jan 13 15:59:13 2021
%%Orientation: portrait
%%BoundingBox: -234.0 36.0 846.0 756.0
%%EndComments
%%BeginProlog
/mpldict 8 dict def
mpldict begin
/m { moveto } bind def
/l { lineto } bind def
/r { rlineto } bind def
/c { curveto } bind def
/cl { closepath } bind def
/box {
      m
      1 index 0 r
      0 exch r
      neg 0 r
      cl
    } bind def
/clipbox {
      box
      clip
      newpath
    } bind def
%!PS-Adobe-3.0 Resource-Font
%%Title: DejaVu Sans
%%Copyright: Copyright (c) 2003 by Bitstream, Inc. All Rights Reserved. Copyright (c) 2006 by Tavmjong Bah. All Rights Reserved. DejaVu changes are in public domain 
%%Creator: Converted from TrueType to type 3 by PPR
25 dict begin
/_d{bind def}bind def
/_m{moveto}_d
/_l{lineto}_d
/_cl{closepath eofill}_d
/_c{curveto}_d
/_sc{7 -1 roll{setcachedevice}{pop pop pop pop pop pop}ifelse}_d
/_e{exec}_d
/FontName /DejaVuSans def
/PaintType 0 def
/FontMatrix[.001 0 0 .001 0 0]def
/FontBBox[-1021 -463 1793 1232]def
/FontType 3 def
/Encoding [ /space /parenleft /parenright /hyphen /zero /one /two /three /four /five /six /seven /eight /nine /colon /B /C /D /G /I /P /R /S /U /W /X /a /c /d /e /f /h /i /k /l /m /n /o /p /r /s /t /u /w ] def
/FontInfo 10 dict dup begin
/FamilyName (DejaVu Sans) def
/FullName (DejaVu Sans) def
/Notice (Copyright (c) 2003 by Bitstream, Inc. All Rights Reserved. Copyright (c) 2006 by Tavmjong Bah. All Rights Reserved. DejaVu changes are in public domain ) def
/Weight (Book) def
/Version (Version 2.35) def
/ItalicAngle 0.0 def
/isFixedPitch false def
/UnderlinePosition -130 def
/UnderlineThickness 90 def
end readonly def
/CharStrings 45 dict dup begin
/.notdef 0 def
/space{318 0 0 0 0 0 _sc
}_d
/parenleft{390 0 86 -131 310 759 _sc
310 759 _m
266 683 234 609 213 536 _c
191 463 181 389 181 314 _c
181 238 191 164 213 91 _c
234 17 266 -56 310 -131 _c
232 -131 _l
183 -54 146 20 122 94 _c
98 168 86 241 86 314 _c
86 386 98 459 122 533 _c
146 607 182 682 232 759 _c
310 759 _l
_cl}_d
/parenright{390 0 80 -131 304 759 _sc
80 759 _m
158 759 _l
206 682 243 607 267 533 _c
291 459 304 386 304 314 _c
304 241 291 168 267 94 _c
243 20 206 -54 158 -131 _c
80 -131 _l
123 -56 155 17 177 91 _c
198 164 209 238 209 314 _c
209 389 198 463 177 536 _c
155 609 123 683 80 759 _c
_cl}_d
/hyphen{361 0 49 234 312 314 _sc
49 314 _m
312 314 _l
312 234 _l
49 234 _l
49 314 _l
_cl}_d
/zero{636 0 66 -13 570 742 _sc
318 664 _m
267 664 229 639 203 589 _c
177 539 165 464 165 364 _c
165 264 177 189 203 139 _c
229 89 267 64 318 64 _c
369 64 407 89 433 139 _c
458 189 471 264 471 364 _c
471 464 458 539 433 589 _c
407 639 369 664 318 664 _c
318 742 _m
399 742 461 709 505 645 _c
548 580 570 486 570 364 _c
570 241 548 147 505 83 _c
461 19 399 -13 318 -13 _c
236 -13 173 19 130 83 _c
87 147 66 241 66 364 _c
66 486 87 580 130 645 _c
173 709 236 742 318 742 _c
_cl}_d
/one{636 0 110 0 544 729 _sc
124 83 _m
285 83 _l
285 639 _l
110 604 _l
110 694 _l
284 729 _l
383 729 _l
383 83 _l
544 83 _l
544 0 _l
124 0 _l
124 83 _l
_cl}_d
/two{{636 0 73 0 536 742 _sc
192 83 _m
536 83 _l
536 0 _l
73 0 _l
73 83 _l
110 121 161 173 226 239 _c
290 304 331 346 348 365 _c
380 400 402 430 414 455 _c
426 479 433 504 433 528 _c
433 566 419 598 392 622 _c
365 646 330 659 286 659 _c
255 659 222 653 188 643 _c
154 632 117 616 78 594 _c
78 694 _l
118 710 155 722 189 730 _c
223 738 255 742 284 742 _c
}_e{359 742 419 723 464 685 _c
509 647 532 597 532 534 _c
532 504 526 475 515 449 _c
504 422 484 390 454 354 _c
446 344 420 317 376 272 _c
332 227 271 164 192 83 _c
_cl}_e}_d
/three{{636 0 76 -13 556 742 _sc
406 393 _m
453 383 490 362 516 330 _c
542 298 556 258 556 212 _c
556 140 531 84 482 45 _c
432 6 362 -13 271 -13 _c
240 -13 208 -10 176 -4 _c
144 1 110 10 76 22 _c
76 117 _l
103 101 133 89 166 81 _c
198 73 232 69 268 69 _c
330 69 377 81 409 105 _c
441 129 458 165 458 212 _c
458 254 443 288 413 312 _c
383 336 341 349 287 349 _c
}_e{202 349 _l
202 430 _l
291 430 _l
339 430 376 439 402 459 _c
428 478 441 506 441 543 _c
441 580 427 609 401 629 _c
374 649 336 659 287 659 _c
260 659 231 656 200 650 _c
169 644 135 635 98 623 _c
98 711 _l
135 721 170 729 203 734 _c
235 739 266 742 296 742 _c
370 742 429 725 473 691 _c
517 657 539 611 539 553 _c
539 513 527 479 504 451 _c
481 423 448 403 406 393 _c
_cl}_e}_d
/four{636 0 49 0 580 729 _sc
378 643 _m
129 254 _l
378 254 _l
378 643 _l
352 729 _m
476 729 _l
476 254 _l
580 254 _l
580 172 _l
476 172 _l
476 0 _l
378 0 _l
378 172 _l
49 172 _l
49 267 _l
352 729 _l
_cl}_d
/five{{636 0 77 -13 549 729 _sc
108 729 _m
495 729 _l
495 646 _l
198 646 _l
198 467 _l
212 472 227 476 241 478 _c
255 480 270 482 284 482 _c
365 482 429 459 477 415 _c
525 370 549 310 549 234 _c
549 155 524 94 475 51 _c
426 8 357 -13 269 -13 _c
238 -13 207 -10 175 -6 _c
143 -1 111 6 77 17 _c
77 116 _l
106 100 136 88 168 80 _c
199 72 232 69 267 69 _c
}_e{323 69 368 83 401 113 _c
433 143 450 183 450 234 _c
450 284 433 324 401 354 _c
368 384 323 399 267 399 _c
241 399 214 396 188 390 _c
162 384 135 375 108 363 _c
108 729 _l
_cl}_e}_d
/six{{636 0 70 -13 573 742 _sc
330 404 _m
286 404 251 388 225 358 _c
199 328 186 286 186 234 _c
186 181 199 139 225 109 _c
251 79 286 64 330 64 _c
374 64 409 79 435 109 _c
461 139 474 181 474 234 _c
474 286 461 328 435 358 _c
409 388 374 404 330 404 _c
526 713 _m
526 623 _l
501 635 476 644 451 650 _c
425 656 400 659 376 659 _c
310 659 260 637 226 593 _c
}_e{192 549 172 482 168 394 _c
187 422 211 444 240 459 _c
269 474 301 482 336 482 _c
409 482 467 459 509 415 _c
551 371 573 310 573 234 _c
573 159 550 99 506 54 _c
462 9 403 -13 330 -13 _c
246 -13 181 19 137 83 _c
92 147 70 241 70 364 _c
70 479 97 571 152 639 _c
206 707 280 742 372 742 _c
396 742 421 739 447 735 _c
472 730 498 723 526 713 _c
_cl}_e}_d
/seven{636 0 82 0 551 729 _sc
82 729 _m
551 729 _l
551 687 _l
286 0 _l
183 0 _l
432 646 _l
82 646 _l
82 729 _l
_cl}_d
/eight{{636 0 68 -13 568 742 _sc
318 346 _m
271 346 234 333 207 308 _c
180 283 167 249 167 205 _c
167 161 180 126 207 101 _c
234 76 271 64 318 64 _c
364 64 401 76 428 102 _c
455 127 469 161 469 205 _c
469 249 455 283 429 308 _c
402 333 365 346 318 346 _c
219 388 _m
177 398 144 418 120 447 _c
96 476 85 511 85 553 _c
85 611 105 657 147 691 _c
188 725 245 742 318 742 _c
}_e{390 742 447 725 489 691 _c
530 657 551 611 551 553 _c
551 511 539 476 515 447 _c
491 418 459 398 417 388 _c
464 377 501 355 528 323 _c
554 291 568 251 568 205 _c
568 134 546 80 503 43 _c
459 5 398 -13 318 -13 _c
237 -13 175 5 132 43 _c
89 80 68 134 68 205 _c
68 251 81 291 108 323 _c
134 355 171 377 219 388 _c
183 544 _m
183 506 194 476 218 455 _c
}_e{242 434 275 424 318 424 _c
360 424 393 434 417 455 _c
441 476 453 506 453 544 _c
453 582 441 611 417 632 _c
393 653 360 664 318 664 _c
275 664 242 653 218 632 _c
194 611 183 582 183 544 _c
_cl}_e}_d
/nine{{636 0 63 -13 566 742 _sc
110 15 _m
110 105 _l
134 93 159 84 185 78 _c
210 72 235 69 260 69 _c
324 69 374 90 408 134 _c
442 178 462 244 468 334 _c
448 306 424 284 396 269 _c
367 254 335 247 300 247 _c
226 247 168 269 126 313 _c
84 357 63 417 63 494 _c
63 568 85 628 129 674 _c
173 719 232 742 306 742 _c
390 742 455 709 499 645 _c
543 580 566 486 566 364 _c
}_e{566 248 538 157 484 89 _c
429 21 356 -13 264 -13 _c
239 -13 214 -10 189 -6 _c
163 -2 137 5 110 15 _c
306 324 _m
350 324 385 339 411 369 _c
437 399 450 441 450 494 _c
450 546 437 588 411 618 _c
385 648 350 664 306 664 _c
262 664 227 648 201 618 _c
175 588 162 546 162 494 _c
162 441 175 399 201 369 _c
227 339 262 324 306 324 _c
_cl}_e}_d
/colon{337 0 117 0 220 517 _sc
117 124 _m
220 124 _l
220 0 _l
117 0 _l
117 124 _l
117 517 _m
220 517 _l
220 393 _l
117 393 _l
117 517 _l
_cl}_d
/B{{686 0 98 0 615 729 _sc
197 348 _m
197 81 _l
355 81 _l
408 81 447 92 473 114 _c
498 136 511 169 511 215 _c
511 260 498 293 473 315 _c
447 337 408 348 355 348 _c
197 348 _l
197 648 _m
197 428 _l
343 428 _l
391 428 426 437 450 455 _c
474 473 486 500 486 538 _c
486 574 474 602 450 620 _c
426 638 391 648 343 648 _c
197 648 _l
98 729 _m
350 729 _l
}_e{425 729 483 713 524 682 _c
564 650 585 606 585 549 _c
585 504 574 468 553 442 _c
532 416 502 399 462 393 _c
510 382 548 360 575 327 _c
601 294 615 253 615 204 _c
615 138 592 88 548 53 _c
504 17 441 0 360 0 _c
98 0 _l
98 729 _l
_cl}_e}_d
/C{{698 0 56 -13 644 742 _sc
644 673 _m
644 569 _l
610 599 575 622 537 638 _c
499 653 460 661 418 661 _c
334 661 270 635 226 584 _c
182 533 160 460 160 364 _c
160 268 182 194 226 143 _c
270 92 334 67 418 67 _c
460 67 499 74 537 90 _c
575 105 610 128 644 159 _c
644 56 _l
609 32 572 15 534 4 _c
496 -7 455 -13 412 -13 _c
302 -13 215 20 151 87 _c
}_e{87 154 56 246 56 364 _c
56 481 87 573 151 641 _c
215 708 302 742 412 742 _c
456 742 497 736 535 725 _c
573 713 610 696 644 673 _c
_cl}_e}_d
/D{770 0 98 0 711 729 _sc
197 648 _m
197 81 _l
316 81 _l
416 81 490 103 537 149 _c
583 195 607 267 607 365 _c
607 463 583 534 537 580 _c
490 625 416 648 316 648 _c
197 648 _l
98 729 _m
301 729 _l
442 729 546 699 612 641 _c
678 582 711 490 711 365 _c
711 239 677 147 611 88 _c
545 29 441 0 301 0 _c
98 0 _l
98 729 _l
_cl}_d
/G{{775 0 56 -13 693 742 _sc
595 104 _m
595 300 _l
434 300 _l
434 381 _l
693 381 _l
693 68 _l
655 40 613 20 567 7 _c
521 -6 472 -13 420 -13 _c
306 -13 216 20 152 86 _c
88 152 56 245 56 364 _c
56 482 88 575 152 642 _c
216 708 306 742 420 742 _c
467 742 512 736 555 724 _c
598 712 638 695 674 673 _c
674 568 _l
637 598 598 621 557 637 _c
516 653 473 661 428 661 _c
}_e{338 661 271 636 227 586 _c
182 536 160 462 160 364 _c
160 265 182 191 227 141 _c
271 91 338 67 428 67 _c
462 67 493 70 521 76 _c
549 82 573 91 595 104 _c
_cl}_e}_d
/I{295 0 98 0 197 729 _sc
98 729 _m
197 729 _l
197 0 _l
98 0 _l
98 729 _l
_cl}_d
/P{603 0 98 0 569 729 _sc
197 648 _m
197 374 _l
321 374 _l
367 374 402 385 427 409 _c
452 433 465 467 465 511 _c
465 555 452 588 427 612 _c
402 636 367 648 321 648 _c
197 648 _l
98 729 _m
321 729 _l
402 729 464 710 506 673 _c
548 636 569 582 569 511 _c
569 439 548 384 506 348 _c
464 311 402 293 321 293 _c
197 293 _l
197 0 _l
98 0 _l
98 729 _l
_cl}_d
/R{{695 0 98 0 666 729 _sc
444 342 _m
465 334 486 319 506 296 _c
526 272 546 240 566 199 _c
666 0 _l
560 0 _l
467 187 _l
443 235 419 268 397 284 _c
374 300 343 308 304 308 _c
197 308 _l
197 0 _l
98 0 _l
98 729 _l
321 729 _l
404 729 466 711 507 677 _c
548 642 569 589 569 519 _c
569 473 558 434 537 404 _c
515 374 484 353 444 342 _c
197 648 _m
197 389 _l
321 389 _l
}_e{368 389 404 400 428 422 _c
452 444 465 476 465 519 _c
465 561 452 593 428 615 _c
404 637 368 648 321 648 _c
197 648 _l
_cl}_e}_d
/S{{635 0 66 -13 579 742 _sc
535 705 _m
535 609 _l
497 627 462 640 429 649 _c
395 657 363 662 333 662 _c
279 662 237 651 208 631 _c
179 610 165 580 165 542 _c
165 510 174 485 194 469 _c
213 452 250 439 304 429 _c
364 417 _l
437 403 491 378 526 343 _c
561 307 579 260 579 201 _c
579 130 555 77 508 41 _c
460 5 391 -13 300 -13 _c
265 -13 228 -9 189 -2 _c
}_e{150 5 110 16 69 32 _c
69 134 _l
109 111 148 94 186 83 _c
224 71 262 66 300 66 _c
356 66 399 77 430 99 _c
460 121 476 152 476 194 _c
476 230 465 258 443 278 _c
421 298 385 313 335 323 _c
275 335 _l
201 349 148 372 115 404 _c
82 435 66 478 66 534 _c
66 598 88 649 134 686 _c
179 723 242 742 322 742 _c
356 742 390 739 426 733 _c
461 727 497 717 535 705 _c
}_e{_cl}_e}_d
/U{732 0 87 -13 645 729 _sc
87 729 _m
186 729 _l
186 286 _l
186 208 200 151 228 117 _c
256 83 302 66 366 66 _c
429 66 475 83 503 117 _c
531 151 546 208 546 286 _c
546 729 _l
645 729 _l
645 274 _l
645 178 621 107 574 59 _c
527 11 458 -13 366 -13 _c
274 -13 204 11 157 59 _c
110 107 87 178 87 274 _c
87 729 _l
_cl}_d
/W{989 0 33 0 956 729 _sc
33 729 _m
133 729 _l
286 113 _l
439 729 _l
550 729 _l
703 113 _l
856 729 _l
956 729 _l
773 0 _l
649 0 _l
495 633 _l
340 0 _l
216 0 _l
33 729 _l
_cl}_d
/X{685 0 30 0 654 729 _sc
63 729 _m
169 729 _l
350 458 _l
532 729 _l
638 729 _l
404 379 _l
654 0 _l
548 0 _l
343 310 _l
136 0 _l
30 0 _l
290 389 _l
63 729 _l
_cl}_d
/a{{613 0 60 -13 522 560 _sc
343 275 _m
270 275 220 266 192 250 _c
164 233 150 205 150 165 _c
150 133 160 107 181 89 _c
202 70 231 61 267 61 _c
317 61 357 78 387 114 _c
417 149 432 196 432 255 _c
432 275 _l
343 275 _l
522 312 _m
522 0 _l
432 0 _l
432 83 _l
411 49 385 25 355 10 _c
325 -5 287 -13 243 -13 _c
187 -13 142 2 109 33 _c
76 64 60 106 60 159 _c
}_e{60 220 80 266 122 298 _c
163 329 224 345 306 345 _c
432 345 _l
432 354 _l
432 395 418 427 391 450 _c
364 472 326 484 277 484 _c
245 484 215 480 185 472 _c
155 464 127 453 100 439 _c
100 522 _l
132 534 164 544 195 550 _c
226 556 256 560 286 560 _c
365 560 424 539 463 498 _c
502 457 522 395 522 312 _c
_cl}_e}_d
/c{{550 0 55 -13 488 560 _sc
488 526 _m
488 442 _l
462 456 437 466 411 473 _c
385 480 360 484 334 484 _c
276 484 230 465 198 428 _c
166 391 150 339 150 273 _c
150 206 166 154 198 117 _c
230 80 276 62 334 62 _c
360 62 385 65 411 72 _c
437 79 462 90 488 104 _c
488 21 _l
462 9 436 0 410 -5 _c
383 -10 354 -13 324 -13 _c
242 -13 176 12 128 64 _c
}_e{79 115 55 185 55 273 _c
55 362 79 432 128 483 _c
177 534 244 560 330 560 _c
358 560 385 557 411 551 _c
437 545 463 537 488 526 _c
_cl}_e}_d
/d{{635 0 55 -13 544 760 _sc
454 464 _m
454 760 _l
544 760 _l
544 0 _l
454 0 _l
454 82 _l
435 49 411 25 382 10 _c
353 -5 319 -13 279 -13 _c
213 -13 159 13 117 65 _c
75 117 55 187 55 273 _c
55 359 75 428 117 481 _c
159 533 213 560 279 560 _c
319 560 353 552 382 536 _c
411 520 435 496 454 464 _c
148 273 _m
148 207 161 155 188 117 _c
215 79 253 61 301 61 _c
}_e{348 61 385 79 413 117 _c
440 155 454 207 454 273 _c
454 339 440 390 413 428 _c
385 466 348 485 301 485 _c
253 485 215 466 188 428 _c
161 390 148 339 148 273 _c
_cl}_e}_d
/e{{615 0 55 -13 562 560 _sc
562 296 _m
562 252 _l
149 252 _l
153 190 171 142 205 110 _c
238 78 284 62 344 62 _c
378 62 412 66 444 74 _c
476 82 509 95 541 113 _c
541 28 _l
509 14 476 3 442 -3 _c
408 -9 373 -13 339 -13 _c
251 -13 182 12 131 62 _c
80 112 55 181 55 268 _c
55 357 79 428 127 481 _c
175 533 241 560 323 560 _c
397 560 455 536 498 489 _c
}_e{540 441 562 377 562 296 _c
472 322 _m
471 371 457 410 431 440 _c
404 469 368 484 324 484 _c
274 484 234 469 204 441 _c
174 413 156 373 152 322 _c
472 322 _l
_cl}_e}_d
/f{352 0 23 0 371 760 _sc
371 760 _m
371 685 _l
285 685 _l
253 685 230 678 218 665 _c
205 652 199 629 199 595 _c
199 547 _l
347 547 _l
347 477 _l
199 477 _l
199 0 _l
109 0 _l
109 477 _l
23 477 _l
23 547 _l
109 547 _l
109 585 _l
109 645 123 690 151 718 _c
179 746 224 760 286 760 _c
371 760 _l
_cl}_d
/h{634 0 91 0 549 760 _sc
549 330 _m
549 0 _l
459 0 _l
459 327 _l
459 379 448 417 428 443 _c
408 469 378 482 338 482 _c
289 482 251 466 223 435 _c
195 404 181 362 181 309 _c
181 0 _l
91 0 _l
91 760 _l
181 760 _l
181 462 _l
202 494 227 519 257 535 _c
286 551 320 560 358 560 _c
420 560 468 540 500 501 _c
532 462 549 405 549 330 _c
_cl}_d
/i{278 0 94 0 184 760 _sc
94 547 _m
184 547 _l
184 0 _l
94 0 _l
94 547 _l
94 760 _m
184 760 _l
184 646 _l
94 646 _l
94 760 _l
_cl}_d
/k{579 0 91 0 576 760 _sc
91 760 _m
181 760 _l
181 311 _l
449 547 _l
564 547 _l
274 291 _l
576 0 _l
459 0 _l
181 267 _l
181 0 _l
91 0 _l
91 760 _l
_cl}_d
/l{278 0 94 0 184 760 _sc
94 760 _m
184 760 _l
184 0 _l
94 0 _l
94 760 _l
_cl}_d
/m{{974 0 91 0 889 560 _sc
520 442 _m
542 482 569 511 600 531 _c
631 550 668 560 711 560 _c
767 560 811 540 842 500 _c
873 460 889 403 889 330 _c
889 0 _l
799 0 _l
799 327 _l
799 379 789 418 771 444 _c
752 469 724 482 686 482 _c
639 482 602 466 575 435 _c
548 404 535 362 535 309 _c
535 0 _l
445 0 _l
445 327 _l
445 379 435 418 417 444 _c
398 469 369 482 331 482 _c
}_e{285 482 248 466 221 435 _c
194 404 181 362 181 309 _c
181 0 _l
91 0 _l
91 547 _l
181 547 _l
181 462 _l
201 495 226 520 255 536 _c
283 552 317 560 357 560 _c
397 560 430 550 458 530 _c
486 510 506 480 520 442 _c
_cl}_e}_d
/n{634 0 91 0 549 560 _sc
549 330 _m
549 0 _l
459 0 _l
459 327 _l
459 379 448 417 428 443 _c
408 469 378 482 338 482 _c
289 482 251 466 223 435 _c
195 404 181 362 181 309 _c
181 0 _l
91 0 _l
91 547 _l
181 547 _l
181 462 _l
202 494 227 519 257 535 _c
286 551 320 560 358 560 _c
420 560 468 540 500 501 _c
532 462 549 405 549 330 _c
_cl}_d
/o{612 0 55 -13 557 560 _sc
306 484 _m
258 484 220 465 192 427 _c
164 389 150 338 150 273 _c
150 207 163 156 191 118 _c
219 80 257 62 306 62 _c
354 62 392 80 420 118 _c
448 156 462 207 462 273 _c
462 337 448 389 420 427 _c
392 465 354 484 306 484 _c
306 560 _m
384 560 445 534 490 484 _c
534 433 557 363 557 273 _c
557 183 534 113 490 63 _c
445 12 384 -13 306 -13 _c
227 -13 165 12 121 63 _c
77 113 55 183 55 273 _c
55 363 77 433 121 484 _c
165 534 227 560 306 560 _c
_cl}_d
/p{{635 0 91 -207 580 560 _sc
181 82 _m
181 -207 _l
91 -207 _l
91 547 _l
181 547 _l
181 464 _l
199 496 223 520 252 536 _c
281 552 316 560 356 560 _c
422 560 476 533 518 481 _c
559 428 580 359 580 273 _c
580 187 559 117 518 65 _c
476 13 422 -13 356 -13 _c
316 -13 281 -5 252 10 _c
223 25 199 49 181 82 _c
487 273 _m
487 339 473 390 446 428 _c
418 466 381 485 334 485 _c
}_e{286 485 249 466 222 428 _c
194 390 181 339 181 273 _c
181 207 194 155 222 117 _c
249 79 286 61 334 61 _c
381 61 418 79 446 117 _c
473 155 487 207 487 273 _c
_cl}_e}_d
/r{411 0 91 0 411 560 _sc
411 463 _m
401 469 390 473 378 476 _c
366 478 353 480 339 480 _c
288 480 249 463 222 430 _c
194 397 181 350 181 288 _c
181 0 _l
91 0 _l
91 547 _l
181 547 _l
181 462 _l
199 495 224 520 254 536 _c
284 552 321 560 365 560 _c
371 560 378 559 386 559 _c
393 558 401 557 411 555 _c
411 463 _l
_cl}_d
/s{{521 0 54 -13 472 560 _sc
443 531 _m
443 446 _l
417 458 391 468 364 475 _c
336 481 308 485 279 485 _c
234 485 200 478 178 464 _c
156 450 145 430 145 403 _c
145 382 153 366 169 354 _c
185 342 217 330 265 320 _c
296 313 _l
360 299 405 279 432 255 _c
458 230 472 195 472 151 _c
472 100 452 60 412 31 _c
372 1 316 -13 246 -13 _c
216 -13 186 -10 154 -5 _c
}_e{122 0 89 8 54 20 _c
54 113 _l
87 95 120 82 152 74 _c
184 65 216 61 248 61 _c
290 61 323 68 346 82 _c
368 96 380 117 380 144 _c
380 168 371 187 355 200 _c
339 213 303 226 247 238 _c
216 245 _l
160 257 119 275 95 299 _c
70 323 58 356 58 399 _c
58 450 76 490 112 518 _c
148 546 200 560 268 560 _c
301 560 332 557 362 552 _c
391 547 418 540 443 531 _c
}_e{_cl}_e}_d
/t{392 0 27 0 368 702 _sc
183 702 _m
183 547 _l
368 547 _l
368 477 _l
183 477 _l
183 180 _l
183 135 189 106 201 94 _c
213 81 238 75 276 75 _c
368 75 _l
368 0 _l
276 0 _l
206 0 158 13 132 39 _c
106 65 93 112 93 180 _c
93 477 _l
27 477 _l
27 547 _l
93 547 _l
93 702 _l
183 702 _l
_cl}_d
/u{634 0 85 -13 543 560 _sc
85 216 _m
85 547 _l
175 547 _l
175 219 _l
175 167 185 129 205 103 _c
225 77 255 64 296 64 _c
344 64 383 79 411 110 _c
439 141 453 183 453 237 _c
453 547 _l
543 547 _l
543 0 _l
453 0 _l
453 84 _l
431 50 405 26 377 10 _c
348 -5 315 -13 277 -13 _c
214 -13 166 6 134 45 _c
101 83 85 140 85 216 _c
311 560 _m
311 560 _l
_cl}_d
/w{818 0 42 0 776 547 _sc
42 547 _m
132 547 _l
244 120 _l
356 547 _l
462 547 _l
574 120 _l
686 547 _l
776 547 _l
633 0 _l
527 0 _l
409 448 _l
291 0 _l
185 0 _l
42 547 _l
_cl}_d
end readonly def

/BuildGlyph
 {exch begin
 CharStrings exch
 2 copy known not{pop /.notdef}if
 true 3 1 roll get exec
 end}_d

/BuildChar {
 1 index /Encoding get exch get
 1 index /BuildGlyph get exec
}_d

FontName currentdict end definefont pop
end
%%EndProlog
mpldict begin
-234 36 translate
1080 720 0 0 clipbox
gsave
0 0 m
1080 0 l
1080 720 l
0 720 l
cl
1.000 setgray
fill
grestore
gsave
135 79.2 m
972 79.2 l
972 633.6 l
135 633.6 l
cl
1.000 setgray
fill
grestore
0.800 setlinewidth
1 setlinejoin
0 setlinecap
[] 0 setdash
0.000 setgray
gsave
/o {
gsave
newpath
translate
0.8 setlinewidth
1 setlinejoin
0 setlinecap
0 0 m
0 -3.5 l

gsave
0.000 setgray
fill
grestore
stroke
grestore
} bind def
360.921 79.2 o
grestore
gsave
349.921490 62.700000 translate
0.000000 rotate
/DejaVuSans findfont
12.0 scalefont
setfont
0.000000 0.171875 moveto
/one glyphshow
7.634766 0.171875 moveto
/zero glyphshow
/DejaVuSans findfont
8.399999999999999 scalefont
setfont
15.384375 4.765625 moveto
/six glyphshow

grestore
gsave
/o {
gsave
newpath
translate
0.8 setlinewidth
1 setlinejoin
0 setlinecap
0 0 m
0 -3.5 l

gsave
0.000 setgray
fill
grestore
stroke
grestore
} bind def
614.557 79.2 o
grestore
gsave
603.557429 62.700000 translate
0.000000 rotate
/DejaVuSans findfont
12.0 scalefont
setfont
0.000000 0.281250 moveto
/one glyphshow
7.634766 0.281250 moveto
/zero glyphshow
/DejaVuSans findfont
8.399999999999999 scalefont
setfont
15.384375 4.875000 moveto
/seven glyphshow

grestore
gsave
/o {
gsave
newpath
translate
0.8 setlinewidth
1 setlinejoin
0 setlinecap
0 0 m
0 -3.5 l

gsave
0.000 setgray
fill
grestore
stroke
grestore
} bind def
868.193 79.2 o
grestore
gsave
857.193368 62.700000 translate
0.000000 rotate
/DejaVuSans findfont
12.0 scalefont
setfont
0.000000 0.171875 moveto
/one glyphshow
7.634766 0.171875 moveto
/zero glyphshow
/DejaVuSans findfont
8.399999999999999 scalefont
setfont
15.384375 4.765625 moveto
/eight glyphshow

grestore
0.600 setlinewidth
gsave
/o {
gsave
newpath
translate
0.6 setlinewidth
1 setlinejoin
0 setlinecap
0 0 m
0 -2 l

gsave
0.000 setgray
fill
grestore
stroke
grestore
} bind def
183.638 79.2 o
grestore
gsave
/o {
gsave
newpath
translate
0.6 setlinewidth
1 setlinejoin
0 setlinecap
0 0 m
0 -2 l

gsave
0.000 setgray
fill
grestore
stroke
grestore
} bind def
228.301 79.2 o
grestore
gsave
/o {
gsave
newpath
translate
0.6 setlinewidth
1 setlinejoin
0 setlinecap
0 0 m
0 -2 l

gsave
0.000 setgray
fill
grestore
stroke
grestore
} bind def
259.99 79.2 o
grestore
gsave
/o {
gsave
newpath
translate
0.6 setlinewidth
1 setlinejoin
0 setlinecap
0 0 m
0 -2 l

gsave
0.000 setgray
fill
grestore
stroke
grestore
} bind def
284.569 79.2 o
grestore
gsave
/o {
gsave
newpath
translate
0.6 setlinewidth
1 setlinejoin
0 setlinecap
0 0 m
0 -2 l

gsave
0.000 setgray
fill
grestore
stroke
grestore
} bind def
304.653 79.2 o
grestore
gsave
/o {
gsave
newpath
translate
0.6 setlinewidth
1 setlinejoin
0 setlinecap
0 0 m
0 -2 l

gsave
0.000 setgray
fill
grestore
stroke
grestore
} bind def
321.633 79.2 o
grestore
gsave
/o {
gsave
newpath
translate
0.6 setlinewidth
1 setlinejoin
0 setlinecap
0 0 m
0 -2 l

gsave
0.000 setgray
fill
grestore
stroke
grestore
} bind def
336.342 79.2 o
grestore
gsave
/o {
gsave
newpath
translate
0.6 setlinewidth
1 setlinejoin
0 setlinecap
0 0 m
0 -2 l

gsave
0.000 setgray
fill
grestore
stroke
grestore
} bind def
349.316 79.2 o
grestore
gsave
/o {
gsave
newpath
translate
0.6 setlinewidth
1 setlinejoin
0 setlinecap
0 0 m
0 -2 l

gsave
0.000 setgray
fill
grestore
stroke
grestore
} bind def
437.274 79.2 o
grestore
gsave
/o {
gsave
newpath
translate
0.6 setlinewidth
1 setlinejoin
0 setlinecap
0 0 m
0 -2 l

gsave
0.000 setgray
fill
grestore
stroke
grestore
} bind def
481.937 79.2 o
grestore
gsave
/o {
gsave
newpath
translate
0.6 setlinewidth
1 setlinejoin
0 setlinecap
0 0 m
0 -2 l

gsave
0.000 setgray
fill
grestore
stroke
grestore
} bind def
513.626 79.2 o
grestore
gsave
/o {
gsave
newpath
translate
0.6 setlinewidth
1 setlinejoin
0 setlinecap
0 0 m
0 -2 l

gsave
0.000 setgray
fill
grestore
stroke
grestore
} bind def
538.205 79.2 o
grestore
gsave
/o {
gsave
newpath
translate
0.6 setlinewidth
1 setlinejoin
0 setlinecap
0 0 m
0 -2 l

gsave
0.000 setgray
fill
grestore
stroke
grestore
} bind def
558.289 79.2 o
grestore
gsave
/o {
gsave
newpath
translate
0.6 setlinewidth
1 setlinejoin
0 setlinecap
0 0 m
0 -2 l

gsave
0.000 setgray
fill
grestore
stroke
grestore
} bind def
575.269 79.2 o
grestore
gsave
/o {
gsave
newpath
translate
0.6 setlinewidth
1 setlinejoin
0 setlinecap
0 0 m
0 -2 l

gsave
0.000 setgray
fill
grestore
stroke
grestore
} bind def
589.978 79.2 o
grestore
gsave
/o {
gsave
newpath
translate
0.6 setlinewidth
1 setlinejoin
0 setlinecap
0 0 m
0 -2 l

gsave
0.000 setgray
fill
grestore
stroke
grestore
} bind def
602.952 79.2 o
grestore
gsave
/o {
gsave
newpath
translate
0.6 setlinewidth
1 setlinejoin
0 setlinecap
0 0 m
0 -2 l

gsave
0.000 setgray
fill
grestore
stroke
grestore
} bind def
690.909 79.2 o
grestore
gsave
/o {
gsave
newpath
translate
0.6 setlinewidth
1 setlinejoin
0 setlinecap
0 0 m
0 -2 l

gsave
0.000 setgray
fill
grestore
stroke
grestore
} bind def
735.573 79.2 o
grestore
gsave
/o {
gsave
newpath
translate
0.6 setlinewidth
1 setlinejoin
0 setlinecap
0 0 m
0 -2 l

gsave
0.000 setgray
fill
grestore
stroke
grestore
} bind def
767.261 79.2 o
grestore
gsave
/o {
gsave
newpath
translate
0.6 setlinewidth
1 setlinejoin
0 setlinecap
0 0 m
0 -2 l

gsave
0.000 setgray
fill
grestore
stroke
grestore
} bind def
791.841 79.2 o
grestore
gsave
/o {
gsave
newpath
translate
0.6 setlinewidth
1 setlinejoin
0 setlinecap
0 0 m
0 -2 l

gsave
0.000 setgray
fill
grestore
stroke
grestore
} bind def
811.925 79.2 o
grestore
gsave
/o {
gsave
newpath
translate
0.6 setlinewidth
1 setlinejoin
0 setlinecap
0 0 m
0 -2 l

gsave
0.000 setgray
fill
grestore
stroke
grestore
} bind def
828.905 79.2 o
grestore
gsave
/o {
gsave
newpath
translate
0.6 setlinewidth
1 setlinejoin
0 setlinecap
0 0 m
0 -2 l

gsave
0.000 setgray
fill
grestore
stroke
grestore
} bind def
843.614 79.2 o
grestore
gsave
/o {
gsave
newpath
translate
0.6 setlinewidth
1 setlinejoin
0 setlinecap
0 0 m
0 -2 l

gsave
0.000 setgray
fill
grestore
stroke
grestore
} bind def
856.588 79.2 o
grestore
gsave
/o {
gsave
newpath
translate
0.6 setlinewidth
1 setlinejoin
0 setlinecap
0 0 m
0 -2 l

gsave
0.000 setgray
fill
grestore
stroke
grestore
} bind def
944.545 79.2 o
grestore
/DejaVuSans findfont
12.000 scalefont
setfont
gsave
528.460938 47.075000 translate
0.000000 rotate
0.000000 0 m /D glyphshow
9.240234 0 m /a glyphshow
16.593750 0 m /t glyphshow
21.298828 0 m /a glyphshow
28.652344 0 m /space glyphshow
32.466797 0 m /parenleft glyphshow
37.148438 0 m /B glyphshow
45.380859 0 m /parenright glyphshow
grestore
0.800 setlinewidth
gsave
/o {
gsave
newpath
translate
0.8 setlinewidth
1 setlinejoin
0 setlinecap
-0 0 m
-3.5 0 l

gsave
0.000 setgray
fill
grestore
stroke
grestore
} bind def
135 79.2 o
grestore
gsave
120.359375 74.637500 translate
0.000000 rotate
0.000000 0 m /zero glyphshow
grestore
gsave
/o {
gsave
newpath
translate
0.8 setlinewidth
1 setlinejoin
0 setlinecap
-0 0 m
-3.5 0 l

gsave
0.000 setgray
fill
grestore
stroke
grestore
} bind def
135 134.64 o
grestore
gsave
120.359375 130.077500 translate
0.000000 rotate
0.000000 0 m /five glyphshow
grestore
gsave
/o {
gsave
newpath
translate
0.8 setlinewidth
1 setlinejoin
0 setlinecap
-0 0 m
-3.5 0 l

gsave
0.000 setgray
fill
grestore
stroke
grestore
} bind def
135 190.08 o
grestore
gsave
112.718750 185.517500 translate
0.000000 rotate
0.000000 0 m /one glyphshow
7.634766 0 m /zero glyphshow
grestore
gsave
/o {
gsave
newpath
translate
0.8 setlinewidth
1 setlinejoin
0 setlinecap
-0 0 m
-3.5 0 l

gsave
0.000 setgray
fill
grestore
stroke
grestore
} bind def
135 245.52 o
grestore
gsave
112.718750 240.957500 translate
0.000000 rotate
0.000000 0 m /one glyphshow
7.634766 0 m /five glyphshow
grestore
gsave
/o {
gsave
newpath
translate
0.8 setlinewidth
1 setlinejoin
0 setlinecap
-0 0 m
-3.5 0 l

gsave
0.000 setgray
fill
grestore
stroke
grestore
} bind def
135 300.96 o
grestore
gsave
112.718750 296.397500 translate
0.000000 rotate
0.000000 0 m /two glyphshow
7.634766 0 m /zero glyphshow
grestore
gsave
/o {
gsave
newpath
translate
0.8 setlinewidth
1 setlinejoin
0 setlinecap
-0 0 m
-3.5 0 l

gsave
0.000 setgray
fill
grestore
stroke
grestore
} bind def
135 356.4 o
grestore
gsave
112.718750 351.837500 translate
0.000000 rotate
0.000000 0 m /two glyphshow
7.634766 0 m /five glyphshow
grestore
gsave
/o {
gsave
newpath
translate
0.8 setlinewidth
1 setlinejoin
0 setlinecap
-0 0 m
-3.5 0 l

gsave
0.000 setgray
fill
grestore
stroke
grestore
} bind def
135 411.84 o
grestore
gsave
112.718750 407.277500 translate
0.000000 rotate
0.000000 0 m /three glyphshow
7.634766 0 m /zero glyphshow
grestore
gsave
/o {
gsave
newpath
translate
0.8 setlinewidth
1 setlinejoin
0 setlinecap
-0 0 m
-3.5 0 l

gsave
0.000 setgray
fill
grestore
stroke
grestore
} bind def
135 467.28 o
grestore
gsave
112.718750 462.717500 translate
0.000000 rotate
0.000000 0 m /three glyphshow
7.634766 0 m /five glyphshow
grestore
gsave
/o {
gsave
newpath
translate
0.8 setlinewidth
1 setlinejoin
0 setlinecap
-0 0 m
-3.5 0 l

gsave
0.000 setgray
fill
grestore
stroke
grestore
} bind def
135 522.72 o
grestore
gsave
112.718750 518.157500 translate
0.000000 rotate
0.000000 0 m /four glyphshow
7.634766 0 m /zero glyphshow
grestore
gsave
/o {
gsave
newpath
translate
0.8 setlinewidth
1 setlinejoin
0 setlinecap
-0 0 m
-3.5 0 l

gsave
0.000 setgray
fill
grestore
stroke
grestore
} bind def
135 578.16 o
grestore
gsave
112.718750 573.597500 translate
0.000000 rotate
0.000000 0 m /four glyphshow
7.634766 0 m /five glyphshow
grestore
gsave
106.218750 302.150000 translate
90.000000 rotate
0.000000 0 m /B glyphshow
8.232422 0 m /a glyphshow
15.585938 0 m /n glyphshow
23.191406 0 m /d glyphshow
30.808594 0 m /w glyphshow
40.623047 0 m /i glyphshow
43.957031 0 m /d glyphshow
51.574219 0 m /t glyphshow
56.279297 0 m /h glyphshow
63.884766 0 m /space glyphshow
67.699219 0 m /parenleft glyphshow
72.380859 0 m /G glyphshow
81.679688 0 m /B glyphshow
89.912109 0 m /p glyphshow
97.529297 0 m /s glyphshow
103.781250 0 m /parenright glyphshow
grestore
1.500 setlinewidth
2 setlinecap
0.500 0.000 1.000 setrgbcolor
gsave
837 554.4 135 79.2 clipbox
173.045455 137.174384 m
178.671777 140.224804 l
184.637615 140.276363 l
190.933768 139.039053 l
197.625317 137.173164 l
204.725919 136.923463 l
212.327367 135.211476 l
220.480372 133.295026 l
229.300687 132.974472 l
238.895412 131.358506 l
249.39748 129.783345 l
260.989641 128.573755 l
273.977342 127.911912 l
288.679393 127.268143 l
305.662901 126.613729 l
325.749506 125.417445 l
350.329368 123.75735 l
382.014926 122.698668 l
426.681394 121.93293 l
432.3303 122.11688 l
438.28578 121.981828 l
444.58414 121.942355 l
451.261256 121.826596 l
458.369499 121.743547 l
465.970437 121.763616 l
474.133969 121.766721 l
482.950889 121.618253 l
492.535086 121.277629 l
503.033419 121.467123 l
514.639333 121.124172 l
527.613282 120.918156 l
542.322463 120.981358 l
545.51545 120.857172 l
548.804649 120.8493 l
552.19423 120.994885 l
555.691231 120.75727 l
559.302914 120.875468 l
563.037499 120.796854 l
566.902801 120.370188 l
570.90876 119.860361 l
575.065857 119.287223 l
579.386506 118.685144 l
583.882777 118.061112 l
588.570366 118.231645 l
593.467908 117.263995 l
598.591873 116.537953 l
603.966156 116.644509 l
609.615826 115.529167 l
615.571985 115.719437 l
621.868053 115.464745 l
628.546528 115.036416 l
635.654686 113.929057 l
643.254945 114.583915 l
651.417883 114.242959 l
660.235312 112.93402 l
669.819934 112.53585 l
680.318182 112.962516 l
691.924011 114.954254 l
704.898214 113.331636 l
719.606971 118.586904 l
736.587337 116.652825 l
756.67042 118.588457 l
781.250239 117.294155 l
812.939236 117.158992 l
857.602095 115.460865 l
933.954545 113.913867 l
stroke
grestore
1.000 setlinewidth
0 setlinecap
gsave
837 554.4 135 79.2 clipbox
/o {
gsave
newpath
translate
1.0 setlinewidth
1 setlinejoin
0 setlinecap
0 -1.5 m
0.397805 -1.5 0.77937 -1.341951 1.06066 -1.06066 c
1.341951 -0.77937 1.5 -0.397805 1.5 0 c
1.5 0.397805 1.341951 0.77937 1.06066 1.06066 c
0.77937 1.341951 0.397805 1.5 0 1.5 c
-0.397805 1.5 -0.77937 1.341951 -1.06066 1.06066 c
-1.341951 0.77937 -1.5 0.397805 -1.5 0 c
-1.5 -0.397805 -1.341951 -0.77937 -1.06066 -1.06066 c
-0.77937 -1.341951 -0.397805 -1.5 0 -1.5 c
cl

gsave
0.500 0.000 1.000 setrgbcolor
fill
grestore
stroke
grestore
} bind def
173.045 137.174 o
178.672 140.225 o
184.638 140.276 o
190.934 139.039 o
197.625 137.173 o
204.726 136.923 o
212.327 135.211 o
220.48 133.295 o
229.301 132.974 o
238.895 131.359 o
249.397 129.783 o
260.99 128.574 o
273.977 127.912 o
288.679 127.268 o
305.663 126.614 o
325.75 125.417 o
350.329 123.757 o
382.015 122.699 o
426.681 121.933 o
432.33 122.117 o
438.286 121.982 o
444.584 121.942 o
451.261 121.827 o
458.369 121.744 o
465.97 121.764 o
474.134 121.767 o
482.951 121.618 o
492.535 121.278 o
503.033 121.467 o
514.639 121.124 o
527.613 120.918 o
542.322 120.981 o
545.515 120.857 o
548.805 120.849 o
552.194 120.995 o
555.691 120.757 o
559.303 120.875 o
563.037 120.797 o
566.903 120.37 o
570.909 119.86 o
575.066 119.287 o
579.387 118.685 o
583.883 118.061 o
588.57 118.232 o
593.468 117.264 o
598.592 116.538 o
603.966 116.645 o
609.616 115.529 o
615.572 115.719 o
621.868 115.465 o
628.547 115.036 o
635.655 113.929 o
643.255 114.584 o
651.418 114.243 o
660.235 112.934 o
669.82 112.536 o
680.318 112.963 o
691.924 114.954 o
704.898 113.332 o
719.607 118.587 o
736.587 116.653 o
756.67 118.588 o
781.25 117.294 o
812.939 117.159 o
857.602 115.461 o
933.955 113.914 o
grestore
1.500 setlinewidth
2 setlinecap
0.218 0.429 0.976 setrgbcolor
gsave
837 554.4 135 79.2 clipbox
173.045455 139.133523 m
178.671777 138.477779 l
184.637615 139.337209 l
190.933768 138.050669 l
197.625317 137.180261 l
204.725919 136.160719 l
212.327367 135.62284 l
220.480372 133.95077 l
229.300687 133.462787 l
238.895412 131.846711 l
249.39748 130.050344 l
260.989641 128.729652 l
273.977342 128.912494 l
288.679393 127.51097 l
305.662901 126.439759 l
325.749506 125.336835 l
350.329368 124.096199 l
382.014926 123.527163 l
426.681394 122.96611 l
432.3303 122.563394 l
438.28578 122.589562 l
444.58414 122.66241 l
451.261256 122.461828 l
458.369499 122.126748 l
465.970437 121.918848 l
474.133969 122.081842 l
482.950889 122.243727 l
492.535086 121.808966 l
503.033419 121.776368 l
514.639333 121.702189 l
527.613282 121.638433 l
542.322463 121.336396 l
545.51545 121.345599 l
548.804649 121.377865 l
552.19423 121.617144 l
555.691231 121.356465 l
559.302914 121.31799 l
563.037499 121.322647 l
566.902801 120.749175 l
570.90876 119.921124 l
575.065857 119.892849 l
579.386506 119.473279 l
583.882777 117.893239 l
588.570366 118.84847 l
593.467908 117.685894 l
598.591873 116.164176 l
603.966156 116.971272 l
609.615826 115.89252 l
615.571985 115.547905 l
621.868053 115.211163 l
628.546528 115.14907 l
635.654686 113.123403 l
643.254945 115.706686 l
651.417883 114.458731 l
660.235312 112.838774 l
669.819934 111.804375 l
680.318182 113.088587 l
691.924011 114.848142 l
704.898214 113.10655 l
719.606971 117.183829 l
736.587337 117.123067 l
756.67042 117.869289 l
781.250239 116.731549 l
812.939236 117.334515 l
857.602095 115.568418 l
933.954545 113.473562 l
stroke
grestore
1.000 setlinewidth
0 setlinecap
gsave
837 554.4 135 79.2 clipbox
/o {
gsave
newpath
translate
1.0 setlinewidth
1 setlinejoin
0 setlinecap
0 -3 m
0.795609 -3 1.55874 -2.683901 2.12132 -2.12132 c
2.683901 -1.55874 3 -0.795609 3 0 c
3 0.795609 2.683901 1.55874 2.12132 2.12132 c
1.55874 2.683901 0.795609 3 0 3 c
-0.795609 3 -1.55874 2.683901 -2.12132 2.12132 c
-2.683901 1.55874 -3 0.795609 -3 0 c
-3 -0.795609 -2.683901 -1.55874 -2.12132 -2.12132 c
-1.55874 -2.683901 -0.795609 -3 0 -3 c
cl

gsave
0.218 0.429 0.976 setrgbcolor
fill
grestore
stroke
grestore
} bind def
173.045 139.134 o
178.672 138.478 o
184.638 139.337 o
190.934 138.051 o
197.625 137.18 o
204.726 136.161 o
212.327 135.623 o
220.48 133.951 o
229.301 133.463 o
238.895 131.847 o
249.397 130.05 o
260.99 128.73 o
273.977 128.912 o
288.679 127.511 o
305.663 126.44 o
325.75 125.337 o
350.329 124.096 o
382.015 123.527 o
426.681 122.966 o
432.33 122.563 o
438.286 122.59 o
444.584 122.662 o
451.261 122.462 o
458.369 122.127 o
465.97 121.919 o
474.134 122.082 o
482.951 122.244 o
492.535 121.809 o
503.033 121.776 o
514.639 121.702 o
527.613 121.638 o
542.322 121.336 o
545.515 121.346 o
548.805 121.378 o
552.194 121.617 o
555.691 121.356 o
559.303 121.318 o
563.037 121.323 o
566.903 120.749 o
570.909 119.921 o
575.066 119.893 o
579.387 119.473 o
583.883 117.893 o
588.57 118.848 o
593.468 117.686 o
598.592 116.164 o
603.966 116.971 o
609.616 115.893 o
615.572 115.548 o
621.868 115.211 o
628.547 115.149 o
635.655 113.123 o
643.255 115.707 o
651.418 114.459 o
660.235 112.839 o
669.82 111.804 o
680.318 113.089 o
691.924 114.848 o
704.898 113.107 o
719.607 117.184 o
736.587 117.123 o
756.67 117.869 o
781.25 116.732 o
812.939 117.335 o
857.602 115.568 o
933.955 113.474 o
grestore
1.500 setlinewidth
2 setlinecap
0.073 0.783 0.901 setrgbcolor
gsave
837 554.4 135 79.2 clipbox
173.045455 137.28848 m
178.671777 138.743004 l
184.637615 138.24859 l
190.933768 136.798944 l
197.625317 134.437755 l
204.725919 136.385695 l
212.327367 134.573916 l
220.480372 134.147915 l
229.300687 132.098076 l
238.895412 131.67773 l
249.39748 130.205798 l
260.989641 128.296112 l
273.977342 128.893644 l
288.679393 127.518067 l
305.662901 126.599648 l
325.749506 125.335948 l
350.329368 124.865041 l
382.014926 123.356519 l
426.681394 122.335646 l
432.3303 122.730047 l
438.28578 122.752444 l
444.58414 122.450185 l
451.261256 122.193387 l
458.369499 122.031503 l
465.970437 122.297836 l
474.133969 122.020304 l
482.950889 121.803977 l
492.535086 121.884254 l
503.033419 121.632889 l
514.639333 121.563922 l
527.613282 121.373873 l
542.322463 121.236715 l
545.51545 121.411129 l
548.804649 121.433416 l
552.19423 121.372321 l
555.691231 121.894011 l
559.302914 121.420665 l
563.037499 121.419223 l
566.902801 120.777006 l
570.90876 119.98488 l
575.065857 120.002288 l
579.386506 119.522953 l
583.882777 118.0722 l
588.570366 119.062912 l
593.467908 117.752976 l
598.591873 116.216068 l
603.966156 117.090135 l
609.615826 116.133906 l
615.571985 115.611551 l
621.868053 115.166811 l
628.546528 115.219257 l
635.654686 113.215988 l
643.254945 115.665438 l
651.417883 114.717414 l
660.235312 113.053438 l
669.819934 111.931887 l
680.318182 112.859509 l
691.924011 114.959687 l
704.898214 112.767035 l
719.606971 117.48642 l
736.587337 117.10832 l
756.67042 118.575484 l
781.250239 117.231951 l
812.939236 117.976954 l
857.602095 115.576291 l
933.954545 113.139924 l
stroke
grestore
1.000 setlinewidth
2 setlinejoin
0 setlinecap
gsave
837 554.4 135 79.2 clipbox
/o {
gsave
newpath
translate
1.0 setlinewidth
2 setlinejoin
0 setlinecap
0 3 m
-0.673542 0.927051 l
-2.85317 0.927051 l
-1.089814 -0.354102 l
-1.763356 -2.427051 l
-0 -1.145898 l
1.763356 -2.427051 l
1.089814 -0.354102 l
2.85317 0.927051 l
0.673542 0.927051 l
cl

gsave
0.073 0.783 0.901 setrgbcolor
fill
grestore
stroke
grestore
} bind def
173.045 137.288 o
178.672 138.743 o
184.638 138.249 o
190.934 136.799 o
197.625 134.438 o
204.726 136.386 o
212.327 134.574 o
220.48 134.148 o
229.301 132.098 o
238.895 131.678 o
249.397 130.206 o
260.99 128.296 o
273.977 128.894 o
288.679 127.518 o
305.663 126.6 o
325.75 125.336 o
350.329 124.865 o
382.015 123.357 o
426.681 122.336 o
432.33 122.73 o
438.286 122.752 o
444.584 122.45 o
451.261 122.193 o
458.369 122.032 o
465.97 122.298 o
474.134 122.02 o
482.951 121.804 o
492.535 121.884 o
503.033 121.633 o
514.639 121.564 o
527.613 121.374 o
542.322 121.237 o
545.515 121.411 o
548.805 121.433 o
552.194 121.372 o
555.691 121.894 o
559.303 121.421 o
563.037 121.419 o
566.903 120.777 o
570.909 119.985 o
575.066 120.002 o
579.387 119.523 o
583.883 118.072 o
588.57 119.063 o
593.468 117.753 o
598.592 116.216 o
603.966 117.09 o
609.616 116.134 o
615.572 115.612 o
621.868 115.167 o
628.547 115.219 o
635.655 113.216 o
643.255 115.665 o
651.418 114.717 o
660.235 113.053 o
669.82 111.932 o
680.318 112.86 o
691.924 114.96 o
704.898 112.767 o
719.607 117.486 o
736.587 117.108 o
756.67 118.575 o
781.25 117.232 o
812.939 117.977 o
857.602 115.576 o
933.955 113.14 o
grestore
1.500 setlinewidth
1 setlinejoin
2 setlinecap
0.355 0.974 0.783 setrgbcolor
gsave
837 554.4 135 79.2 clipbox
173.045455 137.008397 m
178.671777 137.670905 l
184.637615 138.536323 l
190.933768 136.615771 l
197.625317 135.087955 l
204.725919 135.643242 l
212.327367 134.186833 l
220.480372 133.72147 l
229.300687 132.809149 l
238.895412 131.488901 l
249.39748 129.349139 l
260.989641 128.225481 l
273.977342 128.109722 l
288.679393 126.725496 l
305.662901 126.146703 l
325.749506 124.78554 l
350.329368 124.297446 l
382.014926 123.011127 l
426.681394 122.774288 l
432.3303 122.716963 l
438.28578 122.486887 l
444.58414 122.440206 l
451.261256 122.41925 l
458.369499 122.288966 l
465.970437 122.158793 l
474.133969 122.562285 l
482.950889 122.071641 l
492.535086 121.92539 l
503.033419 121.822494 l
514.639333 121.603949 l
527.613282 121.577892 l
542.322463 121.818946 l
545.51545 121.312446 l
548.804649 122.078627 l
552.19423 121.608274 l
555.691231 121.359459 l
559.302914 121.648301 l
563.037499 121.744767 l
566.902801 121.096784 l
570.90876 120.0177 l
575.065857 120.260195 l
579.386506 119.587707 l
583.882777 118.084175 l
588.570366 119.125338 l
593.467908 117.819282 l
598.591873 116.269956 l
603.966156 117.207668 l
609.615826 116.184024 l
615.571985 115.701585 l
621.868053 115.363845 l
628.546528 115.371163 l
635.654686 113.248698 l
643.254945 115.963373 l
651.417883 114.829181 l
660.235312 113.174076 l
669.819934 112.001076 l
680.318182 113.271428 l
691.924011 114.90214 l
704.898214 112.759384 l
719.606971 117.333517 l
736.587337 116.999103 l
756.67042 118.329108 l
781.250239 117.707293 l
812.939236 118.170328 l
857.602095 116.273948 l
933.954545 113.095572 l
stroke
grestore
1.000 setlinewidth
0 setlinejoin
0 setlinecap
gsave
837 554.4 135 79.2 clipbox
/o {
gsave
newpath
translate
1.0 setlinewidth
0 setlinejoin
0 setlinecap
3 -0 m
-3 3 l
-3 -3 l
cl

gsave
0.355 0.974 0.783 setrgbcolor
fill
grestore
stroke
grestore
} bind def
173.045 137.008 o
178.672 137.671 o
184.638 138.536 o
190.934 136.616 o
197.625 135.088 o
204.726 135.643 o
212.327 134.187 o
220.48 133.721 o
229.301 132.809 o
238.895 131.489 o
249.397 129.349 o
260.99 128.225 o
273.977 128.11 o
288.679 126.725 o
305.663 126.147 o
325.75 124.786 o
350.329 124.297 o
382.015 123.011 o
426.681 122.774 o
432.33 122.717 o
438.286 122.487 o
444.584 122.44 o
451.261 122.419 o
458.369 122.289 o
465.97 122.159 o
474.134 122.562 o
482.951 122.072 o
492.535 121.925 o
503.033 121.822 o
514.639 121.604 o
527.613 121.578 o
542.322 121.819 o
545.515 121.312 o
548.805 122.079 o
552.194 121.608 o
555.691 121.359 o
559.303 121.648 o
563.037 121.745 o
566.903 121.097 o
570.909 120.018 o
575.066 120.26 o
579.387 119.588 o
583.883 118.084 o
588.57 119.125 o
593.468 117.819 o
598.592 116.27 o
603.966 117.208 o
609.616 116.184 o
615.572 115.702 o
621.868 115.364 o
628.547 115.371 o
635.655 113.249 o
643.255 115.963 o
651.418 114.829 o
660.235 113.174 o
669.82 112.001 o
680.318 113.271 o
691.924 114.902 o
704.898 112.759 o
719.607 117.334 o
736.587 116.999 o
756.67 118.329 o
781.25 117.707 o
812.939 118.17 o
857.602 116.274 o
933.955 113.096 o
grestore
1.500 setlinewidth
1 setlinejoin
2 setlinecap
0.645 0.974 0.622 setrgbcolor
gsave
837 554.4 135 79.2 clipbox
173.045455 136.45056 m
178.671777 136.538931 l
184.637615 136.50478 l
190.933768 137.245902 l
197.625317 135.673623 l
204.725919 136.137434 l
212.327367 134.654193 l
220.480372 133.031907 l
229.300687 132.007709 l
238.895412 132.302206 l
249.39748 129.349139 l
260.989641 127.840395 l
273.977342 127.992855 l
288.679393 127.237873 l
305.662901 126.843362 l
325.749506 125.899884 l
350.329368 123.788064 l
382.014926 123.282894 l
426.681394 122.581024 l
432.3303 122.609964 l
438.28578 122.558072 l
444.58414 122.361149 l
451.261256 122.215009 l
458.369499 122.323782 l
465.970437 122.027954 l
474.133969 122.249936 l
482.950889 121.689105 l
492.535086 121.763616 l
503.033419 121.721704 l
514.639333 121.81573 l
527.613282 121.50959 l
542.322463 121.362342 l
545.51545 121.34316 l
548.804649 121.478544 l
552.19423 121.442952 l
555.691231 121.532432 l
559.302914 121.458586 l
563.037499 121.416895 l
566.902801 120.712918 l
570.90876 119.913695 l
575.065857 120.077353 l
579.386506 119.590258 l
583.882777 118.027071 l
588.570366 118.970549 l
593.467908 117.795776 l
598.591873 116.265299 l
603.966156 117.111979 l
609.615826 116.081016 l
615.571985 115.724981 l
621.868053 115.323595 l
628.546528 115.48803 l
635.654686 113.304692 l
643.254945 115.824662 l
651.417883 114.826077 l
660.235312 113.818843 l
669.819934 112.077694 l
680.318182 113.392398 l
691.924011 114.787823 l
704.898214 112.689419 l
719.606971 117.292159 l
736.587337 117.250246 l
756.67042 117.757744 l
781.250239 116.854404 l
812.939236 117.503385 l
857.602095 115.460976 l
933.954545 113.217651 l
stroke
grestore
1.000 setlinewidth
0 setlinejoin
0 setlinecap
gsave
837 554.4 135 79.2 clipbox
/o {
gsave
newpath
translate
1.0 setlinewidth
0 setlinejoin
0 setlinecap
-3 0 m
3 -3 l
3 3 l
cl

gsave
0.645 0.974 0.622 setrgbcolor
fill
grestore
stroke
grestore
} bind def
173.045 136.451 o
178.672 136.539 o
184.638 136.505 o
190.934 137.246 o
197.625 135.674 o
204.726 136.137 o
212.327 134.654 o
220.48 133.032 o
229.301 132.008 o
238.895 132.302 o
249.397 129.349 o
260.99 127.84 o
273.977 127.993 o
288.679 127.238 o
305.663 126.843 o
325.75 125.9 o
350.329 123.788 o
382.015 123.283 o
426.681 122.581 o
432.33 122.61 o
438.286 122.558 o
444.584 122.361 o
451.261 122.215 o
458.369 122.324 o
465.97 122.028 o
474.134 122.25 o
482.951 121.689 o
492.535 121.764 o
503.033 121.722 o
514.639 121.816 o
527.613 121.51 o
542.322 121.362 o
545.515 121.343 o
548.805 121.479 o
552.194 121.443 o
555.691 121.532 o
559.303 121.459 o
563.037 121.417 o
566.903 120.713 o
570.909 119.914 o
575.066 120.077 o
579.387 119.59 o
583.883 118.027 o
588.57 118.971 o
593.468 117.796 o
598.592 116.265 o
603.966 117.112 o
609.616 116.081 o
615.572 115.725 o
621.868 115.324 o
628.547 115.488 o
635.655 113.305 o
643.255 115.825 o
651.418 114.826 o
660.235 113.819 o
669.82 112.078 o
680.318 113.392 o
691.924 114.788 o
704.898 112.689 o
719.607 117.292 o
736.587 117.25 o
756.67 117.758 o
781.25 116.854 o
812.939 117.503 o
857.602 115.461 o
933.955 113.218 o
grestore
1.500 setlinewidth
1 setlinejoin
2 setlinecap
0.927 0.783 0.435 setrgbcolor
gsave
837 554.4 135 79.2 clipbox
173.045455 135.58126 m
178.671777 136.869242 l
184.637615 136.913484 l
190.933768 135.97056 l
197.625317 134.828607 l
204.725919 134.89957 l
212.327367 132.736634 l
220.480372 133.43928 l
229.300687 132.369288 l
238.895412 131.01378 l
249.39748 129.470664 l
260.989641 128.909722 l
273.977342 128.367186 l
288.679393 127.220354 l
305.662901 126.538331 l
325.749506 125.591194 l
350.329368 124.269948 l
382.014926 122.906789 l
426.681394 122.871197 l
432.3303 122.550643 l
438.28578 122.326443 l
444.58414 122.151475 l
451.261256 122.366804 l
458.369499 121.794552 l
465.970437 122.099361 l
474.133969 121.71361 l
482.950889 121.935259 l
492.535086 121.71616 l
503.033419 121.780803 l
514.639333 121.434414 l
527.613282 121.393388 l
542.322463 121.359459 l
545.51545 121.543963 l
548.804649 121.343049 l
552.19423 121.423658 l
555.691231 121.407248 l
559.302914 121.263991 l
563.037499 121.343049 l
566.902801 120.604033 l
570.90876 119.897728 l
575.065857 119.950396 l
579.386506 119.523397 l
583.882777 118.028624 l
588.570366 118.914666 l
593.467908 117.714279 l
598.591873 116.255763 l
603.966156 117.136816 l
609.615826 116.095985 l
615.571985 115.692826 l
621.868053 115.337123 l
628.546528 115.397663 l
635.654686 113.256238 l
643.254945 115.780864 l
651.417883 114.852133 l
660.235312 113.15445 l
669.819934 112.02935 l
680.318182 113.399938 l
691.924011 114.886839 l
704.898214 112.827132 l
719.606971 117.009747 l
736.587337 116.811937 l
756.67042 117.722484 l
781.250239 117.399158 l
812.939236 117.350371 l
857.602095 116.091883 l
933.954545 113.11043 l
stroke
grestore
1.000 setlinewidth
0 setlinejoin
0 setlinecap
gsave
837 554.4 135 79.2 clipbox
/o {
gsave
newpath
translate
1.0 setlinewidth
0 setlinejoin
0 setlinecap
-0 -4.242641 m
2.545584 0 l
0 4.242641 l
-2.545584 0 l
cl

gsave
0.927 0.783 0.435 setrgbcolor
fill
grestore
stroke
grestore
} bind def
173.045 135.581 o
178.672 136.869 o
184.638 136.913 o
190.934 135.971 o
197.625 134.829 o
204.726 134.9 o
212.327 132.737 o
220.48 133.439 o
229.301 132.369 o
238.895 131.014 o
249.397 129.471 o
260.99 128.91 o
273.977 128.367 o
288.679 127.22 o
305.663 126.538 o
325.75 125.591 o
350.329 124.27 o
382.015 122.907 o
426.681 122.871 o
432.33 122.551 o
438.286 122.326 o
444.584 122.151 o
451.261 122.367 o
458.369 121.795 o
465.97 122.099 o
474.134 121.714 o
482.951 121.935 o
492.535 121.716 o
503.033 121.781 o
514.639 121.434 o
527.613 121.393 o
542.322 121.359 o
545.515 121.544 o
548.805 121.343 o
552.194 121.424 o
555.691 121.407 o
559.303 121.264 o
563.037 121.343 o
566.903 120.604 o
570.909 119.898 o
575.066 119.95 o
579.387 119.523 o
583.883 118.029 o
588.57 118.915 o
593.468 117.714 o
598.592 116.256 o
603.966 117.137 o
609.616 116.096 o
615.572 115.693 o
621.868 115.337 o
628.547 115.398 o
635.655 113.256 o
643.255 115.781 o
651.418 114.852 o
660.235 113.154 o
669.82 112.029 o
680.318 113.4 o
691.924 114.887 o
704.898 112.827 o
719.607 117.01 o
736.587 116.812 o
756.67 117.722 o
781.25 117.399 o
812.939 117.35 o
857.602 116.092 o
933.955 113.11 o
grestore
1.500 setlinewidth
1 setlinejoin
2 setlinecap
1.000 0.429 0.220 setrgbcolor
gsave
837 554.4 135 79.2 clipbox
173.045455 134.974747 m
178.671777 134.945142 l
184.637615 133.763826 l
190.933768 135.404961 l
197.625317 133.159641 l
204.725919 132.240889 l
212.327367 132.55601 l
220.480372 131.753683 l
229.300687 129.91751 l
238.895412 129.601169 l
249.39748 128.149528 l
260.989641 126.829502 l
273.977342 125.982711 l
288.679393 125.443724 l
305.662901 125.070169 l
325.749506 124.357654 l
350.329368 123.446664 l
382.014926 122.896034 l
426.681394 122.200816 l
432.3303 122.254704 l
438.28578 122.015868 l
444.58414 122.33354 l
451.261256 122.117545 l
458.369499 121.485086 l
465.970437 121.682009 l
474.133969 121.603173 l
482.950889 121.922618 l
492.535086 121.653291 l
503.033419 121.580997 l
514.639333 121.637989 l
527.613282 121.627899 l
542.322463 121.823048 l
545.51545 121.630117 l
548.804649 121.284171 l
552.19423 121.197241 l
555.691231 121.266541 l
559.302914 121.393277 l
563.037499 121.551614 l
566.902801 120.654262 l
570.90876 119.85016 l
575.065857 119.899502 l
579.386506 119.484145 l
583.882777 118.041929 l
588.570366 118.894818 l
593.467908 117.83292 l
598.591873 116.233698 l
603.966156 117.198354 l
609.615826 116.138785 l
615.571985 115.745826 l
621.868053 115.270484 l
628.546528 115.445452 l
635.654686 113.350818 l
643.254945 115.603456 l
651.417883 114.983415 l
660.235312 113.236944 l
669.819934 112.139676 l
680.318182 113.061421 l
691.924011 113.759078 l
704.898214 112.776238 l
719.606971 117.158548 l
736.587337 117.654958 l
756.67042 118.126198 l
781.250239 116.440711 l
812.939236 117.136151 l
857.602095 115.701363 l
933.954545 112.996557 l
stroke
grestore
1.000 setlinewidth
0 setlinejoin
0 setlinecap
gsave
837 554.4 135 79.2 clipbox
/o {
gsave
newpath
translate
1.0 setlinewidth
0 setlinejoin
0 setlinecap
0 3 m
-2.85317 0.927051 l
-1.763356 -2.427051 l
1.763356 -2.427051 l
2.85317 0.927051 l
cl

gsave
1.000 0.429 0.220 setrgbcolor
fill
grestore
stroke
grestore
} bind def
173.045 134.975 o
178.672 134.945 o
184.638 133.764 o
190.934 135.405 o
197.625 133.16 o
204.726 132.241 o
212.327 132.556 o
220.48 131.754 o
229.301 129.918 o
238.895 129.601 o
249.397 128.15 o
260.99 126.83 o
273.977 125.983 o
288.679 125.444 o
305.663 125.07 o
325.75 124.358 o
350.329 123.447 o
382.015 122.896 o
426.681 122.201 o
432.33 122.255 o
438.286 122.016 o
444.584 122.334 o
451.261 122.118 o
458.369 121.485 o
465.97 121.682 o
474.134 121.603 o
482.951 121.923 o
492.535 121.653 o
503.033 121.581 o
514.639 121.638 o
527.613 121.628 o
542.322 121.823 o
545.515 121.63 o
548.805 121.284 o
552.194 121.197 o
555.691 121.267 o
559.303 121.393 o
563.037 121.552 o
566.903 120.654 o
570.909 119.85 o
575.066 119.9 o
579.387 119.484 o
583.883 118.042 o
588.57 118.895 o
593.468 117.833 o
598.592 116.234 o
603.966 117.198 o
609.616 116.139 o
615.572 115.746 o
621.868 115.27 o
628.547 115.445 o
635.655 113.351 o
643.255 115.603 o
651.418 114.983 o
660.235 113.237 o
669.82 112.14 o
680.318 113.061 o
691.924 113.759 o
704.898 112.776 o
719.607 117.159 o
736.587 117.655 o
756.67 118.126 o
781.25 116.441 o
812.939 117.136 o
857.602 115.701 o
933.955 112.997 o
grestore
1.500 setlinewidth
1 setlinejoin
2 setlinecap
1.000 0.000 0.000 setrgbcolor
gsave
837 554.4 135 79.2 clipbox
173.045455 482.41135 m
178.671777 488.269806 l
184.637615 488.380575 l
190.933768 483.92586 l
197.625317 472.341007 l
204.725919 473.191013 l
212.327367 464.341902 l
220.480372 458.140051 l
229.300687 450.438991 l
238.895412 444.089004 l
249.39748 431.157957 l
260.989641 422.204619 l
273.977342 420.970524 l
288.679393 413.724627 l
305.662901 409.051701 l
325.749506 401.524501 l
350.329368 393.320712 l
382.014926 386.479194 l
426.681394 382.462011 l
432.3303 382.342594 l
438.28578 381.511104 l
444.58414 381.14132 l
451.261256 380.40042 l
458.369499 378.594184 l
465.970437 378.748418 l
474.133969 378.797871 l
482.950889 378.08458 l
492.535086 376.829307 l
503.033419 376.582378 l
514.639333 375.682365 l
527.613282 374.839233 l
542.322463 374.718263 l
545.51545 374.243586 l
548.804649 374.644971 l
552.19423 374.456475 l
555.691231 374.373426 l
559.302914 374.178277 l
563.037499 374.395048 l
566.902801 369.764366 l
570.90876 364.245647 l
575.065857 364.169805 l
579.386506 360.666884 l
583.882777 351.008349 l
588.570366 356.848399 l
593.467908 348.665122 l
598.591873 338.742914 l
603.966156 344.160733 l
609.615826 336.855404 l
615.571985 334.544111 l
621.868053 331.937765 l
628.546528 331.907052 l
635.654686 318.228895 l
643.254945 333.928394 l
651.417883 327.709911 l
660.235312 317.010545 l
669.819934 309.319908 l
680.318182 316.835798 l
691.924011 327.897963 l
704.898214 315.057394 l
719.606971 346.851125 l
736.587337 344.400456 l
756.67042 351.768764 l
781.250239 344.459222 l
812.939236 347.430695 l
857.602095 334.933743 l
933.954545 317.747565 l
stroke
grestore
1.000 setlinewidth
2 setlinejoin
0 setlinecap
gsave
837 554.4 135 79.2 clipbox
/o {
gsave
newpath
translate
1.0 setlinewidth
2 setlinejoin
0 setlinecap
0 3 m
-0.673542 0.927051 l
-2.85317 0.927051 l
-1.089814 -0.354102 l
-1.763356 -2.427051 l
-0 -1.145898 l
1.763356 -2.427051 l
1.089814 -0.354102 l
2.85317 0.927051 l
0.673542 0.927051 l
cl

gsave
1.000 0.000 0.000 setrgbcolor
fill
grestore
stroke
grestore
} bind def
173.045 482.411 o
178.672 488.27 o
184.638 488.381 o
190.934 483.926 o
197.625 472.341 o
204.726 473.191 o
212.327 464.342 o
220.48 458.14 o
229.301 450.439 o
238.895 444.089 o
249.397 431.158 o
260.99 422.205 o
273.977 420.971 o
288.679 413.725 o
305.663 409.052 o
325.75 401.525 o
350.329 393.321 o
382.015 386.479 o
426.681 382.462 o
432.33 382.343 o
438.286 381.511 o
444.584 381.141 o
451.261 380.4 o
458.369 378.594 o
465.97 378.748 o
474.134 378.798 o
482.951 378.085 o
492.535 376.829 o
503.033 376.582 o
514.639 375.682 o
527.613 374.839 o
542.322 374.718 o
545.515 374.244 o
548.805 374.645 o
552.194 374.456 o
555.691 374.373 o
559.303 374.178 o
563.037 374.395 o
566.903 369.764 o
570.909 364.246 o
575.066 364.17 o
579.387 360.667 o
583.883 351.008 o
588.57 356.848 o
593.468 348.665 o
598.592 338.743 o
603.966 344.161 o
609.616 336.855 o
615.572 334.544 o
621.868 331.938 o
628.547 331.907 o
635.655 318.229 o
643.255 333.928 o
651.418 327.71 o
660.235 317.011 o
669.82 309.32 o
680.318 316.836 o
691.924 327.898 o
704.898 315.057 o
719.607 346.851 o
736.587 344.4 o
756.67 351.769 o
781.25 344.459 o
812.939 347.431 o
857.602 334.934 o
933.955 317.748 o
grestore
0.200 setlinewidth
1 setlinejoin
2 setlinecap
0.000 setgray
gsave
837 554.4 135 79.2 clipbox
135 79.2 m
1081 79.2 l
stroke
grestore
gsave
837 554.4 135 79.2 clipbox
135 134.64 m
1081 134.64 l
stroke
grestore
gsave
837 554.4 135 79.2 clipbox
135 190.08 m
1081 190.08 l
stroke
grestore
gsave
837 554.4 135 79.2 clipbox
135 245.52 m
1081 245.52 l
stroke
grestore
gsave
837 554.4 135 79.2 clipbox
135 300.96 m
1081 300.96 l
stroke
grestore
gsave
837 554.4 135 79.2 clipbox
135 356.4 m
1081 356.4 l
stroke
grestore
gsave
837 554.4 135 79.2 clipbox
135 411.84 m
1081 411.84 l
stroke
grestore
gsave
837 554.4 135 79.2 clipbox
135 467.28 m
1081 467.28 l
stroke
grestore
gsave
837 554.4 135 79.2 clipbox
135 522.72 m
1081 522.72 l
stroke
grestore
gsave
837 554.4 135 79.2 clipbox
135 578.16 m
1081 578.16 l
stroke
grestore
0.800 setlinewidth
0 setlinejoin
gsave
135 79.2 m
135 633.6 l
stroke
grestore
gsave
972 79.2 m
972 633.6 l
stroke
grestore
gsave
135 79.2 m
972 79.2 l
stroke
grestore
gsave
135 633.6 m
972 633.6 l
stroke
grestore
/DejaVuSans findfont
14.400 scalefont
setfont
gsave
388.773438 655.275000 translate
0.000000 rotate
0.000000 0 m /B glyphshow
9.861755 0 m /a glyphshow
18.670654 0 m /n glyphshow
27.781372 0 m /d glyphshow
36.906128 0 m /w glyphshow
48.663025 0 m /i glyphshow
52.656860 0 m /d glyphshow
61.781616 0 m /t glyphshow
67.417908 0 m /h glyphshow
76.528625 0 m /space glyphshow
81.098022 0 m /m glyphshow
95.101013 0 m /e glyphshow
103.945007 0 m /a glyphshow
112.753906 0 m /s glyphshow
120.243225 0 m /u glyphshow
129.353943 0 m /r glyphshow
134.888977 0 m /e glyphshow
143.732971 0 m /s glyphshow
151.222290 0 m /space glyphshow
155.791687 0 m /o glyphshow
164.586548 0 m /n glyphshow
173.697266 0 m /space glyphshow
178.266663 0 m /I glyphshow
182.506165 0 m /n glyphshow
191.616882 0 m /t glyphshow
197.253174 0 m /e glyphshow
206.097168 0 m /l glyphshow
210.091003 0 m /space glyphshow
214.660400 0 m /X glyphshow
223.883118 0 m /e glyphshow
232.727112 0 m /o glyphshow
241.521973 0 m /n glyphshow
250.632690 0 m /space glyphshow
255.202087 0 m /G glyphshow
266.341309 0 m /o glyphshow
275.136169 0 m /l glyphshow
279.130005 0 m /d glyphshow
288.254761 0 m /space glyphshow
292.824158 0 m /six glyphshow
301.969971 0 m /two glyphshow
311.115784 0 m /four glyphshow
320.261597 0 m /zero glyphshow
grestore
gsave
437.421875 639.600000 translate
0.000000 rotate
0.000000 0 m /C glyphshow
10.037231 0 m /r glyphshow
15.572266 0 m /o glyphshow
24.367126 0 m /s glyphshow
31.856445 0 m /s glyphshow
39.345764 0 m /space glyphshow
43.915161 0 m /m glyphshow
57.918152 0 m /o glyphshow
66.713013 0 m /d glyphshow
75.837769 0 m /e glyphshow
84.681763 0 m /colon glyphshow
89.524902 0 m /space glyphshow
94.094299 0 m /S glyphshow
103.219055 0 m /o glyphshow
112.013916 0 m /c glyphshow
119.917358 0 m /k glyphshow
127.741943 0 m /e glyphshow
136.585938 0 m /t glyphshow
142.222229 0 m /space glyphshow
146.791626 0 m /zero glyphshow
155.937439 0 m /space glyphshow
160.506836 0 m /hyphen glyphshow
165.693909 0 m /space glyphshow
170.263306 0 m /S glyphshow
179.388062 0 m /o glyphshow
188.182922 0 m /c glyphshow
196.086365 0 m /k glyphshow
203.910950 0 m /e glyphshow
212.754944 0 m /t glyphshow
218.391235 0 m /space glyphshow
222.960632 0 m /one glyphshow
grestore
1.000 setlinewidth
0 setlinecap
0.800 setgray
gsave
814.371875 483 m
963.6 483 l
965.2 483 966 483.8 966 485.4 c
966 625.2 l
966 626.8 965.2 627.6 963.6 627.6 c
814.371875 627.6 l
812.771875 627.6 811.971875 626.8 811.971875 625.2 c
811.971875 485.4 l
811.971875 483.8 812.771875 483 814.371875 483 c
cl
gsave
1.000 setgray
fill
grestore
stroke
grestore
1.500 setlinewidth
1 setlinejoin
2 setlinecap
0.500 0.000 1.000 setrgbcolor
gsave
816.771875 617.875 m
840.771875 617.875 l
stroke
grestore
1.000 setlinewidth
0 setlinecap
gsave
/o {
gsave
newpath
translate
1.0 setlinewidth
1 setlinejoin
0 setlinecap
0 -1.5 m
0.397805 -1.5 0.77937 -1.341951 1.06066 -1.06066 c
1.341951 -0.77937 1.5 -0.397805 1.5 0 c
1.5 0.397805 1.341951 0.77937 1.06066 1.06066 c
0.77937 1.341951 0.397805 1.5 0 1.5 c
-0.397805 1.5 -0.77937 1.341951 -1.06066 1.06066 c
-1.341951 0.77937 -1.5 0.397805 -1.5 0 c
-1.5 -0.397805 -1.341951 -0.77937 -1.06066 -1.06066 c
-0.77937 -1.341951 -0.397805 -1.5 0 -1.5 c
cl

gsave
0.500 0.000 1.000 setrgbcolor
fill
grestore
stroke
grestore
} bind def
828.772 617.875 o
grestore
0.000 setgray
/DejaVuSans findfont
12.000 scalefont
setfont
gsave
850.371875 613.675000 translate
0.000000 rotate
0.000000 0 m /R glyphshow
7.962891 0 m /colon glyphshow
12.005859 0 m /C glyphshow
20.384766 0 m /P glyphshow
27.621094 0 m /U glyphshow
36.404297 0 m /zero glyphshow
44.039062 0 m /space glyphshow
47.853516 0 m /hyphen glyphshow
52.183594 0 m /space glyphshow
55.998047 0 m /W glyphshow
67.113281 0 m /colon glyphshow
71.156250 0 m /C glyphshow
79.535156 0 m /P glyphshow
86.771484 0 m /U glyphshow
95.554688 0 m /one glyphshow
103.189453 0 m /eight glyphshow
grestore
1.500 setlinewidth
2 setlinecap
0.218 0.429 0.976 setrgbcolor
gsave
816.771875 600.25 m
840.771875 600.25 l
stroke
grestore
1.000 setlinewidth
0 setlinecap
gsave
/o {
gsave
newpath
translate
1.0 setlinewidth
1 setlinejoin
0 setlinecap
0 -3 m
0.795609 -3 1.55874 -2.683901 2.12132 -2.12132 c
2.683901 -1.55874 3 -0.795609 3 0 c
3 0.795609 2.683901 1.55874 2.12132 2.12132 c
1.55874 2.683901 0.795609 3 0 3 c
-0.795609 3 -1.55874 2.683901 -2.12132 2.12132 c
-2.683901 1.55874 -3 0.795609 -3 0 c
-3 -0.795609 -2.683901 -1.55874 -2.12132 -2.12132 c
-1.55874 -2.683901 -0.795609 -3 0 -3 c
cl

gsave
0.218 0.429 0.976 setrgbcolor
fill
grestore
stroke
grestore
} bind def
828.772 600.25 o
grestore
0.000 setgray
gsave
850.371875 596.050000 translate
0.000000 rotate
0.000000 0 m /R glyphshow
7.962891 0 m /colon glyphshow
12.005859 0 m /C glyphshow
20.384766 0 m /P glyphshow
27.621094 0 m /U glyphshow
36.404297 0 m /one glyphshow
44.039062 0 m /space glyphshow
47.853516 0 m /hyphen glyphshow
52.183594 0 m /space glyphshow
55.998047 0 m /W glyphshow
67.113281 0 m /colon glyphshow
71.156250 0 m /C glyphshow
79.535156 0 m /P glyphshow
86.771484 0 m /U glyphshow
95.554688 0 m /one glyphshow
103.189453 0 m /nine glyphshow
grestore
1.500 setlinewidth
2 setlinecap
0.073 0.783 0.901 setrgbcolor
gsave
816.771875 582.625 m
840.771875 582.625 l
stroke
grestore
1.000 setlinewidth
2 setlinejoin
0 setlinecap
gsave
/o {
gsave
newpath
translate
1.0 setlinewidth
2 setlinejoin
0 setlinecap
0 3 m
-0.673542 0.927051 l
-2.85317 0.927051 l
-1.089814 -0.354102 l
-1.763356 -2.427051 l
-0 -1.145898 l
1.763356 -2.427051 l
1.089814 -0.354102 l
2.85317 0.927051 l
0.673542 0.927051 l
cl

gsave
0.073 0.783 0.901 setrgbcolor
fill
grestore
stroke
grestore
} bind def
828.772 582.625 o
grestore
0.000 setgray
gsave
850.371875 578.425000 translate
0.000000 rotate
0.000000 0 m /R glyphshow
7.962891 0 m /colon glyphshow
12.005859 0 m /C glyphshow
20.384766 0 m /P glyphshow
27.621094 0 m /U glyphshow
36.404297 0 m /two glyphshow
44.039062 0 m /space glyphshow
47.853516 0 m /hyphen glyphshow
52.183594 0 m /space glyphshow
55.998047 0 m /W glyphshow
67.113281 0 m /colon glyphshow
71.156250 0 m /C glyphshow
79.535156 0 m /P glyphshow
86.771484 0 m /U glyphshow
95.554688 0 m /two glyphshow
103.189453 0 m /zero glyphshow
grestore
1.500 setlinewidth
1 setlinejoin
2 setlinecap
0.355 0.974 0.783 setrgbcolor
gsave
816.771875 565 m
840.771875 565 l
stroke
grestore
1.000 setlinewidth
0 setlinejoin
0 setlinecap
gsave
/o {
gsave
newpath
translate
1.0 setlinewidth
0 setlinejoin
0 setlinecap
3 -0 m
-3 3 l
-3 -3 l
cl

gsave
0.355 0.974 0.783 setrgbcolor
fill
grestore
stroke
grestore
} bind def
828.772 565 o
grestore
0.000 setgray
gsave
850.371875 560.800000 translate
0.000000 rotate
0.000000 0 m /R glyphshow
7.962891 0 m /colon glyphshow
12.005859 0 m /C glyphshow
20.384766 0 m /P glyphshow
27.621094 0 m /U glyphshow
36.404297 0 m /three glyphshow
44.039062 0 m /space glyphshow
47.853516 0 m /hyphen glyphshow
52.183594 0 m /space glyphshow
55.998047 0 m /W glyphshow
67.113281 0 m /colon glyphshow
71.156250 0 m /C glyphshow
79.535156 0 m /P glyphshow
86.771484 0 m /U glyphshow
95.554688 0 m /two glyphshow
103.189453 0 m /one glyphshow
grestore
1.500 setlinewidth
1 setlinejoin
2 setlinecap
0.645 0.974 0.622 setrgbcolor
gsave
816.771875 547.375 m
840.771875 547.375 l
stroke
grestore
1.000 setlinewidth
0 setlinejoin
0 setlinecap
gsave
/o {
gsave
newpath
translate
1.0 setlinewidth
0 setlinejoin
0 setlinecap
-3 0 m
3 -3 l
3 3 l
cl

gsave
0.645 0.974 0.622 setrgbcolor
fill
grestore
stroke
grestore
} bind def
828.772 547.375 o
grestore
0.000 setgray
gsave
850.371875 543.175000 translate
0.000000 rotate
0.000000 0 m /R glyphshow
7.962891 0 m /colon glyphshow
12.005859 0 m /C glyphshow
20.384766 0 m /P glyphshow
27.621094 0 m /U glyphshow
36.404297 0 m /four glyphshow
44.039062 0 m /space glyphshow
47.853516 0 m /hyphen glyphshow
52.183594 0 m /space glyphshow
55.998047 0 m /W glyphshow
67.113281 0 m /colon glyphshow
71.156250 0 m /C glyphshow
79.535156 0 m /P glyphshow
86.771484 0 m /U glyphshow
95.554688 0 m /two glyphshow
103.189453 0 m /two glyphshow
grestore
1.500 setlinewidth
1 setlinejoin
2 setlinecap
0.927 0.783 0.435 setrgbcolor
gsave
816.771875 529.75 m
840.771875 529.75 l
stroke
grestore
1.000 setlinewidth
0 setlinejoin
0 setlinecap
gsave
/o {
gsave
newpath
translate
1.0 setlinewidth
0 setlinejoin
0 setlinecap
-0 -4.242641 m
2.545584 0 l
0 4.242641 l
-2.545584 0 l
cl

gsave
0.927 0.783 0.435 setrgbcolor
fill
grestore
stroke
grestore
} bind def
828.772 529.75 o
grestore
0.000 setgray
gsave
850.371875 525.550000 translate
0.000000 rotate
0.000000 0 m /R glyphshow
7.962891 0 m /colon glyphshow
12.005859 0 m /C glyphshow
20.384766 0 m /P glyphshow
27.621094 0 m /U glyphshow
36.404297 0 m /five glyphshow
44.039062 0 m /space glyphshow
47.853516 0 m /hyphen glyphshow
52.183594 0 m /space glyphshow
55.998047 0 m /W glyphshow
67.113281 0 m /colon glyphshow
71.156250 0 m /C glyphshow
79.535156 0 m /P glyphshow
86.771484 0 m /U glyphshow
95.554688 0 m /two glyphshow
103.189453 0 m /one glyphshow
grestore
1.500 setlinewidth
1 setlinejoin
2 setlinecap
1.000 0.429 0.220 setrgbcolor
gsave
816.771875 512.125 m
840.771875 512.125 l
stroke
grestore
1.000 setlinewidth
0 setlinejoin
0 setlinecap
gsave
/o {
gsave
newpath
translate
1.0 setlinewidth
0 setlinejoin
0 setlinecap
0 3 m
-2.85317 0.927051 l
-1.763356 -2.427051 l
1.763356 -2.427051 l
2.85317 0.927051 l
cl

gsave
1.000 0.429 0.220 setrgbcolor
fill
grestore
stroke
grestore
} bind def
828.772 512.125 o
grestore
0.000 setgray
gsave
850.371875 507.925000 translate
0.000000 rotate
0.000000 0 m /R glyphshow
7.962891 0 m /colon glyphshow
12.005859 0 m /C glyphshow
20.384766 0 m /P glyphshow
27.621094 0 m /U glyphshow
36.404297 0 m /six glyphshow
44.039062 0 m /space glyphshow
47.853516 0 m /hyphen glyphshow
52.183594 0 m /space glyphshow
55.998047 0 m /W glyphshow
67.113281 0 m /colon glyphshow
71.156250 0 m /C glyphshow
79.535156 0 m /P glyphshow
86.771484 0 m /U glyphshow
95.554688 0 m /two glyphshow
103.189453 0 m /two glyphshow
grestore
1.500 setlinewidth
1 setlinejoin
2 setlinecap
1.000 0.000 0.000 setrgbcolor
gsave
816.771875 494.5 m
840.771875 494.5 l
stroke
grestore
1.000 setlinewidth
2 setlinejoin
0 setlinecap
gsave
/o {
gsave
newpath
translate
1.0 setlinewidth
2 setlinejoin
0 setlinecap
0 3 m
-0.673542 0.927051 l
-2.85317 0.927051 l
-1.089814 -0.354102 l
-1.763356 -2.427051 l
-0 -1.145898 l
1.763356 -2.427051 l
1.089814 -0.354102 l
2.85317 0.927051 l
0.673542 0.927051 l
cl

gsave
1.000 0.000 0.000 setrgbcolor
fill
grestore
stroke
grestore
} bind def
828.772 494.5 o
grestore
0.000 setgray
gsave
850.371875 490.300000 translate
0.000000 rotate
0.000000 0 m /S glyphshow
7.617188 0 m /u glyphshow
15.222656 0 m /m glyphshow
26.912109 0 m /space glyphshow
30.726562 0 m /o glyphshow
38.068359 0 m /f glyphshow
42.292969 0 m /space glyphshow
46.107422 0 m /B glyphshow
53.964844 0 m /W glyphshow
65.830078 0 m /s glyphshow
grestore

end
showpage
