%!PS-Adobe-3.0 EPSF-3.0
%%Title: intel-cross8-die1.eps
%%Creator: matplotlib version 3.3.3, http://matplotlib.org/
%%CreationDate: Wed Jan 13 16:04:51 2021
%%Orientation: portrait
%%BoundingBox: -234.0 36.0 846.0 756.0
%%EndComments
%%BeginProlog
/mpldict 8 dict def
mpldict begin
/m { moveto } bind def
/l { lineto } bind def
/r { rlineto } bind def
/c { curveto } bind def
/cl { closepath } bind def
/box {
      m
      1 index 0 r
      0 exch r
      neg 0 r
      cl
    } bind def
/clipbox {
      box
      clip
      newpath
    } bind def
%!PS-Adobe-3.0 Resource-Font
%%Title: DejaVu Sans
%%Copyright: Copyright (c) 2003 by Bitstream, Inc. All Rights Reserved. Copyright (c) 2006 by Tavmjong Bah. All Rights Reserved. DejaVu changes are in public domain 
%%Creator: Converted from TrueType to type 3 by PPR
25 dict begin
/_d{bind def}bind def
/_m{moveto}_d
/_l{lineto}_d
/_cl{closepath eofill}_d
/_c{curveto}_d
/_sc{7 -1 roll{setcachedevice}{pop pop pop pop pop pop}ifelse}_d
/_e{exec}_d
/FontName /DejaVuSans def
/PaintType 0 def
/FontMatrix[.001 0 0 .001 0 0]def
/FontBBox[-1021 -463 1793 1232]def
/FontType 3 def
/Encoding [ /space /parenleft /parenright /hyphen /slash /zero /one /two /three /four /five /six /seven /eight /nine /colon /B /C /D /G /I /P /R /S /U /W /X /a /c /d /e /f /h /i /k /l /m /n /o /p /r /s /t /u /w ] def
/FontInfo 10 dict dup begin
/FamilyName (DejaVu Sans) def
/FullName (DejaVu Sans) def
/Notice (Copyright (c) 2003 by Bitstream, Inc. All Rights Reserved. Copyright (c) 2006 by Tavmjong Bah. All Rights Reserved. DejaVu changes are in public domain ) def
/Weight (Book) def
/Version (Version 2.35) def
/ItalicAngle 0.0 def
/isFixedPitch false def
/UnderlinePosition -130 def
/UnderlineThickness 90 def
end readonly def
/CharStrings 46 dict dup begin
/.notdef 0 def
/space{318 0 0 0 0 0 _sc
}_d
/parenleft{390 0 86 -131 310 759 _sc
310 759 _m
266 683 234 609 213 536 _c
191 463 181 389 181 314 _c
181 238 191 164 213 91 _c
234 17 266 -56 310 -131 _c
232 -131 _l
183 -54 146 20 122 94 _c
98 168 86 241 86 314 _c
86 386 98 459 122 533 _c
146 607 182 682 232 759 _c
310 759 _l
_cl}_d
/parenright{390 0 80 -131 304 759 _sc
80 759 _m
158 759 _l
206 682 243 607 267 533 _c
291 459 304 386 304 314 _c
304 241 291 168 267 94 _c
243 20 206 -54 158 -131 _c
80 -131 _l
123 -56 155 17 177 91 _c
198 164 209 238 209 314 _c
209 389 198 463 177 536 _c
155 609 123 683 80 759 _c
_cl}_d
/hyphen{361 0 49 234 312 314 _sc
49 314 _m
312 314 _l
312 234 _l
49 234 _l
49 314 _l
_cl}_d
/slash{337 0 0 -92 337 729 _sc
254 729 _m
337 729 _l
83 -92 _l
0 -92 _l
254 729 _l
_cl}_d
/zero{636 0 66 -13 570 742 _sc
318 664 _m
267 664 229 639 203 589 _c
177 539 165 464 165 364 _c
165 264 177 189 203 139 _c
229 89 267 64 318 64 _c
369 64 407 89 433 139 _c
458 189 471 264 471 364 _c
471 464 458 539 433 589 _c
407 639 369 664 318 664 _c
318 742 _m
399 742 461 709 505 645 _c
548 580 570 486 570 364 _c
570 241 548 147 505 83 _c
461 19 399 -13 318 -13 _c
236 -13 173 19 130 83 _c
87 147 66 241 66 364 _c
66 486 87 580 130 645 _c
173 709 236 742 318 742 _c
_cl}_d
/one{636 0 110 0 544 729 _sc
124 83 _m
285 83 _l
285 639 _l
110 604 _l
110 694 _l
284 729 _l
383 729 _l
383 83 _l
544 83 _l
544 0 _l
124 0 _l
124 83 _l
_cl}_d
/two{{636 0 73 0 536 742 _sc
192 83 _m
536 83 _l
536 0 _l
73 0 _l
73 83 _l
110 121 161 173 226 239 _c
290 304 331 346 348 365 _c
380 400 402 430 414 455 _c
426 479 433 504 433 528 _c
433 566 419 598 392 622 _c
365 646 330 659 286 659 _c
255 659 222 653 188 643 _c
154 632 117 616 78 594 _c
78 694 _l
118 710 155 722 189 730 _c
223 738 255 742 284 742 _c
}_e{359 742 419 723 464 685 _c
509 647 532 597 532 534 _c
532 504 526 475 515 449 _c
504 422 484 390 454 354 _c
446 344 420 317 376 272 _c
332 227 271 164 192 83 _c
_cl}_e}_d
/three{{636 0 76 -13 556 742 _sc
406 393 _m
453 383 490 362 516 330 _c
542 298 556 258 556 212 _c
556 140 531 84 482 45 _c
432 6 362 -13 271 -13 _c
240 -13 208 -10 176 -4 _c
144 1 110 10 76 22 _c
76 117 _l
103 101 133 89 166 81 _c
198 73 232 69 268 69 _c
330 69 377 81 409 105 _c
441 129 458 165 458 212 _c
458 254 443 288 413 312 _c
383 336 341 349 287 349 _c
}_e{202 349 _l
202 430 _l
291 430 _l
339 430 376 439 402 459 _c
428 478 441 506 441 543 _c
441 580 427 609 401 629 _c
374 649 336 659 287 659 _c
260 659 231 656 200 650 _c
169 644 135 635 98 623 _c
98 711 _l
135 721 170 729 203 734 _c
235 739 266 742 296 742 _c
370 742 429 725 473 691 _c
517 657 539 611 539 553 _c
539 513 527 479 504 451 _c
481 423 448 403 406 393 _c
_cl}_e}_d
/four{636 0 49 0 580 729 _sc
378 643 _m
129 254 _l
378 254 _l
378 643 _l
352 729 _m
476 729 _l
476 254 _l
580 254 _l
580 172 _l
476 172 _l
476 0 _l
378 0 _l
378 172 _l
49 172 _l
49 267 _l
352 729 _l
_cl}_d
/five{{636 0 77 -13 549 729 _sc
108 729 _m
495 729 _l
495 646 _l
198 646 _l
198 467 _l
212 472 227 476 241 478 _c
255 480 270 482 284 482 _c
365 482 429 459 477 415 _c
525 370 549 310 549 234 _c
549 155 524 94 475 51 _c
426 8 357 -13 269 -13 _c
238 -13 207 -10 175 -6 _c
143 -1 111 6 77 17 _c
77 116 _l
106 100 136 88 168 80 _c
199 72 232 69 267 69 _c
}_e{323 69 368 83 401 113 _c
433 143 450 183 450 234 _c
450 284 433 324 401 354 _c
368 384 323 399 267 399 _c
241 399 214 396 188 390 _c
162 384 135 375 108 363 _c
108 729 _l
_cl}_e}_d
/six{{636 0 70 -13 573 742 _sc
330 404 _m
286 404 251 388 225 358 _c
199 328 186 286 186 234 _c
186 181 199 139 225 109 _c
251 79 286 64 330 64 _c
374 64 409 79 435 109 _c
461 139 474 181 474 234 _c
474 286 461 328 435 358 _c
409 388 374 404 330 404 _c
526 713 _m
526 623 _l
501 635 476 644 451 650 _c
425 656 400 659 376 659 _c
310 659 260 637 226 593 _c
}_e{192 549 172 482 168 394 _c
187 422 211 444 240 459 _c
269 474 301 482 336 482 _c
409 482 467 459 509 415 _c
551 371 573 310 573 234 _c
573 159 550 99 506 54 _c
462 9 403 -13 330 -13 _c
246 -13 181 19 137 83 _c
92 147 70 241 70 364 _c
70 479 97 571 152 639 _c
206 707 280 742 372 742 _c
396 742 421 739 447 735 _c
472 730 498 723 526 713 _c
_cl}_e}_d
/seven{636 0 82 0 551 729 _sc
82 729 _m
551 729 _l
551 687 _l
286 0 _l
183 0 _l
432 646 _l
82 646 _l
82 729 _l
_cl}_d
/eight{{636 0 68 -13 568 742 _sc
318 346 _m
271 346 234 333 207 308 _c
180 283 167 249 167 205 _c
167 161 180 126 207 101 _c
234 76 271 64 318 64 _c
364 64 401 76 428 102 _c
455 127 469 161 469 205 _c
469 249 455 283 429 308 _c
402 333 365 346 318 346 _c
219 388 _m
177 398 144 418 120 447 _c
96 476 85 511 85 553 _c
85 611 105 657 147 691 _c
188 725 245 742 318 742 _c
}_e{390 742 447 725 489 691 _c
530 657 551 611 551 553 _c
551 511 539 476 515 447 _c
491 418 459 398 417 388 _c
464 377 501 355 528 323 _c
554 291 568 251 568 205 _c
568 134 546 80 503 43 _c
459 5 398 -13 318 -13 _c
237 -13 175 5 132 43 _c
89 80 68 134 68 205 _c
68 251 81 291 108 323 _c
134 355 171 377 219 388 _c
183 544 _m
183 506 194 476 218 455 _c
}_e{242 434 275 424 318 424 _c
360 424 393 434 417 455 _c
441 476 453 506 453 544 _c
453 582 441 611 417 632 _c
393 653 360 664 318 664 _c
275 664 242 653 218 632 _c
194 611 183 582 183 544 _c
_cl}_e}_d
/nine{{636 0 63 -13 566 742 _sc
110 15 _m
110 105 _l
134 93 159 84 185 78 _c
210 72 235 69 260 69 _c
324 69 374 90 408 134 _c
442 178 462 244 468 334 _c
448 306 424 284 396 269 _c
367 254 335 247 300 247 _c
226 247 168 269 126 313 _c
84 357 63 417 63 494 _c
63 568 85 628 129 674 _c
173 719 232 742 306 742 _c
390 742 455 709 499 645 _c
543 580 566 486 566 364 _c
}_e{566 248 538 157 484 89 _c
429 21 356 -13 264 -13 _c
239 -13 214 -10 189 -6 _c
163 -2 137 5 110 15 _c
306 324 _m
350 324 385 339 411 369 _c
437 399 450 441 450 494 _c
450 546 437 588 411 618 _c
385 648 350 664 306 664 _c
262 664 227 648 201 618 _c
175 588 162 546 162 494 _c
162 441 175 399 201 369 _c
227 339 262 324 306 324 _c
_cl}_e}_d
/colon{337 0 117 0 220 517 _sc
117 124 _m
220 124 _l
220 0 _l
117 0 _l
117 124 _l
117 517 _m
220 517 _l
220 393 _l
117 393 _l
117 517 _l
_cl}_d
/B{{686 0 98 0 615 729 _sc
197 348 _m
197 81 _l
355 81 _l
408 81 447 92 473 114 _c
498 136 511 169 511 215 _c
511 260 498 293 473 315 _c
447 337 408 348 355 348 _c
197 348 _l
197 648 _m
197 428 _l
343 428 _l
391 428 426 437 450 455 _c
474 473 486 500 486 538 _c
486 574 474 602 450 620 _c
426 638 391 648 343 648 _c
197 648 _l
98 729 _m
350 729 _l
}_e{425 729 483 713 524 682 _c
564 650 585 606 585 549 _c
585 504 574 468 553 442 _c
532 416 502 399 462 393 _c
510 382 548 360 575 327 _c
601 294 615 253 615 204 _c
615 138 592 88 548 53 _c
504 17 441 0 360 0 _c
98 0 _l
98 729 _l
_cl}_e}_d
/C{{698 0 56 -13 644 742 _sc
644 673 _m
644 569 _l
610 599 575 622 537 638 _c
499 653 460 661 418 661 _c
334 661 270 635 226 584 _c
182 533 160 460 160 364 _c
160 268 182 194 226 143 _c
270 92 334 67 418 67 _c
460 67 499 74 537 90 _c
575 105 610 128 644 159 _c
644 56 _l
609 32 572 15 534 4 _c
496 -7 455 -13 412 -13 _c
302 -13 215 20 151 87 _c
}_e{87 154 56 246 56 364 _c
56 481 87 573 151 641 _c
215 708 302 742 412 742 _c
456 742 497 736 535 725 _c
573 713 610 696 644 673 _c
_cl}_e}_d
/D{770 0 98 0 711 729 _sc
197 648 _m
197 81 _l
316 81 _l
416 81 490 103 537 149 _c
583 195 607 267 607 365 _c
607 463 583 534 537 580 _c
490 625 416 648 316 648 _c
197 648 _l
98 729 _m
301 729 _l
442 729 546 699 612 641 _c
678 582 711 490 711 365 _c
711 239 677 147 611 88 _c
545 29 441 0 301 0 _c
98 0 _l
98 729 _l
_cl}_d
/G{{775 0 56 -13 693 742 _sc
595 104 _m
595 300 _l
434 300 _l
434 381 _l
693 381 _l
693 68 _l
655 40 613 20 567 7 _c
521 -6 472 -13 420 -13 _c
306 -13 216 20 152 86 _c
88 152 56 245 56 364 _c
56 482 88 575 152 642 _c
216 708 306 742 420 742 _c
467 742 512 736 555 724 _c
598 712 638 695 674 673 _c
674 568 _l
637 598 598 621 557 637 _c
516 653 473 661 428 661 _c
}_e{338 661 271 636 227 586 _c
182 536 160 462 160 364 _c
160 265 182 191 227 141 _c
271 91 338 67 428 67 _c
462 67 493 70 521 76 _c
549 82 573 91 595 104 _c
_cl}_e}_d
/I{295 0 98 0 197 729 _sc
98 729 _m
197 729 _l
197 0 _l
98 0 _l
98 729 _l
_cl}_d
/P{603 0 98 0 569 729 _sc
197 648 _m
197 374 _l
321 374 _l
367 374 402 385 427 409 _c
452 433 465 467 465 511 _c
465 555 452 588 427 612 _c
402 636 367 648 321 648 _c
197 648 _l
98 729 _m
321 729 _l
402 729 464 710 506 673 _c
548 636 569 582 569 511 _c
569 439 548 384 506 348 _c
464 311 402 293 321 293 _c
197 293 _l
197 0 _l
98 0 _l
98 729 _l
_cl}_d
/R{{695 0 98 0 666 729 _sc
444 342 _m
465 334 486 319 506 296 _c
526 272 546 240 566 199 _c
666 0 _l
560 0 _l
467 187 _l
443 235 419 268 397 284 _c
374 300 343 308 304 308 _c
197 308 _l
197 0 _l
98 0 _l
98 729 _l
321 729 _l
404 729 466 711 507 677 _c
548 642 569 589 569 519 _c
569 473 558 434 537 404 _c
515 374 484 353 444 342 _c
197 648 _m
197 389 _l
321 389 _l
}_e{368 389 404 400 428 422 _c
452 444 465 476 465 519 _c
465 561 452 593 428 615 _c
404 637 368 648 321 648 _c
197 648 _l
_cl}_e}_d
/S{{635 0 66 -13 579 742 _sc
535 705 _m
535 609 _l
497 627 462 640 429 649 _c
395 657 363 662 333 662 _c
279 662 237 651 208 631 _c
179 610 165 580 165 542 _c
165 510 174 485 194 469 _c
213 452 250 439 304 429 _c
364 417 _l
437 403 491 378 526 343 _c
561 307 579 260 579 201 _c
579 130 555 77 508 41 _c
460 5 391 -13 300 -13 _c
265 -13 228 -9 189 -2 _c
}_e{150 5 110 16 69 32 _c
69 134 _l
109 111 148 94 186 83 _c
224 71 262 66 300 66 _c
356 66 399 77 430 99 _c
460 121 476 152 476 194 _c
476 230 465 258 443 278 _c
421 298 385 313 335 323 _c
275 335 _l
201 349 148 372 115 404 _c
82 435 66 478 66 534 _c
66 598 88 649 134 686 _c
179 723 242 742 322 742 _c
356 742 390 739 426 733 _c
461 727 497 717 535 705 _c
}_e{_cl}_e}_d
/U{732 0 87 -13 645 729 _sc
87 729 _m
186 729 _l
186 286 _l
186 208 200 151 228 117 _c
256 83 302 66 366 66 _c
429 66 475 83 503 117 _c
531 151 546 208 546 286 _c
546 729 _l
645 729 _l
645 274 _l
645 178 621 107 574 59 _c
527 11 458 -13 366 -13 _c
274 -13 204 11 157 59 _c
110 107 87 178 87 274 _c
87 729 _l
_cl}_d
/W{989 0 33 0 956 729 _sc
33 729 _m
133 729 _l
286 113 _l
439 729 _l
550 729 _l
703 113 _l
856 729 _l
956 729 _l
773 0 _l
649 0 _l
495 633 _l
340 0 _l
216 0 _l
33 729 _l
_cl}_d
/X{685 0 30 0 654 729 _sc
63 729 _m
169 729 _l
350 458 _l
532 729 _l
638 729 _l
404 379 _l
654 0 _l
548 0 _l
343 310 _l
136 0 _l
30 0 _l
290 389 _l
63 729 _l
_cl}_d
/a{{613 0 60 -13 522 560 _sc
343 275 _m
270 275 220 266 192 250 _c
164 233 150 205 150 165 _c
150 133 160 107 181 89 _c
202 70 231 61 267 61 _c
317 61 357 78 387 114 _c
417 149 432 196 432 255 _c
432 275 _l
343 275 _l
522 312 _m
522 0 _l
432 0 _l
432 83 _l
411 49 385 25 355 10 _c
325 -5 287 -13 243 -13 _c
187 -13 142 2 109 33 _c
76 64 60 106 60 159 _c
}_e{60 220 80 266 122 298 _c
163 329 224 345 306 345 _c
432 345 _l
432 354 _l
432 395 418 427 391 450 _c
364 472 326 484 277 484 _c
245 484 215 480 185 472 _c
155 464 127 453 100 439 _c
100 522 _l
132 534 164 544 195 550 _c
226 556 256 560 286 560 _c
365 560 424 539 463 498 _c
502 457 522 395 522 312 _c
_cl}_e}_d
/c{{550 0 55 -13 488 560 _sc
488 526 _m
488 442 _l
462 456 437 466 411 473 _c
385 480 360 484 334 484 _c
276 484 230 465 198 428 _c
166 391 150 339 150 273 _c
150 206 166 154 198 117 _c
230 80 276 62 334 62 _c
360 62 385 65 411 72 _c
437 79 462 90 488 104 _c
488 21 _l
462 9 436 0 410 -5 _c
383 -10 354 -13 324 -13 _c
242 -13 176 12 128 64 _c
}_e{79 115 55 185 55 273 _c
55 362 79 432 128 483 _c
177 534 244 560 330 560 _c
358 560 385 557 411 551 _c
437 545 463 537 488 526 _c
_cl}_e}_d
/d{{635 0 55 -13 544 760 _sc
454 464 _m
454 760 _l
544 760 _l
544 0 _l
454 0 _l
454 82 _l
435 49 411 25 382 10 _c
353 -5 319 -13 279 -13 _c
213 -13 159 13 117 65 _c
75 117 55 187 55 273 _c
55 359 75 428 117 481 _c
159 533 213 560 279 560 _c
319 560 353 552 382 536 _c
411 520 435 496 454 464 _c
148 273 _m
148 207 161 155 188 117 _c
215 79 253 61 301 61 _c
}_e{348 61 385 79 413 117 _c
440 155 454 207 454 273 _c
454 339 440 390 413 428 _c
385 466 348 485 301 485 _c
253 485 215 466 188 428 _c
161 390 148 339 148 273 _c
_cl}_e}_d
/e{{615 0 55 -13 562 560 _sc
562 296 _m
562 252 _l
149 252 _l
153 190 171 142 205 110 _c
238 78 284 62 344 62 _c
378 62 412 66 444 74 _c
476 82 509 95 541 113 _c
541 28 _l
509 14 476 3 442 -3 _c
408 -9 373 -13 339 -13 _c
251 -13 182 12 131 62 _c
80 112 55 181 55 268 _c
55 357 79 428 127 481 _c
175 533 241 560 323 560 _c
397 560 455 536 498 489 _c
}_e{540 441 562 377 562 296 _c
472 322 _m
471 371 457 410 431 440 _c
404 469 368 484 324 484 _c
274 484 234 469 204 441 _c
174 413 156 373 152 322 _c
472 322 _l
_cl}_e}_d
/f{352 0 23 0 371 760 _sc
371 760 _m
371 685 _l
285 685 _l
253 685 230 678 218 665 _c
205 652 199 629 199 595 _c
199 547 _l
347 547 _l
347 477 _l
199 477 _l
199 0 _l
109 0 _l
109 477 _l
23 477 _l
23 547 _l
109 547 _l
109 585 _l
109 645 123 690 151 718 _c
179 746 224 760 286 760 _c
371 760 _l
_cl}_d
/h{634 0 91 0 549 760 _sc
549 330 _m
549 0 _l
459 0 _l
459 327 _l
459 379 448 417 428 443 _c
408 469 378 482 338 482 _c
289 482 251 466 223 435 _c
195 404 181 362 181 309 _c
181 0 _l
91 0 _l
91 760 _l
181 760 _l
181 462 _l
202 494 227 519 257 535 _c
286 551 320 560 358 560 _c
420 560 468 540 500 501 _c
532 462 549 405 549 330 _c
_cl}_d
/i{278 0 94 0 184 760 _sc
94 547 _m
184 547 _l
184 0 _l
94 0 _l
94 547 _l
94 760 _m
184 760 _l
184 646 _l
94 646 _l
94 760 _l
_cl}_d
/k{579 0 91 0 576 760 _sc
91 760 _m
181 760 _l
181 311 _l
449 547 _l
564 547 _l
274 291 _l
576 0 _l
459 0 _l
181 267 _l
181 0 _l
91 0 _l
91 760 _l
_cl}_d
/l{278 0 94 0 184 760 _sc
94 760 _m
184 760 _l
184 0 _l
94 0 _l
94 760 _l
_cl}_d
/m{{974 0 91 0 889 560 _sc
520 442 _m
542 482 569 511 600 531 _c
631 550 668 560 711 560 _c
767 560 811 540 842 500 _c
873 460 889 403 889 330 _c
889 0 _l
799 0 _l
799 327 _l
799 379 789 418 771 444 _c
752 469 724 482 686 482 _c
639 482 602 466 575 435 _c
548 404 535 362 535 309 _c
535 0 _l
445 0 _l
445 327 _l
445 379 435 418 417 444 _c
398 469 369 482 331 482 _c
}_e{285 482 248 466 221 435 _c
194 404 181 362 181 309 _c
181 0 _l
91 0 _l
91 547 _l
181 547 _l
181 462 _l
201 495 226 520 255 536 _c
283 552 317 560 357 560 _c
397 560 430 550 458 530 _c
486 510 506 480 520 442 _c
_cl}_e}_d
/n{634 0 91 0 549 560 _sc
549 330 _m
549 0 _l
459 0 _l
459 327 _l
459 379 448 417 428 443 _c
408 469 378 482 338 482 _c
289 482 251 466 223 435 _c
195 404 181 362 181 309 _c
181 0 _l
91 0 _l
91 547 _l
181 547 _l
181 462 _l
202 494 227 519 257 535 _c
286 551 320 560 358 560 _c
420 560 468 540 500 501 _c
532 462 549 405 549 330 _c
_cl}_d
/o{612 0 55 -13 557 560 _sc
306 484 _m
258 484 220 465 192 427 _c
164 389 150 338 150 273 _c
150 207 163 156 191 118 _c
219 80 257 62 306 62 _c
354 62 392 80 420 118 _c
448 156 462 207 462 273 _c
462 337 448 389 420 427 _c
392 465 354 484 306 484 _c
306 560 _m
384 560 445 534 490 484 _c
534 433 557 363 557 273 _c
557 183 534 113 490 63 _c
445 12 384 -13 306 -13 _c
227 -13 165 12 121 63 _c
77 113 55 183 55 273 _c
55 363 77 433 121 484 _c
165 534 227 560 306 560 _c
_cl}_d
/p{{635 0 91 -207 580 560 _sc
181 82 _m
181 -207 _l
91 -207 _l
91 547 _l
181 547 _l
181 464 _l
199 496 223 520 252 536 _c
281 552 316 560 356 560 _c
422 560 476 533 518 481 _c
559 428 580 359 580 273 _c
580 187 559 117 518 65 _c
476 13 422 -13 356 -13 _c
316 -13 281 -5 252 10 _c
223 25 199 49 181 82 _c
487 273 _m
487 339 473 390 446 428 _c
418 466 381 485 334 485 _c
}_e{286 485 249 466 222 428 _c
194 390 181 339 181 273 _c
181 207 194 155 222 117 _c
249 79 286 61 334 61 _c
381 61 418 79 446 117 _c
473 155 487 207 487 273 _c
_cl}_e}_d
/r{411 0 91 0 411 560 _sc
411 463 _m
401 469 390 473 378 476 _c
366 478 353 480 339 480 _c
288 480 249 463 222 430 _c
194 397 181 350 181 288 _c
181 0 _l
91 0 _l
91 547 _l
181 547 _l
181 462 _l
199 495 224 520 254 536 _c
284 552 321 560 365 560 _c
371 560 378 559 386 559 _c
393 558 401 557 411 555 _c
411 463 _l
_cl}_d
/s{{521 0 54 -13 472 560 _sc
443 531 _m
443 446 _l
417 458 391 468 364 475 _c
336 481 308 485 279 485 _c
234 485 200 478 178 464 _c
156 450 145 430 145 403 _c
145 382 153 366 169 354 _c
185 342 217 330 265 320 _c
296 313 _l
360 299 405 279 432 255 _c
458 230 472 195 472 151 _c
472 100 452 60 412 31 _c
372 1 316 -13 246 -13 _c
216 -13 186 -10 154 -5 _c
}_e{122 0 89 8 54 20 _c
54 113 _l
87 95 120 82 152 74 _c
184 65 216 61 248 61 _c
290 61 323 68 346 82 _c
368 96 380 117 380 144 _c
380 168 371 187 355 200 _c
339 213 303 226 247 238 _c
216 245 _l
160 257 119 275 95 299 _c
70 323 58 356 58 399 _c
58 450 76 490 112 518 _c
148 546 200 560 268 560 _c
301 560 332 557 362 552 _c
391 547 418 540 443 531 _c
}_e{_cl}_e}_d
/t{392 0 27 0 368 702 _sc
183 702 _m
183 547 _l
368 547 _l
368 477 _l
183 477 _l
183 180 _l
183 135 189 106 201 94 _c
213 81 238 75 276 75 _c
368 75 _l
368 0 _l
276 0 _l
206 0 158 13 132 39 _c
106 65 93 112 93 180 _c
93 477 _l
27 477 _l
27 547 _l
93 547 _l
93 702 _l
183 702 _l
_cl}_d
/u{634 0 85 -13 543 560 _sc
85 216 _m
85 547 _l
175 547 _l
175 219 _l
175 167 185 129 205 103 _c
225 77 255 64 296 64 _c
344 64 383 79 411 110 _c
439 141 453 183 453 237 _c
453 547 _l
543 547 _l
543 0 _l
453 0 _l
453 84 _l
431 50 405 26 377 10 _c
348 -5 315 -13 277 -13 _c
214 -13 166 6 134 45 _c
101 83 85 140 85 216 _c
311 560 _m
311 560 _l
_cl}_d
/w{818 0 42 0 776 547 _sc
42 547 _m
132 547 _l
244 120 _l
356 547 _l
462 547 _l
574 120 _l
686 547 _l
776 547 _l
633 0 _l
527 0 _l
409 448 _l
291 0 _l
185 0 _l
42 547 _l
_cl}_d
end readonly def

/BuildGlyph
 {exch begin
 CharStrings exch
 2 copy known not{pop /.notdef}if
 true 3 1 roll get exec
 end}_d

/BuildChar {
 1 index /Encoding get exch get
 1 index /BuildGlyph get exec
}_d

FontName currentdict end definefont pop
end
%%EndProlog
mpldict begin
-234 36 translate
1080 720 0 0 clipbox
gsave
0 0 m
1080 0 l
1080 720 l
0 720 l
cl
1.000 setgray
fill
grestore
gsave
135 79.2 m
972 79.2 l
972 633.6 l
135 633.6 l
cl
1.000 setgray
fill
grestore
0.800 setlinewidth
1 setlinejoin
0 setlinecap
[] 0 setdash
0.000 setgray
gsave
/o {
gsave
newpath
translate
0.8 setlinewidth
1 setlinejoin
0 setlinecap
0 0 m
0 -3.5 l

gsave
0.000 setgray
fill
grestore
stroke
grestore
} bind def
346.213 79.2 o
grestore
gsave
335.212648 62.700000 translate
0.000000 rotate
/DejaVuSans findfont
12.0 scalefont
setfont
0.000000 0.171875 moveto
/one glyphshow
7.634766 0.171875 moveto
/zero glyphshow
/DejaVuSans findfont
8.399999999999999 scalefont
setfont
15.384375 4.765625 moveto
/six glyphshow

grestore
gsave
/o {
gsave
newpath
translate
0.8 setlinewidth
1 setlinejoin
0 setlinecap
0 0 m
0 -3.5 l

gsave
0.000 setgray
fill
grestore
stroke
grestore
} bind def
599.849 79.2 o
grestore
gsave
588.848587 62.700000 translate
0.000000 rotate
/DejaVuSans findfont
12.0 scalefont
setfont
0.000000 0.281250 moveto
/one glyphshow
7.634766 0.281250 moveto
/zero glyphshow
/DejaVuSans findfont
8.399999999999999 scalefont
setfont
15.384375 4.875000 moveto
/seven glyphshow

grestore
gsave
/o {
gsave
newpath
translate
0.8 setlinewidth
1 setlinejoin
0 setlinecap
0 0 m
0 -3.5 l

gsave
0.000 setgray
fill
grestore
stroke
grestore
} bind def
853.485 79.2 o
grestore
gsave
842.484526 62.700000 translate
0.000000 rotate
/DejaVuSans findfont
12.0 scalefont
setfont
0.000000 0.171875 moveto
/one glyphshow
7.634766 0.171875 moveto
/zero glyphshow
/DejaVuSans findfont
8.399999999999999 scalefont
setfont
15.384375 4.765625 moveto
/eight glyphshow

grestore
0.600 setlinewidth
gsave
/o {
gsave
newpath
translate
0.6 setlinewidth
1 setlinejoin
0 setlinecap
0 0 m
0 -2 l

gsave
0.000 setgray
fill
grestore
stroke
grestore
} bind def
168.929 79.2 o
grestore
gsave
/o {
gsave
newpath
translate
0.6 setlinewidth
1 setlinejoin
0 setlinecap
0 0 m
0 -2 l

gsave
0.000 setgray
fill
grestore
stroke
grestore
} bind def
213.592 79.2 o
grestore
gsave
/o {
gsave
newpath
translate
0.6 setlinewidth
1 setlinejoin
0 setlinecap
0 0 m
0 -2 l

gsave
0.000 setgray
fill
grestore
stroke
grestore
} bind def
245.281 79.2 o
grestore
gsave
/o {
gsave
newpath
translate
0.6 setlinewidth
1 setlinejoin
0 setlinecap
0 0 m
0 -2 l

gsave
0.000 setgray
fill
grestore
stroke
grestore
} bind def
269.861 79.2 o
grestore
gsave
/o {
gsave
newpath
translate
0.6 setlinewidth
1 setlinejoin
0 setlinecap
0 0 m
0 -2 l

gsave
0.000 setgray
fill
grestore
stroke
grestore
} bind def
289.944 79.2 o
grestore
gsave
/o {
gsave
newpath
translate
0.6 setlinewidth
1 setlinejoin
0 setlinecap
0 0 m
0 -2 l

gsave
0.000 setgray
fill
grestore
stroke
grestore
} bind def
306.924 79.2 o
grestore
gsave
/o {
gsave
newpath
translate
0.6 setlinewidth
1 setlinejoin
0 setlinecap
0 0 m
0 -2 l

gsave
0.000 setgray
fill
grestore
stroke
grestore
} bind def
321.633 79.2 o
grestore
gsave
/o {
gsave
newpath
translate
0.6 setlinewidth
1 setlinejoin
0 setlinecap
0 0 m
0 -2 l

gsave
0.000 setgray
fill
grestore
stroke
grestore
} bind def
334.607 79.2 o
grestore
gsave
/o {
gsave
newpath
translate
0.6 setlinewidth
1 setlinejoin
0 setlinecap
0 0 m
0 -2 l

gsave
0.000 setgray
fill
grestore
stroke
grestore
} bind def
422.565 79.2 o
grestore
gsave
/o {
gsave
newpath
translate
0.6 setlinewidth
1 setlinejoin
0 setlinecap
0 0 m
0 -2 l

gsave
0.000 setgray
fill
grestore
stroke
grestore
} bind def
467.228 79.2 o
grestore
gsave
/o {
gsave
newpath
translate
0.6 setlinewidth
1 setlinejoin
0 setlinecap
0 0 m
0 -2 l

gsave
0.000 setgray
fill
grestore
stroke
grestore
} bind def
498.917 79.2 o
grestore
gsave
/o {
gsave
newpath
translate
0.6 setlinewidth
1 setlinejoin
0 setlinecap
0 0 m
0 -2 l

gsave
0.000 setgray
fill
grestore
stroke
grestore
} bind def
523.497 79.2 o
grestore
gsave
/o {
gsave
newpath
translate
0.6 setlinewidth
1 setlinejoin
0 setlinecap
0 0 m
0 -2 l

gsave
0.000 setgray
fill
grestore
stroke
grestore
} bind def
543.58 79.2 o
grestore
gsave
/o {
gsave
newpath
translate
0.6 setlinewidth
1 setlinejoin
0 setlinecap
0 0 m
0 -2 l

gsave
0.000 setgray
fill
grestore
stroke
grestore
} bind def
560.56 79.2 o
grestore
gsave
/o {
gsave
newpath
translate
0.6 setlinewidth
1 setlinejoin
0 setlinecap
0 0 m
0 -2 l

gsave
0.000 setgray
fill
grestore
stroke
grestore
} bind def
575.269 79.2 o
grestore
gsave
/o {
gsave
newpath
translate
0.6 setlinewidth
1 setlinejoin
0 setlinecap
0 0 m
0 -2 l

gsave
0.000 setgray
fill
grestore
stroke
grestore
} bind def
588.243 79.2 o
grestore
gsave
/o {
gsave
newpath
translate
0.6 setlinewidth
1 setlinejoin
0 setlinecap
0 0 m
0 -2 l

gsave
0.000 setgray
fill
grestore
stroke
grestore
} bind def
676.201 79.2 o
grestore
gsave
/o {
gsave
newpath
translate
0.6 setlinewidth
1 setlinejoin
0 setlinecap
0 0 m
0 -2 l

gsave
0.000 setgray
fill
grestore
stroke
grestore
} bind def
720.864 79.2 o
grestore
gsave
/o {
gsave
newpath
translate
0.6 setlinewidth
1 setlinejoin
0 setlinecap
0 0 m
0 -2 l

gsave
0.000 setgray
fill
grestore
stroke
grestore
} bind def
752.553 79.2 o
grestore
gsave
/o {
gsave
newpath
translate
0.6 setlinewidth
1 setlinejoin
0 setlinecap
0 0 m
0 -2 l

gsave
0.000 setgray
fill
grestore
stroke
grestore
} bind def
777.133 79.2 o
grestore
gsave
/o {
gsave
newpath
translate
0.6 setlinewidth
1 setlinejoin
0 setlinecap
0 0 m
0 -2 l

gsave
0.000 setgray
fill
grestore
stroke
grestore
} bind def
797.216 79.2 o
grestore
gsave
/o {
gsave
newpath
translate
0.6 setlinewidth
1 setlinejoin
0 setlinecap
0 0 m
0 -2 l

gsave
0.000 setgray
fill
grestore
stroke
grestore
} bind def
814.196 79.2 o
grestore
gsave
/o {
gsave
newpath
translate
0.6 setlinewidth
1 setlinejoin
0 setlinecap
0 0 m
0 -2 l

gsave
0.000 setgray
fill
grestore
stroke
grestore
} bind def
828.905 79.2 o
grestore
gsave
/o {
gsave
newpath
translate
0.6 setlinewidth
1 setlinejoin
0 setlinecap
0 0 m
0 -2 l

gsave
0.000 setgray
fill
grestore
stroke
grestore
} bind def
841.879 79.2 o
grestore
gsave
/o {
gsave
newpath
translate
0.6 setlinewidth
1 setlinejoin
0 setlinecap
0 0 m
0 -2 l

gsave
0.000 setgray
fill
grestore
stroke
grestore
} bind def
929.837 79.2 o
grestore
/DejaVuSans findfont
12.000 scalefont
setfont
gsave
528.460938 47.075000 translate
0.000000 rotate
0.000000 0 m /D glyphshow
9.240234 0 m /a glyphshow
16.593750 0 m /t glyphshow
21.298828 0 m /a glyphshow
28.652344 0 m /space glyphshow
32.466797 0 m /parenleft glyphshow
37.148438 0 m /B glyphshow
45.380859 0 m /parenright glyphshow
grestore
0.800 setlinewidth
gsave
/o {
gsave
newpath
translate
0.8 setlinewidth
1 setlinejoin
0 setlinecap
-0 0 m
-3.5 0 l

gsave
0.000 setgray
fill
grestore
stroke
grestore
} bind def
135 79.2 o
grestore
gsave
120.359375 74.637500 translate
0.000000 rotate
0.000000 0 m /zero glyphshow
grestore
gsave
/o {
gsave
newpath
translate
0.8 setlinewidth
1 setlinejoin
0 setlinecap
-0 0 m
-3.5 0 l

gsave
0.000 setgray
fill
grestore
stroke
grestore
} bind def
135 134.64 o
grestore
gsave
120.359375 130.077500 translate
0.000000 rotate
0.000000 0 m /five glyphshow
grestore
gsave
/o {
gsave
newpath
translate
0.8 setlinewidth
1 setlinejoin
0 setlinecap
-0 0 m
-3.5 0 l

gsave
0.000 setgray
fill
grestore
stroke
grestore
} bind def
135 190.08 o
grestore
gsave
112.718750 185.517500 translate
0.000000 rotate
0.000000 0 m /one glyphshow
7.634766 0 m /zero glyphshow
grestore
gsave
/o {
gsave
newpath
translate
0.8 setlinewidth
1 setlinejoin
0 setlinecap
-0 0 m
-3.5 0 l

gsave
0.000 setgray
fill
grestore
stroke
grestore
} bind def
135 245.52 o
grestore
gsave
112.718750 240.957500 translate
0.000000 rotate
0.000000 0 m /one glyphshow
7.634766 0 m /five glyphshow
grestore
gsave
/o {
gsave
newpath
translate
0.8 setlinewidth
1 setlinejoin
0 setlinecap
-0 0 m
-3.5 0 l

gsave
0.000 setgray
fill
grestore
stroke
grestore
} bind def
135 300.96 o
grestore
gsave
112.718750 296.397500 translate
0.000000 rotate
0.000000 0 m /two glyphshow
7.634766 0 m /zero glyphshow
grestore
gsave
/o {
gsave
newpath
translate
0.8 setlinewidth
1 setlinejoin
0 setlinecap
-0 0 m
-3.5 0 l

gsave
0.000 setgray
fill
grestore
stroke
grestore
} bind def
135 356.4 o
grestore
gsave
112.718750 351.837500 translate
0.000000 rotate
0.000000 0 m /two glyphshow
7.634766 0 m /five glyphshow
grestore
gsave
/o {
gsave
newpath
translate
0.8 setlinewidth
1 setlinejoin
0 setlinecap
-0 0 m
-3.5 0 l

gsave
0.000 setgray
fill
grestore
stroke
grestore
} bind def
135 411.84 o
grestore
gsave
112.718750 407.277500 translate
0.000000 rotate
0.000000 0 m /three glyphshow
7.634766 0 m /zero glyphshow
grestore
gsave
/o {
gsave
newpath
translate
0.8 setlinewidth
1 setlinejoin
0 setlinecap
-0 0 m
-3.5 0 l

gsave
0.000 setgray
fill
grestore
stroke
grestore
} bind def
135 467.28 o
grestore
gsave
112.718750 462.717500 translate
0.000000 rotate
0.000000 0 m /three glyphshow
7.634766 0 m /five glyphshow
grestore
gsave
/o {
gsave
newpath
translate
0.8 setlinewidth
1 setlinejoin
0 setlinecap
-0 0 m
-3.5 0 l

gsave
0.000 setgray
fill
grestore
stroke
grestore
} bind def
135 522.72 o
grestore
gsave
112.718750 518.157500 translate
0.000000 rotate
0.000000 0 m /four glyphshow
7.634766 0 m /zero glyphshow
grestore
gsave
/o {
gsave
newpath
translate
0.8 setlinewidth
1 setlinejoin
0 setlinecap
-0 0 m
-3.5 0 l

gsave
0.000 setgray
fill
grestore
stroke
grestore
} bind def
135 578.16 o
grestore
gsave
112.718750 573.597500 translate
0.000000 rotate
0.000000 0 m /four glyphshow
7.634766 0 m /five glyphshow
grestore
gsave
106.218750 302.150000 translate
90.000000 rotate
0.000000 0 m /B glyphshow
8.232422 0 m /a glyphshow
15.585938 0 m /n glyphshow
23.191406 0 m /d glyphshow
30.808594 0 m /w glyphshow
40.623047 0 m /i glyphshow
43.957031 0 m /d glyphshow
51.574219 0 m /t glyphshow
56.279297 0 m /h glyphshow
63.884766 0 m /space glyphshow
67.699219 0 m /parenleft glyphshow
72.380859 0 m /G glyphshow
81.679688 0 m /B glyphshow
89.912109 0 m /p glyphshow
97.529297 0 m /s glyphshow
103.781250 0 m /parenright glyphshow
grestore
1.500 setlinewidth
2 setlinecap
0.500 0.000 1.000 setrgbcolor
gsave
837 554.4 135 79.2 clipbox
173.045455 143.474253 m
178.671777 145.618561 l
184.637615 143.914447 l
190.933768 144.831535 l
197.625317 144.59902 l
204.725919 144.02954 l
212.327367 143.856567 l
220.480372 142.385855 l
229.300687 143.298065 l
238.895412 141.584969 l
249.39748 141.253105 l
260.989641 140.659453 l
273.977342 139.357168 l
288.679393 137.972388 l
305.662901 136.093637 l
325.749506 134.64632 l
350.329368 132.200086 l
382.014926 129.526658 l
426.681394 128.60203 l
432.3303 128.282806 l
438.28578 128.150415 l
444.58414 128.04763 l
451.261256 127.906258 l
458.369499 127.661878 l
465.970437 127.517401 l
474.133969 127.620742 l
482.950889 127.330125 l
492.535086 126.739024 l
503.033419 126.326439 l
514.639333 125.967632 l
527.613282 125.084029 l
542.322463 124.618444 l
545.51545 124.677099 l
548.804649 124.749726 l
552.19423 124.664237 l
555.691231 124.779331 l
559.302914 123.566414 l
563.037499 123.02022 l
566.902801 122.319458 l
570.90876 121.681011 l
575.065857 123.446775 l
579.386506 122.196048 l
583.882777 121.69986 l
588.570366 120.237797 l
593.467908 122.061218 l
598.591873 118.93285 l
603.966156 118.202705 l
609.615826 120.956964 l
615.571985 121.23993 l
621.868053 119.710008 l
628.546528 117.570689 l
635.654686 120.786209 l
643.254945 117.411244 l
651.417883 118.328 l
660.235312 122.336201 l
669.819934 122.447968 l
680.318182 124.999428 l
691.924011 126.968102 l
704.898214 130.574252 l
719.606971 132.67188 l
736.587337 130.133061 l
756.67042 125.784791 l
781.250239 124.354439 l
812.939236 123.161037 l
857.602095 119.810022 l
933.954545 116.194225 l
stroke
grestore
1.000 setlinewidth
0 setlinecap
gsave
837 554.4 135 79.2 clipbox
/o {
gsave
newpath
translate
1.0 setlinewidth
1 setlinejoin
0 setlinecap
0 -1.5 m
0.397805 -1.5 0.77937 -1.341951 1.06066 -1.06066 c
1.341951 -0.77937 1.5 -0.397805 1.5 0 c
1.5 0.397805 1.341951 0.77937 1.06066 1.06066 c
0.77937 1.341951 0.397805 1.5 0 1.5 c
-0.397805 1.5 -0.77937 1.341951 -1.06066 1.06066 c
-1.341951 0.77937 -1.5 0.397805 -1.5 0 c
-1.5 -0.397805 -1.341951 -0.77937 -1.06066 -1.06066 c
-0.77937 -1.341951 -0.397805 -1.5 0 -1.5 c
cl

gsave
0.500 0.000 1.000 setrgbcolor
fill
grestore
stroke
grestore
} bind def
173.045 143.474 o
178.672 145.619 o
184.638 143.914 o
190.934 144.832 o
197.625 144.599 o
204.726 144.03 o
212.327 143.857 o
220.48 142.386 o
229.301 143.298 o
238.895 141.585 o
249.397 141.253 o
260.99 140.659 o
273.977 139.357 o
288.679 137.972 o
305.663 136.094 o
325.75 134.646 o
350.329 132.2 o
382.015 129.527 o
426.681 128.602 o
432.33 128.283 o
438.286 128.15 o
444.584 128.048 o
451.261 127.906 o
458.369 127.662 o
465.97 127.517 o
474.134 127.621 o
482.951 127.33 o
492.535 126.739 o
503.033 126.326 o
514.639 125.968 o
527.613 125.084 o
542.322 124.618 o
545.515 124.677 o
548.805 124.75 o
552.194 124.664 o
555.691 124.779 o
559.303 123.566 o
563.037 123.02 o
566.903 122.319 o
570.909 121.681 o
575.066 123.447 o
579.387 122.196 o
583.883 121.7 o
588.57 120.238 o
593.468 122.061 o
598.592 118.933 o
603.966 118.203 o
609.616 120.957 o
615.572 121.24 o
621.868 119.71 o
628.547 117.571 o
635.655 120.786 o
643.255 117.411 o
651.418 118.328 o
660.235 122.336 o
669.82 122.448 o
680.318 124.999 o
691.924 126.968 o
704.898 130.574 o
719.607 132.672 o
736.587 130.133 o
756.67 125.785 o
781.25 124.354 o
812.939 123.161 o
857.602 119.81 o
933.955 116.194 o
grestore
1.500 setlinewidth
2 setlinecap
0.249 0.384 0.981 setrgbcolor
gsave
837 554.4 135 79.2 clipbox
173.045455 142.390956 m
178.671777 144.82333 l
184.637615 143.022972 l
190.933768 143.708875 l
197.625317 142.930498 l
204.725919 143.384219 l
212.327367 143.815985 l
220.480372 143.707323 l
229.300687 142.236389 l
238.895412 142.060977 l
249.39748 141.248115 l
260.989641 140.288116 l
273.977342 138.984722 l
288.679393 137.83412 l
305.662901 135.974108 l
325.749506 134.28341 l
350.329368 131.863897 l
382.014926 129.866283 l
426.681394 128.593935 l
432.3303 128.569874 l
438.28578 128.487934 l
444.58414 128.306978 l
451.261256 128.163832 l
458.369499 128.187782 l
465.970437 127.964913 l
474.133969 127.51474 l
482.950889 127.263043 l
492.535086 126.943043 l
503.033419 126.551082 l
514.639333 125.656613 l
527.613282 125.202781 l
542.322463 125.092012 l
545.51545 124.792636 l
548.804649 125.200564 l
552.19423 125.097335 l
555.691231 125.14091 l
559.302914 124.038652 l
563.037499 123.52306 l
566.902801 122.881176 l
570.90876 122.117435 l
575.065857 122.864211 l
579.386506 122.697891 l
583.882777 120.976812 l
588.570366 120.625544 l
593.467908 120.275385 l
598.591873 119.353972 l
603.966156 118.59511 l
609.615826 121.470672 l
615.571985 121.751974 l
621.868053 120.137783 l
628.546528 118.399961 l
635.654686 121.248912 l
643.254945 117.720266 l
651.417883 118.687362 l
660.235312 122.73681 l
669.819934 122.542105 l
680.318182 125.106094 l
691.924011 126.16777 l
704.898214 130.783261 l
719.606971 133.025365 l
736.587337 132.442358 l
756.67042 126.997042 l
781.250239 125.734673 l
812.939236 123.207274 l
857.602095 119.802593 l
933.954545 116.515001 l
stroke
grestore
1.000 setlinewidth
0 setlinecap
gsave
837 554.4 135 79.2 clipbox
/o {
gsave
newpath
translate
1.0 setlinewidth
1 setlinejoin
0 setlinecap
0 -3 m
0.795609 -3 1.55874 -2.683901 2.12132 -2.12132 c
2.683901 -1.55874 3 -0.795609 3 0 c
3 0.795609 2.683901 1.55874 2.12132 2.12132 c
1.55874 2.683901 0.795609 3 0 3 c
-0.795609 3 -1.55874 2.683901 -2.12132 2.12132 c
-2.683901 1.55874 -3 0.795609 -3 0 c
-3 -0.795609 -2.683901 -1.55874 -2.12132 -2.12132 c
-1.55874 -2.683901 -0.795609 -3 0 -3 c
cl

gsave
0.249 0.384 0.981 setrgbcolor
fill
grestore
stroke
grestore
} bind def
173.045 142.391 o
178.672 144.823 o
184.638 143.023 o
190.934 143.709 o
197.625 142.93 o
204.726 143.384 o
212.327 143.816 o
220.48 143.707 o
229.301 142.236 o
238.895 142.061 o
249.397 141.248 o
260.99 140.288 o
273.977 138.985 o
288.679 137.834 o
305.663 135.974 o
325.75 134.283 o
350.329 131.864 o
382.015 129.866 o
426.681 128.594 o
432.33 128.57 o
438.286 128.488 o
444.584 128.307 o
451.261 128.164 o
458.369 128.188 o
465.97 127.965 o
474.134 127.515 o
482.951 127.263 o
492.535 126.943 o
503.033 126.551 o
514.639 125.657 o
527.613 125.203 o
542.322 125.092 o
545.515 124.793 o
548.805 125.201 o
552.194 125.097 o
555.691 125.141 o
559.303 124.039 o
563.037 123.523 o
566.903 122.881 o
570.909 122.117 o
575.066 122.864 o
579.387 122.698 o
583.883 120.977 o
588.57 120.626 o
593.468 120.275 o
598.592 119.354 o
603.966 118.595 o
609.616 121.471 o
615.572 121.752 o
621.868 120.138 o
628.547 118.4 o
635.655 121.249 o
643.255 117.72 o
651.418 118.687 o
660.235 122.737 o
669.82 122.542 o
680.318 125.106 o
691.924 126.168 o
704.898 130.783 o
719.607 133.025 o
736.587 132.442 o
756.67 126.997 o
781.25 125.735 o
812.939 123.207 o
857.602 119.803 o
933.955 116.515 o
grestore
1.500 setlinewidth
2 setlinecap
0.002 0.709 0.923 setrgbcolor
gsave
837 554.4 135 79.2 clipbox
173.045455 143.639797 m
178.671777 145.418867 l
184.637615 144.519297 l
190.933768 143.305716 l
197.625317 145.280821 l
204.725919 143.486339 l
212.327367 143.605868 l
220.480372 143.095044 l
229.300687 142.33607 l
238.895412 141.76781 l
249.39748 140.885649 l
260.989641 140.971248 l
273.977342 139.060564 l
288.679393 137.670461 l
305.662901 135.947275 l
325.749506 134.571587 l
350.329368 131.864895 l
382.014926 129.416332 l
426.681394 128.468641 l
432.3303 128.409875 l
438.28578 128.214948 l
444.58414 128.086992 l
451.261256 127.93431 l
458.369499 128.175363 l
465.970437 127.931982 l
474.133969 127.54878 l
482.950889 127.064457 l
492.535086 126.825621 l
503.033419 126.745566 l
514.639333 126.043584 l
527.613282 125.803973 l
542.322463 125.503155 l
545.51545 125.551166 l
548.804649 125.166524 l
552.19423 125.587313 l
555.691231 125.469891 l
559.302914 124.206968 l
563.037499 123.635714 l
566.902801 122.909561 l
570.90876 122.211461 l
575.065857 122.884502 l
579.386506 124.382713 l
583.882777 121.146791 l
588.570366 122.776394 l
593.467908 120.20165 l
598.591873 119.506876 l
603.966156 118.670952 l
609.615826 121.660609 l
615.571985 124.146317 l
621.868053 122.426235 l
628.546528 118.328443 l
635.654686 124.238125 l
643.254945 121.157657 l
651.417883 121.141358 l
660.235312 125.399483 l
669.819934 125.083918 l
680.318182 128.606576 l
691.924011 127.141296 l
704.898214 132.554347 l
719.606971 131.736718 l
736.587337 130.65087 l
756.67042 126.241284 l
781.250239 124.578194 l
812.939236 122.322673 l
857.602095 120.025462 l
933.954545 116.291467 l
stroke
grestore
1.000 setlinewidth
2 setlinejoin
0 setlinecap
gsave
837 554.4 135 79.2 clipbox
/o {
gsave
newpath
translate
1.0 setlinewidth
2 setlinejoin
0 setlinecap
0 3 m
-0.673542 0.927051 l
-2.85317 0.927051 l
-1.089814 -0.354102 l
-1.763356 -2.427051 l
-0 -1.145898 l
1.763356 -2.427051 l
1.089814 -0.354102 l
2.85317 0.927051 l
0.673542 0.927051 l
cl

gsave
0.002 0.709 0.923 setrgbcolor
fill
grestore
stroke
grestore
} bind def
173.045 143.64 o
178.672 145.419 o
184.638 144.519 o
190.934 143.306 o
197.625 145.281 o
204.726 143.486 o
212.327 143.606 o
220.48 143.095 o
229.301 142.336 o
238.895 141.768 o
249.397 140.886 o
260.99 140.971 o
273.977 139.061 o
288.679 137.67 o
305.663 135.947 o
325.75 134.572 o
350.329 131.865 o
382.015 129.416 o
426.681 128.469 o
432.33 128.41 o
438.286 128.215 o
444.584 128.087 o
451.261 127.934 o
458.369 128.175 o
465.97 127.932 o
474.134 127.549 o
482.951 127.064 o
492.535 126.826 o
503.033 126.746 o
514.639 126.044 o
527.613 125.804 o
542.322 125.503 o
545.515 125.551 o
548.805 125.167 o
552.194 125.587 o
555.691 125.47 o
559.303 124.207 o
563.037 123.636 o
566.903 122.91 o
570.909 122.211 o
575.066 122.885 o
579.387 124.383 o
583.883 121.147 o
588.57 122.776 o
593.468 120.202 o
598.592 119.507 o
603.966 118.671 o
609.616 121.661 o
615.572 124.146 o
621.868 122.426 o
628.547 118.328 o
635.655 124.238 o
643.255 121.158 o
651.418 121.141 o
660.235 125.399 o
669.82 125.084 o
680.318 128.607 o
691.924 127.141 o
704.898 132.554 o
719.607 131.737 o
736.587 130.651 o
756.67 126.241 o
781.25 124.578 o
812.939 122.323 o
857.602 120.025 o
933.955 116.291 o
grestore
1.500 setlinewidth
1 setlinejoin
2 setlinecap
0.253 0.926 0.830 setrgbcolor
gsave
837 554.4 135 79.2 clipbox
173.045455 141.102973 m
178.671777 143.905022 l
184.637615 143.433338 l
190.933768 142.422778 l
197.625317 143.416817 l
204.725919 142.95223 l
212.327367 142.218537 l
220.480372 140.9728 l
229.300687 141.031456 l
238.895412 140.800825 l
249.39748 140.336793 l
260.989641 139.507299 l
273.977342 138.124071 l
288.679393 137.088896 l
305.662901 135.998502 l
325.749506 133.800638 l
350.329368 131.547779 l
382.014926 130.190164 l
426.681394 128.79108 l
432.3303 128.792521 l
438.28578 128.617109 l
444.58414 128.701932 l
451.261256 128.382598 l
458.369499 127.927657 l
465.970437 128.154629 l
474.133969 127.99219 l
482.950889 127.505648 l
492.535086 127.17445 l
503.033419 126.3189 l
514.639333 126.173425 l
527.613282 126.015864 l
542.322463 125.46091 l
545.51545 125.34881 l
548.804649 125.413897 l
552.19423 125.204777 l
555.691231 125.513024 l
559.302914 124.275048 l
563.037499 123.802145 l
566.902801 123.031751 l
570.90876 122.310809 l
575.065857 123.06313 l
579.386506 123.020885 l
583.882777 121.161316 l
588.570366 120.796743 l
593.467908 120.4284 l
598.591873 119.831311 l
603.966156 118.792143 l
609.615826 121.758627 l
615.571985 121.750754 l
621.868053 120.496369 l
628.546528 118.463052 l
635.654686 121.764504 l
643.254945 118.115443 l
651.417883 119.110369 l
660.235312 122.972652 l
669.819934 122.057227 l
680.318182 126.164111 l
691.924011 126.898913 l
704.898214 130.809318 l
719.606971 130.718174 l
736.587337 132.511769 l
756.67042 128.78986 l
781.250239 126.829613 l
812.939236 122.553082 l
857.602095 120.295454 l
933.954545 116.977925 l
stroke
grestore
1.000 setlinewidth
0 setlinejoin
0 setlinecap
gsave
837 554.4 135 79.2 clipbox
/o {
gsave
newpath
translate
1.0 setlinewidth
0 setlinejoin
0 setlinecap
3 -0 m
-3 3 l
-3 -3 l
cl

gsave
0.253 0.926 0.830 setrgbcolor
fill
grestore
stroke
grestore
} bind def
173.045 141.103 o
178.672 143.905 o
184.638 143.433 o
190.934 142.423 o
197.625 143.417 o
204.726 142.952 o
212.327 142.219 o
220.48 140.973 o
229.301 141.031 o
238.895 140.801 o
249.397 140.337 o
260.99 139.507 o
273.977 138.124 o
288.679 137.089 o
305.663 135.999 o
325.75 133.801 o
350.329 131.548 o
382.015 130.19 o
426.681 128.791 o
432.33 128.793 o
438.286 128.617 o
444.584 128.702 o
451.261 128.383 o
458.369 127.928 o
465.97 128.155 o
474.134 127.992 o
482.951 127.506 o
492.535 127.174 o
503.033 126.319 o
514.639 126.173 o
527.613 126.016 o
542.322 125.461 o
545.515 125.349 o
548.805 125.414 o
552.194 125.205 o
555.691 125.513 o
559.303 124.275 o
563.037 123.802 o
566.903 123.032 o
570.909 122.311 o
575.066 123.063 o
579.387 123.021 o
583.883 121.161 o
588.57 120.797 o
593.468 120.428 o
598.592 119.831 o
603.966 118.792 o
609.616 121.759 o
615.572 121.751 o
621.868 120.496 o
628.547 118.463 o
635.655 121.765 o
643.255 118.115 o
651.418 119.11 o
660.235 122.973 o
669.82 122.057 o
680.318 126.164 o
691.924 126.899 o
704.898 130.809 o
719.607 130.718 o
736.587 132.512 o
756.67 128.79 o
781.25 126.83 o
812.939 122.553 o
857.602 120.295 o
933.955 116.978 o
grestore
1.500 setlinewidth
1 setlinejoin
2 setlinecap
0.504 1.000 0.705 setrgbcolor
gsave
837 554.4 135 79.2 clipbox
173.045455 137.153982 m
178.671777 140.546134 l
184.637615 137.788659 l
190.933768 140.873452 l
197.625317 140.349211 l
204.725919 141.346355 l
212.327367 140.505663 l
220.480372 140.60856 l
229.300687 139.558526 l
238.895412 138.470017 l
249.39748 140.561768 l
260.989641 138.968977 l
273.977342 136.793733 l
288.679393 136.025446 l
305.662901 135.507525 l
325.749506 132.891422 l
350.329368 130.929068 l
382.014926 129.365771 l
426.681394 128.043971 l
432.3303 127.982876 l
438.28578 127.955267 l
444.58414 128.036542 l
451.261256 127.5235 l
458.369499 127.761559 l
465.970437 127.389113 l
474.133969 127.603444 l
482.950889 126.929848 l
492.535086 126.652205 l
503.033419 126.189724 l
514.639333 125.577334 l
527.613282 125.025595 l
542.322463 124.525526 l
545.51545 124.562782 l
548.804649 124.501355 l
552.19423 124.435824 l
555.691231 124.736864 l
559.302914 123.659997 l
563.037499 123.015008 l
566.902801 122.437212 l
570.90876 121.892903 l
575.065857 122.760539 l
579.386506 121.900332 l
583.882777 120.437824 l
588.570366 120.533625 l
593.467908 119.669093 l
598.591873 121.13404 l
603.966156 118.557521 l
609.615826 121.198018 l
615.571985 120.558462 l
621.868053 120.132017 l
628.546528 119.876106 l
635.654686 120.307762 l
643.254945 117.19148 l
651.417883 118.565172 l
660.235312 121.136812 l
669.819934 121.499944 l
680.318182 124.794632 l
691.924011 127.793714 l
704.898214 130.973753 l
719.606971 131.335222 l
736.587337 128.594157 l
756.67042 126.766966 l
781.250239 126.697333 l
812.939236 123.3492 l
857.602095 123.887412 l
933.954545 121.532875 l
stroke
grestore
1.000 setlinewidth
0 setlinejoin
0 setlinecap
gsave
837 554.4 135 79.2 clipbox
/o {
gsave
newpath
translate
1.0 setlinewidth
0 setlinejoin
0 setlinecap
-3 0 m
3 -3 l
3 3 l
cl

gsave
0.504 1.000 0.705 setrgbcolor
fill
grestore
stroke
grestore
} bind def
173.045 137.154 o
178.672 140.546 o
184.638 137.789 o
190.934 140.873 o
197.625 140.349 o
204.726 141.346 o
212.327 140.506 o
220.48 140.609 o
229.301 139.559 o
238.895 138.47 o
249.397 140.562 o
260.99 138.969 o
273.977 136.794 o
288.679 136.025 o
305.663 135.508 o
325.75 132.891 o
350.329 130.929 o
382.015 129.366 o
426.681 128.044 o
432.33 127.983 o
438.286 127.955 o
444.584 128.037 o
451.261 127.523 o
458.369 127.762 o
465.97 127.389 o
474.134 127.603 o
482.951 126.93 o
492.535 126.652 o
503.033 126.19 o
514.639 125.577 o
527.613 125.026 o
542.322 124.526 o
545.515 124.563 o
548.805 124.501 o
552.194 124.436 o
555.691 124.737 o
559.303 123.66 o
563.037 123.015 o
566.903 122.437 o
570.909 121.893 o
575.066 122.761 o
579.387 121.9 o
583.883 120.438 o
588.57 120.534 o
593.468 119.669 o
598.592 121.134 o
603.966 118.558 o
609.616 121.198 o
615.572 120.558 o
621.868 120.132 o
628.547 119.876 o
635.655 120.308 o
643.255 117.191 o
651.418 118.565 o
660.235 121.137 o
669.82 121.5 o
680.318 124.795 o
691.924 127.794 o
704.898 130.974 o
719.607 131.335 o
736.587 128.594 o
756.67 126.767 o
781.25 126.697 o
812.939 123.349 o
857.602 123.887 o
933.955 121.533 o
grestore
1.500 setlinewidth
1 setlinejoin
2 setlinecap
0.755 0.921 0.552 setrgbcolor
gsave
837 554.4 135 79.2 clipbox
173.045455 140.356308 m
178.671777 141.374297 l
184.637615 141.905634 l
190.933768 140.865025 l
197.625317 140.934214 l
204.725919 142.351371 l
212.327367 143.065549 l
220.480372 140.187659 l
229.300687 140.541034 l
238.895412 140.904387 l
249.39748 139.903141 l
260.989641 139.935518 l
273.977342 137.82281 l
288.679393 136.64094 l
305.662901 136.239998 l
325.749506 134.227416 l
350.329368 132.007487 l
382.014926 129.490068 l
426.681394 128.434933 l
432.3303 128.059937 l
438.28578 128.306978 l
444.58414 128.246216 l
451.261256 127.840728 l
458.369499 128.06659 l
465.970437 127.51718 l
474.133969 127.58781 l
482.950889 127.304401 l
492.535086 126.777056 l
503.033419 126.440091 l
514.639333 125.836128 l
527.613282 125.298471 l
542.322463 124.92536 l
545.51545 125.062186 l
548.804649 125.205443 l
552.19423 125.143128 l
555.691231 125.040564 l
559.302914 124.385152 l
563.037499 123.421162 l
566.902801 123.538916 l
570.90876 122.319791 l
575.065857 122.848577 l
579.386506 123.328799 l
583.882777 120.89975 l
588.570366 121.17562 l
593.467908 120.042537 l
598.591873 120.221165 l
603.966156 118.86854 l
609.615826 121.36467 l
615.571985 120.674331 l
621.868053 120.232475 l
628.546528 118.948262 l
635.654686 120.582079 l
643.254945 119.426155 l
651.417883 119.431145 l
660.235312 121.442508 l
669.819934 122.133734 l
680.318182 124.98468 l
691.924011 129.618799 l
704.898214 131.21148 l
719.606971 131.418714 l
736.587337 129.684218 l
756.67042 127.619633 l
781.250239 124.934563 l
812.939236 121.862189 l
857.602095 122.885833 l
933.954545 118.753557 l
stroke
grestore
1.000 setlinewidth
0 setlinejoin
0 setlinecap
gsave
837 554.4 135 79.2 clipbox
/o {
gsave
newpath
translate
1.0 setlinewidth
0 setlinejoin
0 setlinecap
-0 -4.242641 m
2.545584 0 l
0 4.242641 l
-2.545584 0 l
cl

gsave
0.755 0.921 0.552 setrgbcolor
fill
grestore
stroke
grestore
} bind def
173.045 140.356 o
178.672 141.374 o
184.638 141.906 o
190.934 140.865 o
197.625 140.934 o
204.726 142.351 o
212.327 143.066 o
220.48 140.188 o
229.301 140.541 o
238.895 140.904 o
249.397 139.903 o
260.99 139.936 o
273.977 137.823 o
288.679 136.641 o
305.663 136.24 o
325.75 134.227 o
350.329 132.007 o
382.015 129.49 o
426.681 128.435 o
432.33 128.06 o
438.286 128.307 o
444.584 128.246 o
451.261 127.841 o
458.369 128.067 o
465.97 127.517 o
474.134 127.588 o
482.951 127.304 o
492.535 126.777 o
503.033 126.44 o
514.639 125.836 o
527.613 125.298 o
542.322 124.925 o
545.515 125.062 o
548.805 125.205 o
552.194 125.143 o
555.691 125.041 o
559.303 124.385 o
563.037 123.421 o
566.903 123.539 o
570.909 122.32 o
575.066 122.849 o
579.387 123.329 o
583.883 120.9 o
588.57 121.176 o
593.468 120.043 o
598.592 120.221 o
603.966 118.869 o
609.616 121.365 o
615.572 120.674 o
621.868 120.232 o
628.547 118.948 o
635.655 120.582 o
643.255 119.426 o
651.418 119.431 o
660.235 121.443 o
669.82 122.134 o
680.318 124.985 o
691.924 129.619 o
704.898 131.211 o
719.607 131.419 o
736.587 129.684 o
756.67 127.62 o
781.25 124.935 o
812.939 121.862 o
857.602 122.886 o
933.955 118.754 o
grestore
1.500 setlinewidth
1 setlinejoin
2 setlinecap
1.000 0.701 0.378 setrgbcolor
gsave
837 554.4 135 79.2 clipbox
173.045455 139.217903 m
178.671777 139.007563 l
184.637615 139.870764 l
190.933768 140.113148 l
197.625317 140.38813 l
204.725919 142.182945 l
212.327367 141.758163 l
220.480372 142.716832 l
229.300687 140.114478 l
238.895412 141.434726 l
249.39748 139.296184 l
260.989641 138.885263 l
273.977342 137.22927 l
288.679393 136.70015 l
305.662901 135.03063 l
325.749506 133.108304 l
350.329368 131.287211 l
382.014926 129.455806 l
426.681394 128.265287 l
432.3303 128.252647 l
438.28578 128.091871 l
444.58414 127.994185 l
451.261256 127.824428 l
458.369499 127.750139 l
465.970437 127.505759 l
474.133969 127.032301 l
482.950889 126.935725 l
492.535086 126.600756 l
503.033419 126.148588 l
514.639333 125.660827 l
527.613282 125.510584 l
542.322463 125.323973 l
545.51545 125.107314 l
548.804649 125.18493 l
552.19423 125.001091 l
555.691231 124.989559 l
559.302914 124.768908 l
563.037499 124.273385 l
566.902801 123.016006 l
570.90876 123.933538 l
575.065857 122.968106 l
579.386506 122.544323 l
583.882777 121.159986 l
588.570366 121.994469 l
593.467908 120.242786 l
598.591873 120.612793 l
603.966156 120.644283 l
609.615826 123.490462 l
615.571985 121.145682 l
621.868053 120.918822 l
628.546528 119.139863 l
635.654686 120.797408 l
643.254945 117.995471 l
651.417883 119.133765 l
660.235312 121.661718 l
669.819934 122.33986 l
680.318182 125.708616 l
691.924011 129.088571 l
704.898214 131.37026 l
719.606971 132.942205 l
736.587337 130.055777 l
756.67042 126.80533 l
781.250239 124.353773 l
812.939236 123.05049 l
857.602095 121.163423 l
933.954545 118.603647 l
stroke
grestore
1.000 setlinewidth
0 setlinejoin
0 setlinecap
gsave
837 554.4 135 79.2 clipbox
/o {
gsave
newpath
translate
1.0 setlinewidth
0 setlinejoin
0 setlinecap
0 3 m
-2.85317 0.927051 l
-1.763356 -2.427051 l
1.763356 -2.427051 l
2.85317 0.927051 l
cl

gsave
1.000 0.701 0.378 setrgbcolor
fill
grestore
stroke
grestore
} bind def
173.045 139.218 o
178.672 139.008 o
184.638 139.871 o
190.934 140.113 o
197.625 140.388 o
204.726 142.183 o
212.327 141.758 o
220.48 142.717 o
229.301 140.114 o
238.895 141.435 o
249.397 139.296 o
260.99 138.885 o
273.977 137.229 o
288.679 136.7 o
305.663 135.031 o
325.75 133.108 o
350.329 131.287 o
382.015 129.456 o
426.681 128.265 o
432.33 128.253 o
438.286 128.092 o
444.584 127.994 o
451.261 127.824 o
458.369 127.75 o
465.97 127.506 o
474.134 127.032 o
482.951 126.936 o
492.535 126.601 o
503.033 126.149 o
514.639 125.661 o
527.613 125.511 o
542.322 125.324 o
545.515 125.107 o
548.805 125.185 o
552.194 125.001 o
555.691 124.99 o
559.303 124.769 o
563.037 124.273 o
566.903 123.016 o
570.909 123.934 o
575.066 122.968 o
579.387 122.544 o
583.883 121.16 o
588.57 121.994 o
593.468 120.243 o
598.592 120.613 o
603.966 120.644 o
609.616 123.49 o
615.572 121.146 o
621.868 120.919 o
628.547 119.14 o
635.655 120.797 o
643.255 117.995 o
651.418 119.134 o
660.235 121.662 o
669.82 122.34 o
680.318 125.709 o
691.924 129.089 o
704.898 131.37 o
719.607 132.942 o
736.587 130.056 o
756.67 126.805 o
781.25 124.354 o
812.939 123.05 o
857.602 121.163 o
933.955 118.604 o
grestore
1.500 setlinewidth
1 setlinejoin
2 setlinecap
1.000 0.373 0.190 setrgbcolor
gsave
837 554.4 135 79.2 clipbox
173.045455 136.470518 m
178.671777 140.111263 l
184.637615 139.664195 l
190.933768 140.3277 l
197.625317 140.515975 l
204.725919 142.177733 l
212.327367 140.307409 l
220.480372 141.000853 l
229.300687 140.234672 l
238.895412 140.632731 l
249.39748 140.252524 l
260.989641 139.29197 l
273.977342 136.766124 l
288.679393 136.594814 l
305.662901 134.738905 l
325.749506 133.000528 l
350.329368 131.080641 l
382.014926 129.680227 l
426.681394 128.530512 l
432.3303 128.235349 l
438.28578 128.336583 l
444.58414 128.326271 l
451.261256 128.135557 l
458.369499 127.872107 l
465.970437 127.809348 l
474.133969 127.45553 l
482.950889 127.042946 l
492.535086 126.814755 l
503.033419 126.611734 l
514.639333 126.295171 l
527.613282 125.599067 l
542.322463 125.363557 l
545.51545 125.357237 l
548.804649 125.051098 l
552.19423 125.554493 l
555.691231 125.472996 l
559.302914 124.286913 l
563.037499 123.790392 l
566.902801 123.30762 l
570.90876 122.698778 l
575.065857 123.383573 l
579.386506 122.847136 l
583.882777 121.327415 l
588.570366 121.285169 l
593.467908 120.61113 l
598.591873 120.365087 l
603.966156 119.435913 l
609.615826 121.85232 l
615.571985 120.788538 l
621.868053 121.046777 l
628.546528 119.325144 l
635.654686 120.804394 l
643.254945 118.755996 l
651.417883 119.579391 l
660.235312 121.492848 l
669.819934 122.339638 l
680.318182 125.860189 l
691.924011 129.127157 l
704.898214 130.988943 l
719.606971 131.964909 l
736.587337 131.200613 l
756.67042 128.270277 l
781.250239 127.199952 l
812.939236 123.41839 l
857.602095 122.053346 l
933.954545 118.833058 l
stroke
grestore
1.000 setlinewidth
0 setlinejoin
0 setlinecap
gsave
837 554.4 135 79.2 clipbox
/o {
gsave
newpath
translate
1.0 setlinewidth
0 setlinejoin
0 setlinecap
0 3 m
-2.598076 1.5 l
-2.598076 -1.5 l
-0 -3 l
2.598076 -1.5 l
2.598076 1.5 l
cl

gsave
1.000 0.373 0.190 setrgbcolor
fill
grestore
stroke
grestore
} bind def
173.045 136.471 o
178.672 140.111 o
184.638 139.664 o
190.934 140.328 o
197.625 140.516 o
204.726 142.178 o
212.327 140.307 o
220.48 141.001 o
229.301 140.235 o
238.895 140.633 o
249.397 140.253 o
260.99 139.292 o
273.977 136.766 o
288.679 136.595 o
305.663 134.739 o
325.75 133.001 o
350.329 131.081 o
382.015 129.68 o
426.681 128.531 o
432.33 128.235 o
438.286 128.337 o
444.584 128.326 o
451.261 128.136 o
458.369 127.872 o
465.97 127.809 o
474.134 127.456 o
482.951 127.043 o
492.535 126.815 o
503.033 126.612 o
514.639 126.295 o
527.613 125.599 o
542.322 125.364 o
545.515 125.357 o
548.805 125.051 o
552.194 125.554 o
555.691 125.473 o
559.303 124.287 o
563.037 123.79 o
566.903 123.308 o
570.909 122.699 o
575.066 123.384 o
579.387 122.847 o
583.883 121.327 o
588.57 121.285 o
593.468 120.611 o
598.592 120.365 o
603.966 119.436 o
609.616 121.852 o
615.572 120.789 o
621.868 121.047 o
628.547 119.325 o
635.655 120.804 o
643.255 118.756 o
651.418 119.579 o
660.235 121.493 o
669.82 122.34 o
680.318 125.86 o
691.924 129.127 o
704.898 130.989 o
719.607 131.965 o
736.587 131.201 o
756.67 128.27 o
781.25 127.2 o
812.939 123.418 o
857.602 122.053 o
933.955 118.833 o
grestore
1.500 setlinewidth
1 setlinejoin
2 setlinecap
1.000 0.000 0.000 setrgbcolor
gsave
837 554.4 135 79.2 clipbox
173.045455 569.406689 m
178.671777 586.405037 l
184.637615 579.719305 l
190.933768 582.048229 l
197.625317 584.014686 l
204.725919 587.510732 l
212.327367 584.733743 l
220.480372 580.274925 l
229.300687 574.950689 l
238.895412 573.256443 l
249.39748 569.337278 l
260.989641 564.107845 l
273.977342 549.738462 l
288.679393 542.127216 l
305.662901 531.130581 l
325.749506 516.129625 l
350.329368 498.381064 l
382.014926 482.591308 l
426.681394 473.330389 l
432.3303 472.185886 l
438.28578 471.761104 l
444.58414 471.346746 l
451.261256 469.311211 l
458.369499 469.003075 l
465.970437 467.390326 l
474.133969 465.955538 l
482.950889 462.976193 l
492.535086 460.126909 l
503.033419 456.932124 l
514.639333 452.810714 l
527.613282 449.140365 l
542.322463 446.412938 l
545.51545 446.059231 l
548.804649 446.073535 l
552.19423 446.288198 l
555.691231 446.743139 l
559.302914 438.788053 l
563.037499 434.081087 l
566.902801 429.041701 l
570.90876 424.765725 l
575.065857 429.819414 l
579.386506 428.518126 l
583.882777 414.409755 l
588.570366 415.025361 l
593.467908 409.1322 l
598.591873 405.558094 l
603.966156 397.367166 l
609.615826 419.352342 l
615.571985 417.655989 l
621.868053 410.700486 l
628.546528 395.65152 l
635.654686 416.129393 l
643.254945 393.373712 l
651.417883 399.576561 l
660.235312 424.779031 l
669.819934 426.044393 l
680.318182 451.824326 l
691.924011 468.404323 l
704.898214 494.865613 l
719.606971 501.413188 l
736.587337 490.872825 l
756.67042 462.875181 l
781.250239 450.28254 l
812.939236 428.524335 l
857.602095 415.523544 l
933.954545 389.301755 l
stroke
grestore
1.000 setlinewidth
2 setlinejoin
0 setlinecap
gsave
837 554.4 135 79.2 clipbox
/o {
gsave
newpath
translate
1.0 setlinewidth
2 setlinejoin
0 setlinecap
0 3 m
-0.673542 0.927051 l
-2.85317 0.927051 l
-1.089814 -0.354102 l
-1.763356 -2.427051 l
-0 -1.145898 l
1.763356 -2.427051 l
1.089814 -0.354102 l
2.85317 0.927051 l
0.673542 0.927051 l
cl

gsave
1.000 0.000 0.000 setrgbcolor
fill
grestore
stroke
grestore
} bind def
173.045 569.407 o
178.672 586.405 o
184.638 579.719 o
190.934 582.048 o
197.625 584.015 o
204.726 587.511 o
212.327 584.734 o
220.48 580.275 o
229.301 574.951 o
238.895 573.256 o
249.397 569.337 o
260.99 564.108 o
273.977 549.738 o
288.679 542.127 o
305.663 531.131 o
325.75 516.13 o
350.329 498.381 o
382.015 482.591 o
426.681 473.33 o
432.33 472.186 o
438.286 471.761 o
444.584 471.347 o
451.261 469.311 o
458.369 469.003 o
465.97 467.39 o
474.134 465.956 o
482.951 462.976 o
492.535 460.127 o
503.033 456.932 o
514.639 452.811 o
527.613 449.14 o
542.322 446.413 o
545.515 446.059 o
548.805 446.074 o
552.194 446.288 o
555.691 446.743 o
559.303 438.788 o
563.037 434.081 o
566.903 429.042 o
570.909 424.766 o
575.066 429.819 o
579.387 428.518 o
583.883 414.41 o
588.57 415.025 o
593.468 409.132 o
598.592 405.558 o
603.966 397.367 o
609.616 419.352 o
615.572 417.656 o
621.868 410.7 o
628.547 395.652 o
635.655 416.129 o
643.255 393.374 o
651.418 399.577 o
660.235 424.779 o
669.82 426.044 o
680.318 451.824 o
691.924 468.404 o
704.898 494.866 o
719.607 501.413 o
736.587 490.873 o
756.67 462.875 o
781.25 450.283 o
812.939 428.524 o
857.602 415.524 o
933.955 389.302 o
grestore
0.200 setlinewidth
1 setlinejoin
2 setlinecap
0.000 setgray
gsave
837 554.4 135 79.2 clipbox
135 79.2 m
1081 79.2 l
stroke
grestore
gsave
837 554.4 135 79.2 clipbox
135 134.64 m
1081 134.64 l
stroke
grestore
gsave
837 554.4 135 79.2 clipbox
135 190.08 m
1081 190.08 l
stroke
grestore
gsave
837 554.4 135 79.2 clipbox
135 245.52 m
1081 245.52 l
stroke
grestore
gsave
837 554.4 135 79.2 clipbox
135 300.96 m
1081 300.96 l
stroke
grestore
gsave
837 554.4 135 79.2 clipbox
135 356.4 m
1081 356.4 l
stroke
grestore
gsave
837 554.4 135 79.2 clipbox
135 411.84 m
1081 411.84 l
stroke
grestore
gsave
837 554.4 135 79.2 clipbox
135 467.28 m
1081 467.28 l
stroke
grestore
gsave
837 554.4 135 79.2 clipbox
135 522.72 m
1081 522.72 l
stroke
grestore
gsave
837 554.4 135 79.2 clipbox
135 578.16 m
1081 578.16 l
stroke
grestore
0.800 setlinewidth
0 setlinejoin
gsave
135 79.2 m
135 633.6 l
stroke
grestore
gsave
972 79.2 m
972 633.6 l
stroke
grestore
gsave
135 79.2 m
972 79.2 l
stroke
grestore
gsave
135 633.6 m
972 633.6 l
stroke
grestore
/DejaVuSans findfont
14.400 scalefont
setfont
gsave
388.773438 655.275000 translate
0.000000 rotate
0.000000 0 m /B glyphshow
9.861755 0 m /a glyphshow
18.670654 0 m /n glyphshow
27.781372 0 m /d glyphshow
36.906128 0 m /w glyphshow
48.663025 0 m /i glyphshow
52.656860 0 m /d glyphshow
61.781616 0 m /t glyphshow
67.417908 0 m /h glyphshow
76.528625 0 m /space glyphshow
81.098022 0 m /m glyphshow
95.101013 0 m /e glyphshow
103.945007 0 m /a glyphshow
112.753906 0 m /s glyphshow
120.243225 0 m /u glyphshow
129.353943 0 m /r glyphshow
134.888977 0 m /e glyphshow
143.732971 0 m /s glyphshow
151.222290 0 m /space glyphshow
155.791687 0 m /o glyphshow
164.586548 0 m /n glyphshow
173.697266 0 m /space glyphshow
178.266663 0 m /I glyphshow
182.506165 0 m /n glyphshow
191.616882 0 m /t glyphshow
197.253174 0 m /e glyphshow
206.097168 0 m /l glyphshow
210.091003 0 m /space glyphshow
214.660400 0 m /X glyphshow
223.883118 0 m /e glyphshow
232.727112 0 m /o glyphshow
241.521973 0 m /n glyphshow
250.632690 0 m /space glyphshow
255.202087 0 m /G glyphshow
266.341309 0 m /o glyphshow
275.136169 0 m /l glyphshow
279.130005 0 m /d glyphshow
288.254761 0 m /space glyphshow
292.824158 0 m /six glyphshow
301.969971 0 m /two glyphshow
311.115784 0 m /four glyphshow
320.261597 0 m /zero glyphshow
grestore
gsave
361.390625 639.600000 translate
0.000000 rotate
0.000000 0 m /C glyphshow
10.037231 0 m /r glyphshow
15.572266 0 m /o glyphshow
24.367126 0 m /s glyphshow
31.856445 0 m /s glyphshow
39.345764 0 m /space glyphshow
43.915161 0 m /m glyphshow
57.918152 0 m /o glyphshow
66.713013 0 m /d glyphshow
75.837769 0 m /e glyphshow
84.681763 0 m /colon glyphshow
89.524902 0 m /space glyphshow
94.094299 0 m /S glyphshow
103.219055 0 m /o glyphshow
112.013916 0 m /c glyphshow
119.917358 0 m /k glyphshow
127.741943 0 m /e glyphshow
136.585938 0 m /t glyphshow
142.222229 0 m /space glyphshow
146.791626 0 m /zero glyphshow
155.937439 0 m /space glyphshow
160.506836 0 m /hyphen glyphshow
165.693909 0 m /space glyphshow
170.263306 0 m /S glyphshow
179.388062 0 m /o glyphshow
188.182922 0 m /c glyphshow
196.086365 0 m /k glyphshow
203.910950 0 m /e glyphshow
212.754944 0 m /t glyphshow
218.391235 0 m /space glyphshow
222.960632 0 m /one glyphshow
232.106445 0 m /space glyphshow
236.675842 0 m /slash glyphshow
241.518982 0 m /space glyphshow
246.088379 0 m /S glyphshow
255.213135 0 m /o glyphshow
264.007996 0 m /c glyphshow
271.911438 0 m /k glyphshow
279.736023 0 m /e glyphshow
288.580017 0 m /t glyphshow
294.216309 0 m /space glyphshow
298.785706 0 m /one glyphshow
307.931519 0 m /space glyphshow
312.500916 0 m /hyphen glyphshow
317.687988 0 m /space glyphshow
322.257385 0 m /S glyphshow
331.382141 0 m /o glyphshow
340.177002 0 m /c glyphshow
348.080444 0 m /k glyphshow
355.905029 0 m /e glyphshow
364.749023 0 m /t glyphshow
370.385315 0 m /space glyphshow
374.954712 0 m /zero glyphshow
grestore
1.000 setlinewidth
0 setlinecap
0.800 setgray
gsave
814.371875 465.375 m
963.6 465.375 l
965.2 465.375 966 466.175 966 467.775 c
966 625.2 l
966 626.8 965.2 627.6 963.6 627.6 c
814.371875 627.6 l
812.771875 627.6 811.971875 626.8 811.971875 625.2 c
811.971875 467.775 l
811.971875 466.175 812.771875 465.375 814.371875 465.375 c
cl
gsave
1.000 setgray
fill
grestore
stroke
grestore
1.500 setlinewidth
1 setlinejoin
2 setlinecap
0.500 0.000 1.000 setrgbcolor
gsave
816.771875 617.875 m
840.771875 617.875 l
stroke
grestore
1.000 setlinewidth
0 setlinecap
gsave
/o {
gsave
newpath
translate
1.0 setlinewidth
1 setlinejoin
0 setlinecap
0 -1.5 m
0.397805 -1.5 0.77937 -1.341951 1.06066 -1.06066 c
1.341951 -0.77937 1.5 -0.397805 1.5 0 c
1.5 0.397805 1.341951 0.77937 1.06066 1.06066 c
0.77937 1.341951 0.397805 1.5 0 1.5 c
-0.397805 1.5 -0.77937 1.341951 -1.06066 1.06066 c
-1.341951 0.77937 -1.5 0.397805 -1.5 0 c
-1.5 -0.397805 -1.341951 -0.77937 -1.06066 -1.06066 c
-0.77937 -1.341951 -0.397805 -1.5 0 -1.5 c
cl

gsave
0.500 0.000 1.000 setrgbcolor
fill
grestore
stroke
grestore
} bind def
828.772 617.875 o
grestore
0.000 setgray
/DejaVuSans findfont
12.000 scalefont
setfont
gsave
850.371875 613.675000 translate
0.000000 rotate
0.000000 0 m /R glyphshow
7.962891 0 m /colon glyphshow
12.005859 0 m /C glyphshow
20.384766 0 m /P glyphshow
27.621094 0 m /U glyphshow
36.404297 0 m /zero glyphshow
44.039062 0 m /space glyphshow
47.853516 0 m /hyphen glyphshow
52.183594 0 m /space glyphshow
55.998047 0 m /W glyphshow
67.113281 0 m /colon glyphshow
71.156250 0 m /C glyphshow
79.535156 0 m /P glyphshow
86.771484 0 m /U glyphshow
95.554688 0 m /two glyphshow
103.189453 0 m /two glyphshow
grestore
1.500 setlinewidth
2 setlinecap
0.249 0.384 0.981 setrgbcolor
gsave
816.771875 600.25 m
840.771875 600.25 l
stroke
grestore
1.000 setlinewidth
0 setlinecap
gsave
/o {
gsave
newpath
translate
1.0 setlinewidth
1 setlinejoin
0 setlinecap
0 -3 m
0.795609 -3 1.55874 -2.683901 2.12132 -2.12132 c
2.683901 -1.55874 3 -0.795609 3 0 c
3 0.795609 2.683901 1.55874 2.12132 2.12132 c
1.55874 2.683901 0.795609 3 0 3 c
-0.795609 3 -1.55874 2.683901 -2.12132 2.12132 c
-2.683901 1.55874 -3 0.795609 -3 0 c
-3 -0.795609 -2.683901 -1.55874 -2.12132 -2.12132 c
-1.55874 -2.683901 -0.795609 -3 0 -3 c
cl

gsave
0.249 0.384 0.981 setrgbcolor
fill
grestore
stroke
grestore
} bind def
828.772 600.25 o
grestore
0.000 setgray
gsave
850.371875 596.050000 translate
0.000000 rotate
0.000000 0 m /R glyphshow
7.962891 0 m /colon glyphshow
12.005859 0 m /C glyphshow
20.384766 0 m /P glyphshow
27.621094 0 m /U glyphshow
36.404297 0 m /one glyphshow
44.039062 0 m /space glyphshow
47.853516 0 m /hyphen glyphshow
52.183594 0 m /space glyphshow
55.998047 0 m /W glyphshow
67.113281 0 m /colon glyphshow
71.156250 0 m /C glyphshow
79.535156 0 m /P glyphshow
86.771484 0 m /U glyphshow
95.554688 0 m /two glyphshow
103.189453 0 m /three glyphshow
grestore
1.500 setlinewidth
2 setlinecap
0.002 0.709 0.923 setrgbcolor
gsave
816.771875 582.625 m
840.771875 582.625 l
stroke
grestore
1.000 setlinewidth
2 setlinejoin
0 setlinecap
gsave
/o {
gsave
newpath
translate
1.0 setlinewidth
2 setlinejoin
0 setlinecap
0 3 m
-0.673542 0.927051 l
-2.85317 0.927051 l
-1.089814 -0.354102 l
-1.763356 -2.427051 l
-0 -1.145898 l
1.763356 -2.427051 l
1.089814 -0.354102 l
2.85317 0.927051 l
0.673542 0.927051 l
cl

gsave
0.002 0.709 0.923 setrgbcolor
fill
grestore
stroke
grestore
} bind def
828.772 582.625 o
grestore
0.000 setgray
gsave
850.371875 578.425000 translate
0.000000 rotate
0.000000 0 m /R glyphshow
7.962891 0 m /colon glyphshow
12.005859 0 m /C glyphshow
20.384766 0 m /P glyphshow
27.621094 0 m /U glyphshow
36.404297 0 m /two glyphshow
44.039062 0 m /space glyphshow
47.853516 0 m /hyphen glyphshow
52.183594 0 m /space glyphshow
55.998047 0 m /W glyphshow
67.113281 0 m /colon glyphshow
71.156250 0 m /C glyphshow
79.535156 0 m /P glyphshow
86.771484 0 m /U glyphshow
95.554688 0 m /two glyphshow
103.189453 0 m /four glyphshow
grestore
1.500 setlinewidth
1 setlinejoin
2 setlinecap
0.253 0.926 0.830 setrgbcolor
gsave
816.771875 565 m
840.771875 565 l
stroke
grestore
1.000 setlinewidth
0 setlinejoin
0 setlinecap
gsave
/o {
gsave
newpath
translate
1.0 setlinewidth
0 setlinejoin
0 setlinecap
3 -0 m
-3 3 l
-3 -3 l
cl

gsave
0.253 0.926 0.830 setrgbcolor
fill
grestore
stroke
grestore
} bind def
828.772 565 o
grestore
0.000 setgray
gsave
850.371875 560.800000 translate
0.000000 rotate
0.000000 0 m /R glyphshow
7.962891 0 m /colon glyphshow
12.005859 0 m /C glyphshow
20.384766 0 m /P glyphshow
27.621094 0 m /U glyphshow
36.404297 0 m /three glyphshow
44.039062 0 m /space glyphshow
47.853516 0 m /hyphen glyphshow
52.183594 0 m /space glyphshow
55.998047 0 m /W glyphshow
67.113281 0 m /colon glyphshow
71.156250 0 m /C glyphshow
79.535156 0 m /P glyphshow
86.771484 0 m /U glyphshow
95.554688 0 m /two glyphshow
103.189453 0 m /five glyphshow
grestore
1.500 setlinewidth
1 setlinejoin
2 setlinecap
0.504 1.000 0.705 setrgbcolor
gsave
816.771875 547.375 m
840.771875 547.375 l
stroke
grestore
1.000 setlinewidth
0 setlinejoin
0 setlinecap
gsave
/o {
gsave
newpath
translate
1.0 setlinewidth
0 setlinejoin
0 setlinecap
-3 0 m
3 -3 l
3 3 l
cl

gsave
0.504 1.000 0.705 setrgbcolor
fill
grestore
stroke
grestore
} bind def
828.772 547.375 o
grestore
0.000 setgray
gsave
850.371875 543.175000 translate
0.000000 rotate
0.000000 0 m /R glyphshow
7.962891 0 m /colon glyphshow
12.005859 0 m /C glyphshow
20.384766 0 m /P glyphshow
27.621094 0 m /U glyphshow
36.404297 0 m /one glyphshow
44.039062 0 m /eight glyphshow
51.673828 0 m /space glyphshow
55.488281 0 m /hyphen glyphshow
59.818359 0 m /space glyphshow
63.632812 0 m /W glyphshow
74.748047 0 m /colon glyphshow
78.791016 0 m /C glyphshow
87.169922 0 m /P glyphshow
94.406250 0 m /U glyphshow
103.189453 0 m /four glyphshow
grestore
1.500 setlinewidth
1 setlinejoin
2 setlinecap
0.755 0.921 0.552 setrgbcolor
gsave
816.771875 529.75 m
840.771875 529.75 l
stroke
grestore
1.000 setlinewidth
0 setlinejoin
0 setlinecap
gsave
/o {
gsave
newpath
translate
1.0 setlinewidth
0 setlinejoin
0 setlinecap
-0 -4.242641 m
2.545584 0 l
0 4.242641 l
-2.545584 0 l
cl

gsave
0.755 0.921 0.552 setrgbcolor
fill
grestore
stroke
grestore
} bind def
828.772 529.75 o
grestore
0.000 setgray
gsave
850.371875 525.550000 translate
0.000000 rotate
0.000000 0 m /R glyphshow
7.962891 0 m /colon glyphshow
12.005859 0 m /C glyphshow
20.384766 0 m /P glyphshow
27.621094 0 m /U glyphshow
36.404297 0 m /one glyphshow
44.039062 0 m /nine glyphshow
51.673828 0 m /space glyphshow
55.488281 0 m /hyphen glyphshow
59.818359 0 m /space glyphshow
63.632812 0 m /W glyphshow
74.748047 0 m /colon glyphshow
78.791016 0 m /C glyphshow
87.169922 0 m /P glyphshow
94.406250 0 m /U glyphshow
103.189453 0 m /five glyphshow
grestore
1.500 setlinewidth
1 setlinejoin
2 setlinecap
1.000 0.701 0.378 setrgbcolor
gsave
816.771875 512.125 m
840.771875 512.125 l
stroke
grestore
1.000 setlinewidth
0 setlinejoin
0 setlinecap
gsave
/o {
gsave
newpath
translate
1.0 setlinewidth
0 setlinejoin
0 setlinecap
0 3 m
-2.85317 0.927051 l
-1.763356 -2.427051 l
1.763356 -2.427051 l
2.85317 0.927051 l
cl

gsave
1.000 0.701 0.378 setrgbcolor
fill
grestore
stroke
grestore
} bind def
828.772 512.125 o
grestore
0.000 setgray
gsave
850.371875 507.925000 translate
0.000000 rotate
0.000000 0 m /R glyphshow
7.962891 0 m /colon glyphshow
12.005859 0 m /C glyphshow
20.384766 0 m /P glyphshow
27.621094 0 m /U glyphshow
36.404297 0 m /two glyphshow
44.039062 0 m /zero glyphshow
51.673828 0 m /space glyphshow
55.488281 0 m /hyphen glyphshow
59.818359 0 m /space glyphshow
63.632812 0 m /W glyphshow
74.748047 0 m /colon glyphshow
78.791016 0 m /C glyphshow
87.169922 0 m /P glyphshow
94.406250 0 m /U glyphshow
103.189453 0 m /six glyphshow
grestore
1.500 setlinewidth
1 setlinejoin
2 setlinecap
1.000 0.373 0.190 setrgbcolor
gsave
816.771875 494.5 m
840.771875 494.5 l
stroke
grestore
1.000 setlinewidth
0 setlinejoin
0 setlinecap
gsave
/o {
gsave
newpath
translate
1.0 setlinewidth
0 setlinejoin
0 setlinecap
0 3 m
-2.598076 1.5 l
-2.598076 -1.5 l
-0 -3 l
2.598076 -1.5 l
2.598076 1.5 l
cl

gsave
1.000 0.373 0.190 setrgbcolor
fill
grestore
stroke
grestore
} bind def
828.772 494.5 o
grestore
0.000 setgray
gsave
850.371875 490.300000 translate
0.000000 rotate
0.000000 0 m /R glyphshow
7.962891 0 m /colon glyphshow
12.005859 0 m /C glyphshow
20.384766 0 m /P glyphshow
27.621094 0 m /U glyphshow
36.404297 0 m /two glyphshow
44.039062 0 m /one glyphshow
51.673828 0 m /space glyphshow
55.488281 0 m /hyphen glyphshow
59.818359 0 m /space glyphshow
63.632812 0 m /W glyphshow
74.748047 0 m /colon glyphshow
78.791016 0 m /C glyphshow
87.169922 0 m /P glyphshow
94.406250 0 m /U glyphshow
103.189453 0 m /seven glyphshow
grestore
1.500 setlinewidth
1 setlinejoin
2 setlinecap
1.000 0.000 0.000 setrgbcolor
gsave
816.771875 476.875 m
840.771875 476.875 l
stroke
grestore
1.000 setlinewidth
2 setlinejoin
0 setlinecap
gsave
/o {
gsave
newpath
translate
1.0 setlinewidth
2 setlinejoin
0 setlinecap
0 3 m
-0.673542 0.927051 l
-2.85317 0.927051 l
-1.089814 -0.354102 l
-1.763356 -2.427051 l
-0 -1.145898 l
1.763356 -2.427051 l
1.089814 -0.354102 l
2.85317 0.927051 l
0.673542 0.927051 l
cl

gsave
1.000 0.000 0.000 setrgbcolor
fill
grestore
stroke
grestore
} bind def
828.772 476.875 o
grestore
0.000 setgray
gsave
850.371875 472.675000 translate
0.000000 rotate
0.000000 0 m /S glyphshow
7.617188 0 m /u glyphshow
15.222656 0 m /m glyphshow
26.912109 0 m /space glyphshow
30.726562 0 m /o glyphshow
38.068359 0 m /f glyphshow
42.292969 0 m /space glyphshow
46.107422 0 m /B glyphshow
53.964844 0 m /W glyphshow
65.830078 0 m /s glyphshow
grestore

end
showpage
