%!PS-Adobe-3.0 EPSF-3.0
%%Title: intel-multicross5-die1.eps
%%Creator: matplotlib version 3.3.3, http://matplotlib.org/
%%CreationDate: Wed Jan 13 15:59:11 2021
%%Orientation: portrait
%%BoundingBox: -234.0 36.0 846.0 756.0
%%EndComments
%%BeginProlog
/mpldict 8 dict def
mpldict begin
/m { moveto } bind def
/l { lineto } bind def
/r { rlineto } bind def
/c { curveto } bind def
/cl { closepath } bind def
/box {
      m
      1 index 0 r
      0 exch r
      neg 0 r
      cl
    } bind def
/clipbox {
      box
      clip
      newpath
    } bind def
%!PS-Adobe-3.0 Resource-Font
%%Title: DejaVu Sans
%%Copyright: Copyright (c) 2003 by Bitstream, Inc. All Rights Reserved. Copyright (c) 2006 by Tavmjong Bah. All Rights Reserved. DejaVu changes are in public domain 
%%Creator: Converted from TrueType to type 3 by PPR
25 dict begin
/_d{bind def}bind def
/_m{moveto}_d
/_l{lineto}_d
/_cl{closepath eofill}_d
/_c{curveto}_d
/_sc{7 -1 roll{setcachedevice}{pop pop pop pop pop pop}ifelse}_d
/_e{exec}_d
/FontName /DejaVuSans def
/PaintType 0 def
/FontMatrix[.001 0 0 .001 0 0]def
/FontBBox[-1021 -463 1793 1232]def
/FontType 3 def
/Encoding [ /space /parenleft /parenright /hyphen /zero /one /two /three /four /five /six /seven /eight /nine /colon /B /C /D /G /I /P /R /S /U /W /X /a /c /d /e /f /h /i /k /l /m /n /o /p /r /s /t /u /w ] def
/FontInfo 10 dict dup begin
/FamilyName (DejaVu Sans) def
/FullName (DejaVu Sans) def
/Notice (Copyright (c) 2003 by Bitstream, Inc. All Rights Reserved. Copyright (c) 2006 by Tavmjong Bah. All Rights Reserved. DejaVu changes are in public domain ) def
/Weight (Book) def
/Version (Version 2.35) def
/ItalicAngle 0.0 def
/isFixedPitch false def
/UnderlinePosition -130 def
/UnderlineThickness 90 def
end readonly def
/CharStrings 45 dict dup begin
/.notdef 0 def
/space{318 0 0 0 0 0 _sc
}_d
/parenleft{390 0 86 -131 310 759 _sc
310 759 _m
266 683 234 609 213 536 _c
191 463 181 389 181 314 _c
181 238 191 164 213 91 _c
234 17 266 -56 310 -131 _c
232 -131 _l
183 -54 146 20 122 94 _c
98 168 86 241 86 314 _c
86 386 98 459 122 533 _c
146 607 182 682 232 759 _c
310 759 _l
_cl}_d
/parenright{390 0 80 -131 304 759 _sc
80 759 _m
158 759 _l
206 682 243 607 267 533 _c
291 459 304 386 304 314 _c
304 241 291 168 267 94 _c
243 20 206 -54 158 -131 _c
80 -131 _l
123 -56 155 17 177 91 _c
198 164 209 238 209 314 _c
209 389 198 463 177 536 _c
155 609 123 683 80 759 _c
_cl}_d
/hyphen{361 0 49 234 312 314 _sc
49 314 _m
312 314 _l
312 234 _l
49 234 _l
49 314 _l
_cl}_d
/zero{636 0 66 -13 570 742 _sc
318 664 _m
267 664 229 639 203 589 _c
177 539 165 464 165 364 _c
165 264 177 189 203 139 _c
229 89 267 64 318 64 _c
369 64 407 89 433 139 _c
458 189 471 264 471 364 _c
471 464 458 539 433 589 _c
407 639 369 664 318 664 _c
318 742 _m
399 742 461 709 505 645 _c
548 580 570 486 570 364 _c
570 241 548 147 505 83 _c
461 19 399 -13 318 -13 _c
236 -13 173 19 130 83 _c
87 147 66 241 66 364 _c
66 486 87 580 130 645 _c
173 709 236 742 318 742 _c
_cl}_d
/one{636 0 110 0 544 729 _sc
124 83 _m
285 83 _l
285 639 _l
110 604 _l
110 694 _l
284 729 _l
383 729 _l
383 83 _l
544 83 _l
544 0 _l
124 0 _l
124 83 _l
_cl}_d
/two{{636 0 73 0 536 742 _sc
192 83 _m
536 83 _l
536 0 _l
73 0 _l
73 83 _l
110 121 161 173 226 239 _c
290 304 331 346 348 365 _c
380 400 402 430 414 455 _c
426 479 433 504 433 528 _c
433 566 419 598 392 622 _c
365 646 330 659 286 659 _c
255 659 222 653 188 643 _c
154 632 117 616 78 594 _c
78 694 _l
118 710 155 722 189 730 _c
223 738 255 742 284 742 _c
}_e{359 742 419 723 464 685 _c
509 647 532 597 532 534 _c
532 504 526 475 515 449 _c
504 422 484 390 454 354 _c
446 344 420 317 376 272 _c
332 227 271 164 192 83 _c
_cl}_e}_d
/three{{636 0 76 -13 556 742 _sc
406 393 _m
453 383 490 362 516 330 _c
542 298 556 258 556 212 _c
556 140 531 84 482 45 _c
432 6 362 -13 271 -13 _c
240 -13 208 -10 176 -4 _c
144 1 110 10 76 22 _c
76 117 _l
103 101 133 89 166 81 _c
198 73 232 69 268 69 _c
330 69 377 81 409 105 _c
441 129 458 165 458 212 _c
458 254 443 288 413 312 _c
383 336 341 349 287 349 _c
}_e{202 349 _l
202 430 _l
291 430 _l
339 430 376 439 402 459 _c
428 478 441 506 441 543 _c
441 580 427 609 401 629 _c
374 649 336 659 287 659 _c
260 659 231 656 200 650 _c
169 644 135 635 98 623 _c
98 711 _l
135 721 170 729 203 734 _c
235 739 266 742 296 742 _c
370 742 429 725 473 691 _c
517 657 539 611 539 553 _c
539 513 527 479 504 451 _c
481 423 448 403 406 393 _c
_cl}_e}_d
/four{636 0 49 0 580 729 _sc
378 643 _m
129 254 _l
378 254 _l
378 643 _l
352 729 _m
476 729 _l
476 254 _l
580 254 _l
580 172 _l
476 172 _l
476 0 _l
378 0 _l
378 172 _l
49 172 _l
49 267 _l
352 729 _l
_cl}_d
/five{{636 0 77 -13 549 729 _sc
108 729 _m
495 729 _l
495 646 _l
198 646 _l
198 467 _l
212 472 227 476 241 478 _c
255 480 270 482 284 482 _c
365 482 429 459 477 415 _c
525 370 549 310 549 234 _c
549 155 524 94 475 51 _c
426 8 357 -13 269 -13 _c
238 -13 207 -10 175 -6 _c
143 -1 111 6 77 17 _c
77 116 _l
106 100 136 88 168 80 _c
199 72 232 69 267 69 _c
}_e{323 69 368 83 401 113 _c
433 143 450 183 450 234 _c
450 284 433 324 401 354 _c
368 384 323 399 267 399 _c
241 399 214 396 188 390 _c
162 384 135 375 108 363 _c
108 729 _l
_cl}_e}_d
/six{{636 0 70 -13 573 742 _sc
330 404 _m
286 404 251 388 225 358 _c
199 328 186 286 186 234 _c
186 181 199 139 225 109 _c
251 79 286 64 330 64 _c
374 64 409 79 435 109 _c
461 139 474 181 474 234 _c
474 286 461 328 435 358 _c
409 388 374 404 330 404 _c
526 713 _m
526 623 _l
501 635 476 644 451 650 _c
425 656 400 659 376 659 _c
310 659 260 637 226 593 _c
}_e{192 549 172 482 168 394 _c
187 422 211 444 240 459 _c
269 474 301 482 336 482 _c
409 482 467 459 509 415 _c
551 371 573 310 573 234 _c
573 159 550 99 506 54 _c
462 9 403 -13 330 -13 _c
246 -13 181 19 137 83 _c
92 147 70 241 70 364 _c
70 479 97 571 152 639 _c
206 707 280 742 372 742 _c
396 742 421 739 447 735 _c
472 730 498 723 526 713 _c
_cl}_e}_d
/seven{636 0 82 0 551 729 _sc
82 729 _m
551 729 _l
551 687 _l
286 0 _l
183 0 _l
432 646 _l
82 646 _l
82 729 _l
_cl}_d
/eight{{636 0 68 -13 568 742 _sc
318 346 _m
271 346 234 333 207 308 _c
180 283 167 249 167 205 _c
167 161 180 126 207 101 _c
234 76 271 64 318 64 _c
364 64 401 76 428 102 _c
455 127 469 161 469 205 _c
469 249 455 283 429 308 _c
402 333 365 346 318 346 _c
219 388 _m
177 398 144 418 120 447 _c
96 476 85 511 85 553 _c
85 611 105 657 147 691 _c
188 725 245 742 318 742 _c
}_e{390 742 447 725 489 691 _c
530 657 551 611 551 553 _c
551 511 539 476 515 447 _c
491 418 459 398 417 388 _c
464 377 501 355 528 323 _c
554 291 568 251 568 205 _c
568 134 546 80 503 43 _c
459 5 398 -13 318 -13 _c
237 -13 175 5 132 43 _c
89 80 68 134 68 205 _c
68 251 81 291 108 323 _c
134 355 171 377 219 388 _c
183 544 _m
183 506 194 476 218 455 _c
}_e{242 434 275 424 318 424 _c
360 424 393 434 417 455 _c
441 476 453 506 453 544 _c
453 582 441 611 417 632 _c
393 653 360 664 318 664 _c
275 664 242 653 218 632 _c
194 611 183 582 183 544 _c
_cl}_e}_d
/nine{{636 0 63 -13 566 742 _sc
110 15 _m
110 105 _l
134 93 159 84 185 78 _c
210 72 235 69 260 69 _c
324 69 374 90 408 134 _c
442 178 462 244 468 334 _c
448 306 424 284 396 269 _c
367 254 335 247 300 247 _c
226 247 168 269 126 313 _c
84 357 63 417 63 494 _c
63 568 85 628 129 674 _c
173 719 232 742 306 742 _c
390 742 455 709 499 645 _c
543 580 566 486 566 364 _c
}_e{566 248 538 157 484 89 _c
429 21 356 -13 264 -13 _c
239 -13 214 -10 189 -6 _c
163 -2 137 5 110 15 _c
306 324 _m
350 324 385 339 411 369 _c
437 399 450 441 450 494 _c
450 546 437 588 411 618 _c
385 648 350 664 306 664 _c
262 664 227 648 201 618 _c
175 588 162 546 162 494 _c
162 441 175 399 201 369 _c
227 339 262 324 306 324 _c
_cl}_e}_d
/colon{337 0 117 0 220 517 _sc
117 124 _m
220 124 _l
220 0 _l
117 0 _l
117 124 _l
117 517 _m
220 517 _l
220 393 _l
117 393 _l
117 517 _l
_cl}_d
/B{{686 0 98 0 615 729 _sc
197 348 _m
197 81 _l
355 81 _l
408 81 447 92 473 114 _c
498 136 511 169 511 215 _c
511 260 498 293 473 315 _c
447 337 408 348 355 348 _c
197 348 _l
197 648 _m
197 428 _l
343 428 _l
391 428 426 437 450 455 _c
474 473 486 500 486 538 _c
486 574 474 602 450 620 _c
426 638 391 648 343 648 _c
197 648 _l
98 729 _m
350 729 _l
}_e{425 729 483 713 524 682 _c
564 650 585 606 585 549 _c
585 504 574 468 553 442 _c
532 416 502 399 462 393 _c
510 382 548 360 575 327 _c
601 294 615 253 615 204 _c
615 138 592 88 548 53 _c
504 17 441 0 360 0 _c
98 0 _l
98 729 _l
_cl}_e}_d
/C{{698 0 56 -13 644 742 _sc
644 673 _m
644 569 _l
610 599 575 622 537 638 _c
499 653 460 661 418 661 _c
334 661 270 635 226 584 _c
182 533 160 460 160 364 _c
160 268 182 194 226 143 _c
270 92 334 67 418 67 _c
460 67 499 74 537 90 _c
575 105 610 128 644 159 _c
644 56 _l
609 32 572 15 534 4 _c
496 -7 455 -13 412 -13 _c
302 -13 215 20 151 87 _c
}_e{87 154 56 246 56 364 _c
56 481 87 573 151 641 _c
215 708 302 742 412 742 _c
456 742 497 736 535 725 _c
573 713 610 696 644 673 _c
_cl}_e}_d
/D{770 0 98 0 711 729 _sc
197 648 _m
197 81 _l
316 81 _l
416 81 490 103 537 149 _c
583 195 607 267 607 365 _c
607 463 583 534 537 580 _c
490 625 416 648 316 648 _c
197 648 _l
98 729 _m
301 729 _l
442 729 546 699 612 641 _c
678 582 711 490 711 365 _c
711 239 677 147 611 88 _c
545 29 441 0 301 0 _c
98 0 _l
98 729 _l
_cl}_d
/G{{775 0 56 -13 693 742 _sc
595 104 _m
595 300 _l
434 300 _l
434 381 _l
693 381 _l
693 68 _l
655 40 613 20 567 7 _c
521 -6 472 -13 420 -13 _c
306 -13 216 20 152 86 _c
88 152 56 245 56 364 _c
56 482 88 575 152 642 _c
216 708 306 742 420 742 _c
467 742 512 736 555 724 _c
598 712 638 695 674 673 _c
674 568 _l
637 598 598 621 557 637 _c
516 653 473 661 428 661 _c
}_e{338 661 271 636 227 586 _c
182 536 160 462 160 364 _c
160 265 182 191 227 141 _c
271 91 338 67 428 67 _c
462 67 493 70 521 76 _c
549 82 573 91 595 104 _c
_cl}_e}_d
/I{295 0 98 0 197 729 _sc
98 729 _m
197 729 _l
197 0 _l
98 0 _l
98 729 _l
_cl}_d
/P{603 0 98 0 569 729 _sc
197 648 _m
197 374 _l
321 374 _l
367 374 402 385 427 409 _c
452 433 465 467 465 511 _c
465 555 452 588 427 612 _c
402 636 367 648 321 648 _c
197 648 _l
98 729 _m
321 729 _l
402 729 464 710 506 673 _c
548 636 569 582 569 511 _c
569 439 548 384 506 348 _c
464 311 402 293 321 293 _c
197 293 _l
197 0 _l
98 0 _l
98 729 _l
_cl}_d
/R{{695 0 98 0 666 729 _sc
444 342 _m
465 334 486 319 506 296 _c
526 272 546 240 566 199 _c
666 0 _l
560 0 _l
467 187 _l
443 235 419 268 397 284 _c
374 300 343 308 304 308 _c
197 308 _l
197 0 _l
98 0 _l
98 729 _l
321 729 _l
404 729 466 711 507 677 _c
548 642 569 589 569 519 _c
569 473 558 434 537 404 _c
515 374 484 353 444 342 _c
197 648 _m
197 389 _l
321 389 _l
}_e{368 389 404 400 428 422 _c
452 444 465 476 465 519 _c
465 561 452 593 428 615 _c
404 637 368 648 321 648 _c
197 648 _l
_cl}_e}_d
/S{{635 0 66 -13 579 742 _sc
535 705 _m
535 609 _l
497 627 462 640 429 649 _c
395 657 363 662 333 662 _c
279 662 237 651 208 631 _c
179 610 165 580 165 542 _c
165 510 174 485 194 469 _c
213 452 250 439 304 429 _c
364 417 _l
437 403 491 378 526 343 _c
561 307 579 260 579 201 _c
579 130 555 77 508 41 _c
460 5 391 -13 300 -13 _c
265 -13 228 -9 189 -2 _c
}_e{150 5 110 16 69 32 _c
69 134 _l
109 111 148 94 186 83 _c
224 71 262 66 300 66 _c
356 66 399 77 430 99 _c
460 121 476 152 476 194 _c
476 230 465 258 443 278 _c
421 298 385 313 335 323 _c
275 335 _l
201 349 148 372 115 404 _c
82 435 66 478 66 534 _c
66 598 88 649 134 686 _c
179 723 242 742 322 742 _c
356 742 390 739 426 733 _c
461 727 497 717 535 705 _c
}_e{_cl}_e}_d
/U{732 0 87 -13 645 729 _sc
87 729 _m
186 729 _l
186 286 _l
186 208 200 151 228 117 _c
256 83 302 66 366 66 _c
429 66 475 83 503 117 _c
531 151 546 208 546 286 _c
546 729 _l
645 729 _l
645 274 _l
645 178 621 107 574 59 _c
527 11 458 -13 366 -13 _c
274 -13 204 11 157 59 _c
110 107 87 178 87 274 _c
87 729 _l
_cl}_d
/W{989 0 33 0 956 729 _sc
33 729 _m
133 729 _l
286 113 _l
439 729 _l
550 729 _l
703 113 _l
856 729 _l
956 729 _l
773 0 _l
649 0 _l
495 633 _l
340 0 _l
216 0 _l
33 729 _l
_cl}_d
/X{685 0 30 0 654 729 _sc
63 729 _m
169 729 _l
350 458 _l
532 729 _l
638 729 _l
404 379 _l
654 0 _l
548 0 _l
343 310 _l
136 0 _l
30 0 _l
290 389 _l
63 729 _l
_cl}_d
/a{{613 0 60 -13 522 560 _sc
343 275 _m
270 275 220 266 192 250 _c
164 233 150 205 150 165 _c
150 133 160 107 181 89 _c
202 70 231 61 267 61 _c
317 61 357 78 387 114 _c
417 149 432 196 432 255 _c
432 275 _l
343 275 _l
522 312 _m
522 0 _l
432 0 _l
432 83 _l
411 49 385 25 355 10 _c
325 -5 287 -13 243 -13 _c
187 -13 142 2 109 33 _c
76 64 60 106 60 159 _c
}_e{60 220 80 266 122 298 _c
163 329 224 345 306 345 _c
432 345 _l
432 354 _l
432 395 418 427 391 450 _c
364 472 326 484 277 484 _c
245 484 215 480 185 472 _c
155 464 127 453 100 439 _c
100 522 _l
132 534 164 544 195 550 _c
226 556 256 560 286 560 _c
365 560 424 539 463 498 _c
502 457 522 395 522 312 _c
_cl}_e}_d
/c{{550 0 55 -13 488 560 _sc
488 526 _m
488 442 _l
462 456 437 466 411 473 _c
385 480 360 484 334 484 _c
276 484 230 465 198 428 _c
166 391 150 339 150 273 _c
150 206 166 154 198 117 _c
230 80 276 62 334 62 _c
360 62 385 65 411 72 _c
437 79 462 90 488 104 _c
488 21 _l
462 9 436 0 410 -5 _c
383 -10 354 -13 324 -13 _c
242 -13 176 12 128 64 _c
}_e{79 115 55 185 55 273 _c
55 362 79 432 128 483 _c
177 534 244 560 330 560 _c
358 560 385 557 411 551 _c
437 545 463 537 488 526 _c
_cl}_e}_d
/d{{635 0 55 -13 544 760 _sc
454 464 _m
454 760 _l
544 760 _l
544 0 _l
454 0 _l
454 82 _l
435 49 411 25 382 10 _c
353 -5 319 -13 279 -13 _c
213 -13 159 13 117 65 _c
75 117 55 187 55 273 _c
55 359 75 428 117 481 _c
159 533 213 560 279 560 _c
319 560 353 552 382 536 _c
411 520 435 496 454 464 _c
148 273 _m
148 207 161 155 188 117 _c
215 79 253 61 301 61 _c
}_e{348 61 385 79 413 117 _c
440 155 454 207 454 273 _c
454 339 440 390 413 428 _c
385 466 348 485 301 485 _c
253 485 215 466 188 428 _c
161 390 148 339 148 273 _c
_cl}_e}_d
/e{{615 0 55 -13 562 560 _sc
562 296 _m
562 252 _l
149 252 _l
153 190 171 142 205 110 _c
238 78 284 62 344 62 _c
378 62 412 66 444 74 _c
476 82 509 95 541 113 _c
541 28 _l
509 14 476 3 442 -3 _c
408 -9 373 -13 339 -13 _c
251 -13 182 12 131 62 _c
80 112 55 181 55 268 _c
55 357 79 428 127 481 _c
175 533 241 560 323 560 _c
397 560 455 536 498 489 _c
}_e{540 441 562 377 562 296 _c
472 322 _m
471 371 457 410 431 440 _c
404 469 368 484 324 484 _c
274 484 234 469 204 441 _c
174 413 156 373 152 322 _c
472 322 _l
_cl}_e}_d
/f{352 0 23 0 371 760 _sc
371 760 _m
371 685 _l
285 685 _l
253 685 230 678 218 665 _c
205 652 199 629 199 595 _c
199 547 _l
347 547 _l
347 477 _l
199 477 _l
199 0 _l
109 0 _l
109 477 _l
23 477 _l
23 547 _l
109 547 _l
109 585 _l
109 645 123 690 151 718 _c
179 746 224 760 286 760 _c
371 760 _l
_cl}_d
/h{634 0 91 0 549 760 _sc
549 330 _m
549 0 _l
459 0 _l
459 327 _l
459 379 448 417 428 443 _c
408 469 378 482 338 482 _c
289 482 251 466 223 435 _c
195 404 181 362 181 309 _c
181 0 _l
91 0 _l
91 760 _l
181 760 _l
181 462 _l
202 494 227 519 257 535 _c
286 551 320 560 358 560 _c
420 560 468 540 500 501 _c
532 462 549 405 549 330 _c
_cl}_d
/i{278 0 94 0 184 760 _sc
94 547 _m
184 547 _l
184 0 _l
94 0 _l
94 547 _l
94 760 _m
184 760 _l
184 646 _l
94 646 _l
94 760 _l
_cl}_d
/k{579 0 91 0 576 760 _sc
91 760 _m
181 760 _l
181 311 _l
449 547 _l
564 547 _l
274 291 _l
576 0 _l
459 0 _l
181 267 _l
181 0 _l
91 0 _l
91 760 _l
_cl}_d
/l{278 0 94 0 184 760 _sc
94 760 _m
184 760 _l
184 0 _l
94 0 _l
94 760 _l
_cl}_d
/m{{974 0 91 0 889 560 _sc
520 442 _m
542 482 569 511 600 531 _c
631 550 668 560 711 560 _c
767 560 811 540 842 500 _c
873 460 889 403 889 330 _c
889 0 _l
799 0 _l
799 327 _l
799 379 789 418 771 444 _c
752 469 724 482 686 482 _c
639 482 602 466 575 435 _c
548 404 535 362 535 309 _c
535 0 _l
445 0 _l
445 327 _l
445 379 435 418 417 444 _c
398 469 369 482 331 482 _c
}_e{285 482 248 466 221 435 _c
194 404 181 362 181 309 _c
181 0 _l
91 0 _l
91 547 _l
181 547 _l
181 462 _l
201 495 226 520 255 536 _c
283 552 317 560 357 560 _c
397 560 430 550 458 530 _c
486 510 506 480 520 442 _c
_cl}_e}_d
/n{634 0 91 0 549 560 _sc
549 330 _m
549 0 _l
459 0 _l
459 327 _l
459 379 448 417 428 443 _c
408 469 378 482 338 482 _c
289 482 251 466 223 435 _c
195 404 181 362 181 309 _c
181 0 _l
91 0 _l
91 547 _l
181 547 _l
181 462 _l
202 494 227 519 257 535 _c
286 551 320 560 358 560 _c
420 560 468 540 500 501 _c
532 462 549 405 549 330 _c
_cl}_d
/o{612 0 55 -13 557 560 _sc
306 484 _m
258 484 220 465 192 427 _c
164 389 150 338 150 273 _c
150 207 163 156 191 118 _c
219 80 257 62 306 62 _c
354 62 392 80 420 118 _c
448 156 462 207 462 273 _c
462 337 448 389 420 427 _c
392 465 354 484 306 484 _c
306 560 _m
384 560 445 534 490 484 _c
534 433 557 363 557 273 _c
557 183 534 113 490 63 _c
445 12 384 -13 306 -13 _c
227 -13 165 12 121 63 _c
77 113 55 183 55 273 _c
55 363 77 433 121 484 _c
165 534 227 560 306 560 _c
_cl}_d
/p{{635 0 91 -207 580 560 _sc
181 82 _m
181 -207 _l
91 -207 _l
91 547 _l
181 547 _l
181 464 _l
199 496 223 520 252 536 _c
281 552 316 560 356 560 _c
422 560 476 533 518 481 _c
559 428 580 359 580 273 _c
580 187 559 117 518 65 _c
476 13 422 -13 356 -13 _c
316 -13 281 -5 252 10 _c
223 25 199 49 181 82 _c
487 273 _m
487 339 473 390 446 428 _c
418 466 381 485 334 485 _c
}_e{286 485 249 466 222 428 _c
194 390 181 339 181 273 _c
181 207 194 155 222 117 _c
249 79 286 61 334 61 _c
381 61 418 79 446 117 _c
473 155 487 207 487 273 _c
_cl}_e}_d
/r{411 0 91 0 411 560 _sc
411 463 _m
401 469 390 473 378 476 _c
366 478 353 480 339 480 _c
288 480 249 463 222 430 _c
194 397 181 350 181 288 _c
181 0 _l
91 0 _l
91 547 _l
181 547 _l
181 462 _l
199 495 224 520 254 536 _c
284 552 321 560 365 560 _c
371 560 378 559 386 559 _c
393 558 401 557 411 555 _c
411 463 _l
_cl}_d
/s{{521 0 54 -13 472 560 _sc
443 531 _m
443 446 _l
417 458 391 468 364 475 _c
336 481 308 485 279 485 _c
234 485 200 478 178 464 _c
156 450 145 430 145 403 _c
145 382 153 366 169 354 _c
185 342 217 330 265 320 _c
296 313 _l
360 299 405 279 432 255 _c
458 230 472 195 472 151 _c
472 100 452 60 412 31 _c
372 1 316 -13 246 -13 _c
216 -13 186 -10 154 -5 _c
}_e{122 0 89 8 54 20 _c
54 113 _l
87 95 120 82 152 74 _c
184 65 216 61 248 61 _c
290 61 323 68 346 82 _c
368 96 380 117 380 144 _c
380 168 371 187 355 200 _c
339 213 303 226 247 238 _c
216 245 _l
160 257 119 275 95 299 _c
70 323 58 356 58 399 _c
58 450 76 490 112 518 _c
148 546 200 560 268 560 _c
301 560 332 557 362 552 _c
391 547 418 540 443 531 _c
}_e{_cl}_e}_d
/t{392 0 27 0 368 702 _sc
183 702 _m
183 547 _l
368 547 _l
368 477 _l
183 477 _l
183 180 _l
183 135 189 106 201 94 _c
213 81 238 75 276 75 _c
368 75 _l
368 0 _l
276 0 _l
206 0 158 13 132 39 _c
106 65 93 112 93 180 _c
93 477 _l
27 477 _l
27 547 _l
93 547 _l
93 702 _l
183 702 _l
_cl}_d
/u{634 0 85 -13 543 560 _sc
85 216 _m
85 547 _l
175 547 _l
175 219 _l
175 167 185 129 205 103 _c
225 77 255 64 296 64 _c
344 64 383 79 411 110 _c
439 141 453 183 453 237 _c
453 547 _l
543 547 _l
543 0 _l
453 0 _l
453 84 _l
431 50 405 26 377 10 _c
348 -5 315 -13 277 -13 _c
214 -13 166 6 134 45 _c
101 83 85 140 85 216 _c
311 560 _m
311 560 _l
_cl}_d
/w{818 0 42 0 776 547 _sc
42 547 _m
132 547 _l
244 120 _l
356 547 _l
462 547 _l
574 120 _l
686 547 _l
776 547 _l
633 0 _l
527 0 _l
409 448 _l
291 0 _l
185 0 _l
42 547 _l
_cl}_d
end readonly def

/BuildGlyph
 {exch begin
 CharStrings exch
 2 copy known not{pop /.notdef}if
 true 3 1 roll get exec
 end}_d

/BuildChar {
 1 index /Encoding get exch get
 1 index /BuildGlyph get exec
}_d

FontName currentdict end definefont pop
end
%%EndProlog
mpldict begin
-234 36 translate
1080 720 0 0 clipbox
gsave
0 0 m
1080 0 l
1080 720 l
0 720 l
cl
1.000 setgray
fill
grestore
gsave
135 79.2 m
972 79.2 l
972 633.6 l
135 633.6 l
cl
1.000 setgray
fill
grestore
0.800 setlinewidth
1 setlinejoin
0 setlinecap
[] 0 setdash
0.000 setgray
gsave
/o {
gsave
newpath
translate
0.8 setlinewidth
1 setlinejoin
0 setlinecap
0 0 m
0 -3.5 l

gsave
0.000 setgray
fill
grestore
stroke
grestore
} bind def
144.349 79.2 o
grestore
gsave
133.348872 62.700000 translate
0.000000 rotate
/DejaVuSans findfont
12.0 scalefont
setfont
0.000000 0.281250 moveto
/one glyphshow
7.634766 0.281250 moveto
/zero glyphshow
/DejaVuSans findfont
8.399999999999999 scalefont
setfont
15.384375 4.875000 moveto
/five glyphshow

grestore
gsave
/o {
gsave
newpath
translate
0.8 setlinewidth
1 setlinejoin
0 setlinecap
0 0 m
0 -3.5 l

gsave
0.000 setgray
fill
grestore
stroke
grestore
} bind def
397.985 79.2 o
grestore
gsave
386.984811 62.700000 translate
0.000000 rotate
/DejaVuSans findfont
12.0 scalefont
setfont
0.000000 0.171875 moveto
/one glyphshow
7.634766 0.171875 moveto
/zero glyphshow
/DejaVuSans findfont
8.399999999999999 scalefont
setfont
15.384375 4.765625 moveto
/six glyphshow

grestore
gsave
/o {
gsave
newpath
translate
0.8 setlinewidth
1 setlinejoin
0 setlinecap
0 0 m
0 -3.5 l

gsave
0.000 setgray
fill
grestore
stroke
grestore
} bind def
651.621 79.2 o
grestore
gsave
640.620751 62.700000 translate
0.000000 rotate
/DejaVuSans findfont
12.0 scalefont
setfont
0.000000 0.281250 moveto
/one glyphshow
7.634766 0.281250 moveto
/zero glyphshow
/DejaVuSans findfont
8.399999999999999 scalefont
setfont
15.384375 4.875000 moveto
/seven glyphshow

grestore
gsave
/o {
gsave
newpath
translate
0.8 setlinewidth
1 setlinejoin
0 setlinecap
0 0 m
0 -3.5 l

gsave
0.000 setgray
fill
grestore
stroke
grestore
} bind def
905.257 79.2 o
grestore
gsave
894.256690 62.700000 translate
0.000000 rotate
/DejaVuSans findfont
12.0 scalefont
setfont
0.000000 0.171875 moveto
/one glyphshow
7.634766 0.171875 moveto
/zero glyphshow
/DejaVuSans findfont
8.399999999999999 scalefont
setfont
15.384375 4.765625 moveto
/eight glyphshow

grestore
0.600 setlinewidth
gsave
/o {
gsave
newpath
translate
0.6 setlinewidth
1 setlinejoin
0 setlinecap
0 0 m
0 -2 l

gsave
0.000 setgray
fill
grestore
stroke
grestore
} bind def
220.701 79.2 o
grestore
gsave
/o {
gsave
newpath
translate
0.6 setlinewidth
1 setlinejoin
0 setlinecap
0 0 m
0 -2 l

gsave
0.000 setgray
fill
grestore
stroke
grestore
} bind def
265.364 79.2 o
grestore
gsave
/o {
gsave
newpath
translate
0.6 setlinewidth
1 setlinejoin
0 setlinecap
0 0 m
0 -2 l

gsave
0.000 setgray
fill
grestore
stroke
grestore
} bind def
297.053 79.2 o
grestore
gsave
/o {
gsave
newpath
translate
0.6 setlinewidth
1 setlinejoin
0 setlinecap
0 0 m
0 -2 l

gsave
0.000 setgray
fill
grestore
stroke
grestore
} bind def
321.633 79.2 o
grestore
gsave
/o {
gsave
newpath
translate
0.6 setlinewidth
1 setlinejoin
0 setlinecap
0 0 m
0 -2 l

gsave
0.000 setgray
fill
grestore
stroke
grestore
} bind def
341.716 79.2 o
grestore
gsave
/o {
gsave
newpath
translate
0.6 setlinewidth
1 setlinejoin
0 setlinecap
0 0 m
0 -2 l

gsave
0.000 setgray
fill
grestore
stroke
grestore
} bind def
358.696 79.2 o
grestore
gsave
/o {
gsave
newpath
translate
0.6 setlinewidth
1 setlinejoin
0 setlinecap
0 0 m
0 -2 l

gsave
0.000 setgray
fill
grestore
stroke
grestore
} bind def
373.405 79.2 o
grestore
gsave
/o {
gsave
newpath
translate
0.6 setlinewidth
1 setlinejoin
0 setlinecap
0 0 m
0 -2 l

gsave
0.000 setgray
fill
grestore
stroke
grestore
} bind def
386.379 79.2 o
grestore
gsave
/o {
gsave
newpath
translate
0.6 setlinewidth
1 setlinejoin
0 setlinecap
0 0 m
0 -2 l

gsave
0.000 setgray
fill
grestore
stroke
grestore
} bind def
474.337 79.2 o
grestore
gsave
/o {
gsave
newpath
translate
0.6 setlinewidth
1 setlinejoin
0 setlinecap
0 0 m
0 -2 l

gsave
0.000 setgray
fill
grestore
stroke
grestore
} bind def
519 79.2 o
grestore
gsave
/o {
gsave
newpath
translate
0.6 setlinewidth
1 setlinejoin
0 setlinecap
0 0 m
0 -2 l

gsave
0.000 setgray
fill
grestore
stroke
grestore
} bind def
550.689 79.2 o
grestore
gsave
/o {
gsave
newpath
translate
0.6 setlinewidth
1 setlinejoin
0 setlinecap
0 0 m
0 -2 l

gsave
0.000 setgray
fill
grestore
stroke
grestore
} bind def
575.269 79.2 o
grestore
gsave
/o {
gsave
newpath
translate
0.6 setlinewidth
1 setlinejoin
0 setlinecap
0 0 m
0 -2 l

gsave
0.000 setgray
fill
grestore
stroke
grestore
} bind def
595.352 79.2 o
grestore
gsave
/o {
gsave
newpath
translate
0.6 setlinewidth
1 setlinejoin
0 setlinecap
0 0 m
0 -2 l

gsave
0.000 setgray
fill
grestore
stroke
grestore
} bind def
612.332 79.2 o
grestore
gsave
/o {
gsave
newpath
translate
0.6 setlinewidth
1 setlinejoin
0 setlinecap
0 0 m
0 -2 l

gsave
0.000 setgray
fill
grestore
stroke
grestore
} bind def
627.041 79.2 o
grestore
gsave
/o {
gsave
newpath
translate
0.6 setlinewidth
1 setlinejoin
0 setlinecap
0 0 m
0 -2 l

gsave
0.000 setgray
fill
grestore
stroke
grestore
} bind def
640.015 79.2 o
grestore
gsave
/o {
gsave
newpath
translate
0.6 setlinewidth
1 setlinejoin
0 setlinecap
0 0 m
0 -2 l

gsave
0.000 setgray
fill
grestore
stroke
grestore
} bind def
727.973 79.2 o
grestore
gsave
/o {
gsave
newpath
translate
0.6 setlinewidth
1 setlinejoin
0 setlinecap
0 0 m
0 -2 l

gsave
0.000 setgray
fill
grestore
stroke
grestore
} bind def
772.636 79.2 o
grestore
gsave
/o {
gsave
newpath
translate
0.6 setlinewidth
1 setlinejoin
0 setlinecap
0 0 m
0 -2 l

gsave
0.000 setgray
fill
grestore
stroke
grestore
} bind def
804.325 79.2 o
grestore
gsave
/o {
gsave
newpath
translate
0.6 setlinewidth
1 setlinejoin
0 setlinecap
0 0 m
0 -2 l

gsave
0.000 setgray
fill
grestore
stroke
grestore
} bind def
828.905 79.2 o
grestore
gsave
/o {
gsave
newpath
translate
0.6 setlinewidth
1 setlinejoin
0 setlinecap
0 0 m
0 -2 l

gsave
0.000 setgray
fill
grestore
stroke
grestore
} bind def
848.988 79.2 o
grestore
gsave
/o {
gsave
newpath
translate
0.6 setlinewidth
1 setlinejoin
0 setlinecap
0 0 m
0 -2 l

gsave
0.000 setgray
fill
grestore
stroke
grestore
} bind def
865.968 79.2 o
grestore
gsave
/o {
gsave
newpath
translate
0.6 setlinewidth
1 setlinejoin
0 setlinecap
0 0 m
0 -2 l

gsave
0.000 setgray
fill
grestore
stroke
grestore
} bind def
880.677 79.2 o
grestore
gsave
/o {
gsave
newpath
translate
0.6 setlinewidth
1 setlinejoin
0 setlinecap
0 0 m
0 -2 l

gsave
0.000 setgray
fill
grestore
stroke
grestore
} bind def
893.651 79.2 o
grestore
/DejaVuSans findfont
12.000 scalefont
setfont
gsave
528.460938 47.075000 translate
0.000000 rotate
0.000000 0 m /D glyphshow
9.240234 0 m /a glyphshow
16.593750 0 m /t glyphshow
21.298828 0 m /a glyphshow
28.652344 0 m /space glyphshow
32.466797 0 m /parenleft glyphshow
37.148438 0 m /B glyphshow
45.380859 0 m /parenright glyphshow
grestore
0.800 setlinewidth
gsave
/o {
gsave
newpath
translate
0.8 setlinewidth
1 setlinejoin
0 setlinecap
-0 0 m
-3.5 0 l

gsave
0.000 setgray
fill
grestore
stroke
grestore
} bind def
135 79.2 o
grestore
gsave
120.359375 74.637500 translate
0.000000 rotate
0.000000 0 m /zero glyphshow
grestore
gsave
/o {
gsave
newpath
translate
0.8 setlinewidth
1 setlinejoin
0 setlinecap
-0 0 m
-3.5 0 l

gsave
0.000 setgray
fill
grestore
stroke
grestore
} bind def
135 134.64 o
grestore
gsave
120.359375 130.077500 translate
0.000000 rotate
0.000000 0 m /five glyphshow
grestore
gsave
/o {
gsave
newpath
translate
0.8 setlinewidth
1 setlinejoin
0 setlinecap
-0 0 m
-3.5 0 l

gsave
0.000 setgray
fill
grestore
stroke
grestore
} bind def
135 190.08 o
grestore
gsave
112.718750 185.517500 translate
0.000000 rotate
0.000000 0 m /one glyphshow
7.634766 0 m /zero glyphshow
grestore
gsave
/o {
gsave
newpath
translate
0.8 setlinewidth
1 setlinejoin
0 setlinecap
-0 0 m
-3.5 0 l

gsave
0.000 setgray
fill
grestore
stroke
grestore
} bind def
135 245.52 o
grestore
gsave
112.718750 240.957500 translate
0.000000 rotate
0.000000 0 m /one glyphshow
7.634766 0 m /five glyphshow
grestore
gsave
/o {
gsave
newpath
translate
0.8 setlinewidth
1 setlinejoin
0 setlinecap
-0 0 m
-3.5 0 l

gsave
0.000 setgray
fill
grestore
stroke
grestore
} bind def
135 300.96 o
grestore
gsave
112.718750 296.397500 translate
0.000000 rotate
0.000000 0 m /two glyphshow
7.634766 0 m /zero glyphshow
grestore
gsave
/o {
gsave
newpath
translate
0.8 setlinewidth
1 setlinejoin
0 setlinecap
-0 0 m
-3.5 0 l

gsave
0.000 setgray
fill
grestore
stroke
grestore
} bind def
135 356.4 o
grestore
gsave
112.718750 351.837500 translate
0.000000 rotate
0.000000 0 m /two glyphshow
7.634766 0 m /five glyphshow
grestore
gsave
/o {
gsave
newpath
translate
0.8 setlinewidth
1 setlinejoin
0 setlinecap
-0 0 m
-3.5 0 l

gsave
0.000 setgray
fill
grestore
stroke
grestore
} bind def
135 411.84 o
grestore
gsave
112.718750 407.277500 translate
0.000000 rotate
0.000000 0 m /three glyphshow
7.634766 0 m /zero glyphshow
grestore
gsave
/o {
gsave
newpath
translate
0.8 setlinewidth
1 setlinejoin
0 setlinecap
-0 0 m
-3.5 0 l

gsave
0.000 setgray
fill
grestore
stroke
grestore
} bind def
135 467.28 o
grestore
gsave
112.718750 462.717500 translate
0.000000 rotate
0.000000 0 m /three glyphshow
7.634766 0 m /five glyphshow
grestore
gsave
/o {
gsave
newpath
translate
0.8 setlinewidth
1 setlinejoin
0 setlinecap
-0 0 m
-3.5 0 l

gsave
0.000 setgray
fill
grestore
stroke
grestore
} bind def
135 522.72 o
grestore
gsave
112.718750 518.157500 translate
0.000000 rotate
0.000000 0 m /four glyphshow
7.634766 0 m /zero glyphshow
grestore
gsave
/o {
gsave
newpath
translate
0.8 setlinewidth
1 setlinejoin
0 setlinecap
-0 0 m
-3.5 0 l

gsave
0.000 setgray
fill
grestore
stroke
grestore
} bind def
135 578.16 o
grestore
gsave
112.718750 573.597500 translate
0.000000 rotate
0.000000 0 m /four glyphshow
7.634766 0 m /five glyphshow
grestore
gsave
106.218750 302.150000 translate
90.000000 rotate
0.000000 0 m /B glyphshow
8.232422 0 m /a glyphshow
15.585938 0 m /n glyphshow
23.191406 0 m /d glyphshow
30.808594 0 m /w glyphshow
40.623047 0 m /i glyphshow
43.957031 0 m /d glyphshow
51.574219 0 m /t glyphshow
56.279297 0 m /h glyphshow
63.884766 0 m /space glyphshow
67.699219 0 m /parenleft glyphshow
72.380859 0 m /G glyphshow
81.679688 0 m /B glyphshow
89.912109 0 m /p glyphshow
97.529297 0 m /s glyphshow
103.781250 0 m /parenright glyphshow
grestore
1.500 setlinewidth
2 setlinecap
0.500 0.000 1.000 setrgbcolor
gsave
837 554.4 135 79.2 clipbox
173.045455 145.568111 m
178.671777 149.935342 l
184.637615 146.305241 l
190.933768 144.011578 l
197.625317 143.279548 l
204.725919 143.803012 l
212.327367 144.464855 l
220.480372 142.071732 l
229.300687 141.960076 l
238.895412 139.538013 l
249.39748 140.994976 l
260.989641 139.718526 l
273.977342 140.132884 l
288.679393 138.28396 l
305.662901 137.649505 l
325.749506 136.844073 l
350.329368 136.747718 l
382.014926 135.682826 l
426.681394 135.447872 l
432.3303 135.56485 l
438.28578 135.808453 l
444.58414 135.440554 l
451.261256 135.620068 l
458.369499 135.364601 l
465.970437 135.23975 l
474.133969 135.313042 l
482.950889 135.11246 l
492.535086 134.58711 l
503.033419 134.333195 l
514.639333 134.42323 l
527.613282 133.909633 l
542.322463 133.270632 l
545.51545 133.758948 l
548.804649 133.909301 l
552.19423 133.483632 l
555.691231 133.115067 l
559.302914 133.11041 l
563.037499 133.053751 l
566.902801 133.195677 l
570.90876 133.41533 l
575.065857 133.35102 l
579.386506 133.637312 l
583.882777 133.753404 l
588.570366 134.403826 l
593.467908 133.063286 l
598.591873 133.07504 l
603.966156 132.045297 l
609.615826 132.510106 l
615.571985 131.713433 l
621.868053 131.531257 l
628.546528 131.69414 l
635.654686 131.249179 l
643.254945 131.138077 l
651.417883 129.965299 l
660.235312 132.294999 l
669.819934 130.662291 l
680.318182 131.063344 l
691.924011 129.852423 l
704.898214 129.855639 l
719.606971 129.942458 l
736.587337 129.396374 l
756.67042 130.531563 l
781.250239 129.183595 l
812.939236 126.915434 l
857.602095 126.546314 l
933.954545 126.458387 l
stroke
grestore
1.000 setlinewidth
0 setlinecap
gsave
837 554.4 135 79.2 clipbox
/o {
gsave
newpath
translate
1.0 setlinewidth
1 setlinejoin
0 setlinecap
0 -1.5 m
0.397805 -1.5 0.77937 -1.341951 1.06066 -1.06066 c
1.341951 -0.77937 1.5 -0.397805 1.5 0 c
1.5 0.397805 1.341951 0.77937 1.06066 1.06066 c
0.77937 1.341951 0.397805 1.5 0 1.5 c
-0.397805 1.5 -0.77937 1.341951 -1.06066 1.06066 c
-1.341951 0.77937 -1.5 0.397805 -1.5 0 c
-1.5 -0.397805 -1.341951 -0.77937 -1.06066 -1.06066 c
-0.77937 -1.341951 -0.397805 -1.5 0 -1.5 c
cl

gsave
0.500 0.000 1.000 setrgbcolor
fill
grestore
stroke
grestore
} bind def
173.045 145.568 o
178.672 149.935 o
184.638 146.305 o
190.934 144.012 o
197.625 143.28 o
204.726 143.803 o
212.327 144.465 o
220.48 142.072 o
229.301 141.96 o
238.895 139.538 o
249.397 140.995 o
260.99 139.719 o
273.977 140.133 o
288.679 138.284 o
305.663 137.65 o
325.75 136.844 o
350.329 136.748 o
382.015 135.683 o
426.681 135.448 o
432.33 135.565 o
438.286 135.808 o
444.584 135.441 o
451.261 135.62 o
458.369 135.365 o
465.97 135.24 o
474.134 135.313 o
482.951 135.112 o
492.535 134.587 o
503.033 134.333 o
514.639 134.423 o
527.613 133.91 o
542.322 133.271 o
545.515 133.759 o
548.805 133.909 o
552.194 133.484 o
555.691 133.115 o
559.303 133.11 o
563.037 133.054 o
566.903 133.196 o
570.909 133.415 o
575.066 133.351 o
579.387 133.637 o
583.883 133.753 o
588.57 134.404 o
593.468 133.063 o
598.592 133.075 o
603.966 132.045 o
609.616 132.51 o
615.572 131.713 o
621.868 131.531 o
628.547 131.694 o
635.655 131.249 o
643.255 131.138 o
651.418 129.965 o
660.235 132.295 o
669.82 130.662 o
680.318 131.063 o
691.924 129.852 o
704.898 129.856 o
719.607 129.942 o
736.587 129.396 o
756.67 130.532 o
781.25 129.184 o
812.939 126.915 o
857.602 126.546 o
933.955 126.458 o
grestore
1.500 setlinewidth
2 setlinecap
0.100 0.588 0.951 setrgbcolor
gsave
837 554.4 135 79.2 clipbox
173.045455 146.855539 m
178.671777 147.936397 l
184.637615 145.791534 l
190.933768 145.180142 l
197.625317 145.069151 l
204.725919 144.520739 l
212.327367 143.593227 l
220.480372 142.982279 l
229.300687 141.839106 l
238.895412 140.546245 l
249.39748 141.873146 l
260.989641 140.253078 l
273.977342 140.92235 l
288.679393 139.23642 l
305.662901 140.437028 l
325.749506 139.422033 l
350.329368 138.482768 l
382.014926 136.911377 l
426.681394 136.747385 l
432.3303 136.21117 l
438.28578 136.541703 l
444.58414 136.185445 l
451.261256 136.408536 l
458.369499 136.050948 l
465.970437 135.996839 l
474.133969 136.020345 l
482.950889 135.856797 l
492.535086 135.333665 l
503.033419 135.217685 l
514.639333 135.10747 l
527.613282 134.740014 l
542.322463 134.252253 l
545.51545 134.073181 l
548.804649 134.039807 l
552.19423 134.503839 l
555.691231 134.23551 l
559.302914 134.06542 l
563.037499 134.600194 l
566.902801 134.118531 l
570.90876 134.576355 l
575.065857 134.510603 l
579.386506 134.657297 l
583.882777 134.698545 l
588.570366 135.337879 l
593.467908 133.341928 l
598.591873 133.663147 l
603.966156 132.503564 l
609.615826 132.757923 l
615.571985 131.327571 l
621.868053 131.476594 l
628.546528 131.572616 l
635.654686 130.343178 l
643.254945 130.598424 l
651.417883 129.226617 l
660.235312 131.954486 l
669.819934 129.571564 l
680.318182 130.218438 l
691.924011 127.785509 l
704.898214 130.472686 l
719.606971 127.27657 l
736.587337 129.223734 l
756.67042 128.288239 l
781.250239 129.832908 l
812.939236 126.805108 l
857.602095 126.612732 l
933.954545 126.760756 l
stroke
grestore
1.000 setlinewidth
0 setlinecap
gsave
837 554.4 135 79.2 clipbox
/o {
gsave
newpath
translate
1.0 setlinewidth
1 setlinejoin
0 setlinecap
0 -3 m
0.795609 -3 1.55874 -2.683901 2.12132 -2.12132 c
2.683901 -1.55874 3 -0.795609 3 0 c
3 0.795609 2.683901 1.55874 2.12132 2.12132 c
1.55874 2.683901 0.795609 3 0 3 c
-0.795609 3 -1.55874 2.683901 -2.12132 2.12132 c
-2.683901 1.55874 -3 0.795609 -3 0 c
-3 -0.795609 -2.683901 -1.55874 -2.12132 -2.12132 c
-1.55874 -2.683901 -0.795609 -3 0 -3 c
cl

gsave
0.100 0.588 0.951 setrgbcolor
fill
grestore
stroke
grestore
} bind def
173.045 146.856 o
178.672 147.936 o
184.638 145.792 o
190.934 145.18 o
197.625 145.069 o
204.726 144.521 o
212.327 143.593 o
220.48 142.982 o
229.301 141.839 o
238.895 140.546 o
249.397 141.873 o
260.99 140.253 o
273.977 140.922 o
288.679 139.236 o
305.663 140.437 o
325.75 139.422 o
350.329 138.483 o
382.015 136.911 o
426.681 136.747 o
432.33 136.211 o
438.286 136.542 o
444.584 136.185 o
451.261 136.409 o
458.369 136.051 o
465.97 135.997 o
474.134 136.02 o
482.951 135.857 o
492.535 135.334 o
503.033 135.218 o
514.639 135.107 o
527.613 134.74 o
542.322 134.252 o
545.515 134.073 o
548.805 134.04 o
552.194 134.504 o
555.691 134.236 o
559.303 134.065 o
563.037 134.6 o
566.903 134.119 o
570.909 134.576 o
575.066 134.511 o
579.387 134.657 o
583.883 134.699 o
588.57 135.338 o
593.468 133.342 o
598.592 133.663 o
603.966 132.504 o
609.616 132.758 o
615.572 131.328 o
621.868 131.477 o
628.547 131.573 o
635.655 130.343 o
643.255 130.598 o
651.418 129.227 o
660.235 131.954 o
669.82 129.572 o
680.318 130.218 o
691.924 127.786 o
704.898 130.473 o
719.607 127.277 o
736.587 129.224 o
756.67 128.288 o
781.25 129.833 o
812.939 126.805 o
857.602 126.613 o
933.955 126.761 o
grestore
1.500 setlinewidth
2 setlinecap
0.300 0.951 0.809 setrgbcolor
gsave
837 554.4 135 79.2 clipbox
173.045455 144.781639 m
178.671777 145.332158 l
184.637615 144.465964 l
190.933768 143.699672 l
197.625317 142.501503 l
204.725919 142.73047 l
212.327367 143.372133 l
220.480372 141.72756 l
229.300687 141.541836 l
238.895412 139.661866 l
249.39748 142.183499 l
260.989641 140.746716 l
273.977342 140.324485 l
288.679393 138.213995 l
305.662901 138.681687 l
325.749506 137.674342 l
350.329368 137.610364 l
382.014926 136.639277 l
426.681394 136.332694 l
432.3303 136.282133 l
438.28578 136.684295 l
444.58414 136.440913 l
451.261256 135.847483 l
458.369499 136.384808 l
465.970437 136.347552 l
474.133969 136.197642 l
482.950889 135.792708 l
492.535086 135.707109 l
503.033419 135.542896 l
514.639333 135.13397 l
527.613282 134.802661 l
542.322463 135.266361 l
545.51545 134.401719 l
548.804649 135.071434 l
552.19423 134.638891 l
555.691231 135.019875 l
559.302914 134.662287 l
563.037499 134.630464 l
566.902801 135.004019 l
570.90876 134.610617 l
575.065857 135.028413 l
579.386506 134.787138 l
583.882777 135.210588 l
588.570366 135.636257 l
593.467908 133.888344 l
598.591873 133.958642 l
603.966156 133.040445 l
609.615826 132.776772 l
615.571985 131.663094 l
621.868053 131.745699 l
628.546528 131.53414 l
635.654686 130.333532 l
643.254945 131.212477 l
651.417883 129.337829 l
660.235312 132.489704 l
669.819934 130.479782 l
680.318182 130.340628 l
691.924011 128.1737 l
704.898214 128.502348 l
719.606971 128.017359 l
736.587337 129.770483 l
756.67042 129.589083 l
781.250239 128.727546 l
812.939236 127.80192 l
857.602095 126.418248 l
933.954545 127.098053 l
stroke
grestore
1.000 setlinewidth
2 setlinejoin
0 setlinecap
gsave
837 554.4 135 79.2 clipbox
/o {
gsave
newpath
translate
1.0 setlinewidth
2 setlinejoin
0 setlinecap
0 3 m
-0.673542 0.927051 l
-2.85317 0.927051 l
-1.089814 -0.354102 l
-1.763356 -2.427051 l
-0 -1.145898 l
1.763356 -2.427051 l
1.089814 -0.354102 l
2.85317 0.927051 l
0.673542 0.927051 l
cl

gsave
0.300 0.951 0.809 setrgbcolor
fill
grestore
stroke
grestore
} bind def
173.045 144.782 o
178.672 145.332 o
184.638 144.466 o
190.934 143.7 o
197.625 142.502 o
204.726 142.73 o
212.327 143.372 o
220.48 141.728 o
229.301 141.542 o
238.895 139.662 o
249.397 142.183 o
260.99 140.747 o
273.977 140.324 o
288.679 138.214 o
305.663 138.682 o
325.75 137.674 o
350.329 137.61 o
382.015 136.639 o
426.681 136.333 o
432.33 136.282 o
438.286 136.684 o
444.584 136.441 o
451.261 135.847 o
458.369 136.385 o
465.97 136.348 o
474.134 136.198 o
482.951 135.793 o
492.535 135.707 o
503.033 135.543 o
514.639 135.134 o
527.613 134.803 o
542.322 135.266 o
545.515 134.402 o
548.805 135.071 o
552.194 134.639 o
555.691 135.02 o
559.303 134.662 o
563.037 134.63 o
566.903 135.004 o
570.909 134.611 o
575.066 135.028 o
579.387 134.787 o
583.883 135.211 o
588.57 135.636 o
593.468 133.888 o
598.592 133.959 o
603.966 133.04 o
609.616 132.777 o
615.572 131.663 o
621.868 131.746 o
628.547 131.534 o
635.655 130.334 o
643.255 131.212 o
651.418 129.338 o
660.235 132.49 o
669.82 130.48 o
680.318 130.341 o
691.924 128.174 o
704.898 128.502 o
719.607 128.017 o
736.587 129.77 o
756.67 129.589 o
781.25 128.728 o
812.939 127.802 o
857.602 126.418 o
933.955 127.098 o
grestore
1.500 setlinewidth
1 setlinejoin
2 setlinecap
0.700 0.951 0.588 setrgbcolor
gsave
837 554.4 135 79.2 clipbox
173.045455 143.256041 m
178.671777 140.736293 l
184.637615 143.352729 l
190.933768 143.497538 l
197.625317 142.243485 l
204.725919 141.647283 l
212.327367 142.529223 l
220.480372 141.516334 l
229.300687 141.195336 l
238.895412 139.295519 l
249.39748 140.842738 l
260.989641 140.708241 l
273.977342 140.608892 l
288.679393 138.67825 l
305.662901 140.154949 l
325.749506 138.224529 l
350.329368 137.554148 l
382.014926 136.67365 l
426.681394 136.498238 l
432.3303 136.592486 l
438.28578 136.631848 l
444.58414 136.410199 l
451.261256 136.250199 l
458.369499 135.817546 l
465.970437 135.842604 l
474.133969 136.071904 l
482.950889 135.545113 l
492.535086 136.327483 l
503.033419 135.542896 l
514.639333 134.986722 l
527.613282 134.554068 l
542.322463 134.442966 l
545.51545 134.547193 l
548.804649 135.095717 l
552.19423 134.609175 l
555.691231 134.458157 l
559.302914 134.738572 l
563.037499 134.634789 l
566.902801 134.914872 l
570.90876 134.947027 l
575.065857 135.126431 l
579.386506 134.916978 l
583.882777 135.006015 l
588.570366 135.575273 l
593.467908 133.781789 l
598.591873 133.749523 l
603.966156 133.083799 l
609.615826 133.020043 l
615.571985 131.802692 l
621.868053 131.781846 l
628.546528 131.411729 l
635.654686 130.482554 l
643.254945 131.015555 l
651.417883 129.222071 l
660.235312 131.196954 l
669.819934 129.689873 l
680.318182 129.774475 l
691.924011 127.764331 l
704.898214 130.860544 l
719.606971 128.180353 l
736.587337 129.599839 l
756.67042 129.098994 l
781.250239 128.728987 l
812.939236 128.139106 l
857.602095 126.668172 l
933.954545 128.832327 l
stroke
grestore
1.000 setlinewidth
0 setlinejoin
0 setlinecap
gsave
837 554.4 135 79.2 clipbox
/o {
gsave
newpath
translate
1.0 setlinewidth
0 setlinejoin
0 setlinecap
3 -0 m
-3 3 l
-3 -3 l
cl

gsave
0.700 0.951 0.588 setrgbcolor
fill
grestore
stroke
grestore
} bind def
173.045 143.256 o
178.672 140.736 o
184.638 143.353 o
190.934 143.498 o
197.625 142.243 o
204.726 141.647 o
212.327 142.529 o
220.48 141.516 o
229.301 141.195 o
238.895 139.296 o
249.397 140.843 o
260.99 140.708 o
273.977 140.609 o
288.679 138.678 o
305.663 140.155 o
325.75 138.225 o
350.329 137.554 o
382.015 136.674 o
426.681 136.498 o
432.33 136.592 o
438.286 136.632 o
444.584 136.41 o
451.261 136.25 o
458.369 135.818 o
465.97 135.843 o
474.134 136.072 o
482.951 135.545 o
492.535 136.327 o
503.033 135.543 o
514.639 134.987 o
527.613 134.554 o
542.322 134.443 o
545.515 134.547 o
548.805 135.096 o
552.194 134.609 o
555.691 134.458 o
559.303 134.739 o
563.037 134.635 o
566.903 134.915 o
570.909 134.947 o
575.066 135.126 o
579.387 134.917 o
583.883 135.006 o
588.57 135.575 o
593.468 133.782 o
598.592 133.75 o
603.966 133.084 o
609.616 133.02 o
615.572 131.803 o
621.868 131.782 o
628.547 131.412 o
635.655 130.483 o
643.255 131.016 o
651.418 129.222 o
660.235 131.197 o
669.82 129.69 o
680.318 129.774 o
691.924 127.764 o
704.898 130.861 o
719.607 128.18 o
736.587 129.6 o
756.67 129.099 o
781.25 128.729 o
812.939 128.139 o
857.602 126.668 o
933.955 128.832 o
grestore
1.500 setlinewidth
1 setlinejoin
2 setlinecap
1.000 0.588 0.309 setrgbcolor
gsave
837 554.4 135 79.2 clipbox
173.045455 140.255739 m
178.671777 137.482409 l
184.637615 140.070015 l
190.933768 140.286342 l
197.625317 140.81269 l
204.725919 139.754784 l
212.327367 139.234202 l
220.480372 139.138734 l
229.300687 139.290085 l
238.895412 138.242602 l
249.39748 137.565347 l
260.989641 137.90974 l
273.977342 137.539956 l
288.679393 138.188604 l
305.662901 137.362437 l
325.749506 136.964932 l
350.329368 136.633955 l
382.014926 136.552902 l
426.681394 136.272264 l
432.3303 136.066915 l
438.28578 136.010699 l
444.58414 136.171475 l
451.261256 136.356755 l
458.369499 136.166152 l
465.970437 136.032098 l
474.133969 135.862119 l
482.950889 135.960803 l
492.535086 135.504642 l
503.033419 135.556423 l
514.639333 134.846459 l
527.613282 135.320471 l
542.322463 134.392072 l
545.51545 135.870324 l
548.804649 135.155814 l
552.19423 134.551185 l
555.691231 134.442966 l
559.302914 134.901455 l
563.037499 134.315898 l
566.902801 134.742453 l
570.90876 134.865419 l
575.065857 134.80255 l
579.386506 135.063451 l
583.882777 134.732917 l
588.570366 135.376465 l
593.467908 133.720361 l
598.591873 133.220958 l
603.966156 132.44757 l
609.615826 132.443578 l
615.571985 131.635152 l
621.868053 131.735609 l
628.546528 131.403413 l
635.654686 130.335306 l
643.254945 130.630801 l
651.417883 129.148668 l
660.235312 132.195761 l
669.819934 129.461682 l
680.318182 130.395846 l
691.924011 127.81578 l
704.898214 127.776417 l
719.606971 127.944733 l
736.587337 129.679229 l
756.67042 128.961613 l
781.250239 128.021462 l
812.939236 126.804332 l
857.602095 126.158124 l
933.954545 128.530956 l
stroke
grestore
1.000 setlinewidth
0 setlinejoin
0 setlinecap
gsave
837 554.4 135 79.2 clipbox
/o {
gsave
newpath
translate
1.0 setlinewidth
0 setlinejoin
0 setlinecap
-3 0 m
3 -3 l
3 3 l
cl

gsave
1.000 0.588 0.309 setrgbcolor
fill
grestore
stroke
grestore
} bind def
173.045 140.256 o
178.672 137.482 o
184.638 140.07 o
190.934 140.286 o
197.625 140.813 o
204.726 139.755 o
212.327 139.234 o
220.48 139.139 o
229.301 139.29 o
238.895 138.243 o
249.397 137.565 o
260.99 137.91 o
273.977 137.54 o
288.679 138.189 o
305.663 137.362 o
325.75 136.965 o
350.329 136.634 o
382.015 136.553 o
426.681 136.272 o
432.33 136.067 o
438.286 136.011 o
444.584 136.171 o
451.261 136.357 o
458.369 136.166 o
465.97 136.032 o
474.134 135.862 o
482.951 135.961 o
492.535 135.505 o
503.033 135.556 o
514.639 134.846 o
527.613 135.32 o
542.322 134.392 o
545.515 135.87 o
548.805 135.156 o
552.194 134.551 o
555.691 134.443 o
559.303 134.901 o
563.037 134.316 o
566.903 134.742 o
570.909 134.865 o
575.066 134.803 o
579.387 135.063 o
583.883 134.733 o
588.57 135.376 o
593.468 133.72 o
598.592 133.221 o
603.966 132.448 o
609.616 132.444 o
615.572 131.635 o
621.868 131.736 o
628.547 131.403 o
635.655 130.335 o
643.255 130.631 o
651.418 129.149 o
660.235 132.196 o
669.82 129.462 o
680.318 130.396 o
691.924 127.816 o
704.898 127.776 o
719.607 127.945 o
736.587 129.679 o
756.67 128.962 o
781.25 128.021 o
812.939 126.804 o
857.602 126.158 o
933.955 128.531 o
grestore
1.500 setlinewidth
1 setlinejoin
2 setlinecap
1.000 0.000 0.000 setrgbcolor
gsave
837 554.4 135 79.2 clipbox
173.045455 403.91707 m
178.671777 404.622599 l
184.637615 403.185483 l
190.933768 399.875272 l
197.625317 397.106376 l
204.725919 395.656288 l
212.327367 396.39364 l
220.480372 390.636639 l
229.300687 389.02644 l
238.895412 380.484245 l
249.39748 386.659706 l
260.989641 382.536301 l
273.977342 382.728567 l
288.679393 375.801228 l
305.662901 377.485606 l
325.749506 372.329908 l
350.329368 370.228954 l
382.014926 365.660032 l
426.681394 364.498453 l
432.3303 363.917553 l
438.28578 364.876998 l
444.58414 363.848586 l
451.261256 363.683042 l
458.369499 362.984054 l
465.970437 362.658843 l
474.133969 362.665053 l
482.950889 361.467881 l
492.535086 360.66001 l
503.033419 359.393095 l
514.639333 357.69785 l
527.613282 356.526847 l
542.322463 354.824284 l
545.51545 355.851366 l
548.804649 356.472072 l
552.19423 354.986724 l
555.691231 354.471575 l
559.302914 354.678144 l
563.037499 354.435096 l
566.902801 355.175552 l
570.90876 355.614748 l
575.065857 356.019016 l
579.386506 356.262176 l
583.882777 356.601469 l
588.570366 359.529699 l
593.467908 350.995709 l
598.591873 350.86731 l
603.966156 346.320675 l
609.615826 346.708423 l
615.571985 341.341942 l
621.868053 341.471006 l
628.546528 340.816038 l
635.654686 335.943749 l
643.254945 337.795334 l
651.417883 330.100484 l
660.235312 343.331905 l
669.819934 333.065193 l
680.318182 334.992731 l
691.924011 324.591744 l
704.898214 330.667635 l
719.606971 324.561473 l
736.587337 330.869658 l
756.67042 329.669493 l
781.250239 327.694499 l
812.939236 319.6659 l
857.602095 315.603589 l
933.954545 320.880479 l
stroke
grestore
1.000 setlinewidth
2 setlinejoin
0 setlinecap
gsave
837 554.4 135 79.2 clipbox
/o {
gsave
newpath
translate
1.0 setlinewidth
2 setlinejoin
0 setlinecap
0 3 m
-0.673542 0.927051 l
-2.85317 0.927051 l
-1.089814 -0.354102 l
-1.763356 -2.427051 l
-0 -1.145898 l
1.763356 -2.427051 l
1.089814 -0.354102 l
2.85317 0.927051 l
0.673542 0.927051 l
cl

gsave
1.000 0.000 0.000 setrgbcolor
fill
grestore
stroke
grestore
} bind def
173.045 403.917 o
178.672 404.623 o
184.638 403.185 o
190.934 399.875 o
197.625 397.106 o
204.726 395.656 o
212.327 396.394 o
220.48 390.637 o
229.301 389.026 o
238.895 380.484 o
249.397 386.66 o
260.99 382.536 o
273.977 382.729 o
288.679 375.801 o
305.663 377.486 o
325.75 372.33 o
350.329 370.229 o
382.015 365.66 o
426.681 364.498 o
432.33 363.918 o
438.286 364.877 o
444.584 363.849 o
451.261 363.683 o
458.369 362.984 o
465.97 362.659 o
474.134 362.665 o
482.951 361.468 o
492.535 360.66 o
503.033 359.393 o
514.639 357.698 o
527.613 356.527 o
542.322 354.824 o
545.515 355.851 o
548.805 356.472 o
552.194 354.987 o
555.691 354.472 o
559.303 354.678 o
563.037 354.435 o
566.903 355.176 o
570.909 355.615 o
575.066 356.019 o
579.387 356.262 o
583.883 356.601 o
588.57 359.53 o
593.468 350.996 o
598.592 350.867 o
603.966 346.321 o
609.616 346.708 o
615.572 341.342 o
621.868 341.471 o
628.547 340.816 o
635.655 335.944 o
643.255 337.795 o
651.418 330.1 o
660.235 343.332 o
669.82 333.065 o
680.318 334.993 o
691.924 324.592 o
704.898 330.668 o
719.607 324.561 o
736.587 330.87 o
756.67 329.669 o
781.25 327.694 o
812.939 319.666 o
857.602 315.604 o
933.955 320.88 o
grestore
0.200 setlinewidth
1 setlinejoin
2 setlinecap
0.000 setgray
gsave
837 554.4 135 79.2 clipbox
135 79.2 m
1081 79.2 l
stroke
grestore
gsave
837 554.4 135 79.2 clipbox
135 134.64 m
1081 134.64 l
stroke
grestore
gsave
837 554.4 135 79.2 clipbox
135 190.08 m
1081 190.08 l
stroke
grestore
gsave
837 554.4 135 79.2 clipbox
135 245.52 m
1081 245.52 l
stroke
grestore
gsave
837 554.4 135 79.2 clipbox
135 300.96 m
1081 300.96 l
stroke
grestore
gsave
837 554.4 135 79.2 clipbox
135 356.4 m
1081 356.4 l
stroke
grestore
gsave
837 554.4 135 79.2 clipbox
135 411.84 m
1081 411.84 l
stroke
grestore
gsave
837 554.4 135 79.2 clipbox
135 467.28 m
1081 467.28 l
stroke
grestore
gsave
837 554.4 135 79.2 clipbox
135 522.72 m
1081 522.72 l
stroke
grestore
gsave
837 554.4 135 79.2 clipbox
135 578.16 m
1081 578.16 l
stroke
grestore
0.800 setlinewidth
0 setlinejoin
gsave
135 79.2 m
135 633.6 l
stroke
grestore
gsave
972 79.2 m
972 633.6 l
stroke
grestore
gsave
135 79.2 m
972 79.2 l
stroke
grestore
gsave
135 633.6 m
972 633.6 l
stroke
grestore
/DejaVuSans findfont
14.400 scalefont
setfont
gsave
388.773438 655.275000 translate
0.000000 rotate
0.000000 0 m /B glyphshow
9.861755 0 m /a glyphshow
18.670654 0 m /n glyphshow
27.781372 0 m /d glyphshow
36.906128 0 m /w glyphshow
48.663025 0 m /i glyphshow
52.656860 0 m /d glyphshow
61.781616 0 m /t glyphshow
67.417908 0 m /h glyphshow
76.528625 0 m /space glyphshow
81.098022 0 m /m glyphshow
95.101013 0 m /e glyphshow
103.945007 0 m /a glyphshow
112.753906 0 m /s glyphshow
120.243225 0 m /u glyphshow
129.353943 0 m /r glyphshow
134.888977 0 m /e glyphshow
143.732971 0 m /s glyphshow
151.222290 0 m /space glyphshow
155.791687 0 m /o glyphshow
164.586548 0 m /n glyphshow
173.697266 0 m /space glyphshow
178.266663 0 m /I glyphshow
182.506165 0 m /n glyphshow
191.616882 0 m /t glyphshow
197.253174 0 m /e glyphshow
206.097168 0 m /l glyphshow
210.091003 0 m /space glyphshow
214.660400 0 m /X glyphshow
223.883118 0 m /e glyphshow
232.727112 0 m /o glyphshow
241.521973 0 m /n glyphshow
250.632690 0 m /space glyphshow
255.202087 0 m /G glyphshow
266.341309 0 m /o glyphshow
275.136169 0 m /l glyphshow
279.130005 0 m /d glyphshow
288.254761 0 m /space glyphshow
292.824158 0 m /six glyphshow
301.969971 0 m /two glyphshow
311.115784 0 m /four glyphshow
320.261597 0 m /zero glyphshow
grestore
gsave
437.421875 639.600000 translate
0.000000 rotate
0.000000 0 m /C glyphshow
10.037231 0 m /r glyphshow
15.572266 0 m /o glyphshow
24.367126 0 m /s glyphshow
31.856445 0 m /s glyphshow
39.345764 0 m /space glyphshow
43.915161 0 m /m glyphshow
57.918152 0 m /o glyphshow
66.713013 0 m /d glyphshow
75.837769 0 m /e glyphshow
84.681763 0 m /colon glyphshow
89.524902 0 m /space glyphshow
94.094299 0 m /S glyphshow
103.219055 0 m /o glyphshow
112.013916 0 m /c glyphshow
119.917358 0 m /k glyphshow
127.741943 0 m /e glyphshow
136.585938 0 m /t glyphshow
142.222229 0 m /space glyphshow
146.791626 0 m /zero glyphshow
155.937439 0 m /space glyphshow
160.506836 0 m /hyphen glyphshow
165.693909 0 m /space glyphshow
170.263306 0 m /S glyphshow
179.388062 0 m /o glyphshow
188.182922 0 m /c glyphshow
196.086365 0 m /k glyphshow
203.910950 0 m /e glyphshow
212.754944 0 m /t glyphshow
218.391235 0 m /space glyphshow
222.960632 0 m /one glyphshow
grestore
1.000 setlinewidth
0 setlinecap
0.800 setgray
gsave
814.371875 518.25 m
963.6 518.25 l
965.2 518.25 966 519.05 966 520.65 c
966 625.2 l
966 626.8 965.2 627.6 963.6 627.6 c
814.371875 627.6 l
812.771875 627.6 811.971875 626.8 811.971875 625.2 c
811.971875 520.65 l
811.971875 519.05 812.771875 518.25 814.371875 518.25 c
cl
gsave
1.000 setgray
fill
grestore
stroke
grestore
1.500 setlinewidth
1 setlinejoin
2 setlinecap
0.500 0.000 1.000 setrgbcolor
gsave
816.771875 617.875 m
840.771875 617.875 l
stroke
grestore
1.000 setlinewidth
0 setlinecap
gsave
/o {
gsave
newpath
translate
1.0 setlinewidth
1 setlinejoin
0 setlinecap
0 -1.5 m
0.397805 -1.5 0.77937 -1.341951 1.06066 -1.06066 c
1.341951 -0.77937 1.5 -0.397805 1.5 0 c
1.5 0.397805 1.341951 0.77937 1.06066 1.06066 c
0.77937 1.341951 0.397805 1.5 0 1.5 c
-0.397805 1.5 -0.77937 1.341951 -1.06066 1.06066 c
-1.341951 0.77937 -1.5 0.397805 -1.5 0 c
-1.5 -0.397805 -1.341951 -0.77937 -1.06066 -1.06066 c
-0.77937 -1.341951 -0.397805 -1.5 0 -1.5 c
cl

gsave
0.500 0.000 1.000 setrgbcolor
fill
grestore
stroke
grestore
} bind def
828.772 617.875 o
grestore
0.000 setgray
/DejaVuSans findfont
12.000 scalefont
setfont
gsave
850.371875 613.675000 translate
0.000000 rotate
0.000000 0 m /R glyphshow
7.962891 0 m /colon glyphshow
12.005859 0 m /C glyphshow
20.384766 0 m /P glyphshow
27.621094 0 m /U glyphshow
36.404297 0 m /zero glyphshow
44.039062 0 m /space glyphshow
47.853516 0 m /hyphen glyphshow
52.183594 0 m /space glyphshow
55.998047 0 m /W glyphshow
67.113281 0 m /colon glyphshow
71.156250 0 m /C glyphshow
79.535156 0 m /P glyphshow
86.771484 0 m /U glyphshow
95.554688 0 m /one glyphshow
103.189453 0 m /eight glyphshow
grestore
1.500 setlinewidth
2 setlinecap
0.100 0.588 0.951 setrgbcolor
gsave
816.771875 600.25 m
840.771875 600.25 l
stroke
grestore
1.000 setlinewidth
0 setlinecap
gsave
/o {
gsave
newpath
translate
1.0 setlinewidth
1 setlinejoin
0 setlinecap
0 -3 m
0.795609 -3 1.55874 -2.683901 2.12132 -2.12132 c
2.683901 -1.55874 3 -0.795609 3 0 c
3 0.795609 2.683901 1.55874 2.12132 2.12132 c
1.55874 2.683901 0.795609 3 0 3 c
-0.795609 3 -1.55874 2.683901 -2.12132 2.12132 c
-2.683901 1.55874 -3 0.795609 -3 0 c
-3 -0.795609 -2.683901 -1.55874 -2.12132 -2.12132 c
-1.55874 -2.683901 -0.795609 -3 0 -3 c
cl

gsave
0.100 0.588 0.951 setrgbcolor
fill
grestore
stroke
grestore
} bind def
828.772 600.25 o
grestore
0.000 setgray
gsave
850.371875 596.050000 translate
0.000000 rotate
0.000000 0 m /R glyphshow
7.962891 0 m /colon glyphshow
12.005859 0 m /C glyphshow
20.384766 0 m /P glyphshow
27.621094 0 m /U glyphshow
36.404297 0 m /one glyphshow
44.039062 0 m /space glyphshow
47.853516 0 m /hyphen glyphshow
52.183594 0 m /space glyphshow
55.998047 0 m /W glyphshow
67.113281 0 m /colon glyphshow
71.156250 0 m /C glyphshow
79.535156 0 m /P glyphshow
86.771484 0 m /U glyphshow
95.554688 0 m /one glyphshow
103.189453 0 m /nine glyphshow
grestore
1.500 setlinewidth
2 setlinecap
0.300 0.951 0.809 setrgbcolor
gsave
816.771875 582.625 m
840.771875 582.625 l
stroke
grestore
1.000 setlinewidth
2 setlinejoin
0 setlinecap
gsave
/o {
gsave
newpath
translate
1.0 setlinewidth
2 setlinejoin
0 setlinecap
0 3 m
-0.673542 0.927051 l
-2.85317 0.927051 l
-1.089814 -0.354102 l
-1.763356 -2.427051 l
-0 -1.145898 l
1.763356 -2.427051 l
1.089814 -0.354102 l
2.85317 0.927051 l
0.673542 0.927051 l
cl

gsave
0.300 0.951 0.809 setrgbcolor
fill
grestore
stroke
grestore
} bind def
828.772 582.625 o
grestore
0.000 setgray
gsave
850.371875 578.425000 translate
0.000000 rotate
0.000000 0 m /R glyphshow
7.962891 0 m /colon glyphshow
12.005859 0 m /C glyphshow
20.384766 0 m /P glyphshow
27.621094 0 m /U glyphshow
36.404297 0 m /two glyphshow
44.039062 0 m /space glyphshow
47.853516 0 m /hyphen glyphshow
52.183594 0 m /space glyphshow
55.998047 0 m /W glyphshow
67.113281 0 m /colon glyphshow
71.156250 0 m /C glyphshow
79.535156 0 m /P glyphshow
86.771484 0 m /U glyphshow
95.554688 0 m /two glyphshow
103.189453 0 m /zero glyphshow
grestore
1.500 setlinewidth
1 setlinejoin
2 setlinecap
0.700 0.951 0.588 setrgbcolor
gsave
816.771875 565 m
840.771875 565 l
stroke
grestore
1.000 setlinewidth
0 setlinejoin
0 setlinecap
gsave
/o {
gsave
newpath
translate
1.0 setlinewidth
0 setlinejoin
0 setlinecap
3 -0 m
-3 3 l
-3 -3 l
cl

gsave
0.700 0.951 0.588 setrgbcolor
fill
grestore
stroke
grestore
} bind def
828.772 565 o
grestore
0.000 setgray
gsave
850.371875 560.800000 translate
0.000000 rotate
0.000000 0 m /R glyphshow
7.962891 0 m /colon glyphshow
12.005859 0 m /C glyphshow
20.384766 0 m /P glyphshow
27.621094 0 m /U glyphshow
36.404297 0 m /three glyphshow
44.039062 0 m /space glyphshow
47.853516 0 m /hyphen glyphshow
52.183594 0 m /space glyphshow
55.998047 0 m /W glyphshow
67.113281 0 m /colon glyphshow
71.156250 0 m /C glyphshow
79.535156 0 m /P glyphshow
86.771484 0 m /U glyphshow
95.554688 0 m /two glyphshow
103.189453 0 m /one glyphshow
grestore
1.500 setlinewidth
1 setlinejoin
2 setlinecap
1.000 0.588 0.309 setrgbcolor
gsave
816.771875 547.375 m
840.771875 547.375 l
stroke
grestore
1.000 setlinewidth
0 setlinejoin
0 setlinecap
gsave
/o {
gsave
newpath
translate
1.0 setlinewidth
0 setlinejoin
0 setlinecap
-3 0 m
3 -3 l
3 3 l
cl

gsave
1.000 0.588 0.309 setrgbcolor
fill
grestore
stroke
grestore
} bind def
828.772 547.375 o
grestore
0.000 setgray
gsave
850.371875 543.175000 translate
0.000000 rotate
0.000000 0 m /R glyphshow
7.962891 0 m /colon glyphshow
12.005859 0 m /C glyphshow
20.384766 0 m /P glyphshow
27.621094 0 m /U glyphshow
36.404297 0 m /four glyphshow
44.039062 0 m /space glyphshow
47.853516 0 m /hyphen glyphshow
52.183594 0 m /space glyphshow
55.998047 0 m /W glyphshow
67.113281 0 m /colon glyphshow
71.156250 0 m /C glyphshow
79.535156 0 m /P glyphshow
86.771484 0 m /U glyphshow
95.554688 0 m /two glyphshow
103.189453 0 m /two glyphshow
grestore
1.500 setlinewidth
1 setlinejoin
2 setlinecap
1.000 0.000 0.000 setrgbcolor
gsave
816.771875 529.75 m
840.771875 529.75 l
stroke
grestore
1.000 setlinewidth
2 setlinejoin
0 setlinecap
gsave
/o {
gsave
newpath
translate
1.0 setlinewidth
2 setlinejoin
0 setlinecap
0 3 m
-0.673542 0.927051 l
-2.85317 0.927051 l
-1.089814 -0.354102 l
-1.763356 -2.427051 l
-0 -1.145898 l
1.763356 -2.427051 l
1.089814 -0.354102 l
2.85317 0.927051 l
0.673542 0.927051 l
cl

gsave
1.000 0.000 0.000 setrgbcolor
fill
grestore
stroke
grestore
} bind def
828.772 529.75 o
grestore
0.000 setgray
gsave
850.371875 525.550000 translate
0.000000 rotate
0.000000 0 m /S glyphshow
7.617188 0 m /u glyphshow
15.222656 0 m /m glyphshow
26.912109 0 m /space glyphshow
30.726562 0 m /o glyphshow
38.068359 0 m /f glyphshow
42.292969 0 m /space glyphshow
46.107422 0 m /B glyphshow
53.964844 0 m /W glyphshow
65.830078 0 m /s glyphshow
grestore

end
showpage
