%!PS-Adobe-3.0 EPSF-3.0
%%Title: intel-multicross8-die1.eps
%%Creator: matplotlib version 3.3.3, http://matplotlib.org/
%%CreationDate: Wed Jan 13 15:59:14 2021
%%Orientation: portrait
%%BoundingBox: -234.0 36.0 846.0 756.0
%%EndComments
%%BeginProlog
/mpldict 8 dict def
mpldict begin
/m { moveto } bind def
/l { lineto } bind def
/r { rlineto } bind def
/c { curveto } bind def
/cl { closepath } bind def
/box {
      m
      1 index 0 r
      0 exch r
      neg 0 r
      cl
    } bind def
/clipbox {
      box
      clip
      newpath
    } bind def
%!PS-Adobe-3.0 Resource-Font
%%Title: DejaVu Sans
%%Copyright: Copyright (c) 2003 by Bitstream, Inc. All Rights Reserved. Copyright (c) 2006 by Tavmjong Bah. All Rights Reserved. DejaVu changes are in public domain 
%%Creator: Converted from TrueType to type 3 by PPR
25 dict begin
/_d{bind def}bind def
/_m{moveto}_d
/_l{lineto}_d
/_cl{closepath eofill}_d
/_c{curveto}_d
/_sc{7 -1 roll{setcachedevice}{pop pop pop pop pop pop}ifelse}_d
/_e{exec}_d
/FontName /DejaVuSans def
/PaintType 0 def
/FontMatrix[.001 0 0 .001 0 0]def
/FontBBox[-1021 -463 1793 1232]def
/FontType 3 def
/Encoding [ /space /parenleft /parenright /hyphen /zero /one /two /three /four /five /six /seven /eight /nine /colon /B /C /D /G /I /P /R /S /U /W /X /a /c /d /e /f /h /i /k /l /m /n /o /p /r /s /t /u /w ] def
/FontInfo 10 dict dup begin
/FamilyName (DejaVu Sans) def
/FullName (DejaVu Sans) def
/Notice (Copyright (c) 2003 by Bitstream, Inc. All Rights Reserved. Copyright (c) 2006 by Tavmjong Bah. All Rights Reserved. DejaVu changes are in public domain ) def
/Weight (Book) def
/Version (Version 2.35) def
/ItalicAngle 0.0 def
/isFixedPitch false def
/UnderlinePosition -130 def
/UnderlineThickness 90 def
end readonly def
/CharStrings 45 dict dup begin
/.notdef 0 def
/space{318 0 0 0 0 0 _sc
}_d
/parenleft{390 0 86 -131 310 759 _sc
310 759 _m
266 683 234 609 213 536 _c
191 463 181 389 181 314 _c
181 238 191 164 213 91 _c
234 17 266 -56 310 -131 _c
232 -131 _l
183 -54 146 20 122 94 _c
98 168 86 241 86 314 _c
86 386 98 459 122 533 _c
146 607 182 682 232 759 _c
310 759 _l
_cl}_d
/parenright{390 0 80 -131 304 759 _sc
80 759 _m
158 759 _l
206 682 243 607 267 533 _c
291 459 304 386 304 314 _c
304 241 291 168 267 94 _c
243 20 206 -54 158 -131 _c
80 -131 _l
123 -56 155 17 177 91 _c
198 164 209 238 209 314 _c
209 389 198 463 177 536 _c
155 609 123 683 80 759 _c
_cl}_d
/hyphen{361 0 49 234 312 314 _sc
49 314 _m
312 314 _l
312 234 _l
49 234 _l
49 314 _l
_cl}_d
/zero{636 0 66 -13 570 742 _sc
318 664 _m
267 664 229 639 203 589 _c
177 539 165 464 165 364 _c
165 264 177 189 203 139 _c
229 89 267 64 318 64 _c
369 64 407 89 433 139 _c
458 189 471 264 471 364 _c
471 464 458 539 433 589 _c
407 639 369 664 318 664 _c
318 742 _m
399 742 461 709 505 645 _c
548 580 570 486 570 364 _c
570 241 548 147 505 83 _c
461 19 399 -13 318 -13 _c
236 -13 173 19 130 83 _c
87 147 66 241 66 364 _c
66 486 87 580 130 645 _c
173 709 236 742 318 742 _c
_cl}_d
/one{636 0 110 0 544 729 _sc
124 83 _m
285 83 _l
285 639 _l
110 604 _l
110 694 _l
284 729 _l
383 729 _l
383 83 _l
544 83 _l
544 0 _l
124 0 _l
124 83 _l
_cl}_d
/two{{636 0 73 0 536 742 _sc
192 83 _m
536 83 _l
536 0 _l
73 0 _l
73 83 _l
110 121 161 173 226 239 _c
290 304 331 346 348 365 _c
380 400 402 430 414 455 _c
426 479 433 504 433 528 _c
433 566 419 598 392 622 _c
365 646 330 659 286 659 _c
255 659 222 653 188 643 _c
154 632 117 616 78 594 _c
78 694 _l
118 710 155 722 189 730 _c
223 738 255 742 284 742 _c
}_e{359 742 419 723 464 685 _c
509 647 532 597 532 534 _c
532 504 526 475 515 449 _c
504 422 484 390 454 354 _c
446 344 420 317 376 272 _c
332 227 271 164 192 83 _c
_cl}_e}_d
/three{{636 0 76 -13 556 742 _sc
406 393 _m
453 383 490 362 516 330 _c
542 298 556 258 556 212 _c
556 140 531 84 482 45 _c
432 6 362 -13 271 -13 _c
240 -13 208 -10 176 -4 _c
144 1 110 10 76 22 _c
76 117 _l
103 101 133 89 166 81 _c
198 73 232 69 268 69 _c
330 69 377 81 409 105 _c
441 129 458 165 458 212 _c
458 254 443 288 413 312 _c
383 336 341 349 287 349 _c
}_e{202 349 _l
202 430 _l
291 430 _l
339 430 376 439 402 459 _c
428 478 441 506 441 543 _c
441 580 427 609 401 629 _c
374 649 336 659 287 659 _c
260 659 231 656 200 650 _c
169 644 135 635 98 623 _c
98 711 _l
135 721 170 729 203 734 _c
235 739 266 742 296 742 _c
370 742 429 725 473 691 _c
517 657 539 611 539 553 _c
539 513 527 479 504 451 _c
481 423 448 403 406 393 _c
_cl}_e}_d
/four{636 0 49 0 580 729 _sc
378 643 _m
129 254 _l
378 254 _l
378 643 _l
352 729 _m
476 729 _l
476 254 _l
580 254 _l
580 172 _l
476 172 _l
476 0 _l
378 0 _l
378 172 _l
49 172 _l
49 267 _l
352 729 _l
_cl}_d
/five{{636 0 77 -13 549 729 _sc
108 729 _m
495 729 _l
495 646 _l
198 646 _l
198 467 _l
212 472 227 476 241 478 _c
255 480 270 482 284 482 _c
365 482 429 459 477 415 _c
525 370 549 310 549 234 _c
549 155 524 94 475 51 _c
426 8 357 -13 269 -13 _c
238 -13 207 -10 175 -6 _c
143 -1 111 6 77 17 _c
77 116 _l
106 100 136 88 168 80 _c
199 72 232 69 267 69 _c
}_e{323 69 368 83 401 113 _c
433 143 450 183 450 234 _c
450 284 433 324 401 354 _c
368 384 323 399 267 399 _c
241 399 214 396 188 390 _c
162 384 135 375 108 363 _c
108 729 _l
_cl}_e}_d
/six{{636 0 70 -13 573 742 _sc
330 404 _m
286 404 251 388 225 358 _c
199 328 186 286 186 234 _c
186 181 199 139 225 109 _c
251 79 286 64 330 64 _c
374 64 409 79 435 109 _c
461 139 474 181 474 234 _c
474 286 461 328 435 358 _c
409 388 374 404 330 404 _c
526 713 _m
526 623 _l
501 635 476 644 451 650 _c
425 656 400 659 376 659 _c
310 659 260 637 226 593 _c
}_e{192 549 172 482 168 394 _c
187 422 211 444 240 459 _c
269 474 301 482 336 482 _c
409 482 467 459 509 415 _c
551 371 573 310 573 234 _c
573 159 550 99 506 54 _c
462 9 403 -13 330 -13 _c
246 -13 181 19 137 83 _c
92 147 70 241 70 364 _c
70 479 97 571 152 639 _c
206 707 280 742 372 742 _c
396 742 421 739 447 735 _c
472 730 498 723 526 713 _c
_cl}_e}_d
/seven{636 0 82 0 551 729 _sc
82 729 _m
551 729 _l
551 687 _l
286 0 _l
183 0 _l
432 646 _l
82 646 _l
82 729 _l
_cl}_d
/eight{{636 0 68 -13 568 742 _sc
318 346 _m
271 346 234 333 207 308 _c
180 283 167 249 167 205 _c
167 161 180 126 207 101 _c
234 76 271 64 318 64 _c
364 64 401 76 428 102 _c
455 127 469 161 469 205 _c
469 249 455 283 429 308 _c
402 333 365 346 318 346 _c
219 388 _m
177 398 144 418 120 447 _c
96 476 85 511 85 553 _c
85 611 105 657 147 691 _c
188 725 245 742 318 742 _c
}_e{390 742 447 725 489 691 _c
530 657 551 611 551 553 _c
551 511 539 476 515 447 _c
491 418 459 398 417 388 _c
464 377 501 355 528 323 _c
554 291 568 251 568 205 _c
568 134 546 80 503 43 _c
459 5 398 -13 318 -13 _c
237 -13 175 5 132 43 _c
89 80 68 134 68 205 _c
68 251 81 291 108 323 _c
134 355 171 377 219 388 _c
183 544 _m
183 506 194 476 218 455 _c
}_e{242 434 275 424 318 424 _c
360 424 393 434 417 455 _c
441 476 453 506 453 544 _c
453 582 441 611 417 632 _c
393 653 360 664 318 664 _c
275 664 242 653 218 632 _c
194 611 183 582 183 544 _c
_cl}_e}_d
/nine{{636 0 63 -13 566 742 _sc
110 15 _m
110 105 _l
134 93 159 84 185 78 _c
210 72 235 69 260 69 _c
324 69 374 90 408 134 _c
442 178 462 244 468 334 _c
448 306 424 284 396 269 _c
367 254 335 247 300 247 _c
226 247 168 269 126 313 _c
84 357 63 417 63 494 _c
63 568 85 628 129 674 _c
173 719 232 742 306 742 _c
390 742 455 709 499 645 _c
543 580 566 486 566 364 _c
}_e{566 248 538 157 484 89 _c
429 21 356 -13 264 -13 _c
239 -13 214 -10 189 -6 _c
163 -2 137 5 110 15 _c
306 324 _m
350 324 385 339 411 369 _c
437 399 450 441 450 494 _c
450 546 437 588 411 618 _c
385 648 350 664 306 664 _c
262 664 227 648 201 618 _c
175 588 162 546 162 494 _c
162 441 175 399 201 369 _c
227 339 262 324 306 324 _c
_cl}_e}_d
/colon{337 0 117 0 220 517 _sc
117 124 _m
220 124 _l
220 0 _l
117 0 _l
117 124 _l
117 517 _m
220 517 _l
220 393 _l
117 393 _l
117 517 _l
_cl}_d
/B{{686 0 98 0 615 729 _sc
197 348 _m
197 81 _l
355 81 _l
408 81 447 92 473 114 _c
498 136 511 169 511 215 _c
511 260 498 293 473 315 _c
447 337 408 348 355 348 _c
197 348 _l
197 648 _m
197 428 _l
343 428 _l
391 428 426 437 450 455 _c
474 473 486 500 486 538 _c
486 574 474 602 450 620 _c
426 638 391 648 343 648 _c
197 648 _l
98 729 _m
350 729 _l
}_e{425 729 483 713 524 682 _c
564 650 585 606 585 549 _c
585 504 574 468 553 442 _c
532 416 502 399 462 393 _c
510 382 548 360 575 327 _c
601 294 615 253 615 204 _c
615 138 592 88 548 53 _c
504 17 441 0 360 0 _c
98 0 _l
98 729 _l
_cl}_e}_d
/C{{698 0 56 -13 644 742 _sc
644 673 _m
644 569 _l
610 599 575 622 537 638 _c
499 653 460 661 418 661 _c
334 661 270 635 226 584 _c
182 533 160 460 160 364 _c
160 268 182 194 226 143 _c
270 92 334 67 418 67 _c
460 67 499 74 537 90 _c
575 105 610 128 644 159 _c
644 56 _l
609 32 572 15 534 4 _c
496 -7 455 -13 412 -13 _c
302 -13 215 20 151 87 _c
}_e{87 154 56 246 56 364 _c
56 481 87 573 151 641 _c
215 708 302 742 412 742 _c
456 742 497 736 535 725 _c
573 713 610 696 644 673 _c
_cl}_e}_d
/D{770 0 98 0 711 729 _sc
197 648 _m
197 81 _l
316 81 _l
416 81 490 103 537 149 _c
583 195 607 267 607 365 _c
607 463 583 534 537 580 _c
490 625 416 648 316 648 _c
197 648 _l
98 729 _m
301 729 _l
442 729 546 699 612 641 _c
678 582 711 490 711 365 _c
711 239 677 147 611 88 _c
545 29 441 0 301 0 _c
98 0 _l
98 729 _l
_cl}_d
/G{{775 0 56 -13 693 742 _sc
595 104 _m
595 300 _l
434 300 _l
434 381 _l
693 381 _l
693 68 _l
655 40 613 20 567 7 _c
521 -6 472 -13 420 -13 _c
306 -13 216 20 152 86 _c
88 152 56 245 56 364 _c
56 482 88 575 152 642 _c
216 708 306 742 420 742 _c
467 742 512 736 555 724 _c
598 712 638 695 674 673 _c
674 568 _l
637 598 598 621 557 637 _c
516 653 473 661 428 661 _c
}_e{338 661 271 636 227 586 _c
182 536 160 462 160 364 _c
160 265 182 191 227 141 _c
271 91 338 67 428 67 _c
462 67 493 70 521 76 _c
549 82 573 91 595 104 _c
_cl}_e}_d
/I{295 0 98 0 197 729 _sc
98 729 _m
197 729 _l
197 0 _l
98 0 _l
98 729 _l
_cl}_d
/P{603 0 98 0 569 729 _sc
197 648 _m
197 374 _l
321 374 _l
367 374 402 385 427 409 _c
452 433 465 467 465 511 _c
465 555 452 588 427 612 _c
402 636 367 648 321 648 _c
197 648 _l
98 729 _m
321 729 _l
402 729 464 710 506 673 _c
548 636 569 582 569 511 _c
569 439 548 384 506 348 _c
464 311 402 293 321 293 _c
197 293 _l
197 0 _l
98 0 _l
98 729 _l
_cl}_d
/R{{695 0 98 0 666 729 _sc
444 342 _m
465 334 486 319 506 296 _c
526 272 546 240 566 199 _c
666 0 _l
560 0 _l
467 187 _l
443 235 419 268 397 284 _c
374 300 343 308 304 308 _c
197 308 _l
197 0 _l
98 0 _l
98 729 _l
321 729 _l
404 729 466 711 507 677 _c
548 642 569 589 569 519 _c
569 473 558 434 537 404 _c
515 374 484 353 444 342 _c
197 648 _m
197 389 _l
321 389 _l
}_e{368 389 404 400 428 422 _c
452 444 465 476 465 519 _c
465 561 452 593 428 615 _c
404 637 368 648 321 648 _c
197 648 _l
_cl}_e}_d
/S{{635 0 66 -13 579 742 _sc
535 705 _m
535 609 _l
497 627 462 640 429 649 _c
395 657 363 662 333 662 _c
279 662 237 651 208 631 _c
179 610 165 580 165 542 _c
165 510 174 485 194 469 _c
213 452 250 439 304 429 _c
364 417 _l
437 403 491 378 526 343 _c
561 307 579 260 579 201 _c
579 130 555 77 508 41 _c
460 5 391 -13 300 -13 _c
265 -13 228 -9 189 -2 _c
}_e{150 5 110 16 69 32 _c
69 134 _l
109 111 148 94 186 83 _c
224 71 262 66 300 66 _c
356 66 399 77 430 99 _c
460 121 476 152 476 194 _c
476 230 465 258 443 278 _c
421 298 385 313 335 323 _c
275 335 _l
201 349 148 372 115 404 _c
82 435 66 478 66 534 _c
66 598 88 649 134 686 _c
179 723 242 742 322 742 _c
356 742 390 739 426 733 _c
461 727 497 717 535 705 _c
}_e{_cl}_e}_d
/U{732 0 87 -13 645 729 _sc
87 729 _m
186 729 _l
186 286 _l
186 208 200 151 228 117 _c
256 83 302 66 366 66 _c
429 66 475 83 503 117 _c
531 151 546 208 546 286 _c
546 729 _l
645 729 _l
645 274 _l
645 178 621 107 574 59 _c
527 11 458 -13 366 -13 _c
274 -13 204 11 157 59 _c
110 107 87 178 87 274 _c
87 729 _l
_cl}_d
/W{989 0 33 0 956 729 _sc
33 729 _m
133 729 _l
286 113 _l
439 729 _l
550 729 _l
703 113 _l
856 729 _l
956 729 _l
773 0 _l
649 0 _l
495 633 _l
340 0 _l
216 0 _l
33 729 _l
_cl}_d
/X{685 0 30 0 654 729 _sc
63 729 _m
169 729 _l
350 458 _l
532 729 _l
638 729 _l
404 379 _l
654 0 _l
548 0 _l
343 310 _l
136 0 _l
30 0 _l
290 389 _l
63 729 _l
_cl}_d
/a{{613 0 60 -13 522 560 _sc
343 275 _m
270 275 220 266 192 250 _c
164 233 150 205 150 165 _c
150 133 160 107 181 89 _c
202 70 231 61 267 61 _c
317 61 357 78 387 114 _c
417 149 432 196 432 255 _c
432 275 _l
343 275 _l
522 312 _m
522 0 _l
432 0 _l
432 83 _l
411 49 385 25 355 10 _c
325 -5 287 -13 243 -13 _c
187 -13 142 2 109 33 _c
76 64 60 106 60 159 _c
}_e{60 220 80 266 122 298 _c
163 329 224 345 306 345 _c
432 345 _l
432 354 _l
432 395 418 427 391 450 _c
364 472 326 484 277 484 _c
245 484 215 480 185 472 _c
155 464 127 453 100 439 _c
100 522 _l
132 534 164 544 195 550 _c
226 556 256 560 286 560 _c
365 560 424 539 463 498 _c
502 457 522 395 522 312 _c
_cl}_e}_d
/c{{550 0 55 -13 488 560 _sc
488 526 _m
488 442 _l
462 456 437 466 411 473 _c
385 480 360 484 334 484 _c
276 484 230 465 198 428 _c
166 391 150 339 150 273 _c
150 206 166 154 198 117 _c
230 80 276 62 334 62 _c
360 62 385 65 411 72 _c
437 79 462 90 488 104 _c
488 21 _l
462 9 436 0 410 -5 _c
383 -10 354 -13 324 -13 _c
242 -13 176 12 128 64 _c
}_e{79 115 55 185 55 273 _c
55 362 79 432 128 483 _c
177 534 244 560 330 560 _c
358 560 385 557 411 551 _c
437 545 463 537 488 526 _c
_cl}_e}_d
/d{{635 0 55 -13 544 760 _sc
454 464 _m
454 760 _l
544 760 _l
544 0 _l
454 0 _l
454 82 _l
435 49 411 25 382 10 _c
353 -5 319 -13 279 -13 _c
213 -13 159 13 117 65 _c
75 117 55 187 55 273 _c
55 359 75 428 117 481 _c
159 533 213 560 279 560 _c
319 560 353 552 382 536 _c
411 520 435 496 454 464 _c
148 273 _m
148 207 161 155 188 117 _c
215 79 253 61 301 61 _c
}_e{348 61 385 79 413 117 _c
440 155 454 207 454 273 _c
454 339 440 390 413 428 _c
385 466 348 485 301 485 _c
253 485 215 466 188 428 _c
161 390 148 339 148 273 _c
_cl}_e}_d
/e{{615 0 55 -13 562 560 _sc
562 296 _m
562 252 _l
149 252 _l
153 190 171 142 205 110 _c
238 78 284 62 344 62 _c
378 62 412 66 444 74 _c
476 82 509 95 541 113 _c
541 28 _l
509 14 476 3 442 -3 _c
408 -9 373 -13 339 -13 _c
251 -13 182 12 131 62 _c
80 112 55 181 55 268 _c
55 357 79 428 127 481 _c
175 533 241 560 323 560 _c
397 560 455 536 498 489 _c
}_e{540 441 562 377 562 296 _c
472 322 _m
471 371 457 410 431 440 _c
404 469 368 484 324 484 _c
274 484 234 469 204 441 _c
174 413 156 373 152 322 _c
472 322 _l
_cl}_e}_d
/f{352 0 23 0 371 760 _sc
371 760 _m
371 685 _l
285 685 _l
253 685 230 678 218 665 _c
205 652 199 629 199 595 _c
199 547 _l
347 547 _l
347 477 _l
199 477 _l
199 0 _l
109 0 _l
109 477 _l
23 477 _l
23 547 _l
109 547 _l
109 585 _l
109 645 123 690 151 718 _c
179 746 224 760 286 760 _c
371 760 _l
_cl}_d
/h{634 0 91 0 549 760 _sc
549 330 _m
549 0 _l
459 0 _l
459 327 _l
459 379 448 417 428 443 _c
408 469 378 482 338 482 _c
289 482 251 466 223 435 _c
195 404 181 362 181 309 _c
181 0 _l
91 0 _l
91 760 _l
181 760 _l
181 462 _l
202 494 227 519 257 535 _c
286 551 320 560 358 560 _c
420 560 468 540 500 501 _c
532 462 549 405 549 330 _c
_cl}_d
/i{278 0 94 0 184 760 _sc
94 547 _m
184 547 _l
184 0 _l
94 0 _l
94 547 _l
94 760 _m
184 760 _l
184 646 _l
94 646 _l
94 760 _l
_cl}_d
/k{579 0 91 0 576 760 _sc
91 760 _m
181 760 _l
181 311 _l
449 547 _l
564 547 _l
274 291 _l
576 0 _l
459 0 _l
181 267 _l
181 0 _l
91 0 _l
91 760 _l
_cl}_d
/l{278 0 94 0 184 760 _sc
94 760 _m
184 760 _l
184 0 _l
94 0 _l
94 760 _l
_cl}_d
/m{{974 0 91 0 889 560 _sc
520 442 _m
542 482 569 511 600 531 _c
631 550 668 560 711 560 _c
767 560 811 540 842 500 _c
873 460 889 403 889 330 _c
889 0 _l
799 0 _l
799 327 _l
799 379 789 418 771 444 _c
752 469 724 482 686 482 _c
639 482 602 466 575 435 _c
548 404 535 362 535 309 _c
535 0 _l
445 0 _l
445 327 _l
445 379 435 418 417 444 _c
398 469 369 482 331 482 _c
}_e{285 482 248 466 221 435 _c
194 404 181 362 181 309 _c
181 0 _l
91 0 _l
91 547 _l
181 547 _l
181 462 _l
201 495 226 520 255 536 _c
283 552 317 560 357 560 _c
397 560 430 550 458 530 _c
486 510 506 480 520 442 _c
_cl}_e}_d
/n{634 0 91 0 549 560 _sc
549 330 _m
549 0 _l
459 0 _l
459 327 _l
459 379 448 417 428 443 _c
408 469 378 482 338 482 _c
289 482 251 466 223 435 _c
195 404 181 362 181 309 _c
181 0 _l
91 0 _l
91 547 _l
181 547 _l
181 462 _l
202 494 227 519 257 535 _c
286 551 320 560 358 560 _c
420 560 468 540 500 501 _c
532 462 549 405 549 330 _c
_cl}_d
/o{612 0 55 -13 557 560 _sc
306 484 _m
258 484 220 465 192 427 _c
164 389 150 338 150 273 _c
150 207 163 156 191 118 _c
219 80 257 62 306 62 _c
354 62 392 80 420 118 _c
448 156 462 207 462 273 _c
462 337 448 389 420 427 _c
392 465 354 484 306 484 _c
306 560 _m
384 560 445 534 490 484 _c
534 433 557 363 557 273 _c
557 183 534 113 490 63 _c
445 12 384 -13 306 -13 _c
227 -13 165 12 121 63 _c
77 113 55 183 55 273 _c
55 363 77 433 121 484 _c
165 534 227 560 306 560 _c
_cl}_d
/p{{635 0 91 -207 580 560 _sc
181 82 _m
181 -207 _l
91 -207 _l
91 547 _l
181 547 _l
181 464 _l
199 496 223 520 252 536 _c
281 552 316 560 356 560 _c
422 560 476 533 518 481 _c
559 428 580 359 580 273 _c
580 187 559 117 518 65 _c
476 13 422 -13 356 -13 _c
316 -13 281 -5 252 10 _c
223 25 199 49 181 82 _c
487 273 _m
487 339 473 390 446 428 _c
418 466 381 485 334 485 _c
}_e{286 485 249 466 222 428 _c
194 390 181 339 181 273 _c
181 207 194 155 222 117 _c
249 79 286 61 334 61 _c
381 61 418 79 446 117 _c
473 155 487 207 487 273 _c
_cl}_e}_d
/r{411 0 91 0 411 560 _sc
411 463 _m
401 469 390 473 378 476 _c
366 478 353 480 339 480 _c
288 480 249 463 222 430 _c
194 397 181 350 181 288 _c
181 0 _l
91 0 _l
91 547 _l
181 547 _l
181 462 _l
199 495 224 520 254 536 _c
284 552 321 560 365 560 _c
371 560 378 559 386 559 _c
393 558 401 557 411 555 _c
411 463 _l
_cl}_d
/s{{521 0 54 -13 472 560 _sc
443 531 _m
443 446 _l
417 458 391 468 364 475 _c
336 481 308 485 279 485 _c
234 485 200 478 178 464 _c
156 450 145 430 145 403 _c
145 382 153 366 169 354 _c
185 342 217 330 265 320 _c
296 313 _l
360 299 405 279 432 255 _c
458 230 472 195 472 151 _c
472 100 452 60 412 31 _c
372 1 316 -13 246 -13 _c
216 -13 186 -10 154 -5 _c
}_e{122 0 89 8 54 20 _c
54 113 _l
87 95 120 82 152 74 _c
184 65 216 61 248 61 _c
290 61 323 68 346 82 _c
368 96 380 117 380 144 _c
380 168 371 187 355 200 _c
339 213 303 226 247 238 _c
216 245 _l
160 257 119 275 95 299 _c
70 323 58 356 58 399 _c
58 450 76 490 112 518 _c
148 546 200 560 268 560 _c
301 560 332 557 362 552 _c
391 547 418 540 443 531 _c
}_e{_cl}_e}_d
/t{392 0 27 0 368 702 _sc
183 702 _m
183 547 _l
368 547 _l
368 477 _l
183 477 _l
183 180 _l
183 135 189 106 201 94 _c
213 81 238 75 276 75 _c
368 75 _l
368 0 _l
276 0 _l
206 0 158 13 132 39 _c
106 65 93 112 93 180 _c
93 477 _l
27 477 _l
27 547 _l
93 547 _l
93 702 _l
183 702 _l
_cl}_d
/u{634 0 85 -13 543 560 _sc
85 216 _m
85 547 _l
175 547 _l
175 219 _l
175 167 185 129 205 103 _c
225 77 255 64 296 64 _c
344 64 383 79 411 110 _c
439 141 453 183 453 237 _c
453 547 _l
543 547 _l
543 0 _l
453 0 _l
453 84 _l
431 50 405 26 377 10 _c
348 -5 315 -13 277 -13 _c
214 -13 166 6 134 45 _c
101 83 85 140 85 216 _c
311 560 _m
311 560 _l
_cl}_d
/w{818 0 42 0 776 547 _sc
42 547 _m
132 547 _l
244 120 _l
356 547 _l
462 547 _l
574 120 _l
686 547 _l
776 547 _l
633 0 _l
527 0 _l
409 448 _l
291 0 _l
185 0 _l
42 547 _l
_cl}_d
end readonly def

/BuildGlyph
 {exch begin
 CharStrings exch
 2 copy known not{pop /.notdef}if
 true 3 1 roll get exec
 end}_d

/BuildChar {
 1 index /Encoding get exch get
 1 index /BuildGlyph get exec
}_d

FontName currentdict end definefont pop
end
%%EndProlog
mpldict begin
-234 36 translate
1080 720 0 0 clipbox
gsave
0 0 m
1080 0 l
1080 720 l
0 720 l
cl
1.000 setgray
fill
grestore
gsave
135 79.2 m
972 79.2 l
972 633.6 l
135 633.6 l
cl
1.000 setgray
fill
grestore
0.800 setlinewidth
1 setlinejoin
0 setlinecap
[] 0 setdash
0.000 setgray
gsave
/o {
gsave
newpath
translate
0.8 setlinewidth
1 setlinejoin
0 setlinecap
0 0 m
0 -3.5 l

gsave
0.000 setgray
fill
grestore
stroke
grestore
} bind def
346.213 79.2 o
grestore
gsave
335.212648 62.700000 translate
0.000000 rotate
/DejaVuSans findfont
12.0 scalefont
setfont
0.000000 0.171875 moveto
/one glyphshow
7.634766 0.171875 moveto
/zero glyphshow
/DejaVuSans findfont
8.399999999999999 scalefont
setfont
15.384375 4.765625 moveto
/six glyphshow

grestore
gsave
/o {
gsave
newpath
translate
0.8 setlinewidth
1 setlinejoin
0 setlinecap
0 0 m
0 -3.5 l

gsave
0.000 setgray
fill
grestore
stroke
grestore
} bind def
599.849 79.2 o
grestore
gsave
588.848587 62.700000 translate
0.000000 rotate
/DejaVuSans findfont
12.0 scalefont
setfont
0.000000 0.281250 moveto
/one glyphshow
7.634766 0.281250 moveto
/zero glyphshow
/DejaVuSans findfont
8.399999999999999 scalefont
setfont
15.384375 4.875000 moveto
/seven glyphshow

grestore
gsave
/o {
gsave
newpath
translate
0.8 setlinewidth
1 setlinejoin
0 setlinecap
0 0 m
0 -3.5 l

gsave
0.000 setgray
fill
grestore
stroke
grestore
} bind def
853.485 79.2 o
grestore
gsave
842.484526 62.700000 translate
0.000000 rotate
/DejaVuSans findfont
12.0 scalefont
setfont
0.000000 0.171875 moveto
/one glyphshow
7.634766 0.171875 moveto
/zero glyphshow
/DejaVuSans findfont
8.399999999999999 scalefont
setfont
15.384375 4.765625 moveto
/eight glyphshow

grestore
0.600 setlinewidth
gsave
/o {
gsave
newpath
translate
0.6 setlinewidth
1 setlinejoin
0 setlinecap
0 0 m
0 -2 l

gsave
0.000 setgray
fill
grestore
stroke
grestore
} bind def
168.929 79.2 o
grestore
gsave
/o {
gsave
newpath
translate
0.6 setlinewidth
1 setlinejoin
0 setlinecap
0 0 m
0 -2 l

gsave
0.000 setgray
fill
grestore
stroke
grestore
} bind def
213.592 79.2 o
grestore
gsave
/o {
gsave
newpath
translate
0.6 setlinewidth
1 setlinejoin
0 setlinecap
0 0 m
0 -2 l

gsave
0.000 setgray
fill
grestore
stroke
grestore
} bind def
245.281 79.2 o
grestore
gsave
/o {
gsave
newpath
translate
0.6 setlinewidth
1 setlinejoin
0 setlinecap
0 0 m
0 -2 l

gsave
0.000 setgray
fill
grestore
stroke
grestore
} bind def
269.861 79.2 o
grestore
gsave
/o {
gsave
newpath
translate
0.6 setlinewidth
1 setlinejoin
0 setlinecap
0 0 m
0 -2 l

gsave
0.000 setgray
fill
grestore
stroke
grestore
} bind def
289.944 79.2 o
grestore
gsave
/o {
gsave
newpath
translate
0.6 setlinewidth
1 setlinejoin
0 setlinecap
0 0 m
0 -2 l

gsave
0.000 setgray
fill
grestore
stroke
grestore
} bind def
306.924 79.2 o
grestore
gsave
/o {
gsave
newpath
translate
0.6 setlinewidth
1 setlinejoin
0 setlinecap
0 0 m
0 -2 l

gsave
0.000 setgray
fill
grestore
stroke
grestore
} bind def
321.633 79.2 o
grestore
gsave
/o {
gsave
newpath
translate
0.6 setlinewidth
1 setlinejoin
0 setlinecap
0 0 m
0 -2 l

gsave
0.000 setgray
fill
grestore
stroke
grestore
} bind def
334.607 79.2 o
grestore
gsave
/o {
gsave
newpath
translate
0.6 setlinewidth
1 setlinejoin
0 setlinecap
0 0 m
0 -2 l

gsave
0.000 setgray
fill
grestore
stroke
grestore
} bind def
422.565 79.2 o
grestore
gsave
/o {
gsave
newpath
translate
0.6 setlinewidth
1 setlinejoin
0 setlinecap
0 0 m
0 -2 l

gsave
0.000 setgray
fill
grestore
stroke
grestore
} bind def
467.228 79.2 o
grestore
gsave
/o {
gsave
newpath
translate
0.6 setlinewidth
1 setlinejoin
0 setlinecap
0 0 m
0 -2 l

gsave
0.000 setgray
fill
grestore
stroke
grestore
} bind def
498.917 79.2 o
grestore
gsave
/o {
gsave
newpath
translate
0.6 setlinewidth
1 setlinejoin
0 setlinecap
0 0 m
0 -2 l

gsave
0.000 setgray
fill
grestore
stroke
grestore
} bind def
523.497 79.2 o
grestore
gsave
/o {
gsave
newpath
translate
0.6 setlinewidth
1 setlinejoin
0 setlinecap
0 0 m
0 -2 l

gsave
0.000 setgray
fill
grestore
stroke
grestore
} bind def
543.58 79.2 o
grestore
gsave
/o {
gsave
newpath
translate
0.6 setlinewidth
1 setlinejoin
0 setlinecap
0 0 m
0 -2 l

gsave
0.000 setgray
fill
grestore
stroke
grestore
} bind def
560.56 79.2 o
grestore
gsave
/o {
gsave
newpath
translate
0.6 setlinewidth
1 setlinejoin
0 setlinecap
0 0 m
0 -2 l

gsave
0.000 setgray
fill
grestore
stroke
grestore
} bind def
575.269 79.2 o
grestore
gsave
/o {
gsave
newpath
translate
0.6 setlinewidth
1 setlinejoin
0 setlinecap
0 0 m
0 -2 l

gsave
0.000 setgray
fill
grestore
stroke
grestore
} bind def
588.243 79.2 o
grestore
gsave
/o {
gsave
newpath
translate
0.6 setlinewidth
1 setlinejoin
0 setlinecap
0 0 m
0 -2 l

gsave
0.000 setgray
fill
grestore
stroke
grestore
} bind def
676.201 79.2 o
grestore
gsave
/o {
gsave
newpath
translate
0.6 setlinewidth
1 setlinejoin
0 setlinecap
0 0 m
0 -2 l

gsave
0.000 setgray
fill
grestore
stroke
grestore
} bind def
720.864 79.2 o
grestore
gsave
/o {
gsave
newpath
translate
0.6 setlinewidth
1 setlinejoin
0 setlinecap
0 0 m
0 -2 l

gsave
0.000 setgray
fill
grestore
stroke
grestore
} bind def
752.553 79.2 o
grestore
gsave
/o {
gsave
newpath
translate
0.6 setlinewidth
1 setlinejoin
0 setlinecap
0 0 m
0 -2 l

gsave
0.000 setgray
fill
grestore
stroke
grestore
} bind def
777.133 79.2 o
grestore
gsave
/o {
gsave
newpath
translate
0.6 setlinewidth
1 setlinejoin
0 setlinecap
0 0 m
0 -2 l

gsave
0.000 setgray
fill
grestore
stroke
grestore
} bind def
797.216 79.2 o
grestore
gsave
/o {
gsave
newpath
translate
0.6 setlinewidth
1 setlinejoin
0 setlinecap
0 0 m
0 -2 l

gsave
0.000 setgray
fill
grestore
stroke
grestore
} bind def
814.196 79.2 o
grestore
gsave
/o {
gsave
newpath
translate
0.6 setlinewidth
1 setlinejoin
0 setlinecap
0 0 m
0 -2 l

gsave
0.000 setgray
fill
grestore
stroke
grestore
} bind def
828.905 79.2 o
grestore
gsave
/o {
gsave
newpath
translate
0.6 setlinewidth
1 setlinejoin
0 setlinecap
0 0 m
0 -2 l

gsave
0.000 setgray
fill
grestore
stroke
grestore
} bind def
841.879 79.2 o
grestore
gsave
/o {
gsave
newpath
translate
0.6 setlinewidth
1 setlinejoin
0 setlinecap
0 0 m
0 -2 l

gsave
0.000 setgray
fill
grestore
stroke
grestore
} bind def
929.837 79.2 o
grestore
/DejaVuSans findfont
12.000 scalefont
setfont
gsave
528.460938 47.075000 translate
0.000000 rotate
0.000000 0 m /D glyphshow
9.240234 0 m /a glyphshow
16.593750 0 m /t glyphshow
21.298828 0 m /a glyphshow
28.652344 0 m /space glyphshow
32.466797 0 m /parenleft glyphshow
37.148438 0 m /B glyphshow
45.380859 0 m /parenright glyphshow
grestore
0.800 setlinewidth
gsave
/o {
gsave
newpath
translate
0.8 setlinewidth
1 setlinejoin
0 setlinecap
-0 0 m
-3.5 0 l

gsave
0.000 setgray
fill
grestore
stroke
grestore
} bind def
135 79.2 o
grestore
gsave
120.359375 74.637500 translate
0.000000 rotate
0.000000 0 m /zero glyphshow
grestore
gsave
/o {
gsave
newpath
translate
0.8 setlinewidth
1 setlinejoin
0 setlinecap
-0 0 m
-3.5 0 l

gsave
0.000 setgray
fill
grestore
stroke
grestore
} bind def
135 134.64 o
grestore
gsave
120.359375 130.077500 translate
0.000000 rotate
0.000000 0 m /five glyphshow
grestore
gsave
/o {
gsave
newpath
translate
0.8 setlinewidth
1 setlinejoin
0 setlinecap
-0 0 m
-3.5 0 l

gsave
0.000 setgray
fill
grestore
stroke
grestore
} bind def
135 190.08 o
grestore
gsave
112.718750 185.517500 translate
0.000000 rotate
0.000000 0 m /one glyphshow
7.634766 0 m /zero glyphshow
grestore
gsave
/o {
gsave
newpath
translate
0.8 setlinewidth
1 setlinejoin
0 setlinecap
-0 0 m
-3.5 0 l

gsave
0.000 setgray
fill
grestore
stroke
grestore
} bind def
135 245.52 o
grestore
gsave
112.718750 240.957500 translate
0.000000 rotate
0.000000 0 m /one glyphshow
7.634766 0 m /five glyphshow
grestore
gsave
/o {
gsave
newpath
translate
0.8 setlinewidth
1 setlinejoin
0 setlinecap
-0 0 m
-3.5 0 l

gsave
0.000 setgray
fill
grestore
stroke
grestore
} bind def
135 300.96 o
grestore
gsave
112.718750 296.397500 translate
0.000000 rotate
0.000000 0 m /two glyphshow
7.634766 0 m /zero glyphshow
grestore
gsave
/o {
gsave
newpath
translate
0.8 setlinewidth
1 setlinejoin
0 setlinecap
-0 0 m
-3.5 0 l

gsave
0.000 setgray
fill
grestore
stroke
grestore
} bind def
135 356.4 o
grestore
gsave
112.718750 351.837500 translate
0.000000 rotate
0.000000 0 m /two glyphshow
7.634766 0 m /five glyphshow
grestore
gsave
/o {
gsave
newpath
translate
0.8 setlinewidth
1 setlinejoin
0 setlinecap
-0 0 m
-3.5 0 l

gsave
0.000 setgray
fill
grestore
stroke
grestore
} bind def
135 411.84 o
grestore
gsave
112.718750 407.277500 translate
0.000000 rotate
0.000000 0 m /three glyphshow
7.634766 0 m /zero glyphshow
grestore
gsave
/o {
gsave
newpath
translate
0.8 setlinewidth
1 setlinejoin
0 setlinecap
-0 0 m
-3.5 0 l

gsave
0.000 setgray
fill
grestore
stroke
grestore
} bind def
135 467.28 o
grestore
gsave
112.718750 462.717500 translate
0.000000 rotate
0.000000 0 m /three glyphshow
7.634766 0 m /five glyphshow
grestore
gsave
/o {
gsave
newpath
translate
0.8 setlinewidth
1 setlinejoin
0 setlinecap
-0 0 m
-3.5 0 l

gsave
0.000 setgray
fill
grestore
stroke
grestore
} bind def
135 522.72 o
grestore
gsave
112.718750 518.157500 translate
0.000000 rotate
0.000000 0 m /four glyphshow
7.634766 0 m /zero glyphshow
grestore
gsave
/o {
gsave
newpath
translate
0.8 setlinewidth
1 setlinejoin
0 setlinecap
-0 0 m
-3.5 0 l

gsave
0.000 setgray
fill
grestore
stroke
grestore
} bind def
135 578.16 o
grestore
gsave
112.718750 573.597500 translate
0.000000 rotate
0.000000 0 m /four glyphshow
7.634766 0 m /five glyphshow
grestore
gsave
106.218750 302.150000 translate
90.000000 rotate
0.000000 0 m /B glyphshow
8.232422 0 m /a glyphshow
15.585938 0 m /n glyphshow
23.191406 0 m /d glyphshow
30.808594 0 m /w glyphshow
40.623047 0 m /i glyphshow
43.957031 0 m /d glyphshow
51.574219 0 m /t glyphshow
56.279297 0 m /h glyphshow
63.884766 0 m /space glyphshow
67.699219 0 m /parenleft glyphshow
72.380859 0 m /G glyphshow
81.679688 0 m /B glyphshow
89.912109 0 m /p glyphshow
97.529297 0 m /s glyphshow
103.781250 0 m /parenright glyphshow
grestore
1.500 setlinewidth
2 setlinecap
0.500 0.000 1.000 setrgbcolor
gsave
837 554.4 135 79.2 clipbox
173.045455 136.685071 m
178.671777 136.713123 l
184.637615 137.298902 l
190.933768 134.928399 l
197.625317 135.281773 l
204.725919 133.016606 l
212.327367 132.516204 l
220.480372 129.563581 l
229.300687 130.113989 l
238.895412 127.817775 l
249.39748 127.241421 l
260.989641 125.062296 l
273.977342 124.194217 l
288.679393 122.393858 l
305.662901 121.802203 l
325.749506 120.203646 l
350.329368 119.257063 l
382.014926 118.20714 l
426.681394 117.034363 l
432.3303 117.369664 l
438.28578 117.229622 l
444.58414 116.856622 l
451.261256 116.894432 l
458.369499 116.887668 l
465.970437 116.892215 l
474.133969 116.69884 l
482.950889 116.430954 l
492.535086 116.622333 l
503.033419 116.596054 l
514.639333 116.282818 l
527.613282 116.056179 l
542.322463 116.066713 l
545.51545 116.25665 l
548.804649 116.02602 l
552.19423 115.94541 l
555.691231 115.295764 l
559.302914 114.626382 l
563.037499 114.208919 l
566.902801 113.711954 l
570.90876 112.963958 l
575.065857 113.033591 l
579.386506 112.350902 l
583.882777 111.761353 l
588.570366 111.975684 l
593.467908 111.487369 l
598.591873 110.720966 l
603.966156 110.404626 l
609.615826 110.555533 l
615.571985 109.699318 l
621.868053 110.108465 l
628.546528 109.702534 l
635.654686 108.25311 l
643.254945 109.391404 l
651.417883 109.596976 l
660.235312 108.879028 l
669.819934 107.627969 l
680.318182 108.830573 l
691.924011 109.293054 l
704.898214 109.789685 l
719.606971 111.792843 l
736.587337 113.443736 l
756.67042 114.262584 l
781.250239 112.788324 l
812.939236 111.912039 l
857.602095 111.869794 l
933.954545 112.581311 l
stroke
grestore
1.000 setlinewidth
0 setlinecap
gsave
837 554.4 135 79.2 clipbox
/o {
gsave
newpath
translate
1.0 setlinewidth
1 setlinejoin
0 setlinecap
0 -1.5 m
0.397805 -1.5 0.77937 -1.341951 1.06066 -1.06066 c
1.341951 -0.77937 1.5 -0.397805 1.5 0 c
1.5 0.397805 1.341951 0.77937 1.06066 1.06066 c
0.77937 1.341951 0.397805 1.5 0 1.5 c
-0.397805 1.5 -0.77937 1.341951 -1.06066 1.06066 c
-1.341951 0.77937 -1.5 0.397805 -1.5 0 c
-1.5 -0.397805 -1.341951 -0.77937 -1.06066 -1.06066 c
-0.77937 -1.341951 -0.397805 -1.5 0 -1.5 c
cl

gsave
0.500 0.000 1.000 setrgbcolor
fill
grestore
stroke
grestore
} bind def
173.045 136.685 o
178.672 136.713 o
184.638 137.299 o
190.934 134.928 o
197.625 135.282 o
204.726 133.017 o
212.327 132.516 o
220.48 129.564 o
229.301 130.114 o
238.895 127.818 o
249.397 127.241 o
260.99 125.062 o
273.977 124.194 o
288.679 122.394 o
305.663 121.802 o
325.75 120.204 o
350.329 119.257 o
382.015 118.207 o
426.681 117.034 o
432.33 117.37 o
438.286 117.23 o
444.584 116.857 o
451.261 116.894 o
458.369 116.888 o
465.97 116.892 o
474.134 116.699 o
482.951 116.431 o
492.535 116.622 o
503.033 116.596 o
514.639 116.283 o
527.613 116.056 o
542.322 116.067 o
545.515 116.257 o
548.805 116.026 o
552.194 115.945 o
555.691 115.296 o
559.303 114.626 o
563.037 114.209 o
566.903 113.712 o
570.909 112.964 o
575.066 113.034 o
579.387 112.351 o
583.883 111.761 o
588.57 111.976 o
593.468 111.487 o
598.592 110.721 o
603.966 110.405 o
609.616 110.556 o
615.572 109.699 o
621.868 110.108 o
628.547 109.703 o
635.655 108.253 o
643.255 109.391 o
651.418 109.597 o
660.235 108.879 o
669.82 107.628 o
680.318 108.831 o
691.924 109.293 o
704.898 109.79 o
719.607 111.793 o
736.587 113.444 o
756.67 114.263 o
781.25 112.788 o
812.939 111.912 o
857.602 111.87 o
933.955 112.581 o
grestore
1.500 setlinewidth
2 setlinecap
0.249 0.384 0.981 setrgbcolor
gsave
837 554.4 135 79.2 clipbox
173.045455 137.209422 m
178.671777 134.768732 l
184.637615 136.259292 l
190.933768 135.854136 l
197.625317 134.813527 l
204.725919 133.504034 l
212.327367 132.761028 l
220.480372 130.775388 l
229.300687 130.366685 l
238.895412 128.864261 l
249.39748 127.260382 l
260.989641 125.875047 l
273.977342 124.338139 l
288.679393 123.740607 l
305.662901 121.442841 l
325.749506 120.872363 l
350.329368 119.743494 l
382.014926 118.823079 l
426.681394 117.676025 l
432.3303 117.570468 l
438.28578 117.626129 l
444.58414 117.242706 l
451.261256 117.566476 l
458.369499 117.331188 l
465.970437 117.216649 l
474.133969 116.97726 l
482.950889 116.845091 l
492.535086 116.835888 l
503.033419 116.792201 l
514.639333 116.679103 l
527.613282 116.420642 l
542.322463 116.441598 l
545.51545 116.3448 l
548.804649 116.370635 l
552.19423 116.03988 l
555.691231 115.395556 l
559.302914 114.859008 l
563.037499 114.445758 l
566.902801 113.897789 l
570.90876 112.99944 l
575.065857 113.374768 l
579.386506 112.599495 l
583.882777 111.550681 l
588.570366 112.260424 l
593.467908 111.408977 l
598.591873 110.27035 l
603.966156 110.677945 l
609.615826 110.562852 l
615.571985 109.023726 l
621.868053 110.507966 l
628.546528 109.438417 l
635.654686 107.828883 l
643.254945 109.068411 l
651.417883 110.414272 l
660.235312 108.782895 l
669.819934 107.041968 l
680.318182 109.153234 l
691.924011 109.240608 l
704.898214 109.979068 l
719.606971 111.823224 l
736.587337 113.372662 l
756.67042 114.099591 l
781.250239 112.731443 l
812.939236 111.855269 l
857.602095 111.795283 l
933.954545 111.979787 l
stroke
grestore
1.000 setlinewidth
0 setlinecap
gsave
837 554.4 135 79.2 clipbox
/o {
gsave
newpath
translate
1.0 setlinewidth
1 setlinejoin
0 setlinecap
0 -3 m
0.795609 -3 1.55874 -2.683901 2.12132 -2.12132 c
2.683901 -1.55874 3 -0.795609 3 0 c
3 0.795609 2.683901 1.55874 2.12132 2.12132 c
1.55874 2.683901 0.795609 3 0 3 c
-0.795609 3 -1.55874 2.683901 -2.12132 2.12132 c
-2.683901 1.55874 -3 0.795609 -3 0 c
-3 -0.795609 -2.683901 -1.55874 -2.12132 -2.12132 c
-1.55874 -2.683901 -0.795609 -3 0 -3 c
cl

gsave
0.249 0.384 0.981 setrgbcolor
fill
grestore
stroke
grestore
} bind def
173.045 137.209 o
178.672 134.769 o
184.638 136.259 o
190.934 135.854 o
197.625 134.814 o
204.726 133.504 o
212.327 132.761 o
220.48 130.775 o
229.301 130.367 o
238.895 128.864 o
249.397 127.26 o
260.99 125.875 o
273.977 124.338 o
288.679 123.741 o
305.663 121.443 o
325.75 120.872 o
350.329 119.743 o
382.015 118.823 o
426.681 117.676 o
432.33 117.57 o
438.286 117.626 o
444.584 117.243 o
451.261 117.566 o
458.369 117.331 o
465.97 117.217 o
474.134 116.977 o
482.951 116.845 o
492.535 116.836 o
503.033 116.792 o
514.639 116.679 o
527.613 116.421 o
542.322 116.442 o
545.515 116.345 o
548.805 116.371 o
552.194 116.04 o
555.691 115.396 o
559.303 114.859 o
563.037 114.446 o
566.903 113.898 o
570.909 112.999 o
575.066 113.375 o
579.387 112.599 o
583.883 111.551 o
588.57 112.26 o
593.468 111.409 o
598.592 110.27 o
603.966 110.678 o
609.616 110.563 o
615.572 109.024 o
621.868 110.508 o
628.547 109.438 o
635.655 107.829 o
643.255 109.068 o
651.418 110.414 o
660.235 108.783 o
669.82 107.042 o
680.318 109.153 o
691.924 109.241 o
704.898 109.979 o
719.607 111.823 o
736.587 113.373 o
756.67 114.1 o
781.25 112.731 o
812.939 111.855 o
857.602 111.795 o
933.955 111.98 o
grestore
1.500 setlinewidth
2 setlinecap
0.002 0.709 0.923 setrgbcolor
gsave
837 554.4 135 79.2 clipbox
173.045455 137.779235 m
178.671777 137.473982 l
184.637615 134.824726 l
190.933768 133.793653 l
197.625317 134.964435 l
204.725919 132.186004 l
212.327367 131.803135 l
220.480372 130.199034 l
229.300687 129.761058 l
238.895412 127.963915 l
249.39748 127.730513 l
260.989641 125.171957 l
273.977342 123.885305 l
288.679393 122.631696 l
305.662901 121.439625 l
325.749506 120.63131 l
350.329368 119.398103 l
382.014926 118.689912 l
426.681394 117.52545 l
432.3303 117.5229 l
438.28578 117.544078 l
444.58414 117.437855 l
451.261256 116.998438 l
458.369499 117.282623 l
465.970437 117.105326 l
474.133969 117.057315 l
482.950889 117.153559 l
492.535086 116.770468 l
503.033419 116.852187 l
514.639333 116.712035 l
527.613282 116.70771 l
542.322463 116.375514 l
545.51545 116.375514 l
548.804649 116.635306 l
552.19423 116.126477 l
555.691231 115.598799 l
559.302914 114.964455 l
563.037499 114.53668 l
566.902801 113.795891 l
570.90876 113.011969 l
575.065857 113.457928 l
579.386506 112.613577 l
583.882777 111.631624 l
588.570366 112.326952 l
593.467908 111.381479 l
598.591873 110.242519 l
603.966156 110.680939 l
609.615826 110.636476 l
615.571985 109.046789 l
621.868053 110.524154 l
628.546528 109.583005 l
635.654686 107.835869 l
643.254945 109.093137 l
651.417883 110.509075 l
660.235312 108.937683 l
669.819934 107.062148 l
680.318182 109.253802 l
691.924011 109.349935 l
704.898214 109.896906 l
719.606971 111.408755 l
736.587337 113.066189 l
756.67042 114.058454 l
781.250239 112.123931 l
812.939236 111.603128 l
857.602095 112.254659 l
933.954545 111.889309 l
stroke
grestore
1.000 setlinewidth
2 setlinejoin
0 setlinecap
gsave
837 554.4 135 79.2 clipbox
/o {
gsave
newpath
translate
1.0 setlinewidth
2 setlinejoin
0 setlinecap
0 3 m
-0.673542 0.927051 l
-2.85317 0.927051 l
-1.089814 -0.354102 l
-1.763356 -2.427051 l
-0 -1.145898 l
1.763356 -2.427051 l
1.089814 -0.354102 l
2.85317 0.927051 l
0.673542 0.927051 l
cl

gsave
0.002 0.709 0.923 setrgbcolor
fill
grestore
stroke
grestore
} bind def
173.045 137.779 o
178.672 137.474 o
184.638 134.825 o
190.934 133.794 o
197.625 134.964 o
204.726 132.186 o
212.327 131.803 o
220.48 130.199 o
229.301 129.761 o
238.895 127.964 o
249.397 127.731 o
260.99 125.172 o
273.977 123.885 o
288.679 122.632 o
305.663 121.44 o
325.75 120.631 o
350.329 119.398 o
382.015 118.69 o
426.681 117.525 o
432.33 117.523 o
438.286 117.544 o
444.584 117.438 o
451.261 116.998 o
458.369 117.283 o
465.97 117.105 o
474.134 117.057 o
482.951 117.154 o
492.535 116.77 o
503.033 116.852 o
514.639 116.712 o
527.613 116.708 o
542.322 116.376 o
545.515 116.376 o
548.805 116.635 o
552.194 116.126 o
555.691 115.599 o
559.303 114.964 o
563.037 114.537 o
566.903 113.796 o
570.909 113.012 o
575.066 113.458 o
579.387 112.614 o
583.883 111.632 o
588.57 112.327 o
593.468 111.381 o
598.592 110.243 o
603.966 110.681 o
609.616 110.636 o
615.572 109.047 o
621.868 110.524 o
628.547 109.583 o
635.655 107.836 o
643.255 109.093 o
651.418 110.509 o
660.235 108.938 o
669.82 107.062 o
680.318 109.254 o
691.924 109.35 o
704.898 109.897 o
719.607 111.409 o
736.587 113.066 o
756.67 114.058 o
781.25 112.124 o
812.939 111.603 o
857.602 112.255 o
933.955 111.889 o
grestore
1.500 setlinewidth
1 setlinejoin
2 setlinecap
0.253 0.926 0.830 setrgbcolor
gsave
837 554.4 135 79.2 clipbox
173.045455 136.730975 m
178.671777 136.051835 l
184.637615 135.202272 l
190.933768 134.309245 l
197.625317 133.018269 l
204.725919 133.171727 l
212.327367 131.422262 l
220.480372 129.265979 l
229.300687 129.33417 l
238.895412 128.283028 l
249.39748 126.51172 l
260.989641 125.272192 l
273.977342 123.31128 l
288.679393 122.56417 l
305.662901 121.359792 l
325.749506 120.703382 l
350.329368 119.622191 l
382.014926 118.615733 l
426.681394 117.902553 l
432.3303 117.916746 l
438.28578 117.701417 l
444.58414 117.637993 l
451.261256 117.386739 l
458.369499 117.156885 l
465.970437 117.360793 l
474.133969 117.004869 l
482.950889 117.082263 l
492.535086 116.893656 l
503.033419 116.812048 l
514.639333 116.68875 l
527.613282 116.738646 l
542.322463 116.499588 l
545.51545 116.67367 l
548.804649 116.447918 l
552.19423 116.08268 l
555.691231 115.530276 l
559.302914 114.856125 l
563.037499 114.633035 l
566.902801 113.92562 l
570.90876 113.087589 l
575.065857 113.572356 l
579.386506 112.809946 l
583.882777 111.615103 l
588.570366 112.401796 l
593.467908 111.465969 l
598.591873 110.299068 l
603.966156 110.849365 l
609.615826 110.733607 l
615.571985 109.061647 l
621.868053 110.642463 l
628.546528 109.658292 l
635.654686 107.87124 l
643.254945 109.207233 l
651.417883 110.610308 l
660.235312 109.042798 l
669.819934 107.099958 l
680.318182 109.288619 l
691.924011 109.330642 l
704.898214 110.066996 l
719.606971 111.512206 l
736.587337 113.618039 l
756.67042 114.289307 l
781.250239 112.29646 l
812.939236 111.783862 l
857.602095 112.266079 l
933.954545 111.168589 l
stroke
grestore
1.000 setlinewidth
0 setlinejoin
0 setlinecap
gsave
837 554.4 135 79.2 clipbox
/o {
gsave
newpath
translate
1.0 setlinewidth
0 setlinejoin
0 setlinecap
3 -0 m
-3 3 l
-3 -3 l
cl

gsave
0.253 0.926 0.830 setrgbcolor
fill
grestore
stroke
grestore
} bind def
173.045 136.731 o
178.672 136.052 o
184.638 135.202 o
190.934 134.309 o
197.625 133.018 o
204.726 133.172 o
212.327 131.422 o
220.48 129.266 o
229.301 129.334 o
238.895 128.283 o
249.397 126.512 o
260.99 125.272 o
273.977 123.311 o
288.679 122.564 o
305.663 121.36 o
325.75 120.703 o
350.329 119.622 o
382.015 118.616 o
426.681 117.903 o
432.33 117.917 o
438.286 117.701 o
444.584 117.638 o
451.261 117.387 o
458.369 117.157 o
465.97 117.361 o
474.134 117.005 o
482.951 117.082 o
492.535 116.894 o
503.033 116.812 o
514.639 116.689 o
527.613 116.739 o
542.322 116.5 o
545.515 116.674 o
548.805 116.448 o
552.194 116.083 o
555.691 115.53 o
559.303 114.856 o
563.037 114.633 o
566.903 113.926 o
570.909 113.088 o
575.066 113.572 o
579.387 112.81 o
583.883 111.615 o
588.57 112.402 o
593.468 111.466 o
598.592 110.299 o
603.966 110.849 o
609.616 110.734 o
615.572 109.062 o
621.868 110.642 o
628.547 109.658 o
635.655 107.871 o
643.255 109.207 o
651.418 110.61 o
660.235 109.043 o
669.82 107.1 o
680.318 109.289 o
691.924 109.331 o
704.898 110.067 o
719.607 111.512 o
736.587 113.618 o
756.67 114.289 o
781.25 112.296 o
812.939 111.784 o
857.602 112.266 o
933.955 111.169 o
grestore
1.500 setlinewidth
1 setlinejoin
2 setlinecap
0.504 1.000 0.705 setrgbcolor
gsave
837 554.4 135 79.2 clipbox
173.045455 138.375547 m
178.671777 134.626251 l
184.637615 134.318781 l
190.933768 135.230547 l
197.625317 134.157228 l
204.725919 132.69206 l
212.327367 131.473711 l
220.480372 130.772395 l
229.300687 129.160532 l
238.895412 128.033326 l
249.39748 126.889044 l
260.989641 125.222407 l
273.977342 123.126775 l
288.679393 122.632916 l
305.662901 121.759625 l
325.749506 120.827568 l
350.329368 119.784963 l
382.014926 118.458838 l
426.681394 117.737231 l
432.3303 117.548624 l
438.28578 118.089608 l
444.58414 117.480322 l
451.261256 117.289165 l
458.369499 117.215762 l
465.970437 117.245256 l
474.133969 117.357689 l
482.950889 116.97349 l
492.535086 116.873365 l
503.033419 116.63963 l
514.639333 116.612908 l
527.613282 116.476193 l
542.322463 116.418868 l
545.51545 116.30444 l
548.804649 116.284038 l
552.19423 116.06638 l
555.691231 115.662888 l
559.302914 114.885508 l
563.037499 114.494545 l
566.902801 113.78447 l
570.90876 112.953424 l
575.065857 113.461144 l
579.386506 112.706384 l
583.882777 111.61355 l
588.570366 112.405455 l
593.467908 111.390238 l
598.591873 110.237751 l
603.966156 111.134216 l
609.615826 110.684598 l
615.571985 109.012306 l
621.868053 110.563628 l
628.546528 109.60762 l
635.654686 107.830657 l
643.254945 109.207011 l
651.417883 110.578375 l
660.235312 109.079388 l
669.819934 107.170589 l
680.318182 109.071626 l
691.924011 109.356034 l
704.898214 109.675146 l
719.606971 111.589046 l
736.587337 113.611054 l
756.67042 113.937373 l
781.250239 112.572773 l
812.939236 112.144222 l
857.602095 111.978346 l
933.954545 110.86134 l
stroke
grestore
1.000 setlinewidth
0 setlinejoin
0 setlinecap
gsave
837 554.4 135 79.2 clipbox
/o {
gsave
newpath
translate
1.0 setlinewidth
0 setlinejoin
0 setlinecap
-3 0 m
3 -3 l
3 3 l
cl

gsave
0.504 1.000 0.705 setrgbcolor
fill
grestore
stroke
grestore
} bind def
173.045 138.376 o
178.672 134.626 o
184.638 134.319 o
190.934 135.231 o
197.625 134.157 o
204.726 132.692 o
212.327 131.474 o
220.48 130.772 o
229.301 129.161 o
238.895 128.033 o
249.397 126.889 o
260.99 125.222 o
273.977 123.127 o
288.679 122.633 o
305.663 121.76 o
325.75 120.828 o
350.329 119.785 o
382.015 118.459 o
426.681 117.737 o
432.33 117.549 o
438.286 118.09 o
444.584 117.48 o
451.261 117.289 o
458.369 117.216 o
465.97 117.245 o
474.134 117.358 o
482.951 116.973 o
492.535 116.873 o
503.033 116.64 o
514.639 116.613 o
527.613 116.476 o
542.322 116.419 o
545.515 116.304 o
548.805 116.284 o
552.194 116.066 o
555.691 115.663 o
559.303 114.886 o
563.037 114.495 o
566.903 113.784 o
570.909 112.953 o
575.066 113.461 o
579.387 112.706 o
583.883 111.614 o
588.57 112.405 o
593.468 111.39 o
598.592 110.238 o
603.966 111.134 o
609.616 110.685 o
615.572 109.012 o
621.868 110.564 o
628.547 109.608 o
635.655 107.831 o
643.255 109.207 o
651.418 110.578 o
660.235 109.079 o
669.82 107.171 o
680.318 109.072 o
691.924 109.356 o
704.898 109.675 o
719.607 111.589 o
736.587 113.611 o
756.67 113.937 o
781.25 112.573 o
812.939 112.144 o
857.602 111.978 o
933.955 110.861 o
grestore
1.500 setlinewidth
1 setlinejoin
2 setlinecap
0.755 0.921 0.552 setrgbcolor
gsave
837 554.4 135 79.2 clipbox
173.045455 134.354706 m
178.671777 134.201026 l
184.637615 133.691754 l
190.933768 132.685186 l
197.625317 133.038449 l
204.725919 131.540793 l
212.327367 130.926074 l
220.480372 129.629555 l
229.300687 129.36311 l
238.895412 127.976445 l
249.39748 126.96034 l
260.989641 125.071389 l
273.977342 123.569741 l
288.679393 122.468259 l
305.662901 121.53099 l
325.749506 120.564228 l
350.329368 119.562981 l
382.014926 118.448526 l
426.681394 117.548513 l
432.3303 117.474002 l
438.28578 117.487529 l
444.58414 117.44484 l
451.261256 117.212103 l
458.369499 117.195028 l
465.970437 117.27719 l
474.133969 116.866158 l
482.950889 116.840434 l
492.535086 116.786768 l
503.033419 116.65848 l
514.639333 116.61313 l
527.613282 116.50613 l
542.322463 116.288584 l
545.51545 116.434835 l
548.804649 116.371189 l
552.19423 116.067489 l
555.691231 115.396887 l
559.302914 114.699784 l
563.037499 114.48501 l
566.902801 113.792564 l
570.90876 112.892108 l
575.065857 113.445732 l
579.386506 112.628324 l
583.882777 111.510099 l
588.570366 112.314756 l
593.467908 111.350765 l
598.591873 110.202159 l
603.966156 110.776517 l
609.615826 110.72141 l
615.571985 108.943671 l
621.868053 110.615187 l
628.546528 109.663282 l
635.654686 107.836978 l
643.254945 109.236172 l
651.417883 110.558084 l
660.235312 109.213775 l
669.819934 107.090644 l
680.318182 109.314232 l
691.924011 109.066415 l
704.898214 109.740787 l
719.606971 111.617764 l
736.587337 113.31068 l
756.67042 114.197498 l
781.250239 112.846092 l
812.939236 112.645067 l
857.602095 111.964818 l
933.954545 110.880855 l
stroke
grestore
1.000 setlinewidth
0 setlinejoin
0 setlinecap
gsave
837 554.4 135 79.2 clipbox
/o {
gsave
newpath
translate
1.0 setlinewidth
0 setlinejoin
0 setlinecap
-0 -4.242641 m
2.545584 0 l
0 4.242641 l
-2.545584 0 l
cl

gsave
0.755 0.921 0.552 setrgbcolor
fill
grestore
stroke
grestore
} bind def
173.045 134.355 o
178.672 134.201 o
184.638 133.692 o
190.934 132.685 o
197.625 133.038 o
204.726 131.541 o
212.327 130.926 o
220.48 129.63 o
229.301 129.363 o
238.895 127.976 o
249.397 126.96 o
260.99 125.071 o
273.977 123.57 o
288.679 122.468 o
305.663 121.531 o
325.75 120.564 o
350.329 119.563 o
382.015 118.449 o
426.681 117.549 o
432.33 117.474 o
438.286 117.488 o
444.584 117.445 o
451.261 117.212 o
458.369 117.195 o
465.97 117.277 o
474.134 116.866 o
482.951 116.84 o
492.535 116.787 o
503.033 116.658 o
514.639 116.613 o
527.613 116.506 o
542.322 116.289 o
545.515 116.435 o
548.805 116.371 o
552.194 116.067 o
555.691 115.397 o
559.303 114.7 o
563.037 114.485 o
566.903 113.793 o
570.909 112.892 o
575.066 113.446 o
579.387 112.628 o
583.883 111.51 o
588.57 112.315 o
593.468 111.351 o
598.592 110.202 o
603.966 110.777 o
609.616 110.721 o
615.572 108.944 o
621.868 110.615 o
628.547 109.663 o
635.655 107.837 o
643.255 109.236 o
651.418 110.558 o
660.235 109.214 o
669.82 107.091 o
680.318 109.314 o
691.924 109.066 o
704.898 109.741 o
719.607 111.618 o
736.587 113.311 o
756.67 114.197 o
781.25 112.846 o
812.939 112.645 o
857.602 111.965 o
933.955 110.881 o
grestore
1.500 setlinewidth
1 setlinejoin
2 setlinecap
1.000 0.701 0.378 setrgbcolor
gsave
837 554.4 135 79.2 clipbox
173.045455 135.833734 m
178.671777 134.725378 l
184.637615 135.018988 l
190.933768 134.23307 l
197.625317 133.25899 l
204.725919 132.323495 l
212.327367 131.281667 l
220.480372 129.595071 l
229.300687 129.563248 l
238.895412 127.657997 l
249.39748 126.553522 l
260.989641 124.725997 l
273.977342 124.213843 l
288.679393 122.552749 l
305.662901 121.37975 l
325.749506 120.631975 l
350.329368 119.211048 l
382.014926 118.376787 l
426.681394 117.450495 l
432.3303 117.290496 l
438.28578 117.306795 l
444.58414 117.361902 l
451.261256 117.029817 l
458.369499 117.091022 l
465.970437 117.003982 l
474.133969 116.916054 l
482.950889 116.817481 l
492.535086 116.700614 l
503.033419 116.53008 l
514.639333 116.668902 l
527.613282 116.317191 l
542.322463 116.372964 l
545.51545 116.425077 l
548.804649 116.346241 l
552.19423 116.049194 l
555.691231 115.402653 l
559.302914 114.75844 l
563.037499 114.466382 l
566.902801 113.677914 l
570.90876 112.835892 l
575.065857 113.583334 l
579.386506 112.65804 l
583.882777 111.563544 l
588.570366 112.389267 l
593.467908 111.347438 l
598.591873 110.225333 l
603.966156 110.775298 l
609.615826 110.669518 l
615.571985 108.953096 l
621.868053 110.623614 l
628.546528 109.657405 l
635.654686 107.87257 l
643.254945 109.285736 l
651.417883 110.527037 l
660.235312 109.052001 l
669.819934 107.273042 l
680.318182 109.104447 l
691.924011 109.430434 l
704.898214 110.030184 l
719.606971 111.312289 l
736.587337 113.308351 l
756.67042 113.96465 l
781.250239 112.213522 l
812.939236 111.495907 l
857.602095 112.123598 l
933.954545 111.05904 l
stroke
grestore
1.000 setlinewidth
0 setlinejoin
0 setlinecap
gsave
837 554.4 135 79.2 clipbox
/o {
gsave
newpath
translate
1.0 setlinewidth
0 setlinejoin
0 setlinecap
0 3 m
-2.85317 0.927051 l
-1.763356 -2.427051 l
1.763356 -2.427051 l
2.85317 0.927051 l
cl

gsave
1.000 0.701 0.378 setrgbcolor
fill
grestore
stroke
grestore
} bind def
173.045 135.834 o
178.672 134.725 o
184.638 135.019 o
190.934 134.233 o
197.625 133.259 o
204.726 132.323 o
212.327 131.282 o
220.48 129.595 o
229.301 129.563 o
238.895 127.658 o
249.397 126.554 o
260.99 124.726 o
273.977 124.214 o
288.679 122.553 o
305.663 121.38 o
325.75 120.632 o
350.329 119.211 o
382.015 118.377 o
426.681 117.45 o
432.33 117.29 o
438.286 117.307 o
444.584 117.362 o
451.261 117.03 o
458.369 117.091 o
465.97 117.004 o
474.134 116.916 o
482.951 116.817 o
492.535 116.701 o
503.033 116.53 o
514.639 116.669 o
527.613 116.317 o
542.322 116.373 o
545.515 116.425 o
548.805 116.346 o
552.194 116.049 o
555.691 115.403 o
559.303 114.758 o
563.037 114.466 o
566.903 113.678 o
570.909 112.836 o
575.066 113.583 o
579.387 112.658 o
583.883 111.564 o
588.57 112.389 o
593.468 111.347 o
598.592 110.225 o
603.966 110.775 o
609.616 110.67 o
615.572 108.953 o
621.868 110.624 o
628.547 109.657 o
635.655 107.873 o
643.255 109.286 o
651.418 110.527 o
660.235 109.052 o
669.82 107.273 o
680.318 109.104 o
691.924 109.43 o
704.898 110.03 o
719.607 111.312 o
736.587 113.308 o
756.67 113.965 o
781.25 112.214 o
812.939 111.496 o
857.602 112.124 o
933.955 111.059 o
grestore
1.500 setlinewidth
1 setlinejoin
2 setlinecap
1.000 0.373 0.190 setrgbcolor
gsave
837 554.4 135 79.2 clipbox
173.045455 132.760917 m
178.671777 134.978517 l
184.637615 133.430521 l
190.933768 132.380598 l
197.625317 131.719753 l
204.725919 130.954681 l
212.327367 130.144038 l
220.480372 128.911717 l
229.300687 128.247103 l
238.895412 126.948144 l
249.39748 126.013314 l
260.989641 124.951638 l
273.977342 123.75868 l
288.679393 122.049909 l
305.662901 120.782218 l
325.749506 120.385932 l
350.329368 119.375372 l
382.014926 118.490993 l
426.681394 117.832366 l
432.3303 117.497619 l
438.28578 117.631119 l
444.58414 117.302027 l
451.261256 117.187266 l
458.369499 117.065853 l
465.970437 117.007641 l
474.133969 117.026601 l
482.950889 116.783885 l
492.535086 116.893102 l
503.033419 116.731882 l
514.639333 116.690856 l
527.613282 116.562679 l
542.322463 117.016289 l
545.51545 116.506463 l
548.804649 116.40146 l
552.19423 116.150649 l
555.691231 115.512202 l
559.302914 115.256624 l
563.037499 114.634476 l
566.902801 113.946244 l
570.90876 113.072842 l
575.065857 113.730028 l
579.386506 112.875254 l
583.882777 111.691277 l
588.570366 112.54217 l
593.467908 111.524846 l
598.591873 110.433233 l
603.966156 111.034979 l
609.615826 110.917557 l
615.571985 108.9725 l
621.868053 110.932525 l
628.546528 109.789353 l
635.654686 108.023145 l
643.254945 109.423338 l
651.417883 110.543115 l
660.235312 109.281079 l
669.819934 107.242772 l
680.318182 109.695216 l
691.924011 109.496629 l
704.898214 109.415576 l
719.606971 111.765456 l
736.587337 113.550957 l
756.67042 114.330443 l
781.250239 112.521768 l
812.939236 111.637944 l
857.602095 112.420646 l
933.954545 110.859677 l
stroke
grestore
1.000 setlinewidth
0 setlinejoin
0 setlinecap
gsave
837 554.4 135 79.2 clipbox
/o {
gsave
newpath
translate
1.0 setlinewidth
0 setlinejoin
0 setlinecap
0 3 m
-2.598076 1.5 l
-2.598076 -1.5 l
-0 -3 l
2.598076 -1.5 l
2.598076 1.5 l
cl

gsave
1.000 0.373 0.190 setrgbcolor
fill
grestore
stroke
grestore
} bind def
173.045 132.761 o
178.672 134.979 o
184.638 133.431 o
190.934 132.381 o
197.625 131.72 o
204.726 130.955 o
212.327 130.144 o
220.48 128.912 o
229.301 128.247 o
238.895 126.948 o
249.397 126.013 o
260.99 124.952 o
273.977 123.759 o
288.679 122.05 o
305.663 120.782 o
325.75 120.386 o
350.329 119.375 o
382.015 118.491 o
426.681 117.832 o
432.33 117.498 o
438.286 117.631 o
444.584 117.302 o
451.261 117.187 o
458.369 117.066 o
465.97 117.008 o
474.134 117.027 o
482.951 116.784 o
492.535 116.893 o
503.033 116.732 o
514.639 116.691 o
527.613 116.563 o
542.322 117.016 o
545.515 116.506 o
548.805 116.401 o
552.194 116.151 o
555.691 115.512 o
559.303 115.257 o
563.037 114.634 o
566.903 113.946 o
570.909 113.073 o
575.066 113.73 o
579.387 112.875 o
583.883 111.691 o
588.57 112.542 o
593.468 111.525 o
598.592 110.433 o
603.966 111.035 o
609.616 110.918 o
615.572 108.972 o
621.868 110.933 o
628.547 109.789 o
635.655 108.023 o
643.255 109.423 o
651.418 110.543 o
660.235 109.281 o
669.82 107.243 o
680.318 109.695 o
691.924 109.497 o
704.898 109.416 o
719.607 111.765 o
736.587 113.551 o
756.67 114.33 o
781.25 112.522 o
812.939 111.638 o
857.602 112.421 o
933.955 110.86 o
grestore
1.500 setlinewidth
1 setlinejoin
2 setlinecap
1.000 0.000 0.000 setrgbcolor
gsave
837 554.4 135 79.2 clipbox
173.045455 535.329606 m
178.671777 529.138843 l
184.637615 525.645236 l
190.933768 519.014834 l
197.625317 515.852425 l
204.725919 504.989401 l
212.327367 497.928119 l
220.480372 484.31272 l
229.300687 481.509896 l
238.895412 469.144891 l
249.39748 460.760256 l
260.989641 446.952924 l
273.977342 435.99798 l
288.679393 426.634164 l
305.662901 417.097043 l
325.749506 410.420403 l
350.329368 401.555215 l
382.014926 393.711009 l
426.681394 386.306997 l
432.3303 385.790518 l
438.28578 386.216297 l
444.58414 384.364269 l
451.261256 383.164436 l
458.369499 382.82603 l
465.970437 382.709052 l
474.133969 381.504784 l
482.950889 380.527155 l
492.535086 379.976193 l
503.033419 379.212562 l
514.639333 378.548502 l
527.613282 377.385371 l
542.322463 377.080118 l
545.51545 376.921449 l
548.804649 376.482807 l
552.19423 374.12816 l
555.691231 369.395025 l
559.302914 364.506326 l
563.037499 361.504804 l
566.902801 356.132447 l
570.90876 349.417221 l
575.065857 353.25888 l
579.386506 346.841922 l
583.882777 338.537232 l
588.570366 344.216506 l
593.467908 336.957081 l
598.591873 328.23138 l
603.966156 331.933884 l
609.615826 331.08155 l
615.571985 318.313053 l
621.868053 330.118003 l
628.546528 322.699909 l
635.654686 308.952452 l
643.254945 319.512442 l
651.417883 328.937242 l
660.235312 317.868646 l
669.819934 303.20909 l
680.318182 319.311749 l
691.924011 320.163751 l
704.898214 324.19435 l
719.606971 338.421584 l
736.587337 352.881667 l
756.67042 358.739901 l
781.250239 345.694314 l
812.939236 340.677438 l
857.602095 342.273223 l
933.954545 336.879909 l
stroke
grestore
1.000 setlinewidth
2 setlinejoin
0 setlinecap
gsave
837 554.4 135 79.2 clipbox
/o {
gsave
newpath
translate
1.0 setlinewidth
2 setlinejoin
0 setlinecap
0 3 m
-0.673542 0.927051 l
-2.85317 0.927051 l
-1.089814 -0.354102 l
-1.763356 -2.427051 l
-0 -1.145898 l
1.763356 -2.427051 l
1.089814 -0.354102 l
2.85317 0.927051 l
0.673542 0.927051 l
cl

gsave
1.000 0.000 0.000 setrgbcolor
fill
grestore
stroke
grestore
} bind def
173.045 535.33 o
178.672 529.139 o
184.638 525.645 o
190.934 519.015 o
197.625 515.852 o
204.726 504.989 o
212.327 497.928 o
220.48 484.313 o
229.301 481.51 o
238.895 469.145 o
249.397 460.76 o
260.99 446.953 o
273.977 435.998 o
288.679 426.634 o
305.663 417.097 o
325.75 410.42 o
350.329 401.555 o
382.015 393.711 o
426.681 386.307 o
432.33 385.791 o
438.286 386.216 o
444.584 384.364 o
451.261 383.164 o
458.369 382.826 o
465.97 382.709 o
474.134 381.505 o
482.951 380.527 o
492.535 379.976 o
503.033 379.213 o
514.639 378.549 o
527.613 377.385 o
542.322 377.08 o
545.515 376.921 o
548.805 376.483 o
552.194 374.128 o
555.691 369.395 o
559.303 364.506 o
563.037 361.505 o
566.903 356.132 o
570.909 349.417 o
575.066 353.259 o
579.387 346.842 o
583.883 338.537 o
588.57 344.217 o
593.468 336.957 o
598.592 328.231 o
603.966 331.934 o
609.616 331.082 o
615.572 318.313 o
621.868 330.118 o
628.547 322.7 o
635.655 308.952 o
643.255 319.512 o
651.418 328.937 o
660.235 317.869 o
669.82 303.209 o
680.318 319.312 o
691.924 320.164 o
704.898 324.194 o
719.607 338.422 o
736.587 352.882 o
756.67 358.74 o
781.25 345.694 o
812.939 340.677 o
857.602 342.273 o
933.955 336.88 o
grestore
0.200 setlinewidth
1 setlinejoin
2 setlinecap
0.000 setgray
gsave
837 554.4 135 79.2 clipbox
135 79.2 m
1081 79.2 l
stroke
grestore
gsave
837 554.4 135 79.2 clipbox
135 134.64 m
1081 134.64 l
stroke
grestore
gsave
837 554.4 135 79.2 clipbox
135 190.08 m
1081 190.08 l
stroke
grestore
gsave
837 554.4 135 79.2 clipbox
135 245.52 m
1081 245.52 l
stroke
grestore
gsave
837 554.4 135 79.2 clipbox
135 300.96 m
1081 300.96 l
stroke
grestore
gsave
837 554.4 135 79.2 clipbox
135 356.4 m
1081 356.4 l
stroke
grestore
gsave
837 554.4 135 79.2 clipbox
135 411.84 m
1081 411.84 l
stroke
grestore
gsave
837 554.4 135 79.2 clipbox
135 467.28 m
1081 467.28 l
stroke
grestore
gsave
837 554.4 135 79.2 clipbox
135 522.72 m
1081 522.72 l
stroke
grestore
gsave
837 554.4 135 79.2 clipbox
135 578.16 m
1081 578.16 l
stroke
grestore
0.800 setlinewidth
0 setlinejoin
gsave
135 79.2 m
135 633.6 l
stroke
grestore
gsave
972 79.2 m
972 633.6 l
stroke
grestore
gsave
135 79.2 m
972 79.2 l
stroke
grestore
gsave
135 633.6 m
972 633.6 l
stroke
grestore
/DejaVuSans findfont
14.400 scalefont
setfont
gsave
388.773438 655.275000 translate
0.000000 rotate
0.000000 0 m /B glyphshow
9.861755 0 m /a glyphshow
18.670654 0 m /n glyphshow
27.781372 0 m /d glyphshow
36.906128 0 m /w glyphshow
48.663025 0 m /i glyphshow
52.656860 0 m /d glyphshow
61.781616 0 m /t glyphshow
67.417908 0 m /h glyphshow
76.528625 0 m /space glyphshow
81.098022 0 m /m glyphshow
95.101013 0 m /e glyphshow
103.945007 0 m /a glyphshow
112.753906 0 m /s glyphshow
120.243225 0 m /u glyphshow
129.353943 0 m /r glyphshow
134.888977 0 m /e glyphshow
143.732971 0 m /s glyphshow
151.222290 0 m /space glyphshow
155.791687 0 m /o glyphshow
164.586548 0 m /n glyphshow
173.697266 0 m /space glyphshow
178.266663 0 m /I glyphshow
182.506165 0 m /n glyphshow
191.616882 0 m /t glyphshow
197.253174 0 m /e glyphshow
206.097168 0 m /l glyphshow
210.091003 0 m /space glyphshow
214.660400 0 m /X glyphshow
223.883118 0 m /e glyphshow
232.727112 0 m /o glyphshow
241.521973 0 m /n glyphshow
250.632690 0 m /space glyphshow
255.202087 0 m /G glyphshow
266.341309 0 m /o glyphshow
275.136169 0 m /l glyphshow
279.130005 0 m /d glyphshow
288.254761 0 m /space glyphshow
292.824158 0 m /six glyphshow
301.969971 0 m /two glyphshow
311.115784 0 m /four glyphshow
320.261597 0 m /zero glyphshow
grestore
gsave
437.421875 639.600000 translate
0.000000 rotate
0.000000 0 m /C glyphshow
10.037231 0 m /r glyphshow
15.572266 0 m /o glyphshow
24.367126 0 m /s glyphshow
31.856445 0 m /s glyphshow
39.345764 0 m /space glyphshow
43.915161 0 m /m glyphshow
57.918152 0 m /o glyphshow
66.713013 0 m /d glyphshow
75.837769 0 m /e glyphshow
84.681763 0 m /colon glyphshow
89.524902 0 m /space glyphshow
94.094299 0 m /S glyphshow
103.219055 0 m /o glyphshow
112.013916 0 m /c glyphshow
119.917358 0 m /k glyphshow
127.741943 0 m /e glyphshow
136.585938 0 m /t glyphshow
142.222229 0 m /space glyphshow
146.791626 0 m /zero glyphshow
155.937439 0 m /space glyphshow
160.506836 0 m /hyphen glyphshow
165.693909 0 m /space glyphshow
170.263306 0 m /S glyphshow
179.388062 0 m /o glyphshow
188.182922 0 m /c glyphshow
196.086365 0 m /k glyphshow
203.910950 0 m /e glyphshow
212.754944 0 m /t glyphshow
218.391235 0 m /space glyphshow
222.960632 0 m /one glyphshow
grestore
1.000 setlinewidth
0 setlinecap
0.800 setgray
gsave
814.371875 465.375 m
963.6 465.375 l
965.2 465.375 966 466.175 966 467.775 c
966 625.2 l
966 626.8 965.2 627.6 963.6 627.6 c
814.371875 627.6 l
812.771875 627.6 811.971875 626.8 811.971875 625.2 c
811.971875 467.775 l
811.971875 466.175 812.771875 465.375 814.371875 465.375 c
cl
gsave
1.000 setgray
fill
grestore
stroke
grestore
1.500 setlinewidth
1 setlinejoin
2 setlinecap
0.500 0.000 1.000 setrgbcolor
gsave
816.771875 617.875 m
840.771875 617.875 l
stroke
grestore
1.000 setlinewidth
0 setlinecap
gsave
/o {
gsave
newpath
translate
1.0 setlinewidth
1 setlinejoin
0 setlinecap
0 -1.5 m
0.397805 -1.5 0.77937 -1.341951 1.06066 -1.06066 c
1.341951 -0.77937 1.5 -0.397805 1.5 0 c
1.5 0.397805 1.341951 0.77937 1.06066 1.06066 c
0.77937 1.341951 0.397805 1.5 0 1.5 c
-0.397805 1.5 -0.77937 1.341951 -1.06066 1.06066 c
-1.341951 0.77937 -1.5 0.397805 -1.5 0 c
-1.5 -0.397805 -1.341951 -0.77937 -1.06066 -1.06066 c
-0.77937 -1.341951 -0.397805 -1.5 0 -1.5 c
cl

gsave
0.500 0.000 1.000 setrgbcolor
fill
grestore
stroke
grestore
} bind def
828.772 617.875 o
grestore
0.000 setgray
/DejaVuSans findfont
12.000 scalefont
setfont
gsave
850.371875 613.675000 translate
0.000000 rotate
0.000000 0 m /R glyphshow
7.962891 0 m /colon glyphshow
12.005859 0 m /C glyphshow
20.384766 0 m /P glyphshow
27.621094 0 m /U glyphshow
36.404297 0 m /zero glyphshow
44.039062 0 m /space glyphshow
47.853516 0 m /hyphen glyphshow
52.183594 0 m /space glyphshow
55.998047 0 m /W glyphshow
67.113281 0 m /colon glyphshow
71.156250 0 m /C glyphshow
79.535156 0 m /P glyphshow
86.771484 0 m /U glyphshow
95.554688 0 m /one glyphshow
103.189453 0 m /eight glyphshow
grestore
1.500 setlinewidth
2 setlinecap
0.249 0.384 0.981 setrgbcolor
gsave
816.771875 600.25 m
840.771875 600.25 l
stroke
grestore
1.000 setlinewidth
0 setlinecap
gsave
/o {
gsave
newpath
translate
1.0 setlinewidth
1 setlinejoin
0 setlinecap
0 -3 m
0.795609 -3 1.55874 -2.683901 2.12132 -2.12132 c
2.683901 -1.55874 3 -0.795609 3 0 c
3 0.795609 2.683901 1.55874 2.12132 2.12132 c
1.55874 2.683901 0.795609 3 0 3 c
-0.795609 3 -1.55874 2.683901 -2.12132 2.12132 c
-2.683901 1.55874 -3 0.795609 -3 0 c
-3 -0.795609 -2.683901 -1.55874 -2.12132 -2.12132 c
-1.55874 -2.683901 -0.795609 -3 0 -3 c
cl

gsave
0.249 0.384 0.981 setrgbcolor
fill
grestore
stroke
grestore
} bind def
828.772 600.25 o
grestore
0.000 setgray
gsave
850.371875 596.050000 translate
0.000000 rotate
0.000000 0 m /R glyphshow
7.962891 0 m /colon glyphshow
12.005859 0 m /C glyphshow
20.384766 0 m /P glyphshow
27.621094 0 m /U glyphshow
36.404297 0 m /one glyphshow
44.039062 0 m /space glyphshow
47.853516 0 m /hyphen glyphshow
52.183594 0 m /space glyphshow
55.998047 0 m /W glyphshow
67.113281 0 m /colon glyphshow
71.156250 0 m /C glyphshow
79.535156 0 m /P glyphshow
86.771484 0 m /U glyphshow
95.554688 0 m /one glyphshow
103.189453 0 m /nine glyphshow
grestore
1.500 setlinewidth
2 setlinecap
0.002 0.709 0.923 setrgbcolor
gsave
816.771875 582.625 m
840.771875 582.625 l
stroke
grestore
1.000 setlinewidth
2 setlinejoin
0 setlinecap
gsave
/o {
gsave
newpath
translate
1.0 setlinewidth
2 setlinejoin
0 setlinecap
0 3 m
-0.673542 0.927051 l
-2.85317 0.927051 l
-1.089814 -0.354102 l
-1.763356 -2.427051 l
-0 -1.145898 l
1.763356 -2.427051 l
1.089814 -0.354102 l
2.85317 0.927051 l
0.673542 0.927051 l
cl

gsave
0.002 0.709 0.923 setrgbcolor
fill
grestore
stroke
grestore
} bind def
828.772 582.625 o
grestore
0.000 setgray
gsave
850.371875 578.425000 translate
0.000000 rotate
0.000000 0 m /R glyphshow
7.962891 0 m /colon glyphshow
12.005859 0 m /C glyphshow
20.384766 0 m /P glyphshow
27.621094 0 m /U glyphshow
36.404297 0 m /two glyphshow
44.039062 0 m /space glyphshow
47.853516 0 m /hyphen glyphshow
52.183594 0 m /space glyphshow
55.998047 0 m /W glyphshow
67.113281 0 m /colon glyphshow
71.156250 0 m /C glyphshow
79.535156 0 m /P glyphshow
86.771484 0 m /U glyphshow
95.554688 0 m /two glyphshow
103.189453 0 m /zero glyphshow
grestore
1.500 setlinewidth
1 setlinejoin
2 setlinecap
0.253 0.926 0.830 setrgbcolor
gsave
816.771875 565 m
840.771875 565 l
stroke
grestore
1.000 setlinewidth
0 setlinejoin
0 setlinecap
gsave
/o {
gsave
newpath
translate
1.0 setlinewidth
0 setlinejoin
0 setlinecap
3 -0 m
-3 3 l
-3 -3 l
cl

gsave
0.253 0.926 0.830 setrgbcolor
fill
grestore
stroke
grestore
} bind def
828.772 565 o
grestore
0.000 setgray
gsave
850.371875 560.800000 translate
0.000000 rotate
0.000000 0 m /R glyphshow
7.962891 0 m /colon glyphshow
12.005859 0 m /C glyphshow
20.384766 0 m /P glyphshow
27.621094 0 m /U glyphshow
36.404297 0 m /three glyphshow
44.039062 0 m /space glyphshow
47.853516 0 m /hyphen glyphshow
52.183594 0 m /space glyphshow
55.998047 0 m /W glyphshow
67.113281 0 m /colon glyphshow
71.156250 0 m /C glyphshow
79.535156 0 m /P glyphshow
86.771484 0 m /U glyphshow
95.554688 0 m /two glyphshow
103.189453 0 m /one glyphshow
grestore
1.500 setlinewidth
1 setlinejoin
2 setlinecap
0.504 1.000 0.705 setrgbcolor
gsave
816.771875 547.375 m
840.771875 547.375 l
stroke
grestore
1.000 setlinewidth
0 setlinejoin
0 setlinecap
gsave
/o {
gsave
newpath
translate
1.0 setlinewidth
0 setlinejoin
0 setlinecap
-3 0 m
3 -3 l
3 3 l
cl

gsave
0.504 1.000 0.705 setrgbcolor
fill
grestore
stroke
grestore
} bind def
828.772 547.375 o
grestore
0.000 setgray
gsave
850.371875 543.175000 translate
0.000000 rotate
0.000000 0 m /R glyphshow
7.962891 0 m /colon glyphshow
12.005859 0 m /C glyphshow
20.384766 0 m /P glyphshow
27.621094 0 m /U glyphshow
36.404297 0 m /four glyphshow
44.039062 0 m /space glyphshow
47.853516 0 m /hyphen glyphshow
52.183594 0 m /space glyphshow
55.998047 0 m /W glyphshow
67.113281 0 m /colon glyphshow
71.156250 0 m /C glyphshow
79.535156 0 m /P glyphshow
86.771484 0 m /U glyphshow
95.554688 0 m /two glyphshow
103.189453 0 m /two glyphshow
grestore
1.500 setlinewidth
1 setlinejoin
2 setlinecap
0.755 0.921 0.552 setrgbcolor
gsave
816.771875 529.75 m
840.771875 529.75 l
stroke
grestore
1.000 setlinewidth
0 setlinejoin
0 setlinecap
gsave
/o {
gsave
newpath
translate
1.0 setlinewidth
0 setlinejoin
0 setlinecap
-0 -4.242641 m
2.545584 0 l
0 4.242641 l
-2.545584 0 l
cl

gsave
0.755 0.921 0.552 setrgbcolor
fill
grestore
stroke
grestore
} bind def
828.772 529.75 o
grestore
0.000 setgray
gsave
850.371875 525.550000 translate
0.000000 rotate
0.000000 0 m /R glyphshow
7.962891 0 m /colon glyphshow
12.005859 0 m /C glyphshow
20.384766 0 m /P glyphshow
27.621094 0 m /U glyphshow
36.404297 0 m /five glyphshow
44.039062 0 m /space glyphshow
47.853516 0 m /hyphen glyphshow
52.183594 0 m /space glyphshow
55.998047 0 m /W glyphshow
67.113281 0 m /colon glyphshow
71.156250 0 m /C glyphshow
79.535156 0 m /P glyphshow
86.771484 0 m /U glyphshow
95.554688 0 m /two glyphshow
103.189453 0 m /one glyphshow
grestore
1.500 setlinewidth
1 setlinejoin
2 setlinecap
1.000 0.701 0.378 setrgbcolor
gsave
816.771875 512.125 m
840.771875 512.125 l
stroke
grestore
1.000 setlinewidth
0 setlinejoin
0 setlinecap
gsave
/o {
gsave
newpath
translate
1.0 setlinewidth
0 setlinejoin
0 setlinecap
0 3 m
-2.85317 0.927051 l
-1.763356 -2.427051 l
1.763356 -2.427051 l
2.85317 0.927051 l
cl

gsave
1.000 0.701 0.378 setrgbcolor
fill
grestore
stroke
grestore
} bind def
828.772 512.125 o
grestore
0.000 setgray
gsave
850.371875 507.925000 translate
0.000000 rotate
0.000000 0 m /R glyphshow
7.962891 0 m /colon glyphshow
12.005859 0 m /C glyphshow
20.384766 0 m /P glyphshow
27.621094 0 m /U glyphshow
36.404297 0 m /six glyphshow
44.039062 0 m /space glyphshow
47.853516 0 m /hyphen glyphshow
52.183594 0 m /space glyphshow
55.998047 0 m /W glyphshow
67.113281 0 m /colon glyphshow
71.156250 0 m /C glyphshow
79.535156 0 m /P glyphshow
86.771484 0 m /U glyphshow
95.554688 0 m /two glyphshow
103.189453 0 m /two glyphshow
grestore
1.500 setlinewidth
1 setlinejoin
2 setlinecap
1.000 0.373 0.190 setrgbcolor
gsave
816.771875 494.5 m
840.771875 494.5 l
stroke
grestore
1.000 setlinewidth
0 setlinejoin
0 setlinecap
gsave
/o {
gsave
newpath
translate
1.0 setlinewidth
0 setlinejoin
0 setlinecap
0 3 m
-2.598076 1.5 l
-2.598076 -1.5 l
-0 -3 l
2.598076 -1.5 l
2.598076 1.5 l
cl

gsave
1.000 0.373 0.190 setrgbcolor
fill
grestore
stroke
grestore
} bind def
828.772 494.5 o
grestore
0.000 setgray
gsave
850.371875 490.300000 translate
0.000000 rotate
0.000000 0 m /R glyphshow
7.962891 0 m /colon glyphshow
12.005859 0 m /C glyphshow
20.384766 0 m /P glyphshow
27.621094 0 m /U glyphshow
36.404297 0 m /seven glyphshow
44.039062 0 m /space glyphshow
47.853516 0 m /hyphen glyphshow
52.183594 0 m /space glyphshow
55.998047 0 m /W glyphshow
67.113281 0 m /colon glyphshow
71.156250 0 m /C glyphshow
79.535156 0 m /P glyphshow
86.771484 0 m /U glyphshow
95.554688 0 m /two glyphshow
103.189453 0 m /three glyphshow
grestore
1.500 setlinewidth
1 setlinejoin
2 setlinecap
1.000 0.000 0.000 setrgbcolor
gsave
816.771875 476.875 m
840.771875 476.875 l
stroke
grestore
1.000 setlinewidth
2 setlinejoin
0 setlinecap
gsave
/o {
gsave
newpath
translate
1.0 setlinewidth
2 setlinejoin
0 setlinecap
0 3 m
-0.673542 0.927051 l
-2.85317 0.927051 l
-1.089814 -0.354102 l
-1.763356 -2.427051 l
-0 -1.145898 l
1.763356 -2.427051 l
1.089814 -0.354102 l
2.85317 0.927051 l
0.673542 0.927051 l
cl

gsave
1.000 0.000 0.000 setrgbcolor
fill
grestore
stroke
grestore
} bind def
828.772 476.875 o
grestore
0.000 setgray
gsave
850.371875 472.675000 translate
0.000000 rotate
0.000000 0 m /S glyphshow
7.617188 0 m /u glyphshow
15.222656 0 m /m glyphshow
26.912109 0 m /space glyphshow
30.726562 0 m /o glyphshow
38.068359 0 m /f glyphshow
42.292969 0 m /space glyphshow
46.107422 0 m /B glyphshow
53.964844 0 m /W glyphshow
65.830078 0 m /s glyphshow
grestore

end
showpage
