16776, 7.24118, 6.43931, 6.72857, 6.43375
17656, 8.45594, 7.53966, 8.34503, 7.82277
18640, 8.17096, 7.40638, 7.16923, 6.75057
19736, 8.1168, 7.22005, 7.75177, 7.31912
20968, 7.63653, 6.98992, 7.95599, 6.52193
22368, 7.79169, 7.19575, 7.50163, 7.13948
23960, 7.24195, 6.96157, 6.49939, 6.47043
25808, 7.63889, 6.92089, 7.49688, 7.10915
27960, 7.6149, 6.9371, 7.2454, 6.99962
30504, 7.25508, 6.62806, 6.78319, 6.56459
33552, 6.73228, 6.47097, 6.6171, 6.30825
37280, 6.70383, 6.21385, 6.48884, 6.16275
41936, 6.45641, 6.1889, 6.47535, 6.29363
47928, 5.88326, 5.50786, 5.7047, 5.45939
55920, 5.50895, 5.42241, 5.61671, 5.44499
67104, 5.46349, 5.34629, 5.70442, 5.52717
83880, 5.04079, 4.90785, 5.14428, 5.05873
111848, 4.81719, 4.77208, 4.83087, 4.78817
167768, 4.64638, 4.67744, 4.65628, 4.72506
176600, 4.6307, 4.58773, 4.65656, 4.60631
186408, 4.63771, 4.6352, 4.70757, 4.63197
197376, 4.65825, 4.6264, 4.62854, 4.65831
209712, 4.59212, 4.56812, 4.58299, 4.6048
223696, 4.52611, 4.53007, 4.56183, 4.55386
239672, 4.70076, 4.63544, 4.67233, 4.65175
258104, 4.51689, 4.48709, 4.4959, 4.544
279616, 4.53308, 4.51651, 4.56551, 4.51396
305040, 4.53694, 4.53996, 4.55848, 4.57896
335544, 4.55797, 4.54927, 4.58414, 4.57426
372824, 4.51512, 4.50469, 4.49794, 4.49847
419424, 4.52212, 4.52975, 4.53102, 4.53359
479344, 4.48611, 4.46564, 4.51195, 4.46805
493440, 4.47688, 4.46363, 4.46698, 4.49962
508400, 4.44887, 4.45705, 4.47544, 4.43861
524288, 4.50312, 4.47898, 4.48272, 4.50004
541200, 4.44562, 4.44314, 4.4287, 4.50429
559240, 4.46171, 4.44853, 4.49117, 4.44305
578520, 4.44807, 4.49003, 4.45629, 4.46169
599184, 4.4364, 4.44497, 4.4814, 4.42739
621376, 4.46443, 4.44643, 4.43426, 4.50299
645272, 4.557, 4.53871, 4.55763, 4.54133
671088, 4.48949, 4.4914, 4.52643, 4.48908
699048, 4.36837, 4.2507, 4.4063, 4.34447
729440, 4.48573, 4.49547, 4.48415, 4.53348
762600, 4.35199, 4.35473, 4.38254, 4.34208
798912, 4.39422, 4.37516, 4.37487, 4.41874
838856, 4.39862, 4.4151, 4.45502, 4.40854
883008, 4.60114, 4.58027, 4.57978, 4.59125
932064, 4.29223, 4.29438, 4.32777, 4.26415
986888, 4.51919, 4.50916, 4.55417, 4.50507
1.04858e+06, 4.31225, 4.31152, 4.27778, 4.3646
1.11848e+06, 4.56519, 4.53733, 4.5348, 4.57447
1.19837e+06, 4.28646, 4.33502, 4.33921, 4.31172
1.29055e+06, 4.40009, 4.38931, 4.38521, 4.4564
1.3981e+06, 4.28538, 4.2944, 4.308, 4.29438
1.5252e+06, 4.41691, 4.38673, 4.41901, 4.38849
1.67772e+06, 4.52133, 4.50038, 4.4858, 4.53133
1.86413e+06, 4.49014, 4.46497, 4.44874, 4.48074
2.09715e+06, 4.63639, 4.52504, 4.57921, 4.5683
2.39674e+06, 4.44261, 4.45458, 4.43692, 4.55547
2.7962e+06, 4.3842, 4.5786, 4.4429, 4.35607
3.35544e+06, 4.11157, 4.1215, 4.05933, 4.09289
4.1943e+06, 3.43296, 3.44189, 3.45481, 3.46289
5.5924e+06, 2.57834, 2.5801, 2.61028, 2.59677
8.38861e+06, 2.35817, 2.38454, 2.36733, 2.36667
1.67772e+07, 3.0812, 3.07893, 3.09298, 3.08607
