16776, 7.66027
17656, 8.60639
18640, 7.67394
19736, 9.44758
20968, 7.19314
22368, 7.89273
23960, 7.02845
25808, 6.41751
27960, 6.92937
30504, 6.9037
33552, 7.2773
37280, 7.14655
41936, 6.52142
47928, 7.54891
55920, 7.29788
67104, 7.25566
83880, 7.7046
111848, 7.40397
167768, 7.42599
176600, 7.48733
186408, 8.12519
197376, 7.50151
209712, 8.11045
223696, 8.24275
239672, 8.16322
258104, 8.10641
279616, 8.1946
305040, 8.24889
335544, 8.17612
372824, 8.16147
419424, 8.172
479344, 8.1916
493440, 8.21066
508400, 8.20046
524288, 8.22619
541200, 8.21494
559240, 8.2121
578520, 8.20468
599184, 8.137
621376, 8.21594
645272, 8.20503
671088, 8.17996
699048, 8.17557
729440, 8.15878
762600, 8.15528
798912, 8.14776
838856, 8.21546
883008, 8.29665
932064, 8.17618
986888, 8.2474
1.04858e+06, 8.24618
1.11848e+06, 8.2118
1.19837e+06, 8.19873
1.29055e+06, 8.25906
1.3981e+06, 8.30386
1.5252e+06, 8.29289
1.67772e+06, 8.2786
1.86413e+06, 8.26688
2.09715e+06, 8.34387
2.39674e+06, 8.1492
2.7962e+06, 8.65611
3.35544e+06, 7.9322
4.1943e+06, 8.44289
5.5924e+06, 8.01762
8.38861e+06, 8.55554
1.67772e+07, 8.3349
