16776, 8.12988, 7.8659, 7.74158, 7.83011
17656, 7.81758, 8.00635, 7.73792, 7.43019
18640, 7.23743, 7.4672, 7.42777, 7.1713
19736, 6.53726, 6.26192, 6.69755, 6.53943
20968, 6.72159, 7.0133, 6.74158, 6.80945
22368, 6.39725, 6.44147, 6.53844, 6.4424
23960, 5.75477, 6.05471, 5.77663, 5.66062
25808, 5.67739, 5.90201, 5.74245, 5.85846
27960, 5.14893, 5.40734, 5.09243, 5.04352
30504, 5.27865, 5.34923, 5.27067, 5.33823
33552, 5.03689, 5.00757, 5.06102, 5.06254
37280, 6.02189, 5.96146, 5.80414, 5.86856
41936, 5.65804, 5.69512, 5.65137, 5.62616
47928, 5.53553, 5.66944, 5.57708, 5.59923
55920, 5.22678, 5.30098, 5.18642, 5.23608
67104, 4.82485, 4.83537, 4.78707, 4.79169
83880, 4.63938, 4.66201, 4.55888, 4.59088
111848, 3.90903, 3.93498, 3.89969, 3.87403
167768, 3.72328, 3.62542, 3.6082, 3.58643
176600, 3.77391, 3.70555, 3.67999, 3.62829
186408, 3.65076, 3.60123, 3.56729, 3.57897
197376, 3.65284, 3.75775, 3.55269, 3.4802
209712, 3.5793, 3.6315, 3.56386, 3.42034
223696, 3.5411, 3.76572, 3.33368, 3.56027
239672, 3.67544, 3.90341, 3.63357, 3.63737
258104, 3.58622, 3.57866, 3.41161, 3.32365
279616, 3.65375, 3.80224, 3.52682, 3.50213
305040, 3.1875, 3.23038, 3.0149, 2.92559
335544, 3.13576, 3.17347, 2.92332, 2.90106
372824, 3.17165, 3.18508, 2.90263, 2.8903
419424, 3.62699, 3.64581, 3.34581, 3.28548
479344, 3.45106, 3.6313, 3.11225, 3.3492
493440, 3.64574, 3.91445, 3.41655, 3.53198
508400, 3.21676, 3.29778, 2.89908, 2.99961
524288, 3.30525, 3.55409, 2.9366, 3.27204
541200, 3.52148, 3.62225, 3.18609, 3.33393
559240, 3.60028, 3.68175, 3.34396, 3.33909
578520, 3.5983, 3.64034, 3.32341, 3.27752
599184, 3.62669, 3.89624, 3.38598, 3.54644
621376, 3.49942, 3.64932, 3.26338, 3.34363
645272, 3.54327, 3.73662, 3.32121, 3.42964
671088, 3.57257, 3.81814, 3.34487, 3.4937
699048, 3.58172, 3.80273, 3.33828, 3.48602
729440, 3.57633, 3.67362, 3.33379, 3.35102
762600, 3.62544, 3.82609, 3.3648, 3.46105
798912, 3.49124, 3.58595, 3.23686, 3.2858
838856, 3.50322, 3.62705, 3.17734, 3.31967
883008, 3.51275, 3.50402, 3.20965, 3.19763
932064, 3.59281, 3.74768, 3.32078, 3.40236
986888, 3.51344, 3.65135, 3.22798, 3.36403
1.04858e+06, 3.49881, 3.53119, 3.18045, 3.23984
1.11848e+06, 3.54257, 3.56018, 3.23658, 3.2385
1.19837e+06, 3.48881, 3.5649, 3.18767, 3.27098
1.29055e+06, 3.54823, 3.66775, 3.25078, 3.33861
1.3981e+06, 3.56084, 3.68146, 3.25908, 3.31732
1.5252e+06, 3.48913, 3.54981, 3.18467, 3.22676
1.67772e+06, 3.48096, 3.52238, 3.15434, 3.20176
1.86413e+06, 3.48233, 3.53698, 3.158, 3.21863
2.09715e+06, 3.4659, 3.51294, 3.14519, 3.20052
2.39674e+06, 3.46101, 3.45005, 3.13162, 3.12784
2.7962e+06, 3.12798, 3.15353, 2.94236, 2.93169
3.35544e+06, 2.63798, 2.64017, 2.6182, 2.60415
4.1943e+06, 2.23716, 2.23751, 2.19811, 2.1986
5.5924e+06, 2.27498, 2.26807, 2.10566, 2.10863
8.38861e+06, 2.44618, 2.45732, 2.16299, 2.16965
1.67772e+07, 2.35545, 2.35876, 2.1632, 2.16551
