16776, inf
17656, 10089.1
18640, 3550.48
19736, 598.061
20968, 51.0481
22368, 24.812
23960, 33.0028
25808, 25.5651
27960, 27.6285
30504, 29.6948
33552, 29.8108
37280, 20.6509
41936, 20.7758
47928, 23.5692
55920, 19.1984
67104, 20.3392
83880, 14.7592
111848, 16.5407
167768, 20.1305
176600, 22.5514
186408, 23.8618
197376, 24.761
209712, 24.6524
223696, 24.8048
239672, 24.326
258104, 24.4666
279616, 23.6013
305040, 26.3
335544, 25.8882
372824, 24.9268
419424, 24.8125
479344, 25.0939
493440, 25.171
508400, 25.1727
524288, 25.1617
541200, 26.3675
559240, 25.3187
578520, 25.1886
599184, 25.3859
621376, 25.1804
645272, 25.4651
671088, 25.5111
699048, 25.5316
729440, 25.4551
762600, 25.5522
798912, 25.6281
838856, 25.5987
883008, 25.6967
932064, 25.7718
986888, 25.7337
1.04858e+06, 25.8549
1.11848e+06, 25.9377
1.19837e+06, 26.0284
1.29055e+06, 26.0515
1.3981e+06, 26.122
1.5252e+06, 25.913
1.67772e+06, 26.2976
1.86413e+06, 26.1841
2.09715e+06, 26.2689
2.39674e+06, 26.4143
2.7962e+06, 26.4414
3.35544e+06, 26.4328
4.1943e+06, 22.8566
5.5924e+06, 15.0533
8.38861e+06, 8.89853
1.67772e+07, 8.24756
