16776, 13420.8
17656, 11770.7
18640, 1096.47
19736, 1273.29
20968, 71.9314
22368, 24.2012
23960, 31.9254
25808, 25.4454
27960, 27.5944
30504, 29.731
33552, 32.8539
37280, 19.9572
41936, 20.7964
47928, 23.7444
55920, 18.5657
67104, 28.4188
83880, 22.929
111848, 25.5696
167768, 21.8925
176600, 23.097
186408, 24.7957
197376, 25.1539
209712, 24.8503
223696, 24.8938
239672, 24.0556
258104, 24.6724
279616, 24.5827
305040, 24.8192
335544, 24.3342
372824, 24.356
419424, 25.0582
479344, 26.4225
493440, 25.1938
508400, 25.2208
524288, 25.1457
541200, 25.1947
559240, 25.2918
578520, 25.2736
599184, 25.3186
621376, 25.4845
645272, 25.6248
671088, 25.4871
699048, 25.5762
729440, 25.4853
762600, 25.6932
798912, 25.7448
838856, 25.7511
883008, 25.7111
932064, 25.8055
986888, 25.8309
1.04858e+06, 25.9563
1.11848e+06, 26.1047
1.19837e+06, 25.9641
1.29055e+06, 26.0319
1.3981e+06, 26.1653
1.5252e+06, 26.1347
1.67772e+06, 26.2106
1.86413e+06, 26.237
2.09715e+06, 26.3375
2.39674e+06, 26.3403
2.7962e+06, 26.5646
3.35544e+06, 25.6148
4.1943e+06, 23.0878
5.5924e+06, 14.9484
8.38861e+06, 8.79981
1.67772e+07, 8.22295
