16776, 10.4916
17656, 10.3645
18640, 9.48601
19736, 9.96013
20968, 9.91043
22368, 9.97569
23960, 11.5026
25808, 10.2372
27960, 10.3088
30504, 9.70306
33552, 9.55285
37280, 9.81763
41936, 9.64933
47928, 9.56504
55920, 9.66346
67104, 9.52167
83880, 9.61045
111848, 9.8762
167768, 9.85523
176600, 9.78909
186408, 9.84593
197376, 9.78271
209712, 9.77018
223696, 9.88821
239672, 9.77395
258104, 9.87835
279616, 9.85231
305040, 9.80151
335544, 9.91267
372824, 9.87679
419424, 9.91523
479344, 9.91025
493440, 9.99246
508400, 9.95701
524288, 9.97077
541200, 9.9669
559240, 9.93741
578520, 9.955
599184, 9.99119
621376, 9.95887
645272, 9.98035
671088, 9.97118
699048, 10.0266
729440, 9.99853
762600, 9.94095
798912, 10.0117
838856, 10.0429
883008, 10.0286
932064, 10.0295
986888, 10.0332
1.04858e+06, 10.0441
1.11848e+06, 10.0827
1.19837e+06, 10.0719
1.29055e+06, 10.0243
1.3981e+06, 10.0728
1.5252e+06, 10.0775
1.67772e+06, 10.0774
1.86413e+06, 10.0718
2.09715e+06, 10.0759
2.39674e+06, 10.2614
2.7962e+06, 10.2306
3.35544e+06, 10.1731
4.1943e+06, 10.1406
5.5924e+06, 10.2946
8.38861e+06, 9.62517
1.67772e+07, 8.73314
