16776, 10.5792
17656, 9.13517
18640, 10.8152
19736, 10.1523
20968, 9.95632
22368, 10.9593
23960, 11.6466
25808, 9.66682
27960, 9.96614
30504, 9.9305
33552, 9.69361
37280, 9.69508
41936, 10.1368
47928, 9.94821
55920, 9.75703
67104, 10.2735
83880, 9.95963
111848, 10.3074
167768, 10.1389
176600, 10.0934
186408, 10.1151
197376, 10.1432
209712, 10.2225
223696, 10.1004
239672, 10.1088
258104, 10.1429
279616, 10.2069
305040, 10.0721
335544, 10.2017
372824, 10.1961
419424, 10.2559
479344, 10.2467
493440, 10.2156
508400, 10.27
524288, 10.2349
541200, 10.195
559240, 10.261
578520, 10.3207
599184, 10.3075
621376, 10.2803
645272, 10.3346
671088, 10.2748
699048, 10.3208
729440, 10.3701
762600, 10.3296
798912, 10.3482
838856, 10.352
883008, 10.403
932064, 10.3643
986888, 10.4029
1.04858e+06, 10.4048
1.11848e+06, 10.3753
1.19837e+06, 10.3746
1.29055e+06, 10.3868
1.3981e+06, 10.3809
1.5252e+06, 10.3587
1.67772e+06, 10.3729
1.86413e+06, 10.4168
2.09715e+06, 10.4041
2.39674e+06, 10.3469
2.7962e+06, 10.5094
3.35544e+06, 10.5958
4.1943e+06, 10.4692
5.5924e+06, 10.5257
8.38861e+06, 9.78876
1.67772e+07, 8.75749
