16776, 8.64631
17656, 8.7699
18640, 9.25177
19736, 9.27117
20968, 9.50176
22368, 9.35019
23960, 8.80073
25808, 8.63938
27960, 9.32622
30504, 8.73477
33552, 8.4888
37280, 8.863
41936, 8.16749
47928, 8.41802
55920, 8.26272
67104, 8.02896
83880, 8.42994
111848, 8.20316
167768, 7.88884
176600, 8.00136
186408, 7.87512
197376, 7.95478
209712, 7.9106
223696, 7.94855
239672, 7.91493
258104, 7.96851
279616, 8.00183
305040, 7.87185
335544, 7.94845
372824, 7.92766
419424, 7.93068
479344, 7.94738
493440, 8.0047
508400, 8.0052
524288, 7.98659
541200, 7.85372
559240, 8.02002
578520, 8.00523
599184, 7.98853
621376, 8.03328
645272, 7.98737
671088, 7.95875
699048, 8.0178
729440, 8.02372
762600, 7.99157
798912, 8.04366
838856, 8.0033
883008, 8.03878
932064, 7.98338
986888, 8.02864
1.04858e+06, 8.01412
1.11848e+06, 8.05215
1.19837e+06, 8.05436
1.29055e+06, 7.98027
1.3981e+06, 8.00902
1.5252e+06, 8.06566
1.67772e+06, 8.01594
1.86413e+06, 8.06507
2.09715e+06, 7.95023
2.39674e+06, 8.00961
2.7962e+06, 8.26989
3.35544e+06, 8.14847
4.1943e+06, 8.38679
5.5924e+06, 8.31889
8.38861e+06, 7.92348
1.67772e+07, 7.29158
