16776, 10.8847
17656, 10.5835
18640, 9.81053
19736, 11.5941
20968, 10.3393
22368, 11.0842
23960, 11.7207
25808, 11.8494
27960, 11.524
30504, 10.1124
33552, 10.1665
37280, 10.3714
41936, 10.2942
47928, 10.797
55920, 10.6606
67104, 10.3712
83880, 10.4468
111848, 11.0593
167768, 10.8658
176600, 10.8037
186408, 11.0073
197376, 11.0552
209712, 10.9228
223696, 10.2481
239672, 10.3095
258104, 10.3344
279616, 10.3541
305040, 10.3638
335544, 10.2572
372824, 10.3273
419424, 10.4295
479344, 10.435
493440, 10.3589
508400, 10.3611
524288, 10.4563
541200, 10.3299
559240, 10.3817
578520, 10.4723
599184, 10.4634
621376, 10.5082
645272, 10.5115
671088, 10.4384
699048, 10.4825
729440, 10.4815
762600, 10.461
798912, 10.466
838856, 10.4694
883008, 10.4867
932064, 10.4639
986888, 10.4777
1.04858e+06, 10.4648
1.11848e+06, 10.5136
1.19837e+06, 10.5105
1.29055e+06, 10.4995
1.3981e+06, 10.5185
1.5252e+06, 10.4419
1.67772e+06, 10.545
1.86413e+06, 10.5439
2.09715e+06, 10.5491
2.39674e+06, 10.736
2.7962e+06, 10.6892
3.35544e+06, 10.6464
4.1943e+06, 10.62
5.5924e+06, 10.6009
8.38861e+06, 8.09103
1.67772e+07, 7.47429
