16776, 128.798
17656, 14124.8
18640, 4142.22
19736, 5262.93
20968, 3812.36
22368, 727.415
23960, 25.1351
25808, 25.6988
27960, 27.9042
30504, 30.3145
33552, 33.2692
37280, 35.615
41936, 41.4183
47928, 46.6339
55920, 54.9717
67104, 36.1114
83880, 30.7028
111848, 37.1249
167768, 33.3502
176600, 31.7669
186408, 30.9237
197376, 32.5367
209712, 29.8109
223696, 31.6839
239672, 29.8137
258104, 28.5996
279616, 29.189
305040, 28.4884
335544, 27.9637
372824, 28.5432
419424, 27.8664
479344, 28.0314
493440, 27.7908
508400, 28.081
524288, 27.5803
541200, 27.7988
559240, 27.8399
578520, 27.5817
599184, 27.9258
621376, 28.0076
645272, 27.8407
671088, 27.7829
699048, 27.9549
729440, 27.8596
762600, 27.9899
798912, 27.5347
838856, 27.7574
883008, 27.6439
932064, 27.6374
986888, 27.5646
1.04858e+06, 27.5513
1.11848e+06, 27.6188
1.19837e+06, 27.5517
1.29055e+06, 27.5892
1.3981e+06, 27.5202
1.5252e+06, 27.5164
1.67772e+06, 27.3968
1.86413e+06, 27.4918
2.09715e+06, 27.3104
2.39674e+06, 27.3734
2.7962e+06, 26.214
3.35544e+06, 26.578
4.1943e+06, 23.5844
5.5924e+06, 17.0658
8.38861e+06, 10.1936
1.67772e+07, 9.73494
