16776, 9.81053
17656, 9.08464
18640, 9.25406
19736, 9.80062
20968, 9.25025
22368, 9.42505
23960, 9.89265
25808, 9.75359
27960, 10.1194
30504, 9.73713
33552, 9.90246
37280, 9.35508
41936, 9.52874
47928, 9.50198
55920, 9.5187
67104, 9.4277
83880, 9.78792
111848, 10.4651
167768, 10.2505
176600, 10.3384
186408, 10.4291
197376, 10.2287
209712, 10.3399
223696, 9.6348
239672, 9.6937
258104, 9.66745
279616, 9.76918
305040, 9.71589
335544, 9.73537
372824, 9.64759
419424, 9.74889
479344, 9.76166
493440, 9.74225
508400, 9.75221
524288, 9.74196
541200, 9.75465
559240, 9.81372
578520, 9.76059
599184, 9.77183
621376, 9.8284
645272, 9.83279
671088, 9.80048
699048, 9.81578
729440, 9.89215
762600, 9.79504
798912, 9.82056
838856, 9.84833
883008, 9.86571
932064, 9.85618
986888, 9.87513
1.04858e+06, 9.8752
1.11848e+06, 9.8902
1.19837e+06, 9.89124
1.29055e+06, 9.88153
1.3981e+06, 9.90397
1.5252e+06, 9.8948
1.67772e+06, 9.87873
1.86413e+06, 9.89884
2.09715e+06, 9.89707
2.39674e+06, 9.88741
2.7962e+06, 10.0288
3.35544e+06, 10.0051
4.1943e+06, 9.8522
5.5924e+06, 9.97084
8.38861e+06, 9.55119
1.67772e+07, 8.56757
